Bases Higher Eigenvalues

Subspace 1 =

0.7166   -0.2122   -0.0478    0.2407   -0.5926    0.1733   -0.0005
0.1711    0.2432   -0.3259    0.7059    0.2959   -0.4684    0.0003

Subspace 2 =

0.5534    0.5105    0.0387    0.4526    0.4208    0.2230    0.0007
0.6563   -0.6247   -0.0234   -0.1772    0.2444   -0.2955   -0.0006

Subspace 3 =

-0.7561   -0.0313   -0.0435   -0.3148    0.5537   -0.1406    0.0005
0.3072   -0.7032   -0.5141    0.0811    0.3561   -0.1155    0.0000

Subspace 4 =

-0.3542   -0.6714    0.2942   -0.4195    0.3431   -0.2086   -0.0010
-0.6784    0.1300    0.0353    0.6218    0.3507    0.1097   -0.0003

Subspace 5 =

-0.6167    0.1338   -0.1278   -0.3502    0.6191   -0.2820    0.0004
0.0006   -0.8148    0.4987   -0.1593    0.2315    0.0920   -0.0000

Subspace 6 =

0.7776    0.5118   -0.2723    0.1260   -0.1948    0.0738    0.0010
-0.4269    0.3035    0.0423    0.0962   -0.8011    0.2698    0.0002

Subspace 7 =

0.6124   -0.2261    0.1422    0.3106   -0.6387    0.2219   -0.0005
0.2002   -0.6544    0.4120   -0.5551    0.2167   -0.0825   -0.0003

Subspace 8 =

-0.6781    0.2071    0.2312   -0.5563    0.2831    0.2330    0.0005
-0.1835    0.5984   -0.5796    0.4145    0.2448    0.2015    0.0001

Subspace 9 =

0.5503   -0.0242   -0.1729    0.7200   -0.3044   -0.2359   -0.0005
0.2927   -0.4666   -0.6631   -0.3897   -0.1850    0.2661    0.0002

Subspace 10 =

-0.7097    0.0429   -0.0971   -0.3368    0.5529   -0.2565    0.0005
0.5530    0.3965   -0.5574   -0.2929    0.3667   -0.0774   -0.0002

Bases Smaller Eigenvalues

Subspace 1 =

    0.4606   -0.2358    0.2553    0.0183    0.7334    0.3591    0.0022
    0.3504    0.2470    0.5667   -0.3159   -0.0224   -0.6283   -0.0002

Subspace 2 =

   -0.1857    0.1432   -0.8381   -0.0229    0.3536   -0.3422    0.0012
    0.3921    0.5185   -0.0799   -0.6427   -0.3715   -0.1410   -0.0016

Subspace 3 =

   -0.1502    0.0095   -0.5950   -0.5622   -0.5288    0.1658   -0.0003
   -0.3785   -0.6039    0.3296    0.1427   -0.5208   -0.3028    0.0000

Subspace 4 =

   -0.2366   -0.3357   -0.6658   -0.1565   -0.1697    0.5786    0.0004
    0.1558    0.2871    0.3372   -0.2993    0.4798    0.6781    0.0012


Subspace 5 =

    0.5768   -0.1307   -0.5529   -0.2036    0.4888    0.2531    0.0004
    0.1130   -0.2038   -0.1230    0.7199    0.2738   -0.5809   -0.0005


Subspace 6 =

   -0.0298    0.0840   -0.2006   -0.5974   -0.2771   -0.7199   -0.0007
    0.1908    0.1916    0.6819   -0.6035    0.0390    0.3102    0.0001


Subspace 7 =

    0.3793    0.6010    0.0355   -0.5918   -0.2328   -0.2987   -0.0009
   -0.6234   -0.1896    0.0453   -0.2075   -0.6959   -0.2144    0.0000


Subspace 8 =

    0.5267    0.5179    0.3383   -0.1851   -0.1857    0.5208    0.0006
   -0.0570    0.3814   -0.3051   -0.4185   -0.5914   -0.4830   -0.0011


Subspace 9 =

   -0.4718   -0.2683    0.0924   -0.0586   -0.7617   -0.3366   -0.0002
    0.4635    0.4357    0.0714   -0.5576   -0.1676   -0.5012   -0.0003


Subspace 10 =

    0.0620   -0.5032   -0.3169    0.6267    0.4900    0.0977    0.0001
    0.3272   -0.0226    0.7224   -0.1497    0.5530    0.2060    0.0007

Order:


1 6 4 2 9 8 3 10 5 7