-468.6587,-548.4102,-615.4599,432.0398,-239.6404,483.4326
-470.7589,-545.9829,-621.3020,438.2636,-247.0526,498.7138
-472.8584,-543.6703,-626.9349,444.3496,-253.9982,513.7577
-474.9566,-541.4744,-632.3578,450.2920,-260.4843,528.5634
-477.0529,-539.3970,-637.5703,456.0855,-266.5179,543.1299
-479.1466,-537.4403,-642.5720,461.7243,-272.1065,557.4564
-481.2371,-535.6059,-647.3626,467.2031,-277.2576,571.5423
-483.3237,-533.8954,-651.9422,472.5161,-281.9790,585.3870
-485.4058,-532.3106,-656.3107,477.6579,-286.2786,598.9898
-487.4827,-530.8529,-660.4683,482.6230,-290.1646,612.3505
-489.5544,-529.5235,-664.4155,487.4088,-293.6453,625.4687
-491.6226,-528.3239,-668.1525,492.0251,-296.7290,638.3440
-493.6900,-527.2550,-671.6802,496.4849,-299.4245,650.9765
-495.7588,-526.3180,-674.9991,500.8011,-301.7404,663.3660
-497.8316,-525.5136,-678.1103,504.9864,-303.6856,675.5126
-499.9108,-524.8428,-681.0148,509.0539,-305.2692,687.4165
-501.9988,-524.3060,-683.7137,513.0163,-306.5003,699.0779
-504.0982,-523.9040,-686.2083,516.8866,-307.3881,710.4971
-506.2112,-523.6370,-688.5002,520.6777,-307.9419,721.6747
-508.3402,-523.5055,-690.5910,524.4007,-308.1711,732.6112
-510.4864,-523.5094,-692.4823,528.0598,-308.0853,743.3071
-512.6509,-523.6489,-694.1761,531.6575,-307.6939,753.7633
-514.8348,-523.9239,-695.6744,535.1962,-307.0066,763.9807
-517.0392,-524.3341,-696.9793,538.6786,-306.0331,773.9602
-519.2652,-524.8793,-698.0931,542.1070,-304.7830,783.7028
-521.5138,-525.5588,-699.0183,545.4839,-303.2660,793.2096
-523.7861,-526.3722,-699.7574,548.8118,-301.4919,802.4821
-526.0832,-527.3188,-700.3131,552.0931,-299.4704,811.5214
-528.4057,-528.3975,-700.6882,555.3300,-297.2112,820.3291
-530.7527,-529.6076,-700.8857,558.5227,-294.7240,828.9067
-533.1228,-530.9479,-700.9085,561.6712,-292.0185,837.2558
-535.5145,-532.4170,-700.7600,564.7754,-289.1044,845.3782
-537.9265,-534.0138,-700.4433,567.8352,-285.9911,853.2757
-540.3573,-535.7367,-699.9619,570.8504,-282.6883,860.9503
-542.8055,-537.5841,-699.3193,573.8211,-279.2053,868.4039
-545.2698,-539.5544,-698.5191,576.7471,-275.5517,875.6386
-547.7487,-541.6456,-697.5651,579.6283,-271.7365,882.6567
-550.2407,-543.8559,-696.4612,582.4661,-267.7691,889.4604
-552.7435,-546.1831,-695.2112,585.2677,-263.6585,896.0521
-555.2549,-548.6251,-693.8192,588.0418,-259.4137,902.4342
-557.7723,-551.1796,-692.2893,590.7971,-255.0433,908.6093
-560.2935,-553.8442,-690.6257,593.5422,-250.5563,914.5800
-562.8160,-556.6164,-688.8328,596.2859,-245.9609,920.3488
-565.3376,-559.4936,-686.9149,599.0367,-241.2657,925.9187
-567.8558,-562.4731,-684.8764,601.8034,-236.4788,931.2924
-570.3683,-565.5521,-682.7219,604.5946,-231.6083,936.4729
-572.8724,-568.7277,-680.4559,607.4144,-226.6620,941.4630
-575.3640,-571.9969,-678.0832,610.2485,-221.6474,946.2658
-577.8391,-575.3566,-675.6084,613.0777,-216.5722,950.8843
-580.2931,-578.8037,-673.0363,615.8830,-211.4434,955.3219
-582.7220,-582.3349,-670.3717,618.6455,-206.2682,959.5815
-585.1213,-585.9469,-667.6195,621.3461,-201.0532,963.6666
-587.4868,-589.6362,-664.7845,623.9658,-195.8052,967.5803
-589.8142,-593.3995,-661.8717,626.4856,-190.5303,971.3261
-592.0993,-597.2332,-658.8861,628.8864,-185.2347,974.9072
-594.3389,-601.1336,-655.8326,631.1550,-179.9243,978.3273
-596.5346,-605.0972,-652.7163,633.3009,-174.6045,981.5897
-598.6891,-609.1201,-649.5422,635.3395,-169.2807,984.6979
-600.8052,-613.1987,-646.3153,637.2861,-163.9580,987.6554
-602.8856,-617.3290,-643.0406,639.1559,-158.6410,990.4659
-604.9331,-621.5073,-639.7233,640.9645,-153.3345,993.1329
-606.9504,-625.7296,-636.3682,642.7269,-148.0425,995.6600
-608.9403,-629.9920,-632.9806,644.4587,-142.7690,998.0508
-610.9055,-634.2905,-629.5653,646.1750,-137.5177,1000.3089
-612.8488,-638.6211,-626.1274,647.8915,-132.2920,1002.4381
-614.7725,-642.9798,-622.6718,649.6250,-127.0948,1004.4419
-616.6793,-647.3626,-619.2035,651.3923,-121.9292,1006.3240
-618.5716,-651.7653,-615.7275,653.2105,-116.7974,1008.0880
-620.4519,-656.1840,-612.2485,655.0967,-111.7018,1009.7376
-622.3226,-660.6146,-608.7714,657.0677,-106.6441,1011.2765
-624.1863,-665.0530,-605.3009,659.1407,-101.6262,1012.7082
-626.0455,-669.4951,-601.8419,661.3325,-96.6492,1014.0364
-627.9026,-673.9368,-598.3990,663.6602,-91.7142,1015.2646
-629.7598,-678.3743,-594.9767,666.1329,-86.8218,1016.3964
-631.6178,-682.8033,-591.5797,668.7274,-81.9726,1017.4354
-633.4771,-687.2199,-588.2124,671.4126,-77.1666,1018.3851
-635.3381,-691.6201,-584.8792,674.1576,-72.4037,1019.2490
-637.2013,-696.0000,-581.5845,676.9312,-67.6835,1020.0305
-639.0670,-700.3557,-578.3324,679.7025,-63.0051,1020.7330
-640.9357,-704.6832,-575.1272,682.4403,-58.3676,1021.3599
-642.8079,-708.9788,-571.9728,685.1136,-53.7697,1021.9145
-644.6839,-713.2386,-568.8733,687.6914,-49.2097,1022.4001
-646.5639,-717.4589,-565.8326,690.1435,-44.6858,1022.8199
-648.4466,-721.6360,-562.8544,692.4439,-40.1959,1023.1771
-650.3304,-725.7662,-559.9423,694.5674,-35.7376,1023.4747
-652.2136,-729.8461,-557.1001,696.4890,-31.3082,1023.7159
-654.0946,-733.8721,-554.3310,698.1834,-26.9047,1023.9036
-655.9719,-737.8408,-551.6384,699.6257,-22.5241,1024.0408
-657.8438,-741.7487,-549.0256,700.7906,-18.1629,1024.1303
-659.7087,-745.5927,-546.4957,701.6530,-13.8173,1024.1748
-661.5650,-749.3695,-544.0515,702.1879,-9.4836,1024.1771
-663.4111,-753.0759,-541.6961,702.3730,-5.1576,1024.1398
-665.2458,-756.7090,-539.4322,702.1977,-0.8349,1024.0655
-667.0680,-760.2658,-537.2622,701.6546,3.4890,1023.9566
-668.8765,-763.7434,-535.1888,700.7359,7.8190,1023.8155
-670.6703,-767.1390,-533.2142,699.4341,12.1599,1023.6445
-672.4481,-770.4500,-531.3406,697.7415,16.5169,1023.4459
-674.2088,-773.6737,-529.5702,695.6505,20.8955,1023.2217
-675.9513,-776.8078,-527.9049,693.1536,25.3012,1022.9741
-677.6744,-779.8498,-526.3464,690.2431,29.7396,1022.7049
-679.3777,-782.7975,-524.8964,686.9130,34.2167,1022.4160
-681.0634,-785.6486,-523.5565,683.1643,38.7384,1022.1091
-682.7343,-788.4012,-522.3280,678.9995,43.3111,1021.7860
-684.3933,-791.0532,-521.2122,674.4210,47.9409,1021.4481
-686.0433,-793.6030,-520.2102,669.4314,52.6344,1021.0970
-687.6872,-796.0486,-519.3229,664.0333,57.3981,1020.7340
-689.3279,-798.3886,-518.5511,658.2292,62.2387,1020.3604
-690.9681,-800.6213,-517.8956,652.0216,67.1630,1019.9773
-692.6109,-802.7456,-517.3568,645.4130,72.1780,1019.5858
-694.2584,-804.7600,-516.9352,638.4105,77.2905,1019.1868
-695.9107,-806.6634,-516.6310,631.0392,82.5076,1018.7813
-697.5672,-808.4548,-516.4444,623.3285,87.8366,1018.3700
-699.2273,-810.1333,-516.3752,615.3081,93.2845,1017.9535
-700.8904,-811.6981,-516.4235,607.0075,98.8586,1017.5323
-702.5558,-813.1485,-516.5888,598.4563,104.5663,1017.1070
-704.2231,-814.4840,-516.8707,589.6840,110.4148,1016.6778
-705.8915,-815.7041,-517.2687,580.7203,116.4115,1016.2451
-707.5606,-816.8084,-517.7822,571.5946,122.5639,1015.8088
-709.2297,-817.7969,-518.4102,562.3316,128.8792,1015.3692
-710.8988,-818.6694,-519.1518,552.9362,135.3649,1014.9261
-712.5680,-819.4258,-520.0060,543.4084,142.0284,1014.4793
-714.2371,-820.0665,-520.9715,533.7483,148.8770,1014.0286
-715.9062,-820.5915,-522.0470,523.9558,155.9182,1013.5737
-717.5754,-821.0013,-523.2312,514.0309,163.1592,1013.1140
-674.2586,-85.9646,-15.7041,-460.1096,-94.1598,122.1092
-720.9136,-821.4771,-525.9189,493.7841,178.2699,1012.1782
-681.7107,-121.1540,-36.9642,-491.4668,-78.5605,153.5580
-685.3497,-138.5388,-47.5968,-506.3241,-70.7355,169.2819
-688.9327,-155.7869,-58.2447,-520.6258,-62.8957,185.0025
-692.4617,-172.9016,-68.9233,-534.3666,-55.0427,200.7166
-695.9390,-189.8867,-79.6478,-547.5416,-47.1782,216.4210
-699.3667,-206.7455,-90.4337,-560.1465,-39.3039,232.1123
-702.7470,-223.4817,-101.2962,-572.1776,-31.4215,247.7873
-706.0821,-240.0988,-112.2506,-583.6317,-23.5327,263.4428
-709.3740,-256.6003,-123.3123,-594.5061,-15.6392,279.0756
-712.6250,-272.9897,-134.4966,-604.7988,-7.7429,294.6822
-715.8312,-289.2700,-145.8165,-614.5082,0.1545,310.2499
-718.9648,-305.4422,-157.2757,-623.6335,8.0511,325.7265
-721.9921,-321.5064,-168.8754,-632.1741,15.9453,341.0505
-724.8792,-337.4631,-180.6172,-640.1304,23.8350,356.1600
-727.5924,-353.3125,-192.5021,-647.5031,31.7185,370.9934
-730.0978,-369.0550,-204.5317,-654.2934,39.5939,385.4890
-732.3617,-384.6909,-216.7073,-660.5033,47.4594,399.5851
-734.3502,-400.2205,-229.0301,-666.1352,55.3130,413.2200
-736.0297,-415.6441,-241.5016,-671.1920,63.1529,426.3319
-737.3698,-430.9613,-254.1182,-675.6774,70.9771,438.8672
-738.3550,-446.1683,-266.8569,-679.5953,78.7837,450.8039
-738.9732,-461.2606,-279.6900,-682.9505,86.5709,462.1281
-739.2123,-476.2337,-292.5897,-685.7482,94.3366,472.8257
-739.0604,-491.0830,-305.5281,-687.9940,102.0790,482.8829
-738.5053,-505.8041,-318.4775,-689.6941,109.7961,492.2857
-737.5351,-520.3924,-331.4101,-690.8553,117.4860,501.0202
-736.1376,-534.8434,-344.2981,-691.4849,125.1468,509.0722
-734.3009,-549.1525,-357.1136,-691.5907,132.7766,516.4280
-732.0201,-563.3156,-369.8312,-691.1808,140.3733,523.0811
-729.3189,-577.3296,-382.4344,-690.2640,147.9351,529.0552
-726.2283,-591.1919,-394.9093,-688.8495,155.4601,534.3815
-722.7792,-604.8995,-407.2417,-686.9470,162.9464,539.0912
-719.0026,-618.4499,-419.4175,-684.5666,170.3921,543.2156
-714.9294,-631.8404,-431.4227,-681.7188,177.7952,546.7858
-710.5906,-645.0681,-443.2431,-678.4146,185.1539,549.8331
-706.0172,-658.1303,-454.8646,-674.6654,192.4663,552.3888
-701.2399,-671.0244,-466.2733,-670.4829,199.7306,554.4840
-696.2933,-683.7483,-477.4519,-665.8793,206.9449,556.1464
-691.2254,-696.3026,-488.3711,-660.8671,214.1074,557.3892
-686.0875,-708.6886,-498.9985,-655.4593,221.2164,558.2220
-680.9311,-720.9078,-509.3017,-649.6690,228.2699,558.6544
-675.8078,-732.9613,-519.2483,-643.5097,235.2663,558.6960
-670.7688,-744.8506,-528.8059,-636.9953,242.2038,558.3564
-665.8656,-756.5770,-537.9421,-630.1400,249.0808,557.6453
-661.1497,-768.1418,-546.6245,-622.9581,255.8954,556.5722
-656.6726,-779.5464,-554.8208,-615.4643,262.6461,555.1468
-652.4798,-790.7923,-562.5013,-607.6735,269.3311,553.3800
-648.5938,-801.8826,-569.6480,-599.6008,275.9490,551.2880
-645.0314,-812.8205,-576.2457,-591.2615,282.4980,548.8881
-641.8093,-823.6093,-582.2791,-582.6712,288.9767,546.1980
-638.9440,-834.2524,-587.7331,-573.8454,295.3836,543.2350
-636.4524,-844.7528,-592.5922,-564.8002,301.7171,540.0167
-634.3510,-855.1141,-596.8415,-555.5513,307.9758,536.5606
-632.6567,-865.3393,-600.4655,-546.1148,314.1584,532.8840
-631.3860,-875.4319,-603.4491,-536.5069,320.2633,529.0046
-630.5489,-885.3948,-605.7825,-526.7438,326.2893,524.9393
-630.1273,-895.2302,-607.4777,-516.8419,332.2352,520.7042
-630.0967,-904.9399,-608.5521,-506.8173,338.0996,516.3145
-630.4321,-914.5258,-609.0230,-496.6865,343.8813,511.7860
-631.1090,-923.9899,-608.9080,-486.4658,349.5792,507.1340
-632.1024,-933.3339,-608.2245,-476.1714,355.1921,502.3740
-633.3878,-942.5598,-606.9898,-465.8197,360.7190,497.5216
-634.9403,-951.6694,-605.2214,-455.4269,366.1588,492.5922
-636.7351,-960.6646,-602.9367,-445.0091,371.5105,487.6014
-638.7519,-969.5468,-600.1560,-434.5823,376.7733,482.5639
-640.9872,-978.3154,-596.9110,-424.1625,381.9461,477.4921
-643.4421,-986.9694,-593.2365,-413.7655,387.0282,472.3975
-646.1175,-995.5077,-589.1670,-403.4070,392.0189,467.2916
-649.0143,-1003.9292,-584.7373,-393.1023,396.9172,462.1861
-652.1335,-1012.2328,-579.9819,-382.8669,401.7226,457.0925
-655.4761,-1020.4174,-574.9355,-372.7158,406.4345,452.0223
-659.0429,-1028.4821,-569.6327,-362.6639,411.0521,446.9873
-662.8351,-1036.4257,-564.1082,-352.7260,415.5751,441.9989
-666.8484,-1044.2469,-558.3974,-342.9163,420.0030,437.0688
-671.0587,-1051.9431,-552.5384,-333.2491,424.3352,432.2093
-675.4369,-1059.5118,-546.5700,-323.7382,428.5715,427.4326
-679.9538,-1066.9502,-540.5311,-314.3972,432.7116,422.7512
-684.5802,-1074.2555,-534.4605,-305.2394,436.7552,418.1774
-689.2870,-1081.4250,-528.3972,-296.2777,440.7021,413.7234
-694.0448,-1088.4560,-522.3799,-287.5248,444.5521,409.4016
-698.8247,-1095.3458,-516.4475,-278.9929,448.3052,405.2244
-703.5974,-1102.0916,-510.6389,-270.6940,451.9614,401.2041
-708.3350,-1108.6912,-504.9892,-262.6395,455.5207,397.3522
-713.0148,-1115.1441,-499.5186,-254.8408,458.9832,393.6771
-717.6153,-1121.4503,-494.2434,-247.3084,462.3490,390.1860
-722.1150,-1127.6099,-489.1801,-240.0529,465.6183,386.8866
-726.4926,-1133.6227,-484.3452,-233.0841,468.7915,383.7863
-730.7265,-1139.4889,-479.7551,-226.4116,471.8687,380.8926
-734.7953,-1145.2085,-475.4261,-220.0445,474.8505,378.2130
-738.6775,-1150.7814,-471.3749,-213.9915,477.7371,375.7548
-742.3516,-1156.2076,-467.6177,-208.2608,480.5292,373.5257
-745.7972,-1161.4870,-464.1689,-202.8602,483.2272,371.5317
-748.9974,-1166.6185,-461.0345,-197.7970,485.8318,369.7740
-751.9362,-1171.6011,-458.2186,-193.0781,488.3436,368.2524
-754.5977,-1176.4335,-455.7250,-188.7098,490.7634,366.9667
-756.9659,-1181.1146,-453.5576,-184.6980,493.0918,365.9168
-759.0249,-1185.6432,-451.7204,-181.0483,495.3298,365.1024
-760.7588,-1190.0182,-450.2173,-177.7655,497.4781,364.5235
-762.1515,-1194.2383,-449.0523,-174.8541,499.5378,364.1797
-763.1873,-1198.3025,-448.2293,-172.3182,501.5098,364.0710
-763.8553,-1202.2096,-447.7486,-170.1612,503.3951,364.1944
-764.1661,-1205.9589,-447.5958,-168.3861,505.1948,364.5363
-764.1355,-1209.5501,-447.7529,-166.9956,506.9100,365.0801
-763.7791,-1212.9825,-448.2020,-165.9916,508.5420,365.8095
-763.1127,-1216.2556,-448.9249,-165.3757,510.0919,366.7079
-762.1522,-1219.3688,-449.9038,-165.1491,511.5610,367.7590
-760.9132,-1222.3216,-451.1206,-165.3123,512.9507,368.9463
-759.4114,-1225.1136,-452.5572,-165.8654,514.2624,370.2534
-757.6628,-1227.7440,-454.1957,-166.8082,515.4973,371.6638
-755.6835,-1230.2126,-456.0166,-168.1397,516.6571,373.1629
-753.4926,-1232.5198,-457.9942,-169.8589,517.7431,374.7437
-751.1094,-1234.6660,-460.1014,-171.9638,518.7569,376.4007
-748.5537,-1236.6518,-462.3109,-174.4523,519.7002,378.1286
-745.8447,-1238.4776,-464.5957,-177.3218,520.5745,379.9222
-743.0022,-1240.1441,-466.9285,-180.5692,521.3815,381.7762
-740.0455,-1241.6518,-469.2823,-184.1911,522.1228,383.6852
-736.9942,-1243.0012,-471.6298,-188.1833,522.8002,385.6440
-733.8678,-1244.1927,-473.9439,-192.5418,523.4155,387.6472
-730.6826,-1245.2272,-476.2031,-197.2615,523.9705,389.6897
-727.4414,-1246.1064,-478.4085,-202.3374,524.4669,391.7670
-724.1441,-1246.8320,-480.5667,-207.7640,524.9066,393.8747
-720.7904,-1247.4061,-482.6846,-213.5353,525.2915,396.0085
-717.3799,-1247.8303,-484.7689,-219.6450,525.6236,398.1640
-713.9123,-1248.1068,-486.8262,-226.0864,525.9047,400.3370
-710.3874,-1248.2373,-488.8633,-232.8525,526.1368,402.5230
-706.8048,-1248.2236,-490.8869,-239.9359,526.3218,404.7176
-703.1643,-1248.0678,-492.9039,-247.3291,526.4619,406.9167
-699.4657,-1247.7714,-494.9197,-255.0239,526.5589,409.1164
-695.7087,-1247.3346,-496.9355,-263.0121,526.6150,411.3162
-691.8936,-1246.7575,-498.9513,-271.2851,526.6321,413.5159
-688.0202,-1246.0401,-500.9671,-279.8340,526.6124,415.7156
-684.0886,-1245.1823,-502.9829,-288.6496,526.5579,417.9154
-680.0988,-1244.1842,-504.9988,-297.7227,526.4708,420.1151
-676.0507,-1243.0458,-507.0146,-307.0436,526.3530,422.3149
263.4936,151.2962,64.8110,-396.4958,-45.0893,323.7104
255.1948,143.4494,79.1741,-402.9389,-54.1026,319.1659
245.9150,135.5631,93.6043,-409.8756,-62.4662,314.4821
235.6540,127.6028,108.0948,-417.2937,-70.1759,309.6825
224.4138,119.5270,122.6375,-425.1791,-77.2264,304.7952
212.1986,111.2940,137.2241,-433.5158,-83.6129,299.8482
199.0153,102.8624,151.8463,-442.2859,-89.3300,294.8695
184.8729,94.1907,166.4959,-451.4695,-94.3727,289.8873
169.7830,85.2372,181.1648,-461.0448,-98.7359,284.9297
153.7595,75.9604,195.8446,-470.9886,-102.4145,280.0246
136.8186,66.3189,210.5272,-481.2757,-105.4033,275.2003
118.9791,56.2863,225.2123,-491.8794,-107.6939,270.4749
100.2619,45.8977,239.9324,-502.7715,-109.2641,265.8271
80.6902,35.2036,254.7279,-513.9225,-110.0883,261.2259
60.2898,24.2541,269.6391,-525.3013,-110.1410,256.6403
39.0883,13.0998,284.7064,-536.8759,-109.3967,252.0391
17.1155,1.7909,299.9702,-548.6132,-107.8297,247.3913
-5.5964,-9.6222,315.4710,-560.4791,-105.4147,242.6657
-29.0136,-21.0891,331.2492,-572.4387,-102.1258,237.8313
-53.1002,-32.5595,347.3451,-584.4566,-97.9378,232.8571
-77.8184,-43.9655,363.7742,-596.4966,-92.8283,227.7201
-103.1289,-55.1700,380.4517,-608.5224,-86.7886,222.4302
-128.9907,-66.0180,397.2676,-620.4974,-79.8134,217.0056
-155.3611,-76.3548,414.1124,-632.3850,-71.8974,211.4642
-182.1963,-86.0256,430.8761,-644.1484,-63.0351,205.8243
-209.4511,-94.8757,447.4489,-655.7514,-53.2213,200.1039
-237.0791,-102.7502,463.7211,-667.1581,-42.4506,194.3210
-265.0330,-109.4945,479.5828,-678.3330,-30.7177,188.4939
-293.2646,-114.9536,494.9243,-689.2415,-18.0171,182.6405
-321.7249,-119.0195,509.6391,-699.8497,-4.3593,176.7714
-350.3643,-121.7695,523.6347,-710.1248,10.1829,170.8668
-379.1330,-123.3277,536.8219,-720.0349,25.5207,164.8994
-407.9806,-123.8182,549.1115,-729.5497,41.5657,158.8417
-436.8566,-123.3650,560.4145,-738.6399,58.2290,152.6664
-465.7106,-122.0922,570.6417,-747.2781,75.4222,146.3461
-494.4922,-120.1237,579.7039,-755.4383,93.0566,139.8534
-523.1513,-117.5836,587.5120,-763.0961,111.0436,133.1610
-551.6384,-114.5959,593.9768,-770.2292,129.2946,126.2416
-579.9042,-111.2721,599.0408,-776.8171,147.7411,119.0696
-607.9005,-107.6731,602.7726,-782.8412,166.3965,111.6275
-635.5796,-103.8472,605.2727,-788.2850,185.2941,103.8998
-662.8950,-99.8428,606.6413,-793.1342,204.4673,95.8708
-689.8012,-95.7081,606.9787,-797.3766,223.9495,87.5251
-716.2540,-91.4915,606.3853,-801.0022,243.7743,78.8469
-742.2104,-87.2414,604.9614,-804.0032,263.9750,69.8207
-767.6289,-83.0061,602.8072,-806.3741,284.5851,60.4309
-792.4696,-78.8338,600.0230,-808.1118,305.6381,50.6620
-816.6943,-74.7622,596.7011,-809.2151,327.1649,40.5055
-840.2665,-70.7861,592.9009,-809.6853,349.1872,29.9822
-863.1515,-66.8894,588.6734,-809.5258,371.7240,19.1198
-885.3167,-63.0562,584.0701,-808.7423,394.7947,7.9462
-906.7311,-59.2704,579.1420,-807.3425,418.4183,-3.5106
-927.3663,-55.5160,573.9405,-805.3363,442.6141,-15.2228
-947.1957,-51.7772,568.5167,-802.7355,467.4011,-27.1625
-966.1948,-48.0379,562.9219,-799.5538,492.7987,-39.3019
-984.3415,-44.2820,557.2073,-795.8069,518.8259,-51.6131
-1001.6159,-40.4963,551.4156,-791.5122,545.4988,-64.0728
-1018.0004,-36.6782,545.5553,-786.6888,572.8205,-76.6765
-1033.4796,-32.8275,539.6265,-781.3574,600.7910,-89.4241
-1048.0403,-28.9444,533.6291,-775.5400,629.4104,-102.3156
-1061.6720,-25.0287,527.5631,-769.2603,658.6786,-115.3510
-1074.3660,-21.0806,521.4285,-762.5429,688.5957,-128.5303
-997.9317,-455.6770,1120.8497,-453.0075,857.9540,-623.3093
-991.1344,-452.8339,1107.8799,-442.6304,851.6903,-622.1008
-984.8559,-449.8949,1094.6758,-432.2532,845.2792,-620.8376
-979.0960,-446.8556,1081.2421,-421.8796,838.7213,-619.5154
-973.8537,-443.6935,1067.6007,-411.5275,832.0204,-618.1121
-969.1272,-440.3816,1053.7782,-401.2182,825.1809,-616.6009
-964.9140,-436.8929,1039.8012,-390.9732,818.2071,-614.9554
-961.2107,-433.2004,1025.6961,-380.8140,811.1034,-613.1490
-958.0130,-429.2773,1011.4895,-370.7620,803.8742,-611.1550
-955.3161,-425.0965,997.2079,-360.8387,796.5239,-608.9468
-953.1143,-420.6310,982.8779,-351.0654,789.0569,-606.4980
-951.4014,-415.8539,968.5260,-341.4636,781.4776,-603.7818
-950.1708,-410.7531,954.1934,-332.0476,773.7980,-600.7841
-949.4151,-405.3755,939.9805,-322.8027,766.0605,-597.5400
-949.1268,-399.7830,926.0024,-313.7072,758.3153,-594.0971
-949.2982,-394.0376,912.3740,-304.7391,750.6125,-590.5031
-949.9212,-388.2011,899.2105,-295.8769,743.0022,-586.8053
-950.9878,-382.3353,886.6268,-287.0985,735.5344,-583.0514
-952.4900,-376.5021,874.7382,-278.3822,728.2593,-579.2889
-954.4200,-370.7635,863.6596,-269.7063,721.2271,-575.5655
-956.7702,-365.1812,853.5060,-261.0488,714.4877,-571.9285
-959.5334,-359.8045,844.3585,-252.3917,708.0793,-568.4163
-962.7029,-354.6325,836.1615,-243.7317,701.9922,-565.0294
-966.2726,-349.6515,828.8256,-235.0691,696.2046,-561.7589
-970.2366,-344.8480,822.2611,-226.4043,690.6948,-558.5960
-974.5903,-340.2082,816.3786,-217.7376,685.4411,-555.5318
-979.3293,-335.7188,811.0885,-209.0695,680.4218,-552.5576
-984.4503,-331.3660,806.3011,-200.4003,675.6150,-549.6645
-989.9506,-327.1362,801.9271,-191.7303,670.9992,-546.8437
-995.8285,-323.0159,797.8767,-183.0600,666.5525,-544.0863
-1002.0831,-318.9937,794.0754,-174.3896,662.2568,-541.3849
-1008.7141,-315.0673,790.5083,-165.7192,658.1086,-538.7381
-1015.7223,-311.2368,787.1753,-157.0488,654.1078,-536.1460
-1023.1092,-307.5022,784.0765,-148.3784,650.2545,-533.6084
-1030.8768,-303.8634,781.2119,-139.7080,646.5486,-531.1254
-1039.0281,-300.3205,778.5814,-131.0376,642.9901,-528.6970
-1047.5664,-296.8734,776.1851,-122.3672,639.5790,-526.3231
-1056.4959,-293.5221,774.0229,-113.6968,636.3154,-524.0039
