-20.554228, -142.416302
-83.520673, -94.472811
-79.075761, -99.274252
-85.887486, -51.163453
38.802122, -11.749157
4.797608, -24.993878
-6.395945, -33.578744
18.222958, -12.689923
18.294054, 26.784038
18.727178, -62.140096
34.739235, -35.000488
38.136948, 13.052112
32.195246, 42.506757
67.533189, 23.271861
60.647466, -13.112188
33.055105, -18.613571
2.606431, -67.345278
19.690199, -57.171707
-6.378829, -97.403387
-38.535985, -28.686827
-42.383941, 15.223228
-12.104454, 38.902804
-18.440467, 21.645526
-8.724294, 54.215605
-4.894731, 50.669081
79.800161, 34.389337
57.803799, 59.632311
93.512742, 63.675810
89.301743, 60.033672
85.235457, 74.476154
-37.449696, 33.984396
-52.266107, 41.626677
-37.820292, -5.301284
-62.360827, 21.402676
-42.518761, 77.964757
-28.856440, 37.109171
-57.620491, 11.637962
-39.824386, 9.284846
-52.018345, 0.688345
-72.150653, 11.063266
-71.322416, 27.088704
-135.172584, 37.286545
-111.127840, 14.553927
49.063369, 78.641234
75.751877, 113.486649
89.808566, 107.109498
73.514218, 44.237123
96.521691, 17.744184
79.991786, 35.932899
96.071852, 21.454865
50.503986, -36.054646
51.608925, 5.746436
50.184836, -47.460750
18.731481, -6.232562
9.024509, 14.625977
2.179983, 50.657045
28.857584, 43.943863
19.820910, 20.951819
-20.982733, 3.812684
14.507663, -17.444381
-18.280859, -8.274959
-66.944378, 10.340367
-58.380066, -1.222740
-32.247906, 26.986095
-20.986002, 12.713874
-20.776868, 7.072241
-58.691634, -14.050787
-34.892773, -8.104056
-28.484458, -52.280003
-44.304611, -26.114704
-16.832598, -34.129932
10.769635, -11.640631
4.215041, 0.358656
24.186432, -3.705814
46.759720, 18.507869
42.677402, -19.634618
49.048340, -21.761692
13.811130, 13.564562
7.534879, 16.326190
23.466189, -51.807780
-12.085292, -32.372314
-67.418872, -48.369168
-86.690184, -60.292116
-76.928408, -70.562844
-26.774509, 8.685364
5.845954, -14.795420
-28.120313, -7.545002
-35.768524, -22.921590
-37.091593, -19.236819
-38.589866, -9.293717
0.601858, 13.186995
1.667998, 9.367218
-5.019210, 10.492403
-40.100785, -4.577120
-38.387522, 31.003636
-41.464021, 5.777299
-50.447832, 1.290237
-56.409324, 42.197772
-55.663187, 34.743700
-30.955178, 52.738632
-41.372887, 36.692091
-39.695679, 47.487541
-58.065075, 53.360722
-69.156297, 28.351294
-21.953440, 31.909806
-49.710364, 2.816780
-9.317025, 11.267664
-10.522984, 1.813350
4.546475, -1.038393
94.972986, -14.962455
126.290133, -19.296699
127.456250, -18.463045
139.292586, -35.418373
212.081550, -44.403197
141.373373, -20.077793
137.872250, -15.043127
118.727390, -3.200542
37.628357, -26.896962
28.067605, -29.639410
41.400585, -28.434304
-56.997129, -21.587842
-17.550958, -34.280812
-35.415639, -16.042461
-42.311498, -16.911141
-58.705073, -20.279994
-35.266906, 18.985244
32.936114, -20.245946
33.552046, -24.754284
29.190961, -31.396367
52.754380, -16.736606
51.801941, -40.375007
55.898321, 0.223157
49.499023, -1.974853
70.404189, 21.568894
61.264251, 15.111671
49.876528, 39.199330
3.035076, 22.786189
-5.273194, -24.359027
-33.937017, -2.300348
-48.214532, -34.146549
-50.624953, -2.480490
-53.817430, -4.362700
-30.464335, 28.633724
-50.557059, 40.348090
-33.789174, 14.205298
-69.175795, 21.477668
-33.122144, 36.998515
-14.562384, 48.679168
-39.877777, 8.989664
-44.939807, 32.347973
-33.892469, 67.465745
-141.816078, -8.054361
-95.162308, 19.235679
-76.555819, 17.558844
-134.637593, 27.660868
-140.074398, 42.541407
-73.596601, 80.497358
-109.484355, 81.584886
-111.748319, 81.394542
-95.374873, 59.221868
-106.800655, 36.068685
-140.990728, 16.513655
-156.889638, 52.958943
-147.303602, 61.898403
-133.001346, 50.029156
-127.965941, 51.354703
-129.830844, 39.631497
-125.015332, 58.230068
-149.638567, 60.305981
-189.771074, 52.139961
-182.115359, 27.536214
-190.897451, 11.724964
-190.518193, -7.016188
-178.637594, -1.822629
-153.337945, 12.795714
-85.663515, 39.915715
-64.426492, 51.024503
-69.779319, 54.873358
-2.559576, 92.168861
-64.683379, 60.807675
-49.478736, 69.995870
8.548589, 85.168574
25.130216, 71.912890
-0.092532, 64.567763
-7.383220, 53.495818
-16.130517, 43.040321
5.579273, 56.460096
-11.553057, 70.785644
-5.993422, 75.787698
23.465167, 42.793238
29.858181, 42.629848
8.301363, 32.597255
-16.619176, 23.583997
-77.893143, 39.981513
-79.258316, 65.140015
-88.103050, 31.196249
-130.311913, 43.409975
-66.030681, 40.382008
-67.160046, 35.116645
-23.756778, 96.202789
-77.643020, 54.462259
-79.841746, 46.999238
-17.401672, 27.771749
-11.716793, 57.803498
-11.113329, 60.730745
27.164227, 77.754381
63.502037, 103.865164
74.419948, 58.561384
88.959816, 19.583906
76.985637, 69.218674
77.165413, 50.261665
83.231686, 39.804049
85.624864, 59.583786
33.576380, 48.625004
1.846131, 38.731763
47.537983, 39.307620
49.862901, 23.563116
56.944030, 25.740272
51.826040, 14.765570
44.455945, 12.545570
55.914480, 60.940210
39.570243, 59.366019
-12.983601, 26.060843
3.283840, 27.571767
10.107425, 20.625074
-10.089146, 19.246718
63.844302, -0.945397
30.163250, 23.370542
22.933877, 16.817621
32.142342, 26.401670
12.386711, 17.703853
-11.296678, 14.638114
-12.438833, 43.255127
3.910896, -11.285461
3.877855, 22.739506
64.323539, 28.297582
31.479445, 23.189343
36.596339, 8.446193
-1.791301, 7.466212
8.547296, -5.397099
20.888375, -16.901669
72.132568, -19.250853
60.005706, 0.003606
144.864422, -21.133270
87.902288, -23.958891
39.709267, -58.648304
13.571120, -49.979526
9.551259, -9.781402
5.927152, -27.472285
1.553862, -34.133595
14.296347, -28.965347
6.788019, 2.105196
10.112590, 8.252898
35.042241, 6.007489
93.327571, -13.307408
87.888018, -15.949492
124.308978, -55.062447
139.712278, -24.404515
187.559197, -1.361173
149.777144, 9.785316
134.759760, -7.976901
121.409812, -19.690271
118.628780, -24.612332
100.176424, 26.259987
139.372772, -39.108240
187.730248, -25.798215
215.806478, -38.727798
178.802948, -22.803304
167.089349, -27.449415
131.569534, 6.004684
125.046359, -15.764627
190.307674, -18.174372
190.472848, -7.227338
181.625060, -25.390250
203.236766, -17.125957
233.760929, -21.633018
250.838123, -17.898937
219.508466, 6.482487
223.355084, -9.542139
169.856909, -20.538267
154.030782, -8.368893
156.264515, 18.765734
163.265024, 21.385267
158.898350, 37.743136
107.020394, 7.849827
73.590353, 25.240684
114.467598, -9.083062
189.792921, -26.416800
194.300346, -41.279135
210.124727, -38.889940
231.942038, 2.797380
285.765281, 9.237263
257.749655, -20.092160
195.460801, -2.729438
215.547590, 15.235239
223.285895, 18.171955
248.705229, 24.473131
239.898363, 4.453109
237.669307, 8.147991
233.302030, 28.535127
245.722060, 13.759555
175.300399, 8.520655
170.640580, 39.200976
125.846520, 94.679066
124.043014, 69.696665
101.687824, 56.384103
126.418023, 61.803897
90.174035, 91.082799
53.214213, 49.907904
88.500886, 68.094128
107.246575, 30.157943
111.225974, 24.125615
107.651194, 38.653477
111.052212, 37.937816
103.237683, 34.558723
112.667078, 14.986340
142.683526, -7.731487
147.201580, -14.203976
176.265639, -17.719537
146.872935, 10.147318
163.446226, 6.224839
218.079008, 20.066877
214.657777, 20.522670
169.039020, 31.330726
206.686443, 16.617104
192.139497, 26.594566
160.136754, 25.130134
143.121080, 53.000340
108.887930, 40.678639
80.507368, -49.660903
85.783597, -44.699545
75.529615, 3.871869
68.410821, 16.770340
33.115632, -4.488094
52.591102, -14.038563
53.923372, 1.675867
125.715925, 3.199945
87.617216, -1.873453
95.743073, -17.217058
79.769658, -1.661016
74.002846, -13.304424
57.137498, -16.201757
32.020462, -25.789921
15.249417, -7.334492
2.078619, -46.185962
-17.061863, -91.058126
-11.048703, -84.173962
-29.039977, -99.910932
-4.642961, -77.758139
2.213584, -82.989056
-13.335562, -84.885005
61.451149, -140.476880
56.526360, -130.030098
13.787054, -141.524516
-3.636078, -133.701013
-23.089093, -93.605027
-33.540591, -136.821219
-53.518737, -139.915164
-35.794245, -131.465671
-49.292714, -116.188707
---------
0.231484, -0.060912
-0.407214, -0.352596
0.355250, -0.111166
-0.609603, -0.520475
0.289778, -0.378701
0.445872, -0.667307
0.000219, -0.000556
