-325.256598, 196.477668
-294.512524, 138.592059
-295.818572, 128.929542
-239.551034, 130.418017
-250.932559, 188.066202
-244.022825, 176.432156
-290.236100, 134.051371
-308.303453, 106.207100
-317.997698, 54.210389
-397.125954, 48.051670
-362.454126, 63.375668
-315.851191, 60.325923
-306.360371, 26.116422
-312.295909, 83.590417
-328.067903, 102.513190
-282.549561, 150.589436
-331.706426, 127.751357
-343.027346, 122.018812
-335.662467, 182.060531
-286.553831, 137.464390
-262.665566, 122.691250
-271.445943, 111.119864
-297.495315, 87.976067
-262.718403, 107.426626
-306.555022, 93.274251
-336.365283, 126.992913
-328.209769, 100.431671
-345.165134, 110.089934
-349.112905, 106.144579
-351.161470, 88.369882
-300.096646, 126.770561
-268.083296, 116.892672
-295.116414, 133.739897
-263.970437, 111.788643
-185.802276, 124.769086
-220.744055, 154.495924
-230.453189, 160.224183
-227.794752, 178.244357
-222.885324, 162.890059
-274.103300, 71.480227
-267.672882, 59.784482
-190.639296, 87.252260
-213.203656, 35.561171
-189.129094, 65.465673
-181.144702, 51.038610
-168.477973, 53.595169
-178.226391, 87.956701
-182.757918, 137.148812
-153.410031, 126.900594
-118.260091, 189.060893
-119.141927, 223.607476
-111.060877, 189.939250
-157.587666, 195.238193
-137.412720, 152.728818
-123.152898, 128.153724
-125.026390, 96.032682
-135.059331, 117.611976
-161.822146, 105.165439
-181.683576, 58.067987
-205.484751, 109.500265
-187.121845, 80.933376
-158.857644, 54.069573
-161.584579, 69.337474
-172.736598, 67.433724
-215.481213, 54.961431
-168.294706, 104.508613
-181.280633, 96.711311
-193.275056, 83.208714
-221.009353, 115.488984
-218.949064, 75.038398
-234.742033, 88.424766
-207.400976, 103.495920
-138.853085, 161.551681
-158.819461, 154.505315
-133.621021, 162.893277
-144.208207, 192.955841
-144.225857, 201.112552
-97.301370, 173.815066
-103.022364, 163.380523
-155.179890, 188.172675
-115.371454, 181.211025
-84.241544, 196.831516
-42.074620, 241.841098
-39.626597, 246.080185
-4.774991, 217.654251
-50.410184, 223.522400
3.945783, 232.339590
-10.692516, 254.587150
-16.563871, 256.044556
-7.899162, 258.897897
17.982306, 277.964445
40.062329, 311.758513
56.148959, 310.279064
133.275980, 357.812594
149.864964, 336.679803
151.601422, 415.771143
156.049669, 407.955427
187.882544, 387.164329
173.674179, 373.810557
202.716968, 395.733236
217.127786, 431.971856
241.914039, 457.119708
256.528404, 438.256015
302.287686, 497.796684
278.041124, 459.422619
272.605122, 444.249790
268.356672, 487.142573
245.219650, 492.939923
219.424742, 471.751349
211.640365, 543.134790
185.152553, 558.531314
164.388494, 551.807565
162.725457, 571.968800
114.632552, 595.375215
177.043912, 562.337301
183.311394, 557.062448
207.969904, 559.975819
236.604392, 545.118652
216.024619, 524.526013
172.305931, 470.982357
190.903221, 423.610851
94.944400, 383.452149
121.356329, 386.924052
100.274912, 344.941116
85.622813, 321.430896
118.182503, 300.347025
61.442943, 336.955927
37.723618, 317.743180
36.796717, 321.837066
54.236862, 344.231390
42.464598, 334.765989
63.817676, 315.809514
73.878096, 317.049280
85.661971, 308.693699
99.069034, 314.365745
107.410009, 285.126404
115.612446, 288.406982
80.450566, 348.518867
103.614857, 309.303460
93.756972, 300.851234
89.523749, 266.905423
101.427879, 263.595349
89.699757, 224.313005
76.104240, 176.281632
61.714247, 196.327378
84.545934, 166.865872
114.070157, 187.853060
91.288756, 173.314217
90.166643, 186.475432
69.759721, 158.490319
115.796422, 201.114008
107.466264, 244.510969
162.590290, 299.942295
153.670593, 311.397332
132.101557, 272.612616
176.059929, 295.113372
174.721845, 299.399083
211.195962, 306.292554
217.841118, 296.965689
218.977866, 321.785326
208.463133, 325.761167
227.874143, 343.615292
245.020178, 306.554256
236.108936, 298.713279
236.767776, 326.923458
243.137199, 315.862786
260.348688, 344.131002
264.411910, 334.965751
234.155318, 294.139269
270.615168, 304.124465
256.732557, 320.344880
248.102179, 338.688323
245.086363, 372.468468
210.255161, 308.268685
201.372814, 290.256422
178.282546, 276.542472
186.536615, 303.222317
187.216516, 312.616389
154.407673, 281.871409
214.788086, 304.531590
190.220644, 264.858335
186.625782, 266.919118
170.830743, 276.327910
140.177046, 212.175831
142.775580, 204.571883
144.740746, 221.173927
160.716348, 230.462059
180.594068, 222.084719
197.403834, 241.554846
167.479797, 279.241784
173.829195, 294.789481
171.225070, 294.827568
181.724819, 295.291947
168.042310, 229.855574
201.956487, 229.713622
165.589576, 218.685339
191.898145, 186.203496
162.304374, 176.080851
156.274754, 165.487026
142.528989, 148.893844
130.677583, 141.327987
111.586315, 119.956794
57.875530, 132.709407
87.290238, 133.553078
88.442634, 146.110833
87.039073, 153.979615
59.687150, 116.557729
29.792495, 144.445890
-25.539627, 155.993896
3.791630, 112.071468
16.919780, 162.085262
5.168153, 147.157422
12.487156, 140.120166
10.103466, 95.584848
10.596015, 97.230047
-12.187926, 103.034053
-26.787335, 107.768972
-24.635187, 86.842147
-18.032067, 109.453440
-2.689606, 132.974241
15.786390, 96.100074
-5.257241, 76.101386
-31.318307, 68.213088
-44.383003, 64.867186
-46.130157, 73.477949
-28.597994, 68.174334
-60.142215, 104.733113
-29.820578, 65.064303
-44.183151, 66.978181
-43.884100, 69.702000
-37.869007, 71.010607
-36.595767, 58.489691
-5.759804, 68.640708
-85.336934, 57.174867
-44.008821, 70.002600
-34.038529, 74.574097
-55.644985, 51.170412
-61.486579, 55.343940
-37.934476, 52.965058
-42.647749, 63.911779
-46.683346, 72.888091
-83.338968, 75.981167
-73.287894, 47.057062
-81.571646, 120.177177
-72.148988, 92.305025
-87.837885, 95.341220
-69.054924, 83.134988
-58.360113, 51.958758
-61.338854, 56.818049
-72.009966, 45.459347
-55.874709, 23.133436
-24.810602, 5.015431
-16.077096, -4.581460
-23.325401, 0.356194
-55.749512, -3.562059
-45.272246, 2.831238
-67.114331, 37.972870
-26.885262, 45.852980
-21.388046, 65.799559
-32.102786, 4.722235
-29.187813, 3.381991
-17.446133, 6.264312
-24.690729, -2.258134
15.381565, -28.242156
-30.156280, 2.878710
-32.420964, -26.647586
-68.309831, -30.335116
-10.740334, -7.081672
-3.316406, 2.542606
3.412401, -50.901706
16.415316, -31.460730
-6.348335, -18.606949
2.552591, -15.661447
17.159082, 20.285399
9.789542, 25.872193
-6.291446, 45.964317
19.151705, 72.655406
18.615210, 12.187356
-2.022362, 4.602238
15.536514, 0.241813
46.280110, -1.850619
79.477718, 15.977373
70.870896, 17.814954
74.188017, -11.865206
44.403140, -45.752381
76.689165, -53.596312
15.882905, -50.874758
-36.280986, -14.188935
-39.800149, -2.768158
-19.047521, 12.146010
-2.621620, -1.071610
-21.674717, 17.855457
-38.150467, 16.166981
-49.450001, -45.690131
-36.292363, -56.020066
-31.931373, -35.315950
1.207279, 11.585463
-13.096389, 10.543253
-34.094869, 8.469933
-12.718538, 3.262454
-38.337411, 0.955917
-17.223969, -10.260843
11.786532, -4.799198
74.626038, -8.296933
73.913657, 17.955555
60.573817, 5.701402
62.065352, 23.368362
86.439794, -13.896143
53.567955, -36.131070
51.149562, -21.043224
16.585546, 15.098577
-9.662635, 7.206230
-11.629834, -5.386201
2.017477, 13.298602
-8.797276, -1.492771
-21.397369, 4.066504
-34.316860, 50.162089
-52.389330, 49.212833
-66.827346, 50.104218
-17.447153, 24.772801
-26.792281, 19.572460
-2.414389, 62.181781
5.402789, 19.779637
14.026693, -5.650546
3.124946, 10.255154
20.608578, 6.915535
33.336178, -7.976251
81.539829, 11.845868
41.983111, -12.115121
-16.001666, 23.073514
-11.313243, 34.695327
33.936817, 8.132898
18.295660, -29.513073
10.240679, -37.850382
-8.730517, -43.245043
-2.227148, -35.963426
-40.245811, -15.688411
-22.970315, -32.010821
-10.781772, -6.653234
-7.589496, -37.447590
-12.962573, -42.062813
-9.121695, -40.174608
3.453556, -29.735687
17.230282, -63.306594
-36.699691, -11.811951
-42.035297, 6.557929
-30.706283, 10.165420
-28.739415, 14.277050
-37.934812, 11.706574
-64.737191, -6.101194
-81.431335, -36.093339
-137.644782, 8.408234
-112.042203, 12.363865
-57.279840, 25.189665
-14.996767, 41.419022
39.110596, 24.638512
15.397042, 46.744478
46.017448, 47.618729
48.143898, 47.751440
81.971573, 51.625983
---------
-0.102064, 0.005318
-0.010663, 0.352909
0.472432, 0.804275
-0.017762, -0.001232
-0.513941, 0.422449
-0.708397, 0.223840
-0.000199, -0.000602
