[
   {
      "Subspace":0,
      "points":[
         {
            "x":1126.306035,
            "y":-423.989008
         },
         {
            "x":1189.007148,
            "y":-439.712955
         },
         {
            "x":1164.978457,
            "y":-419.648004
         },
         {
            "x":1147.569041,
            "y":-410.979224
         },
         {
            "x":1166.420495,
            "y":-449.268327
         },
         {
            "x":1165.175091,
            "y":-426.280566
         },
         {
            "x":1161.379630,
            "y":-473.928151
         },
         {
            "x":1172.627147,
            "y":-491.885009
         },
         {
            "x":1186.238272,
            "y":-525.865091
         },
         {
            "x":1137.395625,
            "y":-521.974606
         },
         {
            "x":1152.969489,
            "y":-498.842118
         },
         {
            "x":1191.902271,
            "y":-475.417532
         },
         {
            "x":1188.731707,
            "y":-478.980196
         },
         {
            "x":1209.839770,
            "y":-486.690948
         },
         {
            "x":1201.067594,
            "y":-478.385044
         },
         {
            "x":1244.421859,
            "y":-452.211802
         },
         {
            "x":1221.490254,
            "y":-464.707251
         },
         {
            "x":1197.473720,
            "y":-494.576740
         },
         {
            "x":1260.282228,
            "y":-480.590221
         },
         {
            "x":1273.914708,
            "y":-495.844192
         },
         {
            "x":1350.540669,
            "y":-499.357296
         },
         {
            "x":1339.466279,
            "y":-522.849048
         },
         {
            "x":1329.217370,
            "y":-525.754707
         },
         {
            "x":1341.021467,
            "y":-529.017377
         },
         {
            "x":1368.451248,
            "y":-593.667875
         },
         {
            "x":1372.505570,
            "y":-569.041878
         },
         {
            "x":1386.190182,
            "y":-596.874300
         },
         {
            "x":1385.263909,
            "y":-614.657470
         },
         {
            "x":1392.456791,
            "y":-614.393091
         },
         {
            "x":1387.479033,
            "y":-630.878281
         },
         {
            "x":1422.062768,
            "y":-618.268123
         },
         {
            "x":1394.052053,
            "y":-571.752463
         },
         {
            "x":1429.691183,
            "y":-519.588190
         },
         {
            "x":1411.565193,
            "y":-507.408336
         },
         {
            "x":1482.636793,
            "y":-415.406618
         },
         {
            "x":1493.342739,
            "y":-430.784065
         },
         {
            "x":1473.891167,
            "y":-449.054896
         },
         {
            "x":1469.545800,
            "y":-442.254965
         },
         {
            "x":1467.288493,
            "y":-407.322340
         },
         {
            "x":1465.849243,
            "y":-449.683021
         },
         {
            "x":1477.642171,
            "y":-450.987636
         },
         {
            "x":1513.379133,
            "y":-401.754174
         },
         {
            "x":1429.306261,
            "y":-306.046683
         },
         {
            "x":1408.639396,
            "y":-229.950460
         },
         {
            "x":1456.906447,
            "y":-221.351982
         },
         {
            "x":1453.795536,
            "y":-162.353661
         },
         {
            "x":1407.127238,
            "y":-128.662518
         },
         {
            "x":1413.183278,
            "y":-119.987073
         },
         {
            "x":1421.738888,
            "y":-93.922063
         },
         {
            "x":1464.608681,
            "y":-31.593918
         },
         {
            "x":1500.344314,
            "y":7.668846
         },
         {
            "x":1490.712572,
            "y":-17.939537
         },
         {
            "x":1434.856494,
            "y":-36.935376
         },
         {
            "x":1456.071486,
            "y":-52.063660
         },
         {
            "x":1475.001383,
            "y":-36.727438
         },
         {
            "x":1474.057869,
            "y":-85.998108
         },
         {
            "x":1483.589318,
            "y":-87.580442
         },
         {
            "x":1483.186492,
            "y":-92.812561
         },
         {
            "x":1450.106123,
            "y":-98.975178
         },
         {
            "x":1453.795763,
            "y":-137.740989
         },
         {
            "x":1442.925615,
            "y":-120.052297
         },
         {
            "x":1489.262551,
            "y":-104.004030
         },
         {
            "x":1469.322423,
            "y":-102.049086
         },
         {
            "x":1501.117518,
            "y":-150.825876
         },
         {
            "x":1505.285474,
            "y":-187.294090
         },
         {
            "x":1507.641536,
            "y":-133.484087
         },
         {
            "x":1538.490362,
            "y":-146.552562
         },
         {
            "x":1533.210258,
            "y":-138.528467
         },
         {
            "x":1514.387382,
            "y":-150.396586
         },
         {
            "x":1509.464340,
            "y":-167.176437
         },
         {
            "x":1534.526746,
            "y":-160.643553
         },
         {
            "x":1538.736916,
            "y":-135.123872
         },
         {
            "x":1587.297123,
            "y":-77.519695
         },
         {
            "x":1588.691680,
            "y":-78.670600
         },
         {
            "x":1577.898583,
            "y":-54.128456
         },
         {
            "x":1595.578648,
            "y":-33.157046
         },
         {
            "x":1630.927650,
            "y":-23.358495
         },
         {
            "x":1591.593649,
            "y":-0.749540
         },
         {
            "x":1595.528726,
            "y":-11.070077
         },
         {
            "x":1607.508847,
            "y":15.248978
         },
         {
            "x":1591.526592,
            "y":23.547477
         },
         {
            "x":1613.381290,
            "y":50.683970
         },
         {
            "x":1625.338581,
            "y":93.052167
         },
         {
            "x":1609.306420,
            "y":126.159814
         },
         {
            "x":1619.120446,
            "y":140.059866
         },
         {
            "x":1652.325751,
            "y":129.707489
         },
         {
            "x":1603.772378,
            "y":169.622069
         },
         {
            "x":1649.993758,
            "y":140.701035
         },
         {
            "x":1677.414571,
            "y":120.571367
         },
         {
            "x":1673.058630,
            "y":115.416215
         },
         {
            "x":1680.820809,
            "y":143.644564
         },
         {
            "x":1714.224095,
            "y":165.634706
         },
         {
            "x":1689.823639,
            "y":188.494212
         },
         {
            "x":1712.402762,
            "y":303.257636
         },
         {
            "x":1735.506230,
            "y":303.280718
         },
         {
            "x":1781.712842,
            "y":251.680961
         },
         {
            "x":1775.606627,
            "y":274.475436
         },
         {
            "x":1782.598681,
            "y":282.849137
         },
         {
            "x":1766.914665,
            "y":282.621536
         },
         {
            "x":1782.111439,
            "y":314.747418
         },
         {
            "x":1820.140035,
            "y":330.243295
         },
         {
            "x":1819.865101,
            "y":327.353657
         },
         {
            "x":1817.316963,
            "y":355.211188
         },
         {
            "x":1861.231863,
            "y":435.885258
         },
         {
            "x":1781.219635,
            "y":452.263140
         },
         {
            "x":1807.657631,
            "y":498.005020
         },
         {
            "x":1811.850287,
            "y":459.702246
         },
         {
            "x":1833.395651,
            "y":423.662709
         },
         {
            "x":1803.967392,
            "y":405.052998
         },
         {
            "x":1847.574252,
            "y":442.732689
         },
         {
            "x":1831.116364,
            "y":400.186871
         },
         {
            "x":1831.568370,
            "y":355.444181
         },
         {
            "x":1824.708795,
            "y":372.495000
         },
         {
            "x":1856.138459,
            "y":344.987284
         },
         {
            "x":1870.943166,
            "y":395.417757
         },
         {
            "x":1872.709720,
            "y":401.259193
         },
         {
            "x":1864.626800,
            "y":401.362360
         },
         {
            "x":1822.484858,
            "y":432.622753
         },
         {
            "x":1801.134482,
            "y":401.346252
         },
         {
            "x":1794.858659,
            "y":389.701540
         },
         {
            "x":1798.931619,
            "y":364.871267
         },
         {
            "x":1781.349348,
            "y":262.958605
         },
         {
            "x":1793.950785,
            "y":259.129351
         },
         {
            "x":1754.080665,
            "y":250.811901
         },
         {
            "x":1771.152182,
            "y":241.792553
         },
         {
            "x":1764.287114,
            "y":290.230328
         },
         {
            "x":1781.284407,
            "y":284.210312
         },
         {
            "x":1754.913198,
            "y":258.677758
         },
         {
            "x":1735.085418,
            "y":255.720331
         },
         {
            "x":1771.907234,
            "y":270.108928
         },
         {
            "x":1728.208973,
            "y":294.314874
         },
         {
            "x":1734.940294,
            "y":287.549887
         },
         {
            "x":1721.236587,
            "y":301.811055
         },
         {
            "x":1738.953891,
            "y":321.673637
         },
         {
            "x":1721.088226,
            "y":342.146708
         },
         {
            "x":1712.363780,
            "y":331.030894
         },
         {
            "x":1739.458679,
            "y":332.827337
         },
         {
            "x":1782.474570,
            "y":270.673278
         },
         {
            "x":1734.297838,
            "y":278.262697
         },
         {
            "x":1729.297705,
            "y":318.936816
         },
         {
            "x":1735.602870,
            "y":283.313648
         },
         {
            "x":1702.687439,
            "y":307.522800
         },
         {
            "x":1690.353787,
            "y":282.975682
         },
         {
            "x":1685.519370,
            "y":268.181815
         },
         {
            "x":1661.788460,
            "y":278.332231
         },
         {
            "x":1622.358208,
            "y":297.510288
         },
         {
            "x":1623.331565,
            "y":348.544585
         },
         {
            "x":1643.272086,
            "y":317.181018
         },
         {
            "x":1628.290404,
            "y":349.574900
         },
         {
            "x":1647.190928,
            "y":287.724762
         },
         {
            "x":1671.999077,
            "y":271.521851
         },
         {
            "x":1669.891466,
            "y":208.563158
         },
         {
            "x":1689.640171,
            "y":264.479824
         },
         {
            "x":1686.783229,
            "y":253.777300
         },
         {
            "x":1714.364380,
            "y":172.513480
         },
         {
            "x":1719.109002,
            "y":203.574894
         },
         {
            "x":1785.234892,
            "y":215.989098
         },
         {
            "x":1765.356475,
            "y":239.426702
         },
         {
            "x":1727.282341,
            "y":252.843880
         },
         {
            "x":1720.888592,
            "y":284.624993
         },
         {
            "x":1712.534162,
            "y":289.564026
         },
         {
            "x":1699.601234,
            "y":305.615962
         },
         {
            "x":1680.540593,
            "y":287.263025
         },
         {
            "x":1707.480594,
            "y":274.762140
         },
         {
            "x":1708.001925,
            "y":280.150515
         },
         {
            "x":1714.626661,
            "y":318.523442
         },
         {
            "x":1669.569557,
            "y":326.669728
         },
         {
            "x":1707.704840,
            "y":323.847953
         },
         {
            "x":1670.025218,
            "y":263.233880
         },
         {
            "x":1666.566985,
            "y":301.593994
         },
         {
            "x":1632.397895,
            "y":301.625533
         },
         {
            "x":1665.598750,
            "y":290.371344
         },
         {
            "x":1662.277800,
            "y":276.450702
         },
         {
            "x":1603.972367,
            "y":269.322708
         },
         {
            "x":1596.478325,
            "y":272.319152
         },
         {
            "x":1583.399940,
            "y":257.971289
         },
         {
            "x":1584.918099,
            "y":238.196943
         },
         {
            "x":1609.049429,
            "y":218.282968
         },
         {
            "x":1605.759606,
            "y":182.787934
         },
         {
            "x":1543.979816,
            "y":269.198660
         },
         {
            "x":1548.944409,
            "y":264.894825
         },
         {
            "x":1507.177422,
            "y":279.930619
         },
         {
            "x":1501.332544,
            "y":275.388545
         },
         {
            "x":1466.129517,
            "y":273.315717
         },
         {
            "x":1434.663694,
            "y":296.217575
         },
         {
            "x":1411.049408,
            "y":280.018347
         },
         {
            "x":1433.505634,
            "y":311.204059
         },
         {
            "x":1418.903815,
            "y":310.323116
         },
         {
            "x":1418.700862,
            "y":319.858965
         },
         {
            "x":1423.188344,
            "y":300.089438
         },
         {
            "x":1427.576552,
            "y":300.793075
         },
         {
            "x":1398.728984,
            "y":279.167920
         },
         {
            "x":1408.798560,
            "y":295.120956
         },
         {
            "x":1413.646705,
            "y":241.403345
         },
         {
            "x":1415.540105,
            "y":265.226958
         },
         {
            "x":1372.200950,
            "y":247.664183
         },
         {
            "x":1346.456481,
            "y":266.632382
         },
         {
            "x":1271.068440,
            "y":279.051039
         },
         {
            "x":1247.938321,
            "y":280.692513
         },
         {
            "x":1326.527013,
            "y":212.514849
         },
         {
            "x":1272.837537,
            "y":200.719093
         },
         {
            "x":1253.176697,
            "y":197.836845
         },
         {
            "x":1246.019622,
            "y":166.292456
         },
         {
            "x":1247.427315,
            "y":174.891000
         },
         {
            "x":1247.337747,
            "y":153.484966
         },
         {
            "x":1260.085569,
            "y":153.284089
         },
         {
            "x":1237.348964,
            "y":126.924252
         },
         {
            "x":1184.688894,
            "y":116.182485
         },
         {
            "x":1173.818061,
            "y":68.849074
         },
         {
            "x":1172.816367,
            "y":77.341972
         },
         {
            "x":1180.381662,
            "y":81.087681
         },
         {
            "x":1181.744411,
            "y":107.528846
         },
         {
            "x":1144.821657,
            "y":80.378616
         },
         {
            "x":1114.277084,
            "y":88.482498
         },
         {
            "x":1124.934480,
            "y":75.341029
         },
         {
            "x":1106.813993,
            "y":62.828690
         },
         {
            "x":1121.116207,
            "y":60.983848
         },
         {
            "x":1088.200212,
            "y":91.519302
         },
         {
            "x":1092.518322,
            "y":96.015896
         },
         {
            "x":1087.354367,
            "y":92.176308
         },
         {
            "x":1048.586915,
            "y":83.226257
         },
         {
            "x":1072.365938,
            "y":54.693133
         },
         {
            "x":1081.191649,
            "y":10.263527
         },
         {
            "x":1079.045263,
            "y":0.040360
         },
         {
            "x":1056.208404,
            "y":-1.039043
         },
         {
            "x":1050.712716,
            "y":24.740234
         },
         {
            "x":1055.053871,
            "y":42.620625
         },
         {
            "x":1016.778057,
            "y":63.307669
         },
         {
            "x":1006.389274,
            "y":27.375400
         },
         {
            "x":1024.325804,
            "y":16.538078
         },
         {
            "x":1021.164171,
            "y":24.313468
         },
         {
            "x":1005.742263,
            "y":19.393171
         },
         {
            "x":1034.409468,
            "y":21.224968
         },
         {
            "x":1004.640519,
            "y":-16.238402
         },
         {
            "x":1045.476059,
            "y":4.651952
         },
         {
            "x":985.084420,
            "y":62.105176
         },
         {
            "x":979.752468,
            "y":12.361528
         },
         {
            "x":971.574054,
            "y":30.662614
         },
         {
            "x":980.400248,
            "y":48.779593
         },
         {
            "x":983.305165,
            "y":67.191640
         },
         {
            "x":969.948677,
            "y":81.097724
         },
         {
            "x":967.637267,
            "y":59.785731
         },
         {
            "x":958.330291,
            "y":66.303790
         },
         {
            "x":959.083306,
            "y":95.012168
         },
         {
            "x":966.996156,
            "y":98.462426
         },
         {
            "x":978.231469,
            "y":74.974402
         },
         {
            "x":993.446424,
            "y":92.182355
         },
         {
            "x":959.653137,
            "y":55.259550
         },
         {
            "x":957.023155,
            "y":75.430024
         },
         {
            "x":944.624274,
            "y":72.312093
         },
         {
            "x":874.552995,
            "y":125.894661
         },
         {
            "x":880.899996,
            "y":150.594969
         },
         {
            "x":876.591863,
            "y":175.403056
         },
         {
            "x":830.324319,
            "y":174.725361
         },
         {
            "x":819.611487,
            "y":219.663424
         },
         {
            "x":818.078702,
            "y":235.704806
         },
         {
            "x":821.903981,
            "y":269.147648
         },
         {
            "x":798.249407,
            "y":295.773595
         },
         {
            "x":812.913903,
            "y":296.933825
         },
         {
            "x":780.376459,
            "y":274.866417
         },
         {
            "x":803.114309,
            "y":319.711085
         },
         {
            "x":777.681060,
            "y":344.569086
         },
         {
            "x":778.877410,
            "y":346.634504
         },
         {
            "x":760.358014,
            "y":334.804228
         },
         {
            "x":764.532240,
            "y":384.478921
         },
         {
            "x":702.403582,
            "y":435.822025
         },
         {
            "x":691.835409,
            "y":416.387203
         },
         {
            "x":714.879089,
            "y":445.981985
         },
         {
            "x":706.511459,
            "y":444.129131
         },
         {
            "x":712.138281,
            "y":421.582345
         },
         {
            "x":758.419910,
            "y":479.430843
         },
         {
            "x":695.820357,
            "y":473.269323
         },
         {
            "x":705.766666,
            "y":469.802253
         },
         {
            "x":717.161521,
            "y":484.026664
         },
         {
            "x":721.648971,
            "y":472.213842
         },
         {
            "x":743.135994,
            "y":460.470501
         },
         {
            "x":748.985573,
            "y":498.830889
         },
         {
            "x":730.996372,
            "y":487.343147
         },
         {
            "x":713.322366,
            "y":486.128642
         },
         {
            "x":741.718652,
            "y":502.623026
         },
         {
            "x":724.212971,
            "y":525.721662
         },
         {
            "x":740.593874,
            "y":525.321928
         },
         {
            "x":733.801656,
            "y":503.518463
         },
         {
            "x":719.680416,
            "y":507.175583
         },
         {
            "x":708.769561,
            "y":483.292952
         },
         {
            "x":714.726177,
            "y":494.815346
         },
         {
            "x":698.199850,
            "y":468.198728
         },
         {
            "x":739.926518,
            "y":441.855585
         },
         {
            "x":725.607318,
            "y":452.636361
         },
         {
            "x":723.961188,
            "y":495.019163
         },
         {
            "x":720.076629,
            "y":489.476857
         },
         {
            "x":729.422148,
            "y":474.057791
         },
         {
            "x":729.576731,
            "y":468.985813
         },
         {
            "x":719.010379,
            "y":410.031106
         },
         {
            "x":707.517628,
            "y":437.041449
         },
         {
            "x":720.379976,
            "y":425.311049
         },
         {
            "x":744.096825,
            "y":464.341281
         },
         {
            "x":741.610759,
            "y":469.074353
         },
         {
            "x":751.646447,
            "y":409.890740
         },
         {
            "x":744.467741,
            "y":414.315890
         },
         {
            "x":763.637896,
            "y":413.092172
         },
         {
            "x":758.673626,
            "y":399.477001
         },
         {
            "x":782.068843,
            "y":394.805137
         },
         {
            "x":807.300277,
            "y":376.332080
         },
         {
            "x":813.838056,
            "y":392.086724
         },
         {
            "x":819.017281,
            "y":383.095582
         },
         {
            "x":833.300578,
            "y":381.952938
         },
         {
            "x":825.266638,
            "y":380.797450
         },
         {
            "x":792.210559,
            "y":372.399711
         },
         {
            "x":798.828571,
            "y":348.222296
         },
         {
            "x":842.124902,
            "y":337.820009
         },
         {
            "x":844.887669,
            "y":306.435312
         },
         {
            "x":850.344529,
            "y":285.007462
         },
         {
            "x":853.217012,
            "y":296.532682
         },
         {
            "x":854.934112,
            "y":291.019870
         },
         {
            "x":853.508153,
            "y":308.678673
         },
         {
            "x":861.788924,
            "y":301.615481
         },
         {
            "x":843.391111,
            "y":271.771136
         },
         {
            "x":850.143350,
            "y":283.236828
         },
         {
            "x":848.489055,
            "y":341.468690
         },
         {
            "x":801.207624,
            "y":346.828411
         },
         {
            "x":819.981375,
            "y":389.053019
         },
         {
            "x":787.585333,
            "y":453.441936
         },
         {
            "x":809.295750,
            "y":435.384930
         },
         {
            "x":778.291295,
            "y":461.398920
         },
         {
            "x":795.220464,
            "y":469.979478
         },
         {
            "x":764.845193,
            "y":476.717860
         },
         {
            "x":806.633173,
            "y":489.985127
         },
         {
            "x":811.660745,
            "y":415.521008
         },
         {
            "x":804.390836,
            "y":391.998110
         },
         {
            "x":785.740333,
            "y":376.891565
         },
         {
            "x":805.297873,
            "y":404.564427
         },
         {
            "x":777.747600,
            "y":374.561122
         },
         {
            "x":745.998937,
            "y":364.446324
         },
         {
            "x":747.818092,
            "y":373.595114
         },
         {
            "x":766.013425,
            "y":351.700103
         },
         {
            "x":768.127350,
            "y":319.355869
         },
         {
            "x":762.406563,
            "y":347.525590
         },
         {
            "x":757.748200,
            "y":385.334693
         },
         {
            "x":769.362707,
            "y":381.639861
         },
         {
            "x":760.771032,
            "y":392.836988
         },
         {
            "x":784.015895,
            "y":388.933484
         },
         {
            "x":777.714413,
            "y":391.258611
         },
         {
            "x":775.326365,
            "y":408.032979
         },
         {
            "x":826.209439,
            "y":287.275225
         },
         {
            "x":814.943937,
            "y":319.284789
         },
         {
            "x":799.718429,
            "y":330.169823
         },
         {
            "x":807.177042,
            "y":344.265713
         },
         {
            "x":843.852924,
            "y":319.622028
         },
         {
            "x":803.414392,
            "y":288.787968
         },
         {
            "x":790.194090,
            "y":272.421505
         },
         {
            "x":800.409507,
            "y":295.324446
         },
         {
            "x":778.642455,
            "y":316.700122
         },
         {
            "x":791.831945,
            "y":409.100887
         },
         {
            "x":810.635390,
            "y":450.220560
         },
         {
            "x":794.921169,
            "y":480.955901
         },
         {
            "x":790.566784,
            "y":474.978696
         },
         {
            "x":816.388605,
            "y":539.117078
         },
         {
            "x":817.075722,
            "y":547.505719
         },
         {
            "x":804.990838,
            "y":569.755530
         }
      ]
   },
   {
      "Subspace":1,
      "points":[
         {
            "x":858.789317,
            "y":454.271618
         },
         {
            "x":936.549942,
            "y":451.826321
         },
         {
            "x":923.693987,
            "y":430.007999
         },
         {
            "x":909.210178,
            "y":447.217569
         },
         {
            "x":913.190125,
            "y":445.423637
         },
         {
            "x":903.240307,
            "y":468.957041
         },
         {
            "x":911.161994,
            "y":418.258067
         },
         {
            "x":933.495328,
            "y":379.802950
         },
         {
            "x":946.096271,
            "y":359.059689
         },
         {
            "x":934.727458,
            "y":267.414469
         },
         {
            "x":956.010100,
            "y":278.057698
         },
         {
            "x":990.024055,
            "y":309.743139
         },
         {
            "x":992.404784,
            "y":295.317040
         },
         {
            "x":1031.930675,
            "y":277.677714
         },
         {
            "x":1012.832506,
            "y":294.007036
         },
         {
            "x":1072.784455,
            "y":320.584616
         },
         {
            "x":1015.178187,
            "y":347.479130
         },
         {
            "x":1000.019533,
            "y":316.321182
         },
         {
            "x":1015.384252,
            "y":424.382313
         },
         {
            "x":1052.865885,
            "y":403.865250
         },
         {
            "x":1122.826713,
            "y":430.601321
         },
         {
            "x":1109.611013,
            "y":413.407527
         },
         {
            "x":1118.996654,
            "y":368.494407
         },
         {
            "x":1123.045677,
            "y":397.141241
         },
         {
            "x":1141.265985,
            "y":384.441365
         },
         {
            "x":1153.284369,
            "y":353.148511
         },
         {
            "x":1188.879914,
            "y":321.476581
         },
         {
            "x":1175.329632,
            "y":323.674326
         },
         {
            "x":1189.745388,
            "y":313.151678
         },
         {
            "x":1169.407533,
            "y":326.684985
         },
         {
            "x":1203.676560,
            "y":399.427276
         },
         {
            "x":1191.449522,
            "y":391.496389
         },
         {
            "x":1205.888859,
            "y":425.598468
         },
         {
            "x":1175.249876,
            "y":453.359154
         },
         {
            "x":1223.205515,
            "y":537.238422
         },
         {
            "x":1239.618463,
            "y":521.536480
         },
         {
            "x":1231.664393,
            "y":505.881042
         },
         {
            "x":1227.064847,
            "y":508.105054
         },
         {
            "x":1253.658624,
            "y":471.949595
         },
         {
            "x":1273.144815,
            "y":394.595197
         },
         {
            "x":1295.368171,
            "y":380.061926
         },
         {
            "x":1346.308374,
            "y":425.655151
         },
         {
            "x":1199.946655,
            "y":481.584691
         },
         {
            "x":1129.130400,
            "y":532.926829
         },
         {
            "x":1178.871920,
            "y":530.875898
         },
         {
            "x":1187.079886,
            "y":523.750895
         },
         {
            "x":1161.873578,
            "y":501.944463
         },
         {
            "x":1165.730166,
            "y":514.548802
         },
         {
            "x":1176.589381,
            "y":528.339068
         },
         {
            "x":1210.093598,
            "y":584.835974
         },
         {
            "x":1204.112306,
            "y":678.132152
         },
         {
            "x":1173.683313,
            "y":694.685886
         },
         {
            "x":1135.615814,
            "y":642.791049
         },
         {
            "x":1140.851023,
            "y":669.713252
         },
         {
            "x":1167.336079,
            "y":664.407934
         },
         {
            "x":1158.028660,
            "y":660.678626
         },
         {
            "x":1152.443742,
            "y":679.067238
         },
         {
            "x":1154.354455,
            "y":663.807990
         },
         {
            "x":1157.983370,
            "y":594.923395
         },
         {
            "x":1153.377900,
            "y":599.592296
         },
         {
            "x":1164.712388,
            "y":575.672522
         },
         {
            "x":1216.631474,
            "y":593.016779
         },
         {
            "x":1200.690512,
            "y":585.750560
         },
         {
            "x":1234.806301,
            "y":569.209105
         },
         {
            "x":1233.443895,
            "y":550.105312
         },
         {
            "x":1248.765719,
            "y":572.123300
         },
         {
            "x":1291.178862,
            "y":562.408269
         },
         {
            "x":1278.326301,
            "y":558.062468
         },
         {
            "x":1265.626637,
            "y":542.871478
         },
         {
            "x":1257.248124,
            "y":537.205591
         },
         {
            "x":1261.261625,
            "y":562.707236
         },
         {
            "x":1287.603977,
            "y":542.567715
         },
         {
            "x":1343.875100,
            "y":592.495135
         },
         {
            "x":1338.064174,
            "y":587.659508
         },
         {
            "x":1322.754064,
            "y":601.159628
         },
         {
            "x":1323.860827,
            "y":636.964180
         },
         {
            "x":1369.012398,
            "y":630.963662
         },
         {
            "x":1294.805321,
            "y":695.381848
         },
         {
            "x":1289.088364,
            "y":704.684026
         },
         {
            "x":1257.819910,
            "y":755.509654
         },
         {
            "x":1262.983408,
            "y":746.423218
         },
         {
            "x":1272.737924,
            "y":802.478104
         },
         {
            "x":1285.229243,
            "y":844.291344
         },
         {
            "x":1265.179584,
            "y":851.270142
         },
         {
            "x":1259.346467,
            "y":866.812901
         },
         {
            "x":1271.915408,
            "y":876.057069
         },
         {
            "x":1256.181803,
            "y":859.178141
         },
         {
            "x":1291.787531,
            "y":881.637750
         },
         {
            "x":1323.511100,
            "y":876.026395
         },
         {
            "x":1291.732023,
            "y":917.927048
         },
         {
            "x":1344.751136,
            "y":863.497565
         },
         {
            "x":1387.217666,
            "y":877.481351
         },
         {
            "x":1368.043815,
            "y":876.444515
         },
         {
            "x":1397.584417,
            "y":938.585424
         },
         {
            "x":1410.437384,
            "y":955.875952
         },
         {
            "x":1476.651559,
            "y":954.540298
         },
         {
            "x":1455.772099,
            "y":979.166589
         },
         {
            "x":1461.532059,
            "y":990.016144
         },
         {
            "x":1442.837928,
            "y":982.061318
         },
         {
            "x":1464.064445,
            "y":990.964215
         },
         {
            "x":1504.548082,
            "y":1015.334826
         },
         {
            "x":1517.716252,
            "y":1012.407669
         },
         {
            "x":1508.011273,
            "y":1030.401038
         },
         {
            "x":1552.636095,
            "y":1085.897191
         },
         {
            "x":1547.210852,
            "y":935.355253
         },
         {
            "x":1602.400557,
            "y":906.065225
         },
         {
            "x":1582.315359,
            "y":936.640896
         },
         {
            "x":1583.380678,
            "y":957.997379
         },
         {
            "x":1582.475171,
            "y":890.023074
         },
         {
            "x":1619.900505,
            "y":905.266447
         },
         {
            "x":1599.725994,
            "y":888.535476
         },
         {
            "x":1616.267594,
            "y":849.820176
         },
         {
            "x":1620.403287,
            "y":837.820506
         },
         {
            "x":1642.721304,
            "y":821.593324
         },
         {
            "x":1712.129154,
            "y":785.739861
         },
         {
            "x":1724.777480,
            "y":773.034637
         },
         {
            "x":1721.998177,
            "y":779.526155
         },
         {
            "x":1678.889370,
            "y":806.599109
         },
         {
            "x":1651.918728,
            "y":795.533635
         },
         {
            "x":1634.251062,
            "y":772.514254
         },
         {
            "x":1630.761171,
            "y":799.957273
         },
         {
            "x":1620.071510,
            "y":714.915727
         },
         {
            "x":1638.090588,
            "y":724.573126
         },
         {
            "x":1607.247100,
            "y":685.177081
         },
         {
            "x":1624.884251,
            "y":677.781468
         },
         {
            "x":1623.760047,
            "y":673.821676
         },
         {
            "x":1622.642815,
            "y":673.066462
         },
         {
            "x":1593.757237,
            "y":653.994303
         },
         {
            "x":1564.935827,
            "y":665.235340
         },
         {
            "x":1612.682400,
            "y":664.592791
         },
         {
            "x":1588.356177,
            "y":626.219055
         },
         {
            "x":1594.175865,
            "y":628.479553
         },
         {
            "x":1590.450019,
            "y":619.883276
         },
         {
            "x":1604.427365,
            "y":626.616452
         },
         {
            "x":1600.210226,
            "y":616.353633
         },
         {
            "x":1602.336261,
            "y":595.164383
         },
         {
            "x":1622.239136,
            "y":627.099396
         },
         {
            "x":1638.976683,
            "y":671.276226
         },
         {
            "x":1625.139786,
            "y":620.010206
         },
         {
            "x":1641.226495,
            "y":592.470969
         },
         {
            "x":1649.809789,
            "y":574.013984
         },
         {
            "x":1623.988731,
            "y":566.035507
         },
         {
            "x":1637.095614,
            "y":501.626982
         },
         {
            "x":1625.888449,
            "y":493.426757
         },
         {
            "x":1605.566348,
            "y":482.392791
         },
         {
            "x":1609.685728,
            "y":425.875861
         },
         {
            "x":1619.918624,
            "y":427.122687
         },
         {
            "x":1636.558686,
            "y":412.785968
         },
         {
            "x":1629.604446,
            "y":414.045106
         },
         {
            "x":1630.612359,
            "y":419.361044
         },
         {
            "x":1675.575380,
            "y":419.951574
         },
         {
            "x":1740.216288,
            "y":357.349660
         },
         {
            "x":1754.008587,
            "y":401.105774
         },
         {
            "x":1742.348960,
            "y":406.800305
         },
         {
            "x":1734.562243,
            "y":446.627202
         },
         {
            "x":1755.680584,
            "y":453.094464
         },
         {
            "x":1791.981316,
            "y":490.127671
         },
         {
            "x":1778.019356,
            "y":507.178332
         },
         {
            "x":1762.042646,
            "y":471.611281
         },
         {
            "x":1788.695442,
            "y":431.672494
         },
         {
            "x":1782.257079,
            "y":428.811665
         },
         {
            "x":1783.536453,
            "y":430.967335
         },
         {
            "x":1791.215182,
            "y":386.679899
         },
         {
            "x":1828.104344,
            "y":366.948141
         },
         {
            "x":1829.585085,
            "y":371.494603
         },
         {
            "x":1837.999060,
            "y":372.631293
         },
         {
            "x":1812.301945,
            "y":354.646159
         },
         {
            "x":1853.128717,
            "y":353.988803
         },
         {
            "x":1809.451916,
            "y":331.170688
         },
         {
            "x":1821.904168,
            "y":340.901042
         },
         {
            "x":1781.594147,
            "y":341.847328
         },
         {
            "x":1798.963565,
            "y":373.208118
         },
         {
            "x":1786.188541,
            "y":393.559449
         },
         {
            "x":1758.847455,
            "y":303.017579
         },
         {
            "x":1745.932752,
            "y":293.907976
         },
         {
            "x":1726.334252,
            "y":267.459154
         },
         {
            "x":1734.658371,
            "y":260.927419
         },
         {
            "x":1746.453099,
            "y":284.367971
         },
         {
            "x":1743.101781,
            "y":238.784464
         },
         {
            "x":1704.213051,
            "y":254.370065
         },
         {
            "x":1732.248201,
            "y":196.269638
         },
         {
            "x":1697.267646,
            "y":165.000902
         },
         {
            "x":1705.732668,
            "y":135.716727
         },
         {
            "x":1660.069285,
            "y":120.126564
         },
         {
            "x":1645.305003,
            "y":94.991591
         },
         {
            "x":1631.689537,
            "y":83.178150
         },
         {
            "x":1642.159259,
            "y":110.709995
         },
         {
            "x":1640.387542,
            "y":99.497057
         },
         {
            "x":1627.144324,
            "y":129.918706
         },
         {
            "x":1666.289059,
            "y":71.590397
         },
         {
            "x":1678.385704,
            "y":66.921788
         },
         {
            "x":1659.662092,
            "y":50.047023
         },
         {
            "x":1676.233788,
            "y":55.561662
         },
         {
            "x":1689.340866,
            "y":29.036781
         },
         {
            "x":1690.615857,
            "y":46.196559
         },
         {
            "x":1647.825323,
            "y":21.621332
         },
         {
            "x":1646.775988,
            "y":-3.772084
         },
         {
            "x":1567.774074,
            "y":-41.294778
         },
         {
            "x":1567.305901,
            "y":-82.153244
         },
         {
            "x":1612.180524,
            "y":-52.988501
         },
         {
            "x":1593.926438,
            "y":-105.222268
         },
         {
            "x":1558.119181,
            "y":-99.081394
         },
         {
            "x":1575.215788,
            "y":-171.901252
         },
         {
            "x":1575.750114,
            "y":-159.795117
         },
         {
            "x":1567.186336,
            "y":-146.478286
         },
         {
            "x":1570.828916,
            "y":-140.237823
         },
         {
            "x":1517.543827,
            "y":-136.140608
         },
         {
            "x":1464.299574,
            "y":-150.657984
         },
         {
            "x":1454.469170,
            "y":-180.981902
         },
         {
            "x":1441.522725,
            "y":-162.761494
         },
         {
            "x":1446.424206,
            "y":-136.806142
         },
         {
            "x":1452.660216,
            "y":-150.644034
         },
         {
            "x":1422.218931,
            "y":-169.658715
         },
         {
            "x":1408.302315,
            "y":-197.455224
         },
         {
            "x":1398.294254,
            "y":-158.689052
         },
         {
            "x":1382.525206,
            "y":-185.925058
         },
         {
            "x":1414.452776,
            "y":-213.298638
         },
         {
            "x":1391.571692,
            "y":-236.560566
         },
         {
            "x":1382.888790,
            "y":-205.920563
         },
         {
            "x":1376.459373,
            "y":-190.425115
         },
         {
            "x":1338.297049,
            "y":-206.775032
         },
         {
            "x":1338.002809,
            "y":-182.068947
         },
         {
            "x":1368.965709,
            "y":-215.287826
         },
         {
            "x":1367.047052,
            "y":-227.701948
         },
         {
            "x":1357.353686,
            "y":-250.027411
         },
         {
            "x":1358.906974,
            "y":-247.064636
         },
         {
            "x":1330.958218,
            "y":-219.000665
         },
         {
            "x":1306.172439,
            "y":-233.512757
         },
         {
            "x":1295.121441,
            "y":-241.729500
         },
         {
            "x":1324.774496,
            "y":-258.413775
         },
         {
            "x":1315.098733,
            "y":-240.558459
         },
         {
            "x":1292.249025,
            "y":-230.092227
         },
         {
            "x":1310.353108,
            "y":-195.372189
         },
         {
            "x":1276.429791,
            "y":-236.753998
         },
         {
            "x":1279.029503,
            "y":-153.958932
         },
         {
            "x":1274.838547,
            "y":-247.451582
         },
         {
            "x":1262.112921,
            "y":-250.620673
         },
         {
            "x":1255.735575,
            "y":-254.335509
         },
         {
            "x":1255.934122,
            "y":-219.671881
         },
         {
            "x":1248.785460,
            "y":-203.698444
         },
         {
            "x":1247.611417,
            "y":-223.378348
         },
         {
            "x":1232.138102,
            "y":-234.739476
         },
         {
            "x":1213.857910,
            "y":-224.691990
         },
         {
            "x":1220.545152,
            "y":-232.895286
         },
         {
            "x":1209.221839,
            "y":-193.335389
         },
         {
            "x":1230.821601,
            "y":-200.690163
         },
         {
            "x":1233.219853,
            "y":-167.415919
         },
         {
            "x":1200.748240,
            "y":-184.456391
         },
         {
            "x":1207.736805,
            "y":-194.375151
         },
         {
            "x":1197.758098,
            "y":-206.510329
         },
         {
            "x":1157.961674,
            "y":-258.302465
         },
         {
            "x":1156.914831,
            "y":-235.679926
         },
         {
            "x":1154.966000,
            "y":-237.142789
         },
         {
            "x":1106.208842,
            "y":-249.344062
         },
         {
            "x":1098.963813,
            "y":-279.392145
         },
         {
            "x":1091.358114,
            "y":-261.544922
         },
         {
            "x":1099.401248,
            "y":-269.588344
         },
         {
            "x":1087.352668,
            "y":-273.369657
         },
         {
            "x":1070.042184,
            "y":-230.615160
         },
         {
            "x":1055.970727,
            "y":-277.573617
         },
         {
            "x":1043.495515,
            "y":-213.219481
         },
         {
            "x":1034.649727,
            "y":-228.610981
         },
         {
            "x":1044.311794,
            "y":-244.678760
         },
         {
            "x":1028.905782,
            "y":-241.968322
         },
         {
            "x":1021.793013,
            "y":-236.596526
         },
         {
            "x":975.593424,
            "y":-286.019978
         },
         {
            "x":967.149112,
            "y":-315.507198
         },
         {
            "x":979.463953,
            "y":-253.861845
         },
         {
            "x":962.754848,
            "y":-234.670309
         },
         {
            "x":947.813171,
            "y":-212.033282
         },
         {
            "x":1005.878371,
            "y":-200.736711
         },
         {
            "x":961.287327,
            "y":-259.797266
         },
         {
            "x":960.494458,
            "y":-239.284847
         },
         {
            "x":982.581311,
            "y":-231.557462
         },
         {
            "x":957.581535,
            "y":-197.644492
         },
         {
            "x":968.061966,
            "y":-188.226221
         },
         {
            "x":971.635398,
            "y":-165.975980
         },
         {
            "x":944.159872,
            "y":-167.453567
         },
         {
            "x":923.453771,
            "y":-177.253327
         },
         {
            "x":939.805142,
            "y":-133.383182
         },
         {
            "x":932.682601,
            "y":-132.815971
         },
         {
            "x":942.096346,
            "y":-103.159520
         },
         {
            "x":925.689989,
            "y":-98.107691
         },
         {
            "x":920.046025,
            "y":-118.794721
         },
         {
            "x":915.366082,
            "y":-139.706348
         },
         {
            "x":904.883813,
            "y":-95.219684
         },
         {
            "x":898.117332,
            "y":-148.158449
         },
         {
            "x":898.567579,
            "y":-115.071653
         },
         {
            "x":884.470895,
            "y":-115.265560
         },
         {
            "x":891.095419,
            "y":-113.697166
         },
         {
            "x":858.966241,
            "y":-79.281317
         },
         {
            "x":852.459845,
            "y":-73.427668
         },
         {
            "x":849.285122,
            "y":-68.154159
         },
         {
            "x":831.625026,
            "y":-73.896570
         },
         {
            "x":833.432406,
            "y":-94.993463
         },
         {
            "x":832.532701,
            "y":-69.038361
         },
         {
            "x":839.789535,
            "y":-16.862299
         },
         {
            "x":817.104597,
            "y":8.809340
         },
         {
            "x":832.178743,
            "y":-12.305633
         },
         {
            "x":827.449288,
            "y":-8.916128
         },
         {
            "x":836.430108,
            "y":-5.118673
         },
         {
            "x":838.774557,
            "y":5.761449
         },
         {
            "x":839.819281,
            "y":54.270002
         },
         {
            "x":843.694098,
            "y":120.634424
         },
         {
            "x":857.255245,
            "y":122.331487
         },
         {
            "x":852.138833,
            "y":134.029835
         },
         {
            "x":876.283798,
            "y":121.463340
         },
         {
            "x":863.693682,
            "y":133.811972
         },
         {
            "x":831.011350,
            "y":117.987575
         },
         {
            "x":837.911613,
            "y":109.469581
         },
         {
            "x":860.863703,
            "y":137.364765
         },
         {
            "x":854.058537,
            "y":133.947286
         },
         {
            "x":848.104344,
            "y":144.460438
         },
         {
            "x":855.814250,
            "y":149.545680
         },
         {
            "x":854.862024,
            "y":146.434603
         },
         {
            "x":860.420045,
            "y":133.155677
         },
         {
            "x":869.079652,
            "y":134.375646
         },
         {
            "x":862.366019,
            "y":102.656685
         },
         {
            "x":869.754433,
            "y":91.271121
         },
         {
            "x":859.346412,
            "y":129.536552
         },
         {
            "x":792.184639,
            "y":140.959688
         },
         {
            "x":799.413860,
            "y":173.099125
         },
         {
            "x":800.454018,
            "y":119.593258
         },
         {
            "x":816.041213,
            "y":137.308138
         },
         {
            "x":774.087342,
            "y":141.685611
         },
         {
            "x":804.038768,
            "y":136.603635
         },
         {
            "x":774.205634,
            "y":140.679050
         },
         {
            "x":815.405233,
            "y":178.789509
         },
         {
            "x":807.731990,
            "y":175.148536
         },
         {
            "x":801.242625,
            "y":167.332464
         },
         {
            "x":773.044158,
            "y":179.673550
         },
         {
            "x":808.857560,
            "y":174.723566
         },
         {
            "x":784.252973,
            "y":146.483120
         },
         {
            "x":736.751432,
            "y":166.477909
         },
         {
            "x":744.610215,
            "y":145.362702
         },
         {
            "x":741.903695,
            "y":179.305210
         },
         {
            "x":732.894944,
            "y":163.477759
         },
         {
            "x":728.461567,
            "y":176.310513
         },
         {
            "x":721.863345,
            "y":193.491887
         },
         {
            "x":759.093172,
            "y":154.625846
         },
         {
            "x":751.470473,
            "y":151.522428
         },
         {
            "x":786.693331,
            "y":144.558570
         },
         {
            "x":784.334471,
            "y":153.142335
         },
         {
            "x":797.007705,
            "y":132.885584
         },
         {
            "x":826.555444,
            "y":155.306870
         },
         {
            "x":843.786650,
            "y":126.523633
         },
         {
            "x":822.029841,
            "y":138.342608
         },
         {
            "x":832.280695,
            "y":144.509365
         },
         {
            "x":844.954213,
            "y":170.221701
         },
         {
            "x":809.128842,
            "y":135.623992
         },
         {
            "x":801.170200,
            "y":112.627101
         },
         {
            "x":829.223538,
            "y":64.573283
         },
         {
            "x":799.218903,
            "y":87.532833
         },
         {
            "x":810.724832,
            "y":140.425292
         },
         {
            "x":849.680664,
            "y":145.942859
         },
         {
            "x":858.952128,
            "y":132.152850
         },
         {
            "x":858.143612,
            "y":126.745567
         },
         {
            "x":883.360244,
            "y":157.462389
         },
         {
            "x":885.776527,
            "y":152.134833
         },
         {
            "x":864.156353,
            "y":184.017362
         }
      ]
   },
   {
      "Subspace":2,
      "points":[
         {
            "x":643.327793,
            "y":-606.419487
         },
         {
            "x":697.426268,
            "y":-607.564531
         },
         {
            "x":697.920388,
            "y":-584.921581
         },
         {
            "x":671.111770,
            "y":-581.796173
         },
         {
            "x":663.427889,
            "y":-578.663204
         },
         {
            "x":667.015400,
            "y":-602.804578
         },
         {
            "x":667.058201,
            "y":-580.279305
         },
         {
            "x":690.877436,
            "y":-556.709644
         },
         {
            "x":701.993966,
            "y":-559.465484
         },
         {
            "x":705.793163,
            "y":-483.477968
         },
         {
            "x":724.187242,
            "y":-475.921551
         },
         {
            "x":758.174504,
            "y":-494.388438
         },
         {
            "x":763.412527,
            "y":-486.866226
         },
         {
            "x":777.197348,
            "y":-449.215939
         },
         {
            "x":765.960972,
            "y":-465.950896
         },
         {
            "x":796.049059,
            "y":-454.070238
         },
         {
            "x":765.682746,
            "y":-512.871785
         },
         {
            "x":739.475028,
            "y":-487.504391
         },
         {
            "x":752.501177,
            "y":-584.477627
         },
         {
            "x":763.347905,
            "y":-556.019660
         },
         {
            "x":823.460890,
            "y":-583.000099
         },
         {
            "x":809.941768,
            "y":-576.447149
         },
         {
            "x":823.563871,
            "y":-541.748771
         },
         {
            "x":813.408117,
            "y":-555.933058
         },
         {
            "x":812.949294,
            "y":-569.423952
         },
         {
            "x":847.459358,
            "y":-537.415004
         },
         {
            "x":857.740715,
            "y":-506.634563
         },
         {
            "x":847.472083,
            "y":-517.882282
         },
         {
            "x":859.686072,
            "y":-507.698792
         },
         {
            "x":842.789360,
            "y":-533.108048
         },
         {
            "x":833.360343,
            "y":-568.708397
         },
         {
            "x":835.475335,
            "y":-545.169882
         },
         {
            "x":891.280503,
            "y":-585.920777
         },
         {
            "x":869.222605,
            "y":-612.338094
         },
         {
            "x":950.783086,
            "y":-669.519710
         },
         {
            "x":957.413086,
            "y":-655.113321
         },
         {
            "x":931.690771,
            "y":-636.535862
         },
         {
            "x":928.131511,
            "y":-632.444657
         },
         {
            "x":963.659956,
            "y":-588.626729
         },
         {
            "x":989.459555,
            "y":-554.224322
         },
         {
            "x":1006.936206,
            "y":-538.941025
         },
         {
            "x":1034.289103,
            "y":-539.659428
         },
         {
            "x":1008.125597,
            "y":-632.182062
         },
         {
            "x":1017.355058,
            "y":-684.535839
         },
         {
            "x":1073.202152,
            "y":-686.067352
         },
         {
            "x":1108.991219,
            "y":-667.714168
         },
         {
            "x":1087.715198,
            "y":-627.381757
         },
         {
            "x":1086.548102,
            "y":-626.196711
         },
         {
            "x":1102.719505,
            "y":-630.870635
         },
         {
            "x":1145.275074,
            "y":-655.047442
         },
         {
            "x":1159.171054,
            "y":-743.711892
         },
         {
            "x":1132.809955,
            "y":-776.776632
         },
         {
            "x":1092.848197,
            "y":-733.275716
         },
         {
            "x":1096.713892,
            "y":-772.166145
         },
         {
            "x":1128.822566,
            "y":-767.156601
         },
         {
            "x":1104.204640,
            "y":-780.213627
         },
         {
            "x":1104.116675,
            "y":-800.589799
         },
         {
            "x":1112.124876,
            "y":-797.164608
         },
         {
            "x":1112.709288,
            "y":-737.667782
         },
         {
            "x":1085.298004,
            "y":-739.538381
         },
         {
            "x":1096.256339,
            "y":-709.885191
         },
         {
            "x":1142.387029,
            "y":-722.303562
         },
         {
            "x":1125.213989,
            "y":-709.730295
         },
         {
            "x":1134.637733,
            "y":-701.943759
         },
         {
            "x":1132.235449,
            "y":-705.368197
         },
         {
            "x":1143.523746,
            "y":-688.326071
         },
         {
            "x":1169.653165,
            "y":-680.972149
         },
         {
            "x":1177.267830,
            "y":-688.042381
         },
         {
            "x":1155.610061,
            "y":-669.861797
         },
         {
            "x":1149.115308,
            "y":-678.399813
         },
         {
            "x":1168.868110,
            "y":-711.872360
         },
         {
            "x":1191.560420,
            "y":-671.682775
         },
         {
            "x":1233.583747,
            "y":-674.247977
         },
         {
            "x":1241.612499,
            "y":-681.502043
         },
         {
            "x":1237.698750,
            "y":-685.083839
         },
         {
            "x":1249.602013,
            "y":-717.264340
         },
         {
            "x":1290.815273,
            "y":-705.835622
         },
         {
            "x":1239.044136,
            "y":-770.512561
         },
         {
            "x":1235.197265,
            "y":-788.278111
         },
         {
            "x":1247.672375,
            "y":-858.830723
         },
         {
            "x":1234.443349,
            "y":-830.573688
         },
         {
            "x":1240.045370,
            "y":-869.933792
         },
         {
            "x":1246.093583,
            "y":-879.039100
         },
         {
            "x":1248.509005,
            "y":-883.143115
         },
         {
            "x":1264.340693,
            "y":-904.067971
         },
         {
            "x":1293.611679,
            "y":-934.705958
         },
         {
            "x":1267.099365,
            "y":-882.963099
         },
         {
            "x":1281.668810,
            "y":-907.494556
         },
         {
            "x":1297.802170,
            "y":-903.598048
         },
         {
            "x":1272.305067,
            "y":-949.803640
         },
         {
            "x":1313.441633,
            "y":-868.408676
         },
         {
            "x":1344.209060,
            "y":-860.288951
         },
         {
            "x":1333.269215,
            "y":-850.957164
         },
         {
            "x":1381.131953,
            "y":-860.935264
         },
         {
            "x":1398.487005,
            "y":-883.462843
         },
         {
            "x":1394.374750,
            "y":-852.739050
         },
         {
            "x":1393.900510,
            "y":-880.678258
         },
         {
            "x":1400.809994,
            "y":-888.042309
         },
         {
            "x":1393.470064,
            "y":-889.869419
         },
         {
            "x":1417.954023,
            "y":-879.942230
         },
         {
            "x":1444.975841,
            "y":-885.466417
         },
         {
            "x":1435.467674,
            "y":-862.599640
         },
         {
            "x":1444.285205,
            "y":-881.406283
         },
         {
            "x":1497.189539,
            "y":-896.357642
         },
         {
            "x":1502.823405,
            "y":-746.199623
         },
         {
            "x":1570.642017,
            "y":-711.129088
         },
         {
            "x":1533.152933,
            "y":-740.460599
         },
         {
            "x":1524.860832,
            "y":-775.582857
         },
         {
            "x":1519.851345,
            "y":-716.697185
         },
         {
            "x":1572.354036,
            "y":-715.388638
         },
         {
            "x":1538.713560,
            "y":-707.444243
         },
         {
            "x":1530.019153,
            "y":-676.079081
         },
         {
            "x":1535.889434,
            "y":-654.113959
         },
         {
            "x":1561.685852,
            "y":-654.404275
         },
         {
            "x":1614.741007,
            "y":-586.940190
         },
         {
            "x":1624.938853,
            "y":-570.361613
         },
         {
            "x":1609.369625,
            "y":-565.273890
         },
         {
            "x":1572.195265,
            "y":-581.058722
         },
         {
            "x":1542.598933,
            "y":-586.382461
         },
         {
            "x":1555.880494,
            "y":-600.200410
         },
         {
            "x":1534.028263,
            "y":-635.703782
         },
         {
            "x":1509.525976,
            "y":-601.786117
         },
         {
            "x":1509.777697,
            "y":-599.664612
         },
         {
            "x":1492.393737,
            "y":-578.341804
         },
         {
            "x":1511.672154,
            "y":-583.215426
         },
         {
            "x":1538.237816,
            "y":-572.618686
         },
         {
            "x":1556.310006,
            "y":-587.297376
         },
         {
            "x":1529.447138,
            "y":-584.436690
         },
         {
            "x":1503.294325,
            "y":-596.843613
         },
         {
            "x":1542.441635,
            "y":-580.850141
         },
         {
            "x":1534.251397,
            "y":-541.725348
         },
         {
            "x":1536.378447,
            "y":-544.730024
         },
         {
            "x":1533.497137,
            "y":-528.180925
         },
         {
            "x":1561.730653,
            "y":-535.254310
         },
         {
            "x":1557.914222,
            "y":-512.792434
         },
         {
            "x":1554.472876,
            "y":-495.776535
         },
         {
            "x":1564.588826,
            "y":-523.353661
         },
         {
            "x":1542.088908,
            "y":-569.812680
         },
         {
            "x":1523.012304,
            "y":-511.970668
         },
         {
            "x":1556.940975,
            "y":-480.756691
         },
         {
            "x":1554.599931,
            "y":-476.861903
         },
         {
            "x":1540.217008,
            "y":-462.030384
         },
         {
            "x":1548.457270,
            "y":-410.403796
         },
         {
            "x":1547.834508,
            "y":-424.376701
         },
         {
            "x":1534.970728,
            "y":-410.177799
         },
         {
            "x":1531.381260,
            "y":-340.152939
         },
         {
            "x":1558.013909,
            "y":-321.084477
         },
         {
            "x":1570.058619,
            "y":-323.316679
         },
         {
            "x":1571.838070,
            "y":-314.260876
         },
         {
            "x":1556.791134,
            "y":-344.709982
         },
         {
            "x":1555.487063,
            "y":-312.530801
         },
         {
            "x":1523.492061,
            "y":-216.322714
         },
         {
            "x":1544.952057,
            "y":-224.810556
         },
         {
            "x":1533.404685,
            "y":-233.763550
         },
         {
            "x":1500.119086,
            "y":-305.885063
         },
         {
            "x":1510.676599,
            "y":-283.758033
         },
         {
            "x":1571.166397,
            "y":-332.263183
         },
         {
            "x":1551.522343,
            "y":-329.738240
         },
         {
            "x":1537.952297,
            "y":-287.478143
         },
         {
            "x":1563.325531,
            "y":-228.116114
         },
         {
            "x":1559.624396,
            "y":-225.551564
         },
         {
            "x":1548.119487,
            "y":-208.110766
         },
         {
            "x":1539.010610,
            "y":-163.438792
         },
         {
            "x":1567.921687,
            "y":-148.095585
         },
         {
            "x":1565.303182,
            "y":-143.078211
         },
         {
            "x":1597.194776,
            "y":-143.269361
         },
         {
            "x":1557.846455,
            "y":-103.524838
         },
         {
            "x":1594.373726,
            "y":-104.855849
         },
         {
            "x":1539.475254,
            "y":-109.340170
         },
         {
            "x":1547.015187,
            "y":-94.523852
         },
         {
            "x":1513.222487,
            "y":-96.167328
         },
         {
            "x":1522.946322,
            "y":-129.112894
         },
         {
            "x":1496.868453,
            "y":-142.526854
         },
         {
            "x":1489.799232,
            "y":-76.589004
         },
         {
            "x":1494.446948,
            "y":-79.238210
         },
         {
            "x":1493.211336,
            "y":-71.598992
         },
         {
            "x":1479.398692,
            "y":-54.082159
         },
         {
            "x":1478.565458,
            "y":-78.903553
         },
         {
            "x":1485.386152,
            "y":-60.664570
         },
         {
            "x":1457.953124,
            "y":-32.594067
         },
         {
            "x":1494.710542,
            "y":9.517674
         },
         {
            "x":1479.932664,
            "y":40.196265
         },
         {
            "x":1484.180987,
            "y":70.507317
         },
         {
            "x":1470.770829,
            "y":53.388705
         },
         {
            "x":1465.511871,
            "y":83.856573
         },
         {
            "x":1432.992682,
            "y":104.514653
         },
         {
            "x":1460.922806,
            "y":82.283316
         },
         {
            "x":1448.344208,
            "y":101.746992
         },
         {
            "x":1436.533856,
            "y":79.856712
         },
         {
            "x":1449.442939,
            "y":148.239409
         },
         {
            "x":1452.271653,
            "y":162.010996
         },
         {
            "x":1416.392798,
            "y":181.164069
         },
         {
            "x":1430.910955,
            "y":183.470066
         },
         {
            "x":1422.774133,
            "y":185.850182
         },
         {
            "x":1428.092904,
            "y":180.852194
         },
         {
            "x":1391.817943,
            "y":190.185306
         },
         {
            "x":1388.919887,
            "y":224.036168
         },
         {
            "x":1349.277242,
            "y":245.455378
         },
         {
            "x":1346.765915,
            "y":287.698185
         },
         {
            "x":1375.485947,
            "y":230.793159
         },
         {
            "x":1336.523426,
            "y":289.933821
         },
         {
            "x":1320.389704,
            "y":266.042104
         },
         {
            "x":1330.675426,
            "y":327.250473
         },
         {
            "x":1328.682851,
            "y":324.696703
         },
         {
            "x":1307.238643,
            "y":312.134944
         },
         {
            "x":1317.931183,
            "y":303.021814
         },
         {
            "x":1291.448384,
            "y":265.080469
         },
         {
            "x":1239.270845,
            "y":278.680007
         },
         {
            "x":1217.156310,
            "y":291.787355
         },
         {
            "x":1218.220378,
            "y":265.800644
         },
         {
            "x":1206.062523,
            "y":260.424822
         },
         {
            "x":1234.574595,
            "y":268.234936
         },
         {
            "x":1189.661821,
            "y":287.466279
         },
         {
            "x":1182.188280,
            "y":308.173948
         },
         {
            "x":1166.800218,
            "y":265.186618
         },
         {
            "x":1156.948453,
            "y":284.417743
         },
         {
            "x":1181.369348,
            "y":313.378621
         },
         {
            "x":1182.439969,
            "y":335.039570
         },
         {
            "x":1171.904582,
            "y":311.051607
         },
         {
            "x":1151.185432,
            "y":308.312939
         },
         {
            "x":1119.872162,
            "y":317.256480
         },
         {
            "x":1121.076495,
            "y":271.047827
         },
         {
            "x":1116.217317,
            "y":299.799890
         },
         {
            "x":1116.012299,
            "y":305.345002
         },
         {
            "x":1100.984194,
            "y":333.562199
         },
         {
            "x":1108.205395,
            "y":339.380851
         },
         {
            "x":1114.918462,
            "y":301.189757
         },
         {
            "x":1098.269087,
            "y":319.521387
         },
         {
            "x":1069.897941,
            "y":321.812183
         },
         {
            "x":1086.591753,
            "y":341.359424
         },
         {
            "x":1079.288554,
            "y":325.769518
         },
         {
            "x":1058.185551,
            "y":310.628749
         },
         {
            "x":1066.861112,
            "y":285.976091
         },
         {
            "x":1045.401733,
            "y":293.921049
         },
         {
            "x":1057.384817,
            "y":218.610567
         },
         {
            "x":1073.310078,
            "y":333.644317
         },
         {
            "x":1043.564388,
            "y":318.649533
         },
         {
            "x":1049.148844,
            "y":323.456503
         },
         {
            "x":1050.458516,
            "y":296.450893
         },
         {
            "x":1057.986477,
            "y":280.415635
         },
         {
            "x":1061.171704,
            "y":305.671714
         },
         {
            "x":1057.699858,
            "y":298.186044
         },
         {
            "x":1052.556559,
            "y":280.200063
         },
         {
            "x":1066.663973,
            "y":309.068846
         },
         {
            "x":1061.871831,
            "y":261.164034
         },
         {
            "x":1059.284799,
            "y":268.807144
         },
         {
            "x":1070.073770,
            "y":236.254824
         },
         {
            "x":1025.065921,
            "y":244.592843
         },
         {
            "x":1038.450148,
            "y":259.570294
         },
         {
            "x":1032.796526,
            "y":265.352787
         },
         {
            "x":1022.436428,
            "y":326.875934
         },
         {
            "x":1034.083092,
            "y":307.847901
         },
         {
            "x":1047.115521,
            "y":310.984852
         },
         {
            "x":1008.635809,
            "y":320.811922
         },
         {
            "x":1047.647499,
            "y":339.806504
         },
         {
            "x":1046.382595,
            "y":327.147922
         },
         {
            "x":1072.931933,
            "y":341.409886
         },
         {
            "x":1062.097181,
            "y":365.011240
         },
         {
            "x":1058.638267,
            "y":318.644420
         },
         {
            "x":1042.793452,
            "y":347.890752
         },
         {
            "x":1067.313379,
            "y":277.642628
         },
         {
            "x":1061.542940,
            "y":305.232933
         },
         {
            "x":1072.764845,
            "y":318.815133
         },
         {
            "x":1044.530101,
            "y":321.369680
         },
         {
            "x":1081.052065,
            "y":309.848940
         },
         {
            "x":1082.294892,
            "y":354.212076
         },
         {
            "x":1078.876210,
            "y":368.786617
         },
         {
            "x":1080.743946,
            "y":334.211526
         },
         {
            "x":1060.448465,
            "y":318.960805
         },
         {
            "x":1050.193398,
            "y":275.001580
         },
         {
            "x":1120.875636,
            "y":281.550059
         },
         {
            "x":1084.454708,
            "y":339.200771
         },
         {
            "x":1082.013736,
            "y":319.091187
         },
         {
            "x":1089.212873,
            "y":332.640380
         },
         {
            "x":1074.270571,
            "y":287.724660
         },
         {
            "x":1084.049076,
            "y":274.016414
         },
         {
            "x":1097.529760,
            "y":269.709214
         },
         {
            "x":1083.657887,
            "y":249.084368
         },
         {
            "x":1074.489404,
            "y":248.792650
         },
         {
            "x":1090.341654,
            "y":209.635363
         },
         {
            "x":1082.944983,
            "y":223.759308
         },
         {
            "x":1078.706789,
            "y":208.338321
         },
         {
            "x":1057.713287,
            "y":196.635218
         },
         {
            "x":1059.565683,
            "y":211.353547
         },
         {
            "x":1049.863365,
            "y":214.795386
         },
         {
            "x":1040.544574,
            "y":175.927712
         },
         {
            "x":1039.052364,
            "y":209.229439
         },
         {
            "x":1054.638606,
            "y":153.500781
         },
         {
            "x":1046.382585,
            "y":157.142676
         },
         {
            "x":1066.130689,
            "y":171.460113
         },
         {
            "x":1047.177414,
            "y":128.020622
         },
         {
            "x":1046.443056,
            "y":113.617239
         },
         {
            "x":1042.386107,
            "y":102.991724
         },
         {
            "x":1007.027842,
            "y":82.074320
         },
         {
            "x":1022.638883,
            "y":108.309711
         },
         {
            "x":1013.265008,
            "y":85.454646
         },
         {
            "x":1028.178257,
            "y":55.825430
         },
         {
            "x":1020.718360,
            "y":20.407791
         },
         {
            "x":1004.164036,
            "y":31.665271
         },
         {
            "x":996.400979,
            "y":34.608139
         },
         {
            "x":1017.542136,
            "y":17.955112
         },
         {
            "x":994.721143,
            "y":15.492908
         },
         {
            "x":989.884894,
            "y":-28.640614
         },
         {
            "x":965.480456,
            "y":-81.174785
         },
         {
            "x":975.925315,
            "y":-71.062663
         },
         {
            "x":973.695751,
            "y":-93.372440
         },
         {
            "x":989.293927,
            "y":-73.269110
         },
         {
            "x":977.659846,
            "y":-89.652628
         },
         {
            "x":953.690651,
            "y":-89.603034
         },
         {
            "x":947.458242,
            "y":-80.499688
         },
         {
            "x":970.731332,
            "y":-115.158269
         },
         {
            "x":960.400219,
            "y":-127.837136
         },
         {
            "x":950.516149,
            "y":-147.790858
         },
         {
            "x":953.148462,
            "y":-140.287546
         },
         {
            "x":956.525337,
            "y":-146.302870
         },
         {
            "x":972.839063,
            "y":-132.506034
         },
         {
            "x":970.444625,
            "y":-124.421559
         },
         {
            "x":949.136253,
            "y":-97.483090
         },
         {
            "x":971.019687,
            "y":-91.275855
         },
         {
            "x":987.703906,
            "y":-119.311351
         },
         {
            "x":944.816976,
            "y":-141.248453
         },
         {
            "x":968.657772,
            "y":-155.200726
         },
         {
            "x":1006.163397,
            "y":-99.239658
         },
         {
            "x":1009.638458,
            "y":-123.281688
         },
         {
            "x":995.556984,
            "y":-129.030327
         },
         {
            "x":1016.389612,
            "y":-114.567512
         },
         {
            "x":989.093869,
            "y":-116.767590
         },
         {
            "x":1010.873840,
            "y":-131.587576
         },
         {
            "x":978.184681,
            "y":-155.179530
         },
         {
            "x":959.110732,
            "y":-153.244763
         },
         {
            "x":924.204589,
            "y":-163.991276
         },
         {
            "x":960.413578,
            "y":-146.879651
         },
         {
            "x":935.077799,
            "y":-136.827900
         },
         {
            "x":891.191432,
            "y":-164.842756
         },
         {
            "x":911.935220,
            "y":-150.449965
         },
         {
            "x":900.081286,
            "y":-187.568043
         },
         {
            "x":893.610109,
            "y":-186.640994
         },
         {
            "x":899.463348,
            "y":-194.902774
         },
         {
            "x":906.138989,
            "y":-198.058129
         },
         {
            "x":934.501416,
            "y":-160.768063
         },
         {
            "x":935.935619,
            "y":-159.456218
         },
         {
            "x":956.439984,
            "y":-146.709831
         },
         {
            "x":943.118330,
            "y":-144.864605
         },
         {
            "x":962.867660,
            "y":-125.207849
         },
         {
            "x":923.153167,
            "y":-161.093508
         },
         {
            "x":939.768098,
            "y":-116.170316
         },
         {
            "x":925.537638,
            "y":-124.505606
         },
         {
            "x":937.083126,
            "y":-125.886730
         },
         {
            "x":950.041524,
            "y":-165.792271
         },
         {
            "x":912.844536,
            "y":-146.451676
         },
         {
            "x":906.036156,
            "y":-137.439700
         },
         {
            "x":952.957222,
            "y":-90.110947
         },
         {
            "x":932.002893,
            "y":-103.988945
         },
         {
            "x":969.883173,
            "y":-126.996352
         },
         {
            "x":1001.439102,
            "y":-104.256200
         },
         {
            "x":1005.371442,
            "y":-68.512280
         },
         {
            "x":997.959545,
            "y":-61.774633
         },
         {
            "x":1045.810927,
            "y":-77.444522
         },
         {
            "x":1054.602072,
            "y":-71.442772
         },
         {
            "x":1038.333554,
            "y":-91.563425
         }
      ]
   }
]