[
   {
      "Subspace":0,
      "points":[
         {
            "x":732.631801,
            "y":189.848041
         },
         {
            "x":801.121032,
            "y":228.373536
         },
         {
            "x":796.856498,
            "y":212.866595
         },
         {
            "x":773.773255,
            "y":229.416749
         },
         {
            "x":771.956278,
            "y":250.003111
         },
         {
            "x":766.282667,
            "y":219.228492
         },
         {
            "x":775.480487,
            "y":248.549276
         },
         {
            "x":803.110933,
            "y":257.239522
         },
         {
            "x":817.323853,
            "y":265.362146
         },
         {
            "x":822.677550,
            "y":269.502197
         },
         {
            "x":842.126334,
            "y":270.516514
         },
         {
            "x":874.053107,
            "y":258.968707
         },
         {
            "x":879.346474,
            "y":258.315706
         },
         {
            "x":908.895207,
            "y":307.833461
         },
         {
            "x":891.610399,
            "y":289.755764
         },
         {
            "x":935.789592,
            "y":331.520251
         },
         {
            "x":887.496717,
            "y":277.144718
         },
         {
            "x":869.229287,
            "y":306.910826
         },
         {
            "x":873.228451,
            "y":275.522344
         },
         {
            "x":900.296342,
            "y":326.838359
         },
         {
            "x":964.861438,
            "y":332.281843
         },
         {
            "x":952.664137,
            "y":338.582988
         },
         {
            "x":969.063654,
            "y":345.390209
         },
         {
            "x":963.060900,
            "y":360.709290
         },
         {
            "x":973.560218,
            "y":395.997824
         },
         {
            "x":1000.657255,
            "y":366.867879
         },
         {
            "x":1027.640560,
            "y":419.631727
         },
         {
            "x":1015.036461,
            "y":413.527232
         },
         {
            "x":1029.887431,
            "y":420.242727
         },
         {
            "x":1009.193488,
            "y":410.274951
         },
         {
            "x":1015.201007,
            "y":462.047742
         },
         {
            "x":1010.718595,
            "y":440.525405
         },
         {
            "x":1043.520890,
            "y":357.114495
         },
         {
            "x":1013.388618,
            "y":334.202613
         },
         {
            "x":1071.748746,
            "y":246.963377
         },
         {
            "x":1085.374035,
            "y":268.634387
         },
         {
            "x":1069.684419,
            "y":305.080513
         },
         {
            "x":1065.247860,
            "y":302.894038
         },
         {
            "x":1101.006600,
            "y":298.391480
         },
         {
            "x":1132.039843,
            "y":310.894459
         },
         {
            "x":1154.023356,
            "y":322.966398
         },
         {
            "x":1190.184255,
            "y":348.014429
         },
         {
            "x":1094.687605,
            "y":125.975795
         },
         {
            "x":1057.072081,
            "y":-27.293660
         },
         {
            "x":1111.774875,
            "y":-39.376169
         },
         {
            "x":1135.147925,
            "y":-84.940636
         },
         {
            "x":1113.456688,
            "y":-82.929019
         },
         {
            "x":1113.691458,
            "y":-78.004051
         },
         {
            "x":1126.254910,
            "y":-92.039360
         },
         {
            "x":1159.998591,
            "y":-126.661405
         },
         {
            "x":1154.806069,
            "y":-191.046193
         },
         {
            "x":1123.615393,
            "y":-202.946506
         },
         {
            "x":1088.556911,
            "y":-181.165763
         },
         {
            "x":1090.467976,
            "y":-188.293899
         },
         {
            "x":1121.241321,
            "y":-197.458426
         },
         {
            "x":1104.023253,
            "y":-169.883362
         },
         {
            "x":1099.217905,
            "y":-185.215344
         },
         {
            "x":1105.875986,
            "y":-191.050759
         },
         {
            "x":1115.006534,
            "y":-163.553365
         },
         {
            "x":1098.126997,
            "y":-125.116666
         },
         {
            "x":1112.065108,
            "y":-117.016777
         },
         {
            "x":1161.071472,
            "y":-114.637173
         },
         {
            "x":1144.708914,
            "y":-109.324989
         },
         {
            "x":1168.918637,
            "y":-62.696705
         },
         {
            "x":1168.865263,
            "y":-55.041150
         },
         {
            "x":1180.548530,
            "y":-54.883862
         },
         {
            "x":1217.120235,
            "y":-25.038343
         },
         {
            "x":1214.694747,
            "y":-58.937117
         },
         {
            "x":1198.589706,
            "y":-37.636032
         },
         {
            "x":1191.368856,
            "y":-39.207344
         },
         {
            "x":1201.018945,
            "y":-75.143788
         },
         {
            "x":1228.406686,
            "y":-62.870157
         },
         {
            "x":1274.411917,
            "y":-55.572380
         },
         {
            "x":1275.947923,
            "y":-78.042744
         },
         {
            "x":1264.557254,
            "y":-101.519568
         },
         {
            "x":1267.742573,
            "y":-131.725598
         },
         {
            "x":1313.057816,
            "y":-124.519305
         },
         {
            "x":1241.254390,
            "y":-181.876474
         },
         {
            "x":1235.342297,
            "y":-188.157542
         },
         {
            "x":1220.411031,
            "y":-279.601345
         },
         {
            "x":1217.255804,
            "y":-244.577450
         },
         {
            "x":1219.702602,
            "y":-255.621452
         },
         {
            "x":1225.246886,
            "y":-257.767636
         },
         {
            "x":1215.339084,
            "y":-298.151913
         },
         {
            "x":1218.636067,
            "y":-341.116317
         },
         {
            "x":1239.261850,
            "y":-373.970060
         },
         {
            "x":1219.229723,
            "y":-348.387706
         },
         {
            "x":1243.074020,
            "y":-320.547543
         },
         {
            "x":1268.460018,
            "y":-292.926539
         },
         {
            "x":1234.567986,
            "y":-316.454894
         },
         {
            "x":1288.786031,
            "y":-279.541869
         },
         {
            "x":1325.388894,
            "y":-264.896576
         },
         {
            "x":1309.892539,
            "y":-277.933283
         },
         {
            "x":1343.788943,
            "y":-329.907922
         },
         {
            "x":1357.569601,
            "y":-344.168663
         },
         {
            "x":1390.304960,
            "y":-223.377707
         },
         {
            "x":1376.695706,
            "y":-266.105098
         },
         {
            "x":1382.076414,
            "y":-271.998600
         },
         {
            "x":1369.342536,
            "y":-288.581630
         },
         {
            "x":1392.074997,
            "y":-297.598998
         },
         {
            "x":1424.707045,
            "y":-283.231361
         },
         {
            "x":1427.027242,
            "y":-243.005655
         },
         {
            "x":1424.666467,
            "y":-280.726870
         },
         {
            "x":1469.675360,
            "y":-313.880010
         },
         {
            "x":1484.782795,
            "y":-283.682101
         },
         {
            "x":1551.382330,
            "y":-297.885948
         },
         {
            "x":1518.586295,
            "y":-276.882843
         },
         {
            "x":1512.743975,
            "y":-267.929628
         },
         {
            "x":1516.493691,
            "y":-238.748815
         },
         {
            "x":1561.446059,
            "y":-270.827627
         },
         {
            "x":1535.324431,
            "y":-241.373861
         },
         {
            "x":1543.368600,
            "y":-185.724588
         },
         {
            "x":1549.794739,
            "y":-184.648095
         },
         {
            "x":1576.245772,
            "y":-186.534337
         },
         {
            "x":1643.322690,
            "y":-148.527503
         },
         {
            "x":1656.426196,
            "y":-140.545450
         },
         {
            "x":1646.355093,
            "y":-120.160143
         },
         {
            "x":1602.193252,
            "y":-137.319558
         },
         {
            "x":1574.022895,
            "y":-128.484177
         },
         {
            "x":1573.813434,
            "y":-174.866320
         },
         {
            "x":1558.052179,
            "y":-152.104735
         },
         {
            "x":1548.328244,
            "y":-101.030201
         },
         {
            "x":1556.894803,
            "y":-73.863786
         },
         {
            "x":1535.788506,
            "y":-83.593866
         },
         {
            "x":1555.605402,
            "y":-84.981077
         },
         {
            "x":1568.944472,
            "y":-131.745378
         },
         {
            "x":1577.719711,
            "y":-164.884226
         },
         {
            "x":1550.752049,
            "y":-161.409461
         },
         {
            "x":1521.186261,
            "y":-168.605000
         },
         {
            "x":1566.239491,
            "y":-155.002541
         },
         {
            "x":1553.237408,
            "y":-169.405085
         },
         {
            "x":1557.046021,
            "y":-164.179388
         },
         {
            "x":1554.511021,
            "y":-162.501678
         },
         {
            "x":1575.540819,
            "y":-190.101743
         },
         {
            "x":1572.457573,
            "y":-186.971363
         },
         {
            "x":1573.868951,
            "y":-170.692304
         },
         {
            "x":1586.314426,
            "y":-164.743202
         },
         {
            "x":1579.205083,
            "y":-111.520933
         },
         {
            "x":1567.318078,
            "y":-85.121679
         },
         {
            "x":1595.949815,
            "y":-107.473953
         },
         {
            "x":1600.978959,
            "y":-83.310656
         },
         {
            "x":1580.944055,
            "y":-99.402579
         },
         {
            "x":1598.351752,
            "y":-70.864838
         },
         {
            "x":1592.931944,
            "y":-86.717386
         },
         {
            "x":1576.890882,
            "y":-95.062442
         },
         {
            "x":1582.895792,
            "y":-63.117221
         },
         {
            "x":1601.758608,
            "y":-91.971896
         },
         {
            "x":1617.985177,
            "y":-80.382266
         },
         {
            "x":1615.262158,
            "y":-95.260581
         },
         {
            "x":1607.437788,
            "y":-69.872396
         },
         {
            "x":1630.186558,
            "y":9.116335
         },
         {
            "x":1654.118768,
            "y":195.949399
         },
         {
            "x":1667.934804,
            "y":168.521365
         },
         {
            "x":1655.346089,
            "y":166.857321
         },
         {
            "x":1630.161013,
            "y":197.570851
         },
         {
            "x":1645.987617,
            "y":213.566014
         },
         {
            "x":1692.091226,
            "y":157.661729
         },
         {
            "x":1673.083401,
            "y":162.917860
         },
         {
            "x":1661.366213,
            "y":171.128792
         },
         {
            "x":1692.376818,
            "y":185.951854
         },
         {
            "x":1687.460349,
            "y":182.486592
         },
         {
            "x":1682.121215,
            "y":204.461113
         },
         {
            "x":1685.827778,
            "y":247.591815
         },
         {
            "x":1721.851058,
            "y":266.331431
         },
         {
            "x":1720.869805,
            "y":272.197079
         },
         {
            "x":1741.488479,
            "y":230.764931
         },
         {
            "x":1709.784793,
            "y":261.889547
         },
         {
            "x":1749.841959,
            "y":267.863482
         },
         {
            "x":1701.129503,
            "y":295.814434
         },
         {
            "x":1710.613798,
            "y":301.273183
         },
         {
            "x":1672.200663,
            "y":291.310888
         },
         {
            "x":1683.148255,
            "y":293.709401
         },
         {
            "x":1661.132723,
            "y":310.900760
         },
         {
            "x":1652.228632,
            "y":305.749778
         },
         {
            "x":1648.706905,
            "y":278.401022
         },
         {
            "x":1640.354667,
            "y":255.382106
         },
         {
            "x":1638.270706,
            "y":295.836810
         },
         {
            "x":1641.645911,
            "y":309.592265
         },
         {
            "x":1647.782193,
            "y":306.170274
         },
         {
            "x":1612.050703,
            "y":283.820656
         },
         {
            "x":1651.284513,
            "y":286.177413
         },
         {
            "x":1628.515385,
            "y":262.608344
         },
         {
            "x":1638.072408,
            "y":279.273510
         },
         {
            "x":1608.865277,
            "y":229.390548
         },
         {
            "x":1601.017987,
            "y":221.844579
         },
         {
            "x":1578.475454,
            "y":259.296612
         },
         {
            "x":1595.469296,
            "y":219.656586
         },
         {
            "x":1589.216558,
            "y":242.256461
         },
         {
            "x":1573.206407,
            "y":230.513442
         },
         {
            "x":1606.194357,
            "y":294.034184
         },
         {
            "x":1614.448155,
            "y":311.400620
         },
         {
            "x":1588.012666,
            "y":347.504420
         },
         {
            "x":1603.603191,
            "y":348.844635
         },
         {
            "x":1608.870782,
            "y":393.204543
         },
         {
            "x":1610.515099,
            "y":380.682149
         },
         {
            "x":1572.085896,
            "y":378.856431
         },
         {
            "x":1572.607339,
            "y":390.511148
         },
         {
            "x":1514.734690,
            "y":337.155364
         },
         {
            "x":1517.312574,
            "y":354.128289
         },
         {
            "x":1552.324470,
            "y":369.990424
         },
         {
            "x":1528.192328,
            "y":424.047625
         },
         {
            "x":1500.585165,
            "y":388.886538
         },
         {
            "x":1522.070427,
            "y":423.713100
         },
         {
            "x":1520.068026,
            "y":424.195410
         },
         {
            "x":1503.268135,
            "y":442.535762
         },
         {
            "x":1509.963070,
            "y":427.987900
         },
         {
            "x":1468.000643,
            "y":381.267077
         },
         {
            "x":1415.005663,
            "y":386.418291
         },
         {
            "x":1401.619533,
            "y":417.836208
         },
         {
            "x":1393.453469,
            "y":387.615911
         },
         {
            "x":1387.273294,
            "y":409.137420
         },
         {
            "x":1406.532956,
            "y":374.666218
         },
         {
            "x":1369.481271,
            "y":407.073677
         },
         {
            "x":1361.198724,
            "y":405.364270
         },
         {
            "x":1344.228741,
            "y":402.354890
         },
         {
            "x":1333.634378,
            "y":401.425133
         },
         {
            "x":1365.603369,
            "y":422.294459
         },
         {
            "x":1356.520510,
            "y":389.149183
         },
         {
            "x":1343.559523,
            "y":382.894819
         },
         {
            "x":1328.070291,
            "y":403.188455
         },
         {
            "x":1293.601732,
            "y":397.691511
         },
         {
            "x":1291.550530,
            "y":386.527488
         },
         {
            "x":1308.647174,
            "y":458.414034
         },
         {
            "x":1308.757638,
            "y":459.411363
         },
         {
            "x":1298.257757,
            "y":476.515144
         },
         {
            "x":1302.504251,
            "y":465.847154
         },
         {
            "x":1288.525139,
            "y":397.491236
         },
         {
            "x":1268.471592,
            "y":389.002783
         },
         {
            "x":1248.989963,
            "y":422.069896
         },
         {
            "x":1274.684049,
            "y":448.903492
         },
         {
            "x":1264.132572,
            "y":439.407312
         },
         {
            "x":1240.342952,
            "y":433.724626
         },
         {
            "x":1250.724804,
            "y":438.140384
         },
         {
            "x":1226.195397,
            "y":430.837519
         },
         {
            "x":1225.338932,
            "y":387.396676
         },
         {
            "x":1240.688913,
            "y":383.692155
         },
         {
            "x":1219.101978,
            "y":414.345957
         },
         {
            "x":1219.038137,
            "y":395.143109
         },
         {
            "x":1216.376118,
            "y":382.040694
         },
         {
            "x":1214.923542,
            "y":351.688587
         },
         {
            "x":1217.947607,
            "y":350.792131
         },
         {
            "x":1209.165276,
            "y":333.868683
         },
         {
            "x":1195.919393,
            "y":308.191418
         },
         {
            "x":1207.521440,
            "y":298.374150
         },
         {
            "x":1195.199638,
            "y":274.331174
         },
         {
            "x":1205.991101,
            "y":318.048158
         },
         {
            "x":1209.431419,
            "y":292.475018
         },
         {
            "x":1171.009201,
            "y":320.640007
         },
         {
            "x":1182.563832,
            "y":312.716060
         },
         {
            "x":1175.673143,
            "y":309.439379
         },
         {
            "x":1154.774224,
            "y":276.995015
         },
         {
            "x":1157.870471,
            "y":247.528099
         },
         {
            "x":1163.665584,
            "y":222.083350
         },
         {
            "x":1119.695033,
            "y":210.070314
         },
         {
            "x":1138.903718,
            "y":139.743329
         },
         {
            "x":1132.515298,
            "y":123.327307
         },
         {
            "x":1151.212081,
            "y":93.887748
         },
         {
            "x":1139.717138,
            "y":93.791195
         },
         {
            "x":1124.539760,
            "y":56.267296
         },
         {
            "x":1113.726736,
            "y":74.736531
         },
         {
            "x":1113.359586,
            "y":-10.088611
         },
         {
            "x":1107.385050,
            "y":-9.723707
         },
         {
            "x":1119.797763,
            "y":-7.586577
         },
         {
            "x":1096.918759,
            "y":14.239555
         },
         {
            "x":1111.494554,
            "y":-62.775239
         },
         {
            "x":1092.891643,
            "y":-127.369666
         },
         {
            "x":1089.666469,
            "y":-126.399043
         },
         {
            "x":1090.921694,
            "y":-128.351856
         },
         {
            "x":1069.897157,
            "y":-127.647268
         },
         {
            "x":1054.461565,
            "y":-143.294613
         },
         {
            "x":1119.966221,
            "y":-170.593205
         },
         {
            "x":1083.906855,
            "y":-163.749747
         },
         {
            "x":1080.163182,
            "y":-167.606914
         },
         {
            "x":1094.707061,
            "y":-144.552194
         },
         {
            "x":1070.542692,
            "y":-172.417945
         },
         {
            "x":1080.070436,
            "y":-174.736756
         },
         {
            "x":1086.640736,
            "y":-198.933967
         },
         {
            "x":1065.238470,
            "y":-221.670342
         },
         {
            "x":1050.718824,
            "y":-237.853215
         },
         {
            "x":1063.044340,
            "y":-251.814259
         },
         {
            "x":1055.490984,
            "y":-250.980982
         },
         {
            "x":1055.235937,
            "y":-237.139241
         },
         {
            "x":1035.379824,
            "y":-230.361151
         },
         {
            "x":1035.405330,
            "y":-236.624168
         },
         {
            "x":1030.133467,
            "y":-221.177968
         },
         {
            "x":1015.414912,
            "y":-237.309528
         },
         {
            "x":1016.434335,
            "y":-229.165025
         },
         {
            "x":1021.295034,
            "y":-266.659963
         },
         {
            "x":1009.760942,
            "y":-276.036040
         },
         {
            "x":1023.207116,
            "y":-299.218026
         },
         {
            "x":993.143252,
            "y":-332.513175
         },
         {
            "x":988.725151,
            "y":-344.395223
         },
         {
            "x":984.525124,
            "y":-344.456109
         },
         {
            "x":957.685566,
            "y":-311.925540
         },
         {
            "x":968.705367,
            "y":-329.024919
         },
         {
            "x":960.829162,
            "y":-322.698160
         },
         {
            "x":967.060294,
            "y":-352.808018
         },
         {
            "x":948.843749,
            "y":-386.884953
         },
         {
            "x":950.319953,
            "y":-325.907858
         },
         {
            "x":943.503364,
            "y":-321.527583
         },
         {
            "x":958.644051,
            "y":-344.438264
         },
         {
            "x":947.146342,
            "y":-304.217066
         },
         {
            "x":940.297170,
            "y":-309.955473
         },
         {
            "x":923.093991,
            "y":-282.685545
         },
         {
            "x":935.442635,
            "y":-277.949095
         },
         {
            "x":930.470675,
            "y":-286.778507
         },
         {
            "x":952.327504,
            "y":-268.599496
         },
         {
            "x":938.493968,
            "y":-274.076636
         },
         {
            "x":910.799685,
            "y":-282.956539
         },
         {
            "x":912.009234,
            "y":-257.698450
         },
         {
            "x":933.188154,
            "y":-268.201764
         },
         {
            "x":924.657311,
            "y":-261.044029
         },
         {
            "x":915.376828,
            "y":-257.724490
         },
         {
            "x":920.272158,
            "y":-250.568899
         },
         {
            "x":921.806594,
            "y":-257.230603
         },
         {
            "x":934.439931,
            "y":-271.658655
         },
         {
            "x":937.673201,
            "y":-252.849161
         },
         {
            "x":926.428044,
            "y":-216.967415
         },
         {
            "x":942.624061,
            "y":-238.778329
         },
         {
            "x":941.876814,
            "y":-297.835468
         },
         {
            "x":883.657029,
            "y":-341.345946
         },
         {
            "x":896.416249,
            "y":-380.576230
         },
         {
            "x":921.544069,
            "y":-426.384200
         },
         {
            "x":929.671373,
            "y":-411.973992
         },
         {
            "x":900.119278,
            "y":-460.114019
         },
         {
            "x":926.951741,
            "y":-443.614498
         },
         {
            "x":896.997077,
            "y":-448.174864
         },
         {
            "x":925.855347,
            "y":-428.107055
         },
         {
            "x":905.442046,
            "y":-383.787060
         },
         {
            "x":893.263214,
            "y":-358.829194
         },
         {
            "x":859.403744,
            "y":-350.120621
         },
         {
            "x":897.081550,
            "y":-350.536154
         },
         {
            "x":874.010620,
            "y":-339.589202
         },
         {
            "x":824.754887,
            "y":-350.674750
         },
         {
            "x":841.601488,
            "y":-366.540619
         },
         {
            "x":830.670180,
            "y":-361.800753
         },
         {
            "x":824.166580,
            "y":-360.999566
         },
         {
            "x":823.602638,
            "y":-382.770427
         },
         {
            "x":821.918879,
            "y":-410.764379
         },
         {
            "x":859.758660,
            "y":-384.226321
         },
         {
            "x":856.847603,
            "y":-398.627886
         },
         {
            "x":886.475106,
            "y":-372.013931
         },
         {
            "x":877.613456,
            "y":-355.420763
         },
         {
            "x":896.345941,
            "y":-361.690914
         },
         {
            "x":889.244004,
            "y":-250.035329
         },
         {
            "x":909.786789,
            "y":-239.628756
         },
         {
            "x":889.937819,
            "y":-255.671907
         },
         {
            "x":900.643616,
            "y":-260.146490
         },
         {
            "x":911.233620,
            "y":-269.956697
         },
         {
            "x":876.902986,
            "y":-255.220982
         },
         {
            "x":871.540371,
            "y":-249.723526
         },
         {
            "x":915.139766,
            "y":-267.539335
         },
         {
            "x":886.431232,
            "y":-289.446381
         },
         {
            "x":906.663780,
            "y":-352.226595
         },
         {
            "x":942.681370,
            "y":-342.071552
         },
         {
            "x":950.889614,
            "y":-328.360012
         },
         {
            "x":947.315576,
            "y":-314.853107
         },
         {
            "x":981.977182,
            "y":-364.796087
         },
         {
            "x":988.252560,
            "y":-374.231472
         },
         {
            "x":965.429122,
            "y":-392.922468
         }
      ]
   },
   {
      "Subspace":1,
      "points":[
         {
            "x":-1092.764874,
            "y":471.272098
         },
         {
            "x":-1160.000274,
            "y":450.373639
         },
         {
            "x":-1137.680375,
            "y":428.911193
         },
         {
            "x":-1121.301964,
            "y":417.291890
         },
         {
            "x":-1136.471629,
            "y":457.610219
         },
         {
            "x":-1134.075589,
            "y":457.191069
         },
         {
            "x":-1131.072407,
            "y":470.508754
         },
         {
            "x":-1143.788672,
            "y":467.732581
         },
         {
            "x":-1156.504297,
            "y":488.725834
         },
         {
            "x":-1112.871188,
            "y":447.138339
         },
         {
            "x":-1130.560760,
            "y":423.680206
         },
         {
            "x":-1170.159885,
            "y":412.152588
         },
         {
            "x":-1167.795656,
            "y":408.022288
         },
         {
            "x":-1192.981455,
            "y":382.424013
         },
         {
            "x":-1182.172931,
            "y":392.981224
         },
         {
            "x":-1231.257935,
            "y":344.594275
         },
         {
            "x":-1200.462387,
            "y":404.471273
         },
         {
            "x":-1176.935641,
            "y":411.114257
         },
         {
            "x":-1233.024947,
            "y":456.952238
         },
         {
            "x":-1251.864836,
            "y":427.657074
         },
         {
            "x":-1329.030534,
            "y":430.062242
         },
         {
            "x":-1316.523791,
            "y":448.527403
         },
         {
            "x":-1309.342565,
            "y":427.491132
         },
         {
            "x":-1320.376561,
            "y":434.733910
         },
         {
            "x":-1345.199659,
            "y":480.353487
         },
         {
            "x":-1350.315096,
            "y":461.987785
         },
         {
            "x":-1368.277034,
            "y":443.899057
         },
         {
            "x":-1364.233007,
            "y":472.438810
         },
         {
            "x":-1372.940038,
            "y":462.092801
         },
         {
            "x":-1364.539297,
            "y":492.796314
         },
         {
            "x":-1402.125111,
            "y":469.856097
         },
         {
            "x":-1377.508540,
            "y":426.066980
         },
         {
            "x":-1410.126417,
            "y":428.786265
         },
         {
            "x":-1389.717229,
            "y":439.661506
         },
         {
            "x":-1459.795240,
            "y":414.598286
         },
         {
            "x":-1471.402224,
            "y":414.409277
         },
         {
            "x":-1453.753951,
            "y":407.896243
         },
         {
            "x":-1449.373613,
            "y":404.835761
         },
         {
            "x":-1453.072717,
            "y":348.929826
         },
         {
            "x":-1453.876235,
            "y":350.533114
         },
         {
            "x":-1467.888104,
            "y":336.100753
         },
         {
            "x":-1509.708305,
            "y":276.351903
         },
         {
            "x":-1411.830900,
            "y":331.778215
         },
         {
            "x":-1380.905477,
            "y":371.279172
         },
         {
            "x":-1430.319031,
            "y":362.486410
         },
         {
            "x":-1430.039733,
            "y":318.792664
         },
         {
            "x":-1387.246536,
            "y":275.062885
         },
         {
            "x":-1393.304170,
            "y":271.286094
         },
         {
            "x":-1403.201194,
            "y":252.360463
         },
         {
            "x":-1446.771733,
            "y":224.772764
         },
         {
            "x":-1476.432544,
            "y":254.892686
         },
         {
            "x":-1462.038835,
            "y":298.510083
         },
         {
            "x":-1407.686245,
            "y":291.812686
         },
         {
            "x":-1426.243000,
            "y":318.724844
         },
         {
            "x":-1447.253952,
            "y":299.409940
         },
         {
            "x":-1443.848000,
            "y":336.596101
         },
         {
            "x":-1450.477906,
            "y":357.875943
         },
         {
            "x":-1450.103297,
            "y":359.881542
         },
         {
            "x":-1423.029321,
            "y":318.509824
         },
         {
            "x":-1424.621418,
            "y":347.965767
         },
         {
            "x":-1418.268663,
            "y":308.937946
         },
         {
            "x":-1467.437296,
            "y":286.190322
         },
         {
            "x":-1447.884494,
            "y":281.219841
         },
         {
            "x":-1479.871196,
            "y":300.656926
         },
         {
            "x":-1481.909559,
            "y":330.284590
         },
         {
            "x":-1488.471186,
            "y":279.024382
         },
         {
            "x":-1522.223472,
            "y":265.917451
         },
         {
            "x":-1514.952573,
            "y":276.387732
         },
         {
            "x":-1496.680700,
            "y":275.595861
         },
         {
            "x":-1490.580120,
            "y":290.815995
         },
         {
            "x":-1511.873575,
            "y":316.055632
         },
         {
            "x":-1520.950996,
            "y":271.271273
         },
         {
            "x":-1574.162725,
            "y":218.193303
         },
         {
            "x":-1573.683782,
            "y":231.821542
         },
         {
            "x":-1562.221485,
            "y":225.959367
         },
         {
            "x":-1577.525241,
            "y":235.426284
         },
         {
            "x":-1615.676747,
            "y":213.652566
         },
         {
            "x":-1569.626526,
            "y":250.836217
         },
         {
            "x":-1571.556772,
            "y":269.535436
         },
         {
            "x":-1575.198592,
            "y":318.633068
         },
         {
            "x":-1563.798198,
            "y":282.416887
         },
         {
            "x":-1585.156373,
            "y":277.182812
         },
         {
            "x":-1599.080866,
            "y":247.176255
         },
         {
            "x":-1582.270842,
            "y":238.550199
         },
         {
            "x":-1589.093379,
            "y":254.621706
         },
         {
            "x":-1618.119814,
            "y":289.861022
         },
         {
            "x":-1576.356958,
            "y":223.409799
         },
         {
            "x":-1621.326773,
            "y":246.354076
         },
         {
            "x":-1649.911599,
            "y":247.660120
         },
         {
            "x":-1640.242537,
            "y":287.177405
         },
         {
            "x":-1657.362381,
            "y":209.464060
         },
         {
            "x":-1694.080562,
            "y":179.015309
         },
         {
            "x":-1670.655262,
            "y":161.737771
         },
         {
            "x":-1698.095225,
            "y":83.560652
         },
         {
            "x":-1719.704648,
            "y":95.756245
         },
         {
            "x":-1771.018312,
            "y":81.932316
         },
         {
            "x":-1762.244647,
            "y":91.726757
         },
         {
            "x":-1769.485574,
            "y":87.397206
         },
         {
            "x":-1752.567102,
            "y":95.388684
         },
         {
            "x":-1769.947940,
            "y":67.709037
         },
         {
            "x":-1810.084122,
            "y":48.777959
         },
         {
            "x":-1812.889675,
            "y":27.819741
         },
         {
            "x":-1809.388915,
            "y":23.884244
         },
         {
            "x":-1856.547937,
            "y":-28.554150
         },
         {
            "x":-1788.273129,
            "y":-123.508856
         },
         {
            "x":-1821.431966,
            "y":-187.191837
         },
         {
            "x":-1820.556515,
            "y":-136.736137
         },
         {
            "x":-1837.997300,
            "y":-92.167373
         },
         {
            "x":-1812.569904,
            "y":-115.091631
         },
         {
            "x":-1856.089596,
            "y":-128.402228
         },
         {
            "x":-1837.596261,
            "y":-98.759169
         },
         {
            "x":-1840.337895,
            "y":-97.380985
         },
         {
            "x":-1835.706549,
            "y":-120.658718
         },
         {
            "x":-1864.703317,
            "y":-91.826505
         },
         {
            "x":-1892.076565,
            "y":-198.798743
         },
         {
            "x":-1896.110906,
            "y":-217.000708
         },
         {
            "x":-1889.382801,
            "y":-226.902608
         },
         {
            "x":-1847.461317,
            "y":-242.150972
         },
         {
            "x":-1823.847763,
            "y":-214.797741
         },
         {
            "x":-1813.936750,
            "y":-184.545196
         },
         {
            "x":-1817.070792,
            "y":-166.208686
         },
         {
            "x":-1797.367402,
            "y":-112.399962
         },
         {
            "x":-1811.770609,
            "y":-122.694596
         },
         {
            "x":-1772.086862,
            "y":-122.746109
         },
         {
            "x":-1789.299836,
            "y":-118.788849
         },
         {
            "x":-1783.905294,
            "y":-148.758145
         },
         {
            "x":-1796.722507,
            "y":-116.918785
         },
         {
            "x":-1768.521261,
            "y":-95.348892
         },
         {
            "x":-1746.553780,
            "y":-80.169319
         },
         {
            "x":-1786.658306,
            "y":-107.374707
         },
         {
            "x":-1745.797447,
            "y":-139.629314
         },
         {
            "x":-1752.457440,
            "y":-135.899707
         },
         {
            "x":-1740.737049,
            "y":-156.345537
         },
         {
            "x":-1758.206506,
            "y":-161.490922
         },
         {
            "x":-1743.121667,
            "y":-190.297935
         },
         {
            "x":-1736.106376,
            "y":-198.184173
         },
         {
            "x":-1763.008158,
            "y":-195.320785
         },
         {
            "x":-1801.418678,
            "y":-136.025364
         },
         {
            "x":-1759.084937,
            "y":-182.702854
         },
         {
            "x":-1758.454710,
            "y":-229.825096
         },
         {
            "x":-1764.582234,
            "y":-213.844290
         },
         {
            "x":-1732.729914,
            "y":-232.827426
         },
         {
            "x":-1724.024887,
            "y":-249.654428
         },
         {
            "x":-1717.255452,
            "y":-229.739073
         },
         {
            "x":-1693.635136,
            "y":-236.361079
         },
         {
            "x":-1662.307627,
            "y":-303.126058
         },
         {
            "x":-1665.878893,
            "y":-342.177585
         },
         {
            "x":-1684.674421,
            "y":-320.634152
         },
         {
            "x":-1671.640021,
            "y":-347.930090
         },
         {
            "x":-1686.331025,
            "y":-292.271878
         },
         {
            "x":-1716.248885,
            "y":-321.116491
         },
         {
            "x":-1727.642708,
            "y":-391.452560
         },
         {
            "x":-1748.048155,
            "y":-417.883527
         },
         {
            "x":-1743.128165,
            "y":-399.532056
         },
         {
            "x":-1763.484243,
            "y":-313.546368
         },
         {
            "x":-1772.644595,
            "y":-356.903336
         },
         {
            "x":-1833.985350,
            "y":-324.645336
         },
         {
            "x":-1815.925971,
            "y":-347.551367
         },
         {
            "x":-1781.450848,
            "y":-380.582405
         },
         {
            "x":-1781.761937,
            "y":-441.521000
         },
         {
            "x":-1773.673008,
            "y":-445.770274
         },
         {
            "x":-1764.117672,
            "y":-476.567470
         },
         {
            "x":-1749.602456,
            "y":-502.240622
         },
         {
            "x":-1778.644411,
            "y":-510.686591
         },
         {
            "x":-1779.563929,
            "y":-516.023681
         },
         {
            "x":-1787.038825,
            "y":-536.717429
         },
         {
            "x":-1745.319076,
            "y":-566.551817
         },
         {
            "x":-1784.697381,
            "y":-571.934704
         },
         {
            "x":-1743.824444,
            "y":-527.073519
         },
         {
            "x":-1744.719879,
            "y":-572.838887
         },
         {
            "x":-1708.526663,
            "y":-560.800314
         },
         {
            "x":-1739.426530,
            "y":-538.083556
         },
         {
            "x":-1734.329153,
            "y":-520.491140
         },
         {
            "x":-1679.502876,
            "y":-545.578252
         },
         {
            "x":-1670.307689,
            "y":-535.294491
         },
         {
            "x":-1654.458786,
            "y":-511.506816
         },
         {
            "x":-1657.250535,
            "y":-513.157416
         },
         {
            "x":-1679.450690,
            "y":-490.156079
         },
         {
            "x":-1674.340207,
            "y":-464.064305
         },
         {
            "x":-1618.143779,
            "y":-540.805181
         },
         {
            "x":-1626.811914,
            "y":-565.003774
         },
         {
            "x":-1585.026045,
            "y":-574.048685
         },
         {
            "x":-1581.510215,
            "y":-589.472717
         },
         {
            "x":-1542.749300,
            "y":-564.700673
         },
         {
            "x":-1514.109170,
            "y":-595.531639
         },
         {
            "x":-1491.990433,
            "y":-601.244346
         },
         {
            "x":-1513.048147,
            "y":-602.541114
         },
         {
            "x":-1500.917563,
            "y":-620.315849
         },
         {
            "x":-1498.629632,
            "y":-609.477438
         },
         {
            "x":-1509.413670,
            "y":-646.896512
         },
         {
            "x":-1515.560068,
            "y":-659.599949
         },
         {
            "x":-1487.965770,
            "y":-661.480245
         },
         {
            "x":-1500.065776,
            "y":-681.253630
         },
         {
            "x":-1505.808298,
            "y":-664.878511
         },
         {
            "x":-1508.310681,
            "y":-678.387564
         },
         {
            "x":-1463.469403,
            "y":-663.288953
         },
         {
            "x":-1442.558766,
            "y":-705.805329
         },
         {
            "x":-1363.883449,
            "y":-692.653951
         },
         {
            "x":-1344.482766,
            "y":-721.097889
         },
         {
            "x":-1416.766728,
            "y":-645.131911
         },
         {
            "x":-1368.918619,
            "y":-684.532415
         },
         {
            "x":-1345.258556,
            "y":-655.999424
         },
         {
            "x":-1341.155967,
            "y":-666.686371
         },
         {
            "x":-1342.827322,
            "y":-671.882658
         },
         {
            "x":-1340.981398,
            "y":-651.101744
         },
         {
            "x":-1351.936705,
            "y":-638.056091
         },
         {
            "x":-1321.457587,
            "y":-574.223821
         },
         {
            "x":-1267.207443,
            "y":-562.318194
         },
         {
            "x":-1255.070973,
            "y":-535.734040
         },
         {
            "x":-1251.878535,
            "y":-522.993255
         },
         {
            "x":-1259.770938,
            "y":-526.747850
         },
         {
            "x":-1262.065794,
            "y":-543.657635
         },
         {
            "x":-1225.270923,
            "y":-536.071200
         },
         {
            "x":-1197.408386,
            "y":-559.142294
         },
         {
            "x":-1204.481813,
            "y":-527.491314
         },
         {
            "x":-1185.618370,
            "y":-519.035579
         },
         {
            "x":-1203.472300,
            "y":-542.770030
         },
         {
            "x":-1171.876434,
            "y":-566.058040
         },
         {
            "x":-1174.170751,
            "y":-553.312438
         },
         {
            "x":-1169.083317,
            "y":-552.745236
         },
         {
            "x":-1129.233967,
            "y":-543.670004
         },
         {
            "x":-1148.272201,
            "y":-496.987164
         },
         {
            "x":-1161.188438,
            "y":-507.361393
         },
         {
            "x":-1158.578138,
            "y":-500.365280
         },
         {
            "x":-1137.763483,
            "y":-515.849765
         },
         {
            "x":-1134.155929,
            "y":-539.416630
         },
         {
            "x":-1131.813119,
            "y":-499.987095
         },
         {
            "x":-1095.844522,
            "y":-526.024381
         },
         {
            "x":-1084.606810,
            "y":-506.435426
         },
         {
            "x":-1105.022037,
            "y":-518.828504
         },
         {
            "x":-1100.893909,
            "y":-514.973433
         },
         {
            "x":-1083.763323,
            "y":-501.431776
         },
         {
            "x":-1111.515603,
            "y":-493.937578
         },
         {
            "x":-1078.645926,
            "y":-459.210281
         },
         {
            "x":-1113.839685,
            "y":-424.919551
         },
         {
            "x":-1063.220072,
            "y":-521.365172
         },
         {
            "x":-1055.610000,
            "y":-485.361242
         },
         {
            "x":-1047.728946,
            "y":-495.280330
         },
         {
            "x":-1055.914843,
            "y":-496.795785
         },
         {
            "x":-1057.097893,
            "y":-491.864259
         },
         {
            "x":-1045.880205,
            "y":-513.575311
         },
         {
            "x":-1039.829213,
            "y":-479.480904
         },
         {
            "x":-1028.615926,
            "y":-468.649330
         },
         {
            "x":-1030.642889,
            "y":-490.640542
         },
         {
            "x":-1035.443652,
            "y":-468.456110
         },
         {
            "x":-1048.970105,
            "y":-474.273575
         },
         {
            "x":-1062.596249,
            "y":-468.378984
         },
         {
            "x":-1027.761890,
            "y":-448.158399
         },
         {
            "x":-1027.209501,
            "y":-471.017816
         },
         {
            "x":-1014.776379,
            "y":-470.164627
         },
         {
            "x":-949.481709,
            "y":-529.358267
         },
         {
            "x":-955.088790,
            "y":-533.133746
         },
         {
            "x":-951.404489,
            "y":-547.530768
         },
         {
            "x":-903.349043,
            "y":-537.724498
         },
         {
            "x":-892.596850,
            "y":-556.514304
         },
         {
            "x":-890.276701,
            "y":-557.297511
         },
         {
            "x":-895.107455,
            "y":-578.160077
         },
         {
            "x":-873.885359,
            "y":-607.535859
         },
         {
            "x":-882.497739,
            "y":-564.860421
         },
         {
            "x":-852.215736,
            "y":-573.192808
         },
         {
            "x":-869.321408,
            "y":-549.254701
         },
         {
            "x":-847.114542,
            "y":-583.337851
         },
         {
            "x":-849.856942,
            "y":-594.965715
         },
         {
            "x":-831.803664,
            "y":-594.219116
         },
         {
            "x":-833.829721,
            "y":-599.086690
         },
         {
            "x":-773.221663,
            "y":-634.193259
         },
         {
            "x":-761.876977,
            "y":-622.042954
         },
         {
            "x":-784.954899,
            "y":-632.186458
         },
         {
            "x":-775.061966,
            "y":-621.055930
         },
         {
            "x":-776.489680,
            "y":-581.100736
         },
         {
            "x":-827.131728,
            "y":-632.107383
         },
         {
            "x":-765.788555,
            "y":-643.346944
         },
         {
            "x":-773.970303,
            "y":-628.857178
         },
         {
            "x":-788.448833,
            "y":-655.850390
         },
         {
            "x":-786.955577,
            "y":-608.769950
         },
         {
            "x":-806.360346,
            "y":-588.632375
         },
         {
            "x":-812.728902,
            "y":-607.457708
         },
         {
            "x":-792.095200,
            "y":-584.330880
         },
         {
            "x":-773.076120,
            "y":-575.385248
         },
         {
            "x":-800.639189,
            "y":-573.515729
         },
         {
            "x":-785.517324,
            "y":-600.333792
         },
         {
            "x":-801.451669,
            "y":-596.136279
         },
         {
            "x":-792.250027,
            "y":-570.967521
         },
         {
            "x":-779.296442,
            "y":-581.238486
         },
         {
            "x":-768.899346,
            "y":-575.273371
         },
         {
            "x":-772.570798,
            "y":-562.679872
         },
         {
            "x":-756.172847,
            "y":-554.748540
         },
         {
            "x":-789.540374,
            "y":-483.806402
         },
         {
            "x":-775.095237,
            "y":-488.182201
         },
         {
            "x":-775.731932,
            "y":-521.464710
         },
         {
            "x":-766.095517,
            "y":-478.780892
         },
         {
            "x":-771.841392,
            "y":-447.432306
         },
         {
            "x":-771.355279,
            "y":-440.547747
         },
         {
            "x":-758.387386,
            "y":-399.645717
         },
         {
            "x":-749.385314,
            "y":-428.796622
         },
         {
            "x":-759.911527,
            "y":-407.073327
         },
         {
            "x":-782.010183,
            "y":-410.163034
         },
         {
            "x":-775.521346,
            "y":-383.650067
         },
         {
            "x":-785.830703,
            "y":-361.687030
         },
         {
            "x":-779.264768,
            "y":-368.079390
         },
         {
            "x":-796.425931,
            "y":-352.343021
         },
         {
            "x":-793.433502,
            "y":-360.297153
         },
         {
            "x":-813.411341,
            "y":-332.705078
         },
         {
            "x":-836.005007,
            "y":-304.480037
         },
         {
            "x":-844.484298,
            "y":-324.284610
         },
         {
            "x":-847.623493,
            "y":-305.584432
         },
         {
            "x":-864.064159,
            "y":-320.049098
         },
         {
            "x":-855.242085,
            "y":-313.671043
         },
         {
            "x":-821.186218,
            "y":-304.677922
         },
         {
            "x":-827.505105,
            "y":-293.204332
         },
         {
            "x":-867.455906,
            "y":-263.329020
         },
         {
            "x":-867.645597,
            "y":-232.558243
         },
         {
            "x":-870.662661,
            "y":-206.313276
         },
         {
            "x":-874.973589,
            "y":-221.073691
         },
         {
            "x":-875.954563,
            "y":-213.365723
         },
         {
            "x":-875.860965,
            "y":-230.052510
         },
         {
            "x":-884.314849,
            "y":-228.792699
         },
         {
            "x":-867.163862,
            "y":-227.097463
         },
         {
            "x":-873.874886,
            "y":-231.296780
         },
         {
            "x":-871.782920,
            "y":-250.537221
         },
         {
            "x":-819.355262,
            "y":-219.124752
         },
         {
            "x":-836.962024,
            "y":-227.311208
         },
         {
            "x":-810.771653,
            "y":-298.271072
         },
         {
            "x":-831.869808,
            "y":-284.706798
         },
         {
            "x":-798.020208,
            "y":-277.228071
         },
         {
            "x":-818.254902,
            "y":-302.823994
         },
         {
            "x":-787.709382,
            "y":-305.561812
         },
         {
            "x":-831.382987,
            "y":-321.527782
         },
         {
            "x":-832.847292,
            "y":-266.048661
         },
         {
            "x":-825.219684,
            "y":-254.753227
         },
         {
            "x":-804.256039,
            "y":-233.662413
         },
         {
            "x":-828.086925,
            "y":-273.288927
         },
         {
            "x":-799.680171,
            "y":-256.677405
         },
         {
            "x":-764.234734,
            "y":-227.867918
         },
         {
            "x":-766.900865,
            "y":-237.599679
         },
         {
            "x":-781.340007,
            "y":-201.266434
         },
         {
            "x":-780.030835,
            "y":-165.213910
         },
         {
            "x":-775.170202,
            "y":-182.118269
         },
         {
            "x":-770.773632,
            "y":-199.438319
         },
         {
            "x":-787.453241,
            "y":-232.793384
         },
         {
            "x":-778.934456,
            "y":-238.136749
         },
         {
            "x":-805.189816,
            "y":-256.382925
         },
         {
            "x":-800.030029,
            "y":-265.551537
         },
         {
            "x":-800.697589,
            "y":-293.482094
         },
         {
            "x":-847.178677,
            "y":-211.990693
         },
         {
            "x":-841.836705,
            "y":-267.285209
         },
         {
            "x":-825.247997,
            "y":-262.891565
         },
         {
            "x":-833.807392,
            "y":-275.619712
         },
         {
            "x":-865.999945,
            "y":-232.144421
         },
         {
            "x":-824.656111,
            "y":-216.002808
         },
         {
            "x":-811.639973,
            "y":-211.390748
         },
         {
            "x":-824.826217,
            "y":-242.291383
         },
         {
            "x":-801.619947,
            "y":-241.726322
         },
         {
            "x":-817.012496,
            "y":-292.434406
         },
         {
            "x":-841.422172,
            "y":-347.157683
         },
         {
            "x":-831.214958,
            "y":-398.845395
         },
         {
            "x":-827.411966,
            "y":-400.780727
         },
         {
            "x":-854.981007,
            "y":-436.580160
         },
         {
            "x":-855.968963,
            "y":-442.190941
         },
         {
            "x":-842.596975,
            "y":-442.344293
         }
      ]
   }
]