-726.162053, -225.795875
-706.925662, -284.234669
-693.717152, -276.689989
-646.356888, -288.922464
-635.352279, -287.219864
-654.659758, -292.934312
-660.503312, -309.117557
-649.341297, -333.178649
-644.208466, -387.778769
-654.573114, -321.592494
-629.348456, -322.839593
-613.441734, -356.000285
-595.369979, -386.309364
-579.912361, -334.767304
-608.475301, -311.658098
-587.380587, -274.056780
-660.350681, -285.271313
-638.592524, -283.417379
-719.434593, -269.179453
-656.724203, -312.592251
-662.244755, -360.900390
-651.135593, -379.082896
-645.969709, -372.566814
-628.282917, -380.665936
-656.558938, -400.973753
-660.253941, -372.647332
-627.555579, -388.320231
-639.774668, -393.541358
-637.669566, -391.414397
-648.442883, -417.744995
-661.015966, -375.703967
-629.248719, -368.262306
-697.200280, -360.205226
-689.698707, -388.299191
-695.552290, -433.642790
-714.705662, -396.699170
-708.284570, -369.250484
-704.648437, -356.451655
-681.546766, -343.580190
-680.075465, -394.518867
-664.459931, -404.779925
-633.125273, -384.366977
-714.749785, -433.134323
-726.656481, -476.138169
-723.989311, -511.056180
-715.872766, -499.631597
-708.376437, -426.235499
-718.165313, -386.530106
-706.234527, -400.085350
-722.127663, -368.559793
-807.014215, -353.795851
-808.092995, -404.646531
-806.856026, -356.084430
-812.403259, -414.269069
-802.183517, -437.888057
-794.806018, -478.834113
-816.087979, -474.983672
-834.139428, -472.024935
-805.711323, -463.690872
-818.448224, -428.797837
-788.518111, -433.119254
-787.323804, -462.201823
-780.233319, -440.880160
-771.235905, -460.593056
-795.867022, -468.466396
-768.106784, -424.911517
-779.378642, -418.659355
-789.819145, -435.324316
-798.943178, -388.185559
-793.989227, -426.184549
-831.498253, -434.558426
-788.812509, -421.821325
-765.534002, -392.603318
-782.576855, -401.880569
-767.094618, -407.055011
-809.539414, -385.634722
-810.033857, -381.057910
-814.706446, -425.274011
-827.942941, -440.093434
-926.260811, -427.269050
-879.668156, -420.543123
-900.056715, -412.638135
-893.599232, -378.491228
-900.255548, -371.155722
-878.382961, -437.414865
-933.411761, -446.493200
-866.010636, -409.718564
-896.518552, -404.945112
-897.524877, -408.588143
-918.481823, -427.202982
-850.747136, -398.426108
-842.604520, -375.577107
-827.054943, -367.932098
-816.364775, -327.943595
-816.942412, -368.198165
-799.755571, -301.783365
-819.598886, -312.815846
-799.148154, -345.212622
-807.839069, -349.795780
-787.825959, -343.153557
-795.666983, -318.284390
-763.035367, -297.080326
-770.344047, -315.036825
-780.460219, -273.119014
-685.539629, -238.128139
-685.885973, -222.229398
-698.223244, -215.690378
-733.859287, -225.761956
-703.126434, -215.185418
-721.762404, -180.391746
-722.120130, -169.047765
-705.863845, -163.831098
-698.064548, -135.583360
-727.244537, -133.373779
-654.298037, -129.236518
-640.143125, -128.004335
-618.675487, -124.458250
-617.900285, -111.383951
-625.270699, -122.588711
-656.586474, -165.980642
-665.578416, -200.395914
-681.195106, -216.713311
-661.824874, -219.867237
-652.914225, -232.980707
-667.129276, -249.841979
-639.290772, -276.057929
-691.329071, -255.112139
-695.633224, -262.214230
-702.017109, -257.972369
-686.062955, -251.186648
-670.257859, -226.071376
-650.242748, -257.482344
-634.519357, -245.975351
-632.875615, -268.586373
-612.785735, -248.942822
-588.277367, -268.810794
-610.823123, -267.613594
-668.227351, -233.868426
-606.248740, -234.931016
-605.928531, -212.306819
-593.511362, -247.741515
-576.324730, -237.289057
-535.479614, -259.534658
-547.079620, -298.467452
-549.796381, -268.114446
-487.108857, -252.223638
-462.276387, -240.732636
-471.809559, -262.870113
-479.491573, -228.040295
-498.159980, -271.651779
-442.857627, -250.170259
-393.000189, -140.721709
-371.835298, -125.197863
-380.440857, -122.975900
-428.945981, -178.393716
-391.655171, -159.349688
-426.937263, -209.284427
-405.209731, -194.713607
-370.168951, -178.332751
-340.268428, -131.072912
-349.825799, -115.333305
-332.925436, -81.378768
-279.597574, -98.787974
-274.883526, -107.756221
-274.569647, -84.324196
-278.579803, -92.877790
-239.283839, -46.760806
-239.218600, -67.283434
-243.096785, -89.877155
-220.982688, -66.385852
-229.992737, -42.535463
-263.592348, -40.643281
-275.124357, -15.696831
-240.897663, -29.324233
-243.377308, -50.754192
-239.757125, -76.430571
-217.110018, -60.189635
-232.382359, -68.245002
-223.193659, -107.488188
-183.121489, -47.556177
-168.117345, -65.253733
-141.479645, -60.087412
-131.990029, -38.996935
-157.515784, -76.837870
-137.884783, -59.496840
-119.016672, -32.029844
-129.757915, -45.019328
-99.982019, -43.973532
-104.594978, -41.490019
-81.807377, 16.597751
-69.809406, 30.749560
-53.026308, 48.869804
-52.447372, 56.339081
-47.962804, 13.545252
-30.090616, 2.647617
-43.175619, 19.139442
-3.141321, 16.365693
4.084120, 20.875702
30.157831, 35.469011
-0.740176, -41.725926
30.887192, 7.632583
6.038134, -9.735260
17.898121, 19.809750
38.787684, 7.108346
35.930264, 8.930748
31.859005, -3.566663
6.156346, -56.222217
-2.028399, -8.814283
-24.385132, 16.713376
-14.437385, -39.557718
-16.183682, -1.549536
-25.364139, -4.936347
6.919976, -5.630359
18.702169, -10.763321
-11.190580, -19.302266
-5.800120, -13.002657
-1.173647, 4.561142
14.609982, 2.753676
-1.075855, 13.469894
7.188726, 30.995732
42.987159, -5.231620
1.033569, -37.723477
2.108864, -14.208969
0.864593, -17.476831
20.685819, 4.092902
30.297896, 8.057732
-19.881910, 14.661578
17.115789, -2.806236
16.670778, 3.353798
30.915429, 4.371775
21.079319, 6.488347
14.178006, -0.683972
17.883614, -18.261112
-24.409240, -1.332850
-51.530009, -39.705712
31.109749, 6.645145
16.506121, -8.712397
10.993179, 2.666329
1.613237, -3.605645
-18.023217, 1.258152
-6.652401, 21.906603
-28.350420, 13.817318
-29.727066, -16.410012
-23.870582, 39.868778
-53.280102, 11.659996
-64.114647, 34.789077
-78.379462, 13.178309
-45.515322, -15.612877
-44.847859, 1.759052
-46.455753, 1.282655
6.187425, 18.060563
13.523345, -12.274718
18.378785, -18.946530
28.251381, -7.787461
11.920888, -1.659142
6.568955, 0.512061
-11.705153, 39.607383
33.785294, 44.273937
10.698102, 21.843575
34.129327, -2.638109
-25.898134, -22.941916
-4.309835, 0.724710
-1.566045, 2.291458
39.999058, -28.535548
-17.901685, 8.227899
14.430923, 3.754313
5.577225, 8.364204
10.953976, 8.089615
5.892738, 13.643011
-8.882140, -48.108703
-20.011745, -28.279005
16.248481, 2.485164
9.959854, -8.985807
18.765015, 27.508737
-10.952761, 6.734158
-31.039326, 8.480406
-25.355809, 21.255591
-29.402599, -29.597849
-42.247350, -26.618828
-68.585074, -35.719641
-40.136661, -30.554826
-26.857834, -37.590387
-33.726013, -42.547227
-17.059721, -60.370215
-34.375091, -61.693551
-40.366163, -83.730879
-54.079673, -60.808959
-125.304445, -69.295924
-127.843886, -52.627054
-112.728770, -38.786564
-119.664122, -83.066694
-136.310659, -88.411922
-159.321713, -78.215234
-164.843393, -125.415515
-138.567317, -129.784843
-149.889971, -129.102327
-158.292439, -117.209935
-194.897977, -121.729227
-190.193762, -123.499636
-170.757372, -131.798683
-202.722804, -138.885977
-191.331313, -134.260949
-198.922280, -162.032485
-185.056239, -203.116616
-188.444805, -172.152793
-213.581221, -181.432585
-199.968445, -169.997460
-188.946676, -205.848044
-211.629093, -194.616820
-198.923693, -195.204165
-255.128697, -179.196513
-274.966805, -189.116834
-282.927699, -211.757969
-272.563046, -196.580415
-283.138848, -206.814024
-288.808620, -190.972384
-295.609071, -154.155563
-281.783969, -141.021328
-289.635420, -141.845694
-283.283838, -173.503684
-296.773470, -178.917272
-297.622375, -170.522567
-263.151183, -170.554141
-272.595064, -197.911736
-284.820377, -183.834857
-267.507043, -184.522285
-258.719297, -185.050776
-243.071350, -191.267164
-272.770056, -209.701674
-321.327513, -145.860294
-318.442692, -142.420177
-278.118603, -173.023820
-268.274966, -195.330484
-289.779819, -193.448336
-295.376670, -190.965702
-311.016349, -209.828130
-325.406473, -208.813763
-326.742860, -213.338043
-330.849097, -190.747258
-302.964996, -202.902462
-308.685121, -198.481151
-302.285297, -192.383131
-295.720431, -176.037777
-273.776864, -194.878506
-324.389767, -168.594027
-312.867822, -116.234909
-309.329689, -117.800163
-316.781154, -107.408442
-344.126797, -142.936765
-336.318967, -141.564465
-336.101626, -153.856900
-355.266408, -96.861858
-347.131706, -98.607769
-352.020909, -86.533168
-321.338465, -68.769123
-260.533779, -75.531410
-278.333977, -39.395140
-287.355884, -42.253726
-281.530831, -45.682210
-273.423323, -51.830394
---------
0.018377, 0.085566
0.164643, 0.550479
0.187687, 0.578686
-0.480736, 0.151696
-0.824022, 0.040186
-0.164951, 0.574584
-0.000868, -0.000635
