549.508684, 25.904890
533.857898, 71.277748
514.012897, 58.683958
496.789536, 105.417998
585.811898, 160.163332
550.210936, 142.947885
582.687193, 138.348022
603.137052, 158.354461
621.080186, 201.382167
624.025221, 101.471279
611.854244, 124.259644
590.649938, 169.101137
581.926489, 195.687709
620.598954, 178.918743
615.787039, 143.924165
599.735032, 134.578224
593.256010, 92.792357
622.356351, 106.840539
618.960734, 78.765730
609.273706, 143.830990
612.745646, 189.891561
638.727142, 217.854110
637.234377, 194.841997
644.832533, 232.022572
705.062787, 242.989755
724.074880, 221.185051
737.625230, 246.530156
766.876782, 257.290841
766.498247, 251.826707
772.357817, 271.568642
732.000237, 233.549533
679.635292, 227.302249
648.201389, 174.016416
616.879085, 199.387384
543.857981, 243.187452
575.324248, 206.303878
583.931727, 182.870481
587.601397, 180.394999
552.362365, 157.086467
566.300224, 164.444309
566.550171, 177.949563
509.126713, 178.578115
404.578421, 141.480592
385.191020, 200.340245
387.235053, 232.233846
340.996254, 210.719736
314.348988, 138.222770
328.218446, 113.998263
295.826253, 125.850925
263.725857, 105.314998
223.990518, 50.817202
232.670404, 99.910327
250.883142, 46.342202
240.939872, 91.571734
219.677430, 106.025859
250.476078, 152.183754
266.291544, 150.318469
267.895457, 126.539210
250.796993, 99.145231
311.227174, 91.684033
277.527841, 90.607997
244.361646, 103.659073
247.887316, 91.786313
302.971764, 130.176715
339.198552, 123.270158
302.780998, 107.936458
306.784632, 87.035626
303.371296, 91.185509
325.957712, 50.243869
323.369770, 77.710567
331.960004, 73.285476
322.826470, 87.227297
285.767653, 91.327475
292.564590, 87.885604
275.960463, 106.465241
265.862313, 69.362017
267.051286, 63.998563
214.799809, 99.941118
218.829403, 106.080846
209.501368, 41.722452
185.720970, 55.370613
146.849956, 38.190006
113.153900, 21.389365
86.039939, 4.705944
77.246224, 82.195810
104.368376, 64.827269
53.997009, 58.120659
88.393237, 53.312446
110.239173, 60.885824
110.003580, 77.892997
106.750468, 86.801548
99.860896, 79.693714
73.589086, 74.681816
-28.703117, 38.357082
-34.294806, 74.840667
38.490908, 63.944577
10.792016, 56.806005
-6.790338, 95.169968
-10.620909, 86.865261
-25.447923, 98.788201
-29.073551, 82.396014
-20.380419, 93.636354
-58.092894, 93.600903
-114.977117, 56.586861
-122.088817, 36.821960
-166.882887, -9.216909
-111.800504, 15.837784
-76.933999, 18.775534
-58.861888, 11.738211
-38.747787, -3.980173
12.420866, 2.298206
54.049173, 8.926022
49.208356, -12.615649
109.902504, -12.893527
37.178968, -11.660571
30.519454, -10.386180
22.203642, 1.149808
-42.394376, -29.812258
-24.861777, -26.629452
-22.378615, -25.854907
-46.876337, -14.681909
52.139217, -11.564890
50.054913, 7.483214
42.540163, 2.534704
42.649018, -0.857393
-1.311425, 25.171237
41.054821, -7.559472
57.314008, -8.118571
56.204387, -12.125479
60.974045, -0.553452
35.799258, -34.906294
36.100188, 6.336421
20.635233, -0.843701
8.049909, 18.606696
-12.842414, 5.441162
-15.256110, 27.641293
-29.101096, 13.256190
43.913899, -10.127596
13.907365, 0.373439
-24.739633, -45.660092
-2.351833, -9.225492
-29.503868, -18.255635
-8.532711, 11.440371
-14.812229, 23.701039
-13.743853, -4.406736
-50.966333, -12.243854
-80.184852, -7.943795
-46.725801, 9.847412
-79.670580, -37.646618
-33.106523, 0.698241
-3.826877, 39.887865
37.856890, -31.028618
14.426864, -9.590325
32.081825, -6.504151
74.944036, 25.983627
50.211511, 33.392750
65.566132, 75.078767
30.305848, 71.078076
13.030036, 62.482506
0.688743, 28.384007
-5.633309, 3.842291
-27.232235, -20.238802
-27.101530, 12.217621
-9.950972, 21.316082
-2.443942, 10.239569
-36.692539, 1.889493
-41.531995, -13.338287
-35.626916, 5.009364
-3.806552, 17.775841
-49.205623, -0.409333
-45.784945, -23.119833
-30.944302, -31.563560
-10.967416, -42.663565
-17.512173, -48.596501
-17.670518, -35.413195
12.279363, -5.894945
43.275207, 10.451332
62.569076, 22.266131
109.135011, 63.912252
10.056401, 11.493864
14.107621, 13.247965
16.015189, 23.027214
30.531673, 8.173108
5.094847, -2.530777
-20.917362, -22.892294
-6.939756, -30.526355
-25.256897, -20.528033
-34.420037, -8.884393
-39.254073, -1.514634
5.452018, -34.814370
11.816635, -35.314267
21.936395, -42.725290
1.383855, -56.116078
14.249943, -34.465083
-10.445992, -13.804870
-2.023491, -45.893515
-43.162713, -44.940576
-42.753744, -52.530915
-46.570226, -63.913454
27.964845, 18.046839
18.789969, -29.195309
12.573413, -35.024320
70.944510, -52.629206
62.270618, -23.701075
83.107256, -13.247803
97.827331, 6.130506
118.274650, 40.299775
135.456208, -1.400301
189.013158, -30.392656
161.185477, 16.891565
170.570776, 1.986337
147.704268, -16.834719
165.598924, 6.944034
129.151274, -12.750142
129.652380, -15.089436
156.931519, -12.646503
166.117281, -31.338485
133.421281, -39.997878
132.153351, -47.331536
137.013635, -46.234601
131.750693, 1.029793
148.048290, 8.982486
174.744136, -19.598342
188.971704, -16.506031
193.493575, -25.458998
161.793511, -34.014648
179.142290, -49.833429
133.860291, -35.565150
163.445669, -34.133406
180.005646, -24.162019
165.613498, -32.957809
156.189960, -34.390414
155.601516, -2.340162
194.799722, -50.580485
175.563284, -11.268169
144.825237, -30.271371
172.105995, -24.916985
158.926267, -44.008329
128.006004, -46.682869
117.863907, -60.892788
112.524871, -77.528704
149.865292, -73.304439
129.287484, -55.821201
152.371576, -79.414018
121.593925, -80.736362
132.126142, -111.927062
103.917812, -104.811674
121.090294, -59.187374
105.099531, -83.002359
103.397688, -90.668664
48.760191, -105.777840
16.540036, -79.456103
-7.629099, -79.987059
-2.983960, -81.909515
-21.912966, -113.425050
-37.869849, -117.681376
-42.507317, -162.949377
-64.443702, -139.450434
-48.130785, -108.674608
-57.608416, -101.494097
-103.475420, -121.925644
-130.557556, -142.220769
-133.466973, -150.116920
-142.301228, -98.545551
-160.453814, -171.390996
-202.833679, -176.073159
-175.271003, -186.388720
-211.155678, -171.430055
-213.502847, -173.054026
-222.187600, -134.280372
-263.370564, -169.080060
-236.902280, -174.165987
-234.244605, -159.768817
-238.512525, -179.926319
-222.480487, -162.868384
-194.463794, -161.243398
-217.535765, -163.025327
-236.949797, -138.988077
-236.928196, -155.343910
-269.109828, -166.988499
-298.760598, -161.679497
-295.576041, -130.806594
-275.144344, -121.504009
-288.633721, -110.091177
-290.443541, -138.993035
-317.917427, -120.563911
-275.384160, -152.338101
-213.746127, -153.672939
-219.863219, -170.304945
-248.994618, -177.561564
-246.890878, -129.836447
-210.498456, -115.878788
-213.846923, -143.691096
-199.875047, -116.601778
-220.886810, -108.158496
-203.480359, -98.001773
-219.630736, -92.615471
-228.007388, -109.958414
-173.950553, -94.531182
-183.476958, -75.647583
-175.314302, -88.706823
-190.517149, -92.436596
-189.774694, -54.928088
-195.463757, 10.510258
-200.802076, -17.248921
-202.492035, -27.537335
-186.256016, -22.433099
-210.849056, 5.688736
-221.295258, -36.200185
-184.274527, -11.667884
-153.270659, -40.701510
-124.999799, -38.951986
-111.582526, -18.306869
-116.015399, -20.793906
-116.592669, -23.743613
-125.277197, -48.559727
-94.933469, -66.453739
-66.686937, -69.249186
-64.799073, -75.806894
-137.913599, -60.052249
-145.917706, -62.304515
-155.874050, -51.840531
-224.448326, -76.053945
-229.055640, -61.346677
-239.397679, -79.137745
-250.513769, -73.372597
-275.286515, -77.459116
-287.194419, -49.374816
-236.573171, -44.940970
-209.869756, -128.414890
-196.020950, -117.321275
-230.935805, -79.188563
-218.538832, -63.719460
-227.925847, -80.429695
-228.104695, -94.174789
-208.043713, -68.470370
-149.212294, -57.056879
-192.248158, -69.456212
-217.712268, -90.675154
-223.491800, -81.662680
-236.498405, -96.527166
-233.994426, -100.419586
-242.664922, -110.123906
-271.323505, -100.789512
-147.856108, -104.740443
-173.617165, -161.136270
-184.096596, -155.024725
-199.734192, -173.924382
-169.205781, -141.633640
-146.471892, -143.285718
-144.288881, -145.351389
-119.008810, -207.628146
-144.457513, -199.625989
-238.883898, -228.907765
-275.373736, -231.901422
-317.250371, -203.985131
-306.791028, -245.259932
-368.593465, -261.521406
-370.223808, -255.351432
-399.049596, -242.148531
---------
-0.011419, -0.033267
0.279090, -0.267702
-0.309477, -0.203935
-0.571856, -0.588401
0.638471, -0.170959
0.302554, -0.714280
-0.000031, -0.000213
