188.9387,49.9453,65.7511,29.7988,100.3515,127.7067
80.9890,9.9489,10.9643,2.2066,19.4600,54.9595
10.9057,21.0993,31.6107,26.1394,11.6264,18.0122
42.7539,4.7381,43.3850,65.1522,8.5052,17.4595
41.6930,71.9697,43.8825,75.4420,6.4361,105.1914
119.1584,124.6404,25.0434,41.0141,30.6247,145.5705
157.7401,128.8247,37.0126,0.6343,21.9755,175.7255
21.1517,7.9171,19.9601,106.3161,27.0445,60.0611
175.9236,17.5053,27.2171,123.3996,20.5571,24.6766
225.3341,21.5547,33.0635,88.0809,19.3863,28.4109
212.5590,87.4295,31.9597,97.4467,80.9518,55.3267
243.0455,103.6820,41.5136,28.9892,57.1426,47.0507
220.8570,99.1282,2.8890,51.6983,51.5577,78.8789
252.6029,27.9790,40.7281,52.6701,86.4352,132.9257
38.2992,43.8090,195.0843,113.6534,24.6089,16.0779
74.8718,28.1190,202.3522,135.6679,45.4785,26.4112
101.0037,89.5401,172.5103,137.4909,78.8969,35.5341
42.3769,36.4985,50.3928,4.7443,45.5236,55.5067
43.7767,42.2085,54.4465,107.7724,0.6532,1.5049
63.6675,43.8277,48.0473,103.6805,6.7592,10.0973
35.6431,69.0971,5.7590,98.1965,6.7228,78.4514
64.0008,56.4287,6.5235,84.4143,12.9548,83.6478
109.6545,78.7793,143.5007,38.0898,41.4946,51.9042
85.3890,65.0465,112.1069,44.7186,38.1587,12.9931
48.1883,36.3550,85.2589,71.5688,25.1885,4.8428
108.6989,37.6831,77.7865,14.1639,42.8189,35.8094
93.0204,19.5421,74.1933,11.7883,70.5085,62.5027
28.5074,45.7115,113.1539,22.3439,60.6705,83.5325
4.8532,113.7441,98.2748,11.5889,75.7354,64.6838
106.4431,50.7518,19.7626,10.6755,91.7801,52.1892
94.0948,60.0329,26.4591,9.5358,84.0941,68.5090
76.1767,75.7485,13.4920,9.3679,60.3833,92.1591
41.3702,108.7880,23.0216,28.3131,87.3766,48.0708
7.3833,90.7506,27.2250,37.7572,57.4437,14.1810
30.3671,64.9484,51.8748,24.4373,46.3321,9.7041
49.0247,25.6676,61.7150,32.5686,42.2363,20.1844
43.1422,35.1073,37.7762,59.6603,76.1208,7.2947
39.0910,50.6322,34.3265,58.7092,82.3193,28.3846
65.1881,4.4991,33.3379,54.6345,52.8560,31.9212
59.0604,24.3115,21.8970,36.7036,39.2983,63.9752
42.2211,10.3705,15.4403,16.2500,35.5727,37.7325
34.0527,6.7268,34.4442,25.5210,11.4263,24.2584
43.7114,33.5491,5.9635,18.9273,9.8388,32.1233
58.8225,32.6284,7.9660,26.6503,27.2445,13.0297
82.8164,46.7254,20.8284,10.9189,1.8257,29.6139
95.9472,10.0883,30.7032,0.7932,64.7137,35.4634
85.6445,51.3800,13.1674,33.0513,26.4757,32.6400
95.2354,55.6237,19.2929,24.8922,41.5917,58.0624
43.7352,63.5705,32.6404,69.9025,97.9521,8.1120
31.6193,60.4213,34.0518,70.0568,103.2797,11.7472
29.1944,54.5961,46.2331,58.0054,108.7655,9.0746
18.0819,74.9514,21.1468,79.6812,110.8685,36.3088
14.8054,48.1653,14.1173,98.7862,94.1938,76.0591
32.8803,34.2651,13.0619,79.5196,121.8408,110.4575
15.0446,68.3084,105.5949,93.0323,204.8819,6.6538
12.9469,46.6436,114.4546,65.5915,176.7457,88.5797
10.4174,19.5450,94.6782,59.0625,128.5377,95.9150
2.0897,29.5601,93.3384,47.4052,131.4633,60.6133
13.5550,65.0419,99.8672,84.7126,94.0624,58.9480
36.0946,40.0710,132.2914,56.2983,88.6684,59.3699
64.4524,16.5569,126.2224,56.7216,93.3885,88.6227
103.5606,29.8964,73.5455,70.9150,53.8811,1.3357
92.8738,21.1045,25.5825,91.3400,49.0646,32.9333
80.0041,20.8769,18.8867,78.2585,30.1356,37.0959
62.7924,3.9994,35.2386,79.9529,6.6663,75.7899
63.1968,18.4990,32.8442,71.8662,47.1743,124.9807
39.1438,57.5987,9.5303,74.3165,24.8449,115.8780
26.2343,30.4842,1.2622,54.8429,1.3116,105.0430
3.6568,8.3350,50.9228,30.3427,10.9833,103.1389
18.9883,67.4990,47.8735,10.1148,8.0737,78.6068
3.0135,136.6315,199.8831,72.5187,95.3243,27.4213
1.4634,159.1849,206.6469,88.0627,60.4386,43.1405
2.6213,197.7864,197.2493,137.2874,38.7902,72.3738
18.1774,176.9641,155.8937,128.2528,73.7808,69.6296
11.2976,184.8274,119.5393,154.9369,53.9659,108.4218
99.2248,134.9355,55.8577,29.8126,37.1591,82.8288
134.9426,134.4986,16.7050,6.6295,44.8744,96.7478
129.0096,109.4636,6.6246,47.7055,41.1098,79.1854
136.9696,63.6745,10.7233,91.7517,8.5434,70.4299
1.6971,48.9180,104.5366,128.2784,8.5316,87.2171
17.4200,68.1585,110.9781,91.5773,31.6190,128.1345
32.4100,13.8057,83.7564,126.0712,26.1155,116.2698
23.7459,98.0364,66.6143,80.4282,25.9177,129.9675
28.9527,159.2478,103.7921,22.2288,42.1319,90.4860
51.0372,169.7050,96.9655,0.6570,54.1853,81.2919
1.2956,133.4255,84.9668,33.1378,54.7022,94.4209
22.3939,116.8916,62.1647,15.2077,51.4013,75.5502
11.3614,39.3810,54.3502,32.8170,119.9508,72.4237
50.9356,79.1433,73.9908,98.7644,15.6551,17.1555
49.4243,66.4146,50.9455,95.7727,16.2806,12.8275
30.5482,80.3036,2.2332,66.7238,13.7410,25.0756
0.5653,92.8951,26.7573,62.3916,13.6210,66.7226
8.4011,85.6722,32.8308,87.8300,21.0607,84.4814
42.9280,43.6025,30.7274,24.3253,84.9449,76.7978
22.7151,45.4136,20.2849,124.5024,91.3819,22.2243
28.2213,34.1227,20.7694,131.9026,74.1280,6.2398
49.9893,9.9368,17.9458,131.9423,69.1947,51.3601
27.5905,48.6122,16.7046,95.6936,78.6328,58.9044
26.9559,3.2950,8.0964,79.5632,29.6563,2.5383
69.9122,4.4921,153.4994,20.3276,39.7843,20.8624
60.2546,6.5507,111.8495,4.9198,76.7071,26.9333
54.1876,14.4330,57.3791,31.6704,137.8620,118.8402
28.5382,2.2724,39.3395,41.9365,135.9670,127.7026
79.6489,68.5048,12.4802,83.9833,100.3476,53.7590
35.7547,84.1004,28.2068,94.0559,110.6509,70.0465
4.3372,102.4075,11.0365,68.4654,123.5933,77.5188
7.6733,19.9105,20.9012,80.9610,176.7132,38.2314
27.0929,13.1760,88.1580,92.5290,176.6508,44.0093
4.8698,40.8575,88.7176,86.1352,134.5519,100.3414
78.5561,78.4159,72.8502,77.2203,107.1937,132.1400
70.9823,85.8553,136.7529,142.3089,72.9073,119.1370
88.6525,111.7168,96.3917,183.0002,71.5597,193.8450
101.5528,189.7271,22.2088,177.9591,64.8961,192.0396
71.0362,445.9034,210.5747,147.6728,165.3189,699.8197
82.8705,8.7007,23.8263,30.0663,452.6908,1333.8295
187.1272,2208.9234,108.3256,864.5252,572.5856,199.4534
193.7392,216.1860,88.1058,55.6885,501.0224,1062.9832
236.1530,277.2765,367.8549,591.0125,532.1976,503.1381
729.1604,72.1859,497.8040,208.1646,510.0682,42.4533
1011.4873,368.1469,105.2788,250.5298,600.8286,388.3207
418.8923,22.6637,152.9850,486.4741,115.7556,305.6117
941.0438,754.8025,81.0313,389.7836,108.5295,609.3883
366.8046,456.9915,568.7953,66.9989,292.3360,395.7828
771.6507,699.7347,769.6892,827.0912,543.7871,235.2607
344.3232,442.0021,175.5853,970.9467,251.4066,158.2627
113.6017,61.4912,40.9615,19.3493,49.1164,44.1884
85.6878,2.3836,9.9111,27.9901,70.1828,96.2189
7.0975,129.0433,23.2752,17.0991,82.8420,120.8683
17.5787,69.5773,7.8924,71.0546,98.0705,82.2714
4.1003,8.7839,84.9874,14.0465,32.0839,23.8740
22.9630,19.4535,60.2453,14.4416,33.9266,44.0993
74.3093,58.5708,29.1821,9.4958,46.0227,39.9767
15.5177,60.2891,15.0035,2.5598,21.1750,13.0079
27.0975,65.4263,12.3475,13.3264,19.3937,19.8407
38.7430,128.6878,16.2936,9.7347,28.2505,45.3014
33.9135,173.5842,27.6343,21.5670,5.4014,43.3541
5.7032,233.0351,35.3276,5.4857,3.2246,14.5432
11.8013,34.3798,0.1087,1.3844,3.8993,10.0473
93.1565,38.3431,57.5690,7.2549,39.8361,68.1534
46.6237,16.8221,32.3981,38.4322,4.8168,69.0755
17.7188,53.3854,4.7542,4.3077,34.1223,34.4158
33.1845,125.6437,1.2161,21.0213,6.5630,8.5265
21.6571,162.5137,33.2430,25.4838,26.7531,13.4070
10.8217,193.5444,19.8330,47.5257,26.9485,1.9361
2.7262,229.5289,33.3280,20.2845,16.5573,7.3822
18.7362,217.4295,15.3913,10.2476,1.1677,36.2951
42.9111,129.9719,41.8608,87.5932,48.0019,5.8710
35.8798,138.7753,50.5173,44.4689,82.4266,23.6106
2.9229,12.9710,33.0755,42.8194,47.8783,50.8483
3.2355,10.4349,30.1764,25.6096,23.6915,10.3468
7.4191,30.8787,4.1053,13.9405,12.6223,12.5557
23.1046,6.7233,16.7197,3.9064,38.2773,57.3867
17.4407,6.4630,6.0485,20.8932,40.2422,54.8226
6.7259,42.0803,4.6561,30.7870,8.5947,18.2050
0.6947,0.1992,2.3414,0.8716,3.2207,2.9453
26.7023,36.2247,18.6237,4.8941,36.9135,31.1899
5.5722,7.5235,43.6823,8.6334,9.0928,23.4518
37.9986,16.9765,22.0787,17.6396,14.8552,14.7736
31.7290,10.2059,13.3591,9.4599,10.0904,9.4204
29.4863,17.6879,3.3509,11.2201,50.7237,2.6399
30.1462,57.9185,14.5602,12.5537,28.7802,12.0128
15.9105,66.9223,33.9850,5.2158,18.9070,6.9661
70.8810,16.9333,53.8727,48.4589,17.4535,11.3964
79.9553,13.7996,70.9378,19.8610,8.5386,29.7791
8.8043,32.7289,46.8799,37.4949,30.3287,28.5517
32.2960,17.3934,108.5655,0.0448,27.3894,28.6103
15.4699,56.2696,84.8568,5.6455,15.8958,2.8594
13.3578,2.5726,0.4226,4.7581,26.8811,7.1984
6.7712,4.4202,27.8231,27.9488,23.6664,6.3553
82.3187,51.1039,27.9539,9.9892,7.0522,30.5843
4.2238,7.1242,41.9985,15.6562,18.8874,6.9990
107.2929,80.0615,106.7783,23.1085,85.1729,38.2643
82.1049,45.7690,80.7433,28.5233,35.8144,6.6586
52.0582,40.7998,77.4034,48.6819,27.1901,77.7081
18.1993,8.0954,42.9010,38.6047,84.9682,79.7166
4.3547,87.9464,35.3314,0.4267,13.5856,22.7805
34.2274,58.3764,3.8720,64.6016,60.8445,51.1081
28.1180,47.8036,4.0215,120.6037,56.8744,43.8341
0.7508,90.6108,10.6439,134.7554,46.9292,62.1670
43.6598,75.3847,0.2170,130.5648,74.8159,83.9158
43.1351,82.4499,10.2988,145.4309,2.6760,61.7280
0.2569,165.1031,12.5781,66.4757,55.9898,77.7426
28.4984,164.2935,47.0839,62.1487,62.3897,89.2116
8.9734,163.2821,88.0273,58.4057,100.8051,105.2277
26.7075,67.8486,156.4667,43.3603,78.9306,16.7921
32.7571,61.6371,128.9178,29.5423,92.5391,24.8644
16.1394,74.6649,142.3519,27.1125,68.1196,1.5290
2.6447,96.3518,146.9593,31.7404,50.5851,47.1731
12.8905,77.2665,130.4289,55.9002,8.0012,24.9089
27.7756,30.6297,94.7894,7.6004,1.6666,54.5016
22.7781,36.9747,63.2473,37.0649,25.0986,45.9109
46.0607,25.6470,32.7831,14.6796,18.3826,44.8089
42.5693,25.0088,47.6634,47.3044,80.0967,100.3148
48.8702,23.9314,7.9281,40.0785,50.8719,90.5126
68.8854,11.6897,22.1256,53.6871,70.7054,86.4719
53.6442,32.0089,17.6097,32.0445,40.3745,85.1005
63.7153,0.7965,0.2850,37.4008,99.9468,84.0315
1.2647,24.2111,15.1238,21.4311,100.0131,91.4369
2.3648,17.5021,30.7711,4.7565,85.9214,85.3234
0.0001,0.0016,0.0010,0.0012,0.0015,0.0004
0.0011,0.0092,0.0056,0.0059,0.0070,0.0018
0.0020,0.0080,0.0047,0.0045,0.0054,0.0012
56.9841,25.1478,13.6039,9.8501,27.4702,42.2014
66.7202,39.9010,9.5245,51.1270,27.8308,44.1791
35.5463,70.8033,57.4799,12.9847,3.9927,37.2767
46.3250,20.5436,74.5010,36.7733,18.0507,49.1383
60.0881,8.1386,65.7225,41.5507,42.4397,52.6138
27.9881,93.3414,10.6559,145.2369,93.0669,73.0478
36.5964,91.2965,20.9885,82.2379,114.6984,95.4608
38.9475,87.9303,30.0046,110.9506,149.3879,103.1086
24.4269,55.4562,69.4097,109.8468,152.2009,122.9923
2.8931,47.0733,32.5882,125.5648,121.0233,39.2119
5.9303,55.8500,68.6534,125.1057,120.1960,50.0790
12.1079,32.3631,1.2116,182.1709,160.5020,65.7093
59.4556,36.8012,3.4750,214.8832,160.8608,17.6576
23.8093,79.7593,26.9521,181.3997,174.0341,47.1830
28.4093,99.7769,27.5894,158.4891,156.0787,27.6853
37.5336,78.3157,27.3577,161.9703,138.5500,21.9632
48.6028,85.9792,17.0323,122.6211,90.2964,12.0709
23.4142,102.9885,7.6103,160.9264,79.6517,34.5319
44.9987,81.5286,9.4822,129.5277,66.5663,9.7786
33.2648,11.2989,14.1657,11.8823,17.1355,27.4595
26.0804,19.9457,15.9918,17.9374,2.5314,6.5287
35.6734,41.6584,43.1373,29.3227,25.6271,0.5583
2.5514,0.7763,9.8712,15.6026,9.4391,6.8199
7.8845,20.6175,2.5831,37.7013,17.7773,7.3559
15.1132,26.4046,14.9902,2.0503,2.0804,2.5592
27.7748,12.3728,1.6826,28.6365,17.3112,12.0475
9.0050,24.1126,108.0975,11.0368,22.7758,10.5743
23.0949,10.8175,108.7026,8.8088,64.6934,11.2348
24.6572,4.3708,128.1326,49.4677,59.0212,37.8057
41.2854,36.7401,85.4324,43.6182,95.1372,50.3755
23.0507,71.1554,82.3995,38.2625,98.2156,17.4821
109.7589,22.7281,41.4815,34.4922,49.6946,1.9984
78.1406,18.8710,56.5965,35.4607,71.1459,37.1063
47.7716,2.7476,2.9661,40.6228,44.8863,3.9719
56.0886,40.4003,21.4202,7.9679,8.0676,44.6357
18.9774,2.0123,25.6177,19.0339,3.1928,8.8232
19.9603,0.7606,18.0528,50.9692,0.1394,10.7965
25.3769,36.1556,26.0976,26.7166,58.0828,22.4673
15.4146,7.4865,35.7656,22.1171,8.0520,14.9171
17.1820,51.6036,55.2711,22.2966,36.1127,8.7909
14.1778,63.2532,54.3663,12.6240,54.5045,24.0980
25.6799,66.4936,76.7602,23.7170,75.1088,11.8849
23.0747,49.3537,56.7440,57.2639,88.5694,9.4215
67.5557,68.7559,48.4399,83.8020,92.2825,52.4796
67.3878,53.8826,17.2001,77.3723,84.6424,12.2112
46.1275,41.7624,8.9194,37.9280,30.5139,35.3934
48.9247,35.6114,33.2997,62.9299,3.3328,14.7618
49.7665,31.4636,22.5777,61.8105,4.3959,9.7478
52.6175,32.2160,10.3779,21.5449,62.3692,37.3180
46.4715,12.2812,2.8139,31.4293,16.8812,8.7265
59.8964,88.2464,42.6925,43.9006,10.7147,12.5971
65.2564,95.7139,9.0135,30.0667,20.7424,5.8034
68.6007,86.3563,29.6654,47.7013,14.0047,40.0231
102.9639,90.3222,42.5394,61.9898,24.9419,73.7329
94.4660,89.7984,64.1798,69.2806,34.3417,50.6837
65.7693,31.6543,62.5459,94.5022,54.0898,13.9792
50.6041,32.1975,22.9885,77.5826,52.2792,0.7867
25.7992,16.8547,3.7081,100.4200,12.2668,18.0638
15.6571,29.9581,17.5402,19.3919,11.5341,39.4685
0.9572,39.1512,4.1276,14.2760,5.7291,5.8777
7.8137,7.8583,15.4326,32.1311,0.4384,12.8439
12.0171,48.3026,10.2088,6.9215,7.3942,1.7399
12.3418,23.0530,12.8086,3.2439,32.5269,18.0919
18.7071,1.7424,0.0034,5.0609,28.1060,19.7884
6.5027,11.4381,9.4117,25.8081,8.1466,7.5689
13.5381,20.9594,34.4132,48.9000,39.2343,6.2260
26.3997,32.9710,19.0765,44.5824,16.7016,3.2291
29.8463,4.5869,10.6685,91.8222,21.3400,9.5434
29.8476,16.7624,51.8477,80.6519,37.9126,22.5338
26.1609,22.1184,32.4172,27.4501,45.8703,48.4512
39.4112,42.1266,24.2874,13.2677,13.3613,20.0887
8.4996,30.4867,10.6950,16.1894,29.2049,15.9956
22.7867,44.0561,27.6180,48.0824,66.4143,22.7393
33.9839,29.0762,47.7319,55.5530,11.9437,6.5147
5.6323,1.6419,9.7545,23.6169,2.4262,0.6875
7.0529,17.9546,24.1627,2.8235,16.0208,15.0411
31.5868,21.5472,1.4338,12.8853,15.4720,28.3517
11.4648,5.9780,10.3406,0.5642,35.1692,41.7913
2.9588,6.9490,67.4477,43.4333,82.1287,44.0453
32.4729,23.6175,49.8458,2.3326,71.0438,11.0929
42.0370,45.1868,54.4645,10.1779,16.9619,9.1019
38.7234,33.8415,35.9907,39.8549,42.0551,33.9204
31.1214,22.1099,27.4328,55.0947,12.1389,47.7477
35.3891,32.9196,11.3242,38.9987,5.5050,63.8473
26.1315,25.1958,7.7913,50.1454,35.5219,4.8646
26.4315,4.9878,8.1318,30.6635,32.8395,32.5889
20.9345,20.2907,37.5171,40.3262,27.8695,30.9317
36.2672,86.1930,60.6299,26.0698,37.1309,12.5794
37.4698,84.2615,39.7990,23.3589,7.3507,19.2276
10.1084,77.7212,61.7096,1.6741,8.7195,38.4638
31.3770,49.8147,41.5532,18.9137,53.1540,25.5576
21.1188,68.2338,67.8326,1.4650,30.2374,20.7074
18.6752,79.7191,29.1763,6.2496,15.0613,0.6133
13.7451,93.9754,57.6232,16.2604,12.2622,35.0159
25.6980,79.7208,91.1191,71.4327,1.9812,80.6334
30.9410,94.3208,102.0599,43.4438,28.7468,33.9263
52.1834,100.6742,95.2291,58.4841,29.5723,53.6491
57.3134,109.5804,112.2243,10.5019,21.0331,67.8246
44.6818,125.2736,102.6633,43.1269,41.3473,87.3614
15.0759,82.7178,79.0323,19.8437,26.1775,28.6867
27.6688,53.5121,73.3607,1.0191,10.8264,8.8590
20.4101,21.9920,45.7058,4.0568,42.1501,32.0350
5.6218,40.0939,71.4750,19.9022,14.9065,5.2591
6.8194,57.2102,58.1074,7.5955,14.7244,20.4229
7.0621,61.7323,54.0983,17.5940,12.7679,12.5155
3.6351,66.9084,51.3136,16.0640,0.8418,15.5805
2.0583,51.6798,35.2466,10.4936,5.4602,14.5866
16.3461,1.8625,68.3103,25.2227,42.6302,52.8147
2.3473,16.9845,49.2287,24.7609,31.1221,14.2162
45.9456,8.9873,56.3261,13.5739,15.5146,12.9510
81.3255,10.6053,26.5500,29.3344,28.7646,15.1835
20.8707,35.3501,26.9243,5.2600,34.5686,63.5001
10.9633,12.6177,8.2057,22.2561,8.7695,79.2341
8.2023,30.2789,1.6300,41.0389,39.1499,64.3141
7.1532,5.0604,27.0833,3.6627,22.7147,1.6052
15.7986,10.9835,1.8908,52.6502,24.3113,15.1971
10.4744,26.7616,0.9064,38.3852,9.4385,20.3595
29.2397,13.1389,9.9145,40.5398,19.9013,36.5111
45.7305,10.1889,20.7157,14.8042,25.6908,26.9930
58.8509,21.9306,13.4414,41.9828,10.1054,49.1995
23.9945,64.9301,21.6726,10.7975,17.4404,37.7658
23.0970,62.6729,72.0838,29.7136,21.1182,15.6626
49.6520,39.3750,75.7209,44.8300,32.0110,13.2553
26.3800,55.5222,74.9946,13.5449,43.3810,0.6996
39.1171,40.5333,69.7716,19.6921,42.5509,6.8935
37.8803,62.7683,85.3654,42.9106,38.5128,15.1146
22.4180,78.1701,88.4485,51.8711,24.0739,12.2422
40.6053,78.2987,39.6145,44.7873,32.5544,28.2460
41.4466,128.5384,19.4150,40.6477,22.9853,27.8207
39.7700,147.7128,22.7491,6.7225,5.6833,43.1469
114.0989,180.8248,16.6575,14.9599,15.5685,31.9438
114.9389,150.0262,99.6969,3.3226,69.4929,0.8293
77.7951,124.7806,107.6848,31.0841,44.9713,26.1805
59.0491,152.7316,173.6751,48.2342,48.6131,34.4190
56.3127,118.8109,146.1563,47.3032,53.8633,8.5217
56.6918,102.5053,139.7876,24.3940,21.2429,57.5560
35.3604,105.5809,87.1399,49.7447,6.7058,26.8897
17.1314,93.7356,105.9716,54.9479,17.0219,18.4079
51.4513,44.4123,121.5209,17.0892,14.8131,7.2416
38.0264,23.8868,34.8858,12.9922,23.3584,3.5219
28.9692,32.9270,26.2889,10.0674,28.4145,7.7495
12.4694,17.0114,25.5458,1.2335,21.7586,16.7195
42.7190,45.2889,28.9998,16.4877,32.1385,40.0223
84.7909,72.9914,8.3928,24.7516,20.1189,1.7904
58.6323,51.8935,79.6233,18.3175,46.3124,13.3702
29.7275,26.8612,78.0581,35.2367,39.9109,1.9396
17.0990,8.4749,81.3509,35.1211,29.4767,3.6498
2.9687,4.4421,38.8579,59.6461,52.3373,20.0876
5.9728,17.3736,54.7461,54.5708,20.6938,3.7560
12.3065,21.9076,43.2334,51.0303,14.6142,1.6553
17.1758,44.0993,49.7122,67.4779,18.9590,6.9503
31.1826,47.9630,75.4883,44.5154,19.3008,16.6904
6.9807,110.0235,77.4465,4.2185,1.3392,28.1770
36.1816,112.6376,83.6603,12.7687,50.3826,16.3095
10.4377,93.4481,61.2451,1.1607,13.7428,18.1471
14.4696,94.2818,13.0879,36.3646,7.3361,29.5960
9.3587,96.2048,17.8932,60.4836,7.1840,4.0644
7.0982,40.0531,61.2764,70.1586,0.0139,54.4396
