Bases Higher Eigenvalues

Subspace 1 =

   -0.7290   -0.5937    0.1389    0.2593    0.1052    0.1360    0.0011
   -0.2938    0.6517    0.1020    0.2211    0.1334    0.6417   -0.0003

Subspace 2 =

   -0.7602   -0.5000    0.2112    0.0788   -0.1490    0.3147    0.0009
   -0.0234    0.3350   -0.1990   -0.5782   -0.0922    0.7104   -0.0003

Subspace 3 =

   -0.7830   -0.0632   -0.1278   -0.1165    0.5783   -0.1364    0.0007
    0.2001    0.3052   -0.5380   -0.7587    0.0368    0.0181    0.0000

Subspace 4 =

    0.8916    0.3102   -0.1562   -0.0971   -0.2714    0.0360   -0.0006
   -0.3004   -0.0651   -0.3843   -0.1668   -0.7193    0.4611    0.0001

Subspace 5 =

   -0.9526   -0.1421    0.1948    0.0355    0.1800   -0.0285    0.0005
    0.1831   -0.5518   -0.2267   -0.0207    0.7454   -0.2335    0.0001

Subspace 6 =

   -0.7972   -0.2690   -0.0530    0.0582    0.5228   -0.1124    0.0007
    0.2748   -0.7289    0.3588    0.5132    0.0273    0.0189   -0.0000

Subspace 7 =

    0.7441    0.3271   -0.1910   -0.1597   -0.4853    0.2047   -0.0006
    0.1882   -0.3147   -0.7801    0.0598    0.4547    0.2157    0.0003

Subspace 8 =

   -0.7783   -0.5705    0.1664    0.1330    0.1124    0.1038    0.0010
   -0.5690    0.6276    0.0181   -0.5140   -0.1212   -0.0564   -0.0004

Subspace 9 =

   -0.9579   -0.1646    0.2002   -0.0377    0.1025    0.0579    0.0006
    0.0240   -0.3449    0.0161    0.0221   -0.7032    0.6207    0.0003

Subspace 10 =

   -0.9739   -0.1047    0.1492   -0.0601   -0.0026    0.1208    0.0006
    0.0378    0.0033   -0.4857   -0.5805   -0.2203    0.6141    0.0003

Subspace 11 =

   -0.7631   -0.3310    0.0276    0.0557    0.5382   -0.1207    0.0007
   -0.2668    0.1688   -0.5546   -0.7505   -0.1495    0.0848    0.0002

Subspace 12 =

   -0.9596   -0.1057    0.0774   -0.1484    0.0167    0.1991    0.0007
    0.0641   -0.5540    0.6918   -0.0105    0.3541   -0.2915   -0.0004

Subspace 13 =

   -0.7522   -0.0787   -0.1469   -0.1282    0.6173   -0.0950    0.0008
    0.2268    0.1583    0.1514    0.7948    0.4612   -0.2370    0.0006

Subspace 14 =

   -0.9595   -0.1047    0.0497   -0.1231    0.0104    0.2251    0.0008
   -0.1702    0.7274   -0.2238   -0.3406   -0.0687   -0.5207   -0.0005

Subspace 15 =

    0.8149    0.3330   -0.1314   -0.0958   -0.4358    0.0928   -0.0006
    0.2928   -0.0623   -0.6466   -0.0268    0.6394   -0.2878    0.0004

Subspace 16 =

   -0.8570   -0.2685    0.1985    0.1114    0.3653   -0.0908    0.0006
    0.2852    0.2621    0.4986    0.1127    0.3927   -0.6591   -0.0002

Subspace 17 =

   -0.7982   -0.2906    0.3061    0.1010    0.4011   -0.1169    0.0005
   -0.0946    0.1785    0.1409   -0.7338    0.1939    0.6027   -0.0001

Subspace 18 =

    0.8615    0.3313   -0.1240    0.0188    0.1245   -0.3419   -0.0009
   -0.4559    0.6753   -0.3303   -0.2765    0.2463   -0.2999   -0.0001

Subspace 19 =

    0.7124    0.6176   -0.1987   -0.1121   -0.0365   -0.2402   -0.0010
   -0.0132   -0.1412    0.0267    0.2318    0.7169   -0.6414    0.0002

Subspace 20 =

   -0.7860   -0.4798    0.1508    0.3080    0.0821    0.1660    0.0010
    0.2606   -0.0119    0.5278    0.4751   -0.6358    0.1529   -0.0005

Bases Smaller Eigenvalues

Subspace 1 =

   -0.1282   -0.1101   -0.8186   -0.4133    0.2312    0.2775    0.0002
   -0.2710    0.3492   -0.2645    0.3344    0.4532   -0.6461    0.0013

Subspace 2 =

    0.4114   -0.1121    0.3681    0.1159   -0.8023    0.1597   -0.0003
    0.1426   -0.6155   -0.4037   -0.5654   -0.1676   -0.3001    0.0008

Subspace 3 =

   -0.1263   -0.5871    0.1760   -0.3839   -0.1157    0.6691    0.0017
    0.3221    0.1746    0.6940   -0.3125    0.5323   -0.0558   -0.0005

Subspace 4 =

    0.0412   -0.4519    0.0108   -0.1399   -0.4387   -0.7629    0.0002
    0.0949   -0.3021    0.0163   -0.8835    0.2966    0.1758   -0.0003

Subspace 5 =

    0.1945    0.1926    0.6755    0.4567    0.4086    0.3054    0.0004
   -0.0224    0.4092    0.0101   -0.7525    0.3945    0.3316    0.0005

Subspace 6 =

    0.2786    0.3976    0.1700    0.2436    0.7090    0.4163   -0.0004
    0.2527   -0.2317    0.3907   -0.7465    0.3365   -0.2437    0.0001

Subspace 7 =

   -0.2829    0.2995   -0.1053    0.7068   -0.2000    0.5289    0.0003
   -0.2630   -0.0825   -0.5044    0.1373   -0.5532   -0.5871    0.0007

Subspace 8 =

   -0.0710   -0.2990   -0.8122   -0.1970   -0.4260   -0.1598    0.0012
    0.0497    0.0269   -0.0893   -0.0895   -0.1807    0.9737   -0.0005

Subspace 9 =

   -0.2130    0.3720   -0.8284    0.1226    0.0848    0.3282    0.0000
    0.1680   -0.0549    0.2924    0.2398    0.6272    0.6575    0.0002

Subspace 10 =

    0.0210   -0.8407   -0.3583    0.3955   -0.0401    0.0793    0.0005
    0.0179    0.2164   -0.0337    0.3821    0.6864    0.5784   -0.0001

Subspace 11 =

    0.0704    0.6897   -0.4016    0.3225    0.5027   -0.0381    0.0007
   -0.0034   -0.3968   -0.5669    0.4223   -0.1358    0.5696   -0.0010

Subspace 12 =

   -0.0943   -0.1258   -0.2257    0.8487    0.4210    0.1635    0.0002
   -0.0280    0.5876    0.6729    0.3391   -0.2261    0.1872   -0.0010

Subspace 13 =

    0.2648    0.5748    0.0321   -0.2765    0.4350    0.5769   -0.0012
   -0.2036    0.6951   -0.5368    0.1157   -0.3067   -0.2825   -0.0013

Subspace 14 =

   -0.0344    0.1909    0.0644    0.2001    0.9582   -0.0070   -0.0003
    0.0045    0.6292    0.3976    0.4185   -0.2359    0.4639   -0.0004

Subspace 15 =

   -0.0674   -0.0488   -0.3067    0.8986   -0.2880   -0.0924    0.0001
   -0.2925    0.5040   -0.0916   -0.1833   -0.2525   -0.7447    0.0001

Subspace 16 =

    0.2377   -0.0846    0.2625    0.6967    0.2776    0.5523    0.0002
   -0.3040    0.8841    0.1675   -0.0659   -0.0598    0.2998    0.0002

Subspace 17 =

    0.0713    0.7076    0.6031    0.0148    0.0885   -0.3499   -0.0003
    0.0439    0.2581    0.0046    0.6608    0.2911    0.6403    0.0005

Subspace 18 =

   -0.0111    0.3419    0.5594   -0.2524   -0.6921   -0.1652    0.0001
    0.0519    0.5431    0.3058    0.3722    0.2242    0.6482   -0.0002

Subspace 19 =

    0.0186   -0.4507   -0.6593   -0.4878   -0.1779   -0.3037    0.0005
   -0.2568    0.1371    0.4788   -0.2107   -0.4925   -0.6316   -0.0001

Subspace 20 =

    0.2995   -0.8146   -0.1708   -0.3755   -0.2722    0.0503   -0.0003
    0.3738   -0.1425    0.3014    0.0984    0.6224    0.5933    0.0006


Order: 13 3 6 11 15 7 17 16 4 5 9 10 12 14 18 2 19 8 1 20

