1,0.017453,639.09,340.78,-216.35,84.259,-231.68,243.11
1,0.034907,598.79,377.21,-237.58,99.631,-233.75,243.12
1,0.05236,569.17,415.92,-245.63,68.957,-296.22,257.12
1,0.069813,609.45,415.03,-230.36,53.035,-310.84,269.15
1,0.087266,640.3,411.46,-249.25,91.05,-315.41,250.82
1,0.10472,599.02,380.1,-223.12,133.7,-303.31,246.35
1,0.12217,621.82,424.38,-231.92,167.06,-332.55,205.31
1,0.13963,622.82,450.29,-245.8,127,-317.23,138.49
1,0.15708,723.02,518.41,-229.91,145.28,-331.42,99.794
1,0.17453,748.31,503.78,-263.7,191.34,-351.23,111.58
1,0.19199,766.27,542.78,-225.69,164.48,-313.22,79.919
1,0.20944,737.31,502.6,-194.31,197.91,-226.96,104.85
1,0.22689,788.59,545.16,-285.26,171.95,-189.67,113.16
1,0.24435,808.94,556.25,-286.09,154.66,-179.72,110.14
1,0.2618,788.53,567.45,-272.68,129.86,-177.56,145.69
1,0.27925,798.82,593.07,-288.9,197.19,-249.46,25.211
1,0.29671,791.62,575.08,-265.72,185.63,-233.85,7.8013
1,0.31416,768.1,563.86,-228.97,192.71,-213.13,37.599
1,0.33161,837.37,470.73,-260.04,201.92,-127.69,15.873
1,0.34907,858.34,482.08,-252.54,195.89,-125.44,-7.087
1,0.36652,948.36,533.14,-268.54,143.52,-122.63,9.8581
1,0.38397,937.5,487.2,-297.06,129.49,-114.55,-21.576
1,0.40143,890.11,438.49,-263.03,138.64,-142.5,64.981
1,0.41888,879.9,427.94,-274.39,139.12,-154.23,91.543
1,0.43633,875.12,484.82,-261.96,115.72,-164.55,119.58
1,0.45379,883.89,436.08,-288.97,104.03,-141.21,108.08
1,0.47124,876.6,516.81,-319.25,93.952,-143.21,41.986
1,0.48869,849.72,574.79,-362.07,82.041,-120.38,51.266
1,0.50615,826.4,580.77,-360.53,88.778,-136.2,64.552
1,0.5236,857.46,641.09,-295.44,107,-184.28,60.222
1,0.54105,906.42,646.46,-341.78,115.79,-160.01,63.581
1,0.55851,895.26,632.01,-356.39,152.48,-162.38,93.326
1,0.57596,877.82,596.87,-369.75,145.69,-159.48,124.47
1,0.59341,687.35,497.73,-280.01,59.51,-204.24,83.527
1,0.61087,713.36,455.19,-235.55,18.385,-196.77,63.861
1,0.62832,693.9,521.89,-198.35,37.674,-265.55,84.077
1,0.64577,696.8,546.96,-318.73,137.33,-391.45,163.54
1,0.66323,669.73,599.01,-313.13,148.35,-409.37,173.95
1,0.68068,686.41,628.45,-321.81,119.9,-411.53,190.22
1,0.69813,619.27,676.3,-333.4,122.75,-436.43,161.61
1,0.71558,501.69,578.26,-221.89,116.62,-464.46,182.11
1,0.73304,521.09,545.09,-238.15,141.66,-471.64,204.59
1,0.75049,498.11,543.86,-228.96,170.53,-458.57,173.64
1,0.76794,467.94,523.01,-221.34,165.16,-505.84,140.56
1,0.7854,453.16,523.25,-232.71,176.25,-481.79,143.77
1,0.80285,446.14,516.59,-240.69,163.92,-479.26,176.07
1,0.8203,475.57,491.99,-242.86,223.94,-405.41,201.4
1,0.83776,468.35,527.68,-279.63,227.04,-431.6,223.18
1,0.85521,514.96,582.32,-242.77,272.58,-390.15,219.17
1,0.87266,477.77,575.05,-254.91,237.18,-401.81,210.39
1,0.89012,490.26,606.76,-293.86,229.93,-353.81,212.41
1,0.90757,468.43,568.25,-316.22,262.65,-370.79,195.06
1,0.92502,432.02,584.06,-331.85,284.16,-382.65,172.03
1,0.94248,462.44,613.7,-281.72,293.56,-393.62,167.25
1,0.95993,436.63,614.81,-265.65,293.75,-395.51,144.91
1,0.97738,447.69,611.99,-236.96,259.6,-361.84,92.52
1,0.99484,417.52,665.89,-265,260.38,-351.4,134.91
1,1.0123,452.48,680.77,-281.66,296.66,-335.06,148.94
1,1.0297,478.16,675.29,-308.84,302.77,-311.49,106.92
1,1.0472,498.69,658.18,-329.95,289.84,-316.55,120.69
1,1.0647,414.87,718.86,-309.6,266.33,-339.25,170.89
1,1.0821,413.2,734.6,-277.67,309.83,-317.6,165.68
1,1.0996,389.23,711.12,-264.96,341.93,-335.58,191.31
1,1.117,347.15,694.3,-270.11,317.81,-393.03,187.16
1,1.1345,344.71,697.82,-282.89,325.86,-428.89,154.87
1,1.1519,334.9,689.73,-275.7,314.16,-408.55,140.53
1,1.1694,343.5,694.68,-255.91,308.65,-441.93,155.56
1,1.1868,299.56,651.65,-275.87,371.24,-358.23,168.46
1,1.2043,345.17,659.23,-350.2,417.36,-285.37,190.76
1,1.2217,355.66,620.78,-319.23,411.23,-273.16,213.02
1,1.2392,426.84,652.37,-298.7,388.35,-319.57,184.78
1,1.2566,419.19,654.22,-327.34,372.53,-305.65,190.61
1,1.2741,407.84,666.64,-343.26,389.46,-305.09,203.71
1,1.2915,402.76,650.89,-346.18,386.06,-339.4,215.91
1,1.309,335.73,661.28,-266.01,469.91,-359.31,257.85
1,1.3265,286.39,657.1,-238.87,552.82,-320.24,241.32
1,1.3439,291.75,671.32,-271.41,556.21,-296.53,254.55
1,1.3614,290.08,713.96,-309.18,544.63,-277.34,264
1,1.3788,245.75,725.02,-303.92,512.38,-263.28,271.73
1,1.3963,197.59,722.63,-265.55,548.36,-324.12,232.42
1,1.4137,195.59,760.47,-277.28,544.95,-297.84,225.36
1,1.4312,186.46,786.62,-284.36,560.47,-306.18,196.69
1,1.4486,176.12,821.24,-302.15,558.5,-326.09,178.8
1,1.4661,166.1,808.69,-329.24,554.55,-291.9,220.17
1,1.4835,143.61,839.98,-325.71,574.37,-299.75,213.03
1,1.501,106.78,837.83,-312.14,586.86,-305.91,249.81
1,1.5184,63.398,843.28,-284.95,648.64,-289.96,263.17
1,1.5359,69.765,827.12,-282.46,630.3,-314.59,272.81
1,1.5533,50.324,840.56,-292.03,647.94,-315.05,301.81
1,1.5708,37.616,842.82,-295.24,649.82,-316.64,290.67
1,1.5882,26.49,812.76,-286.56,656.42,-292.57,265.2
1,1.6057,5.2553,770.47,-270,640.4,-314.53,277.36
1,1.6232,44.527,765.53,-290.17,666.94,-312.98,279.76
1,1.6406,29.712,753.6,-258.93,643.18,-259.04,299.08
1,1.6581,42.307,741.86,-276.75,654.21,-272.81,307.83
1,1.6755,50.581,745.76,-261.23,664.63,-301.03,298.38
1,1.693,68.085,750.49,-233.2,663.68,-258.94,372.3
1,1.7104,93.457,821.83,-309.37,630.41,-228.13,369.36
1,1.7279,82.847,813.03,-257.82,619.67,-228.1,402.35
1,1.7453,33.622,732.92,-239.95,634,-158.68,388.06
1,1.7628,13.455,691.04,-242.82,622.7,-161.36,426.06
1,1.7802,38.595,631.77,-215.65,560.85,-96.533,401.56
1,1.7977,22.065,627.55,-223.77,568.05,-104.42,408.51
1,1.8151,26.484,628.08,-240.53,568.49,-109.9,381.38
2,1.8326,78.875,816.74,80.821,425.67,400.78,289.54
2,1.85,81.378,825.78,103.36,424.58,385.18,290.28
2,1.8675,106.44,816.86,64.61,410.55,425.68,299.91
2,1.885,106.57,833.03,65.076,448.88,418.68,268.11
2,1.9024,105.24,835.7,59.324,451.76,424.3,269.89
2,1.9199,127.2,815.33,69.121,498.48,372.75,340.58
2,1.9373,109.12,793.93,56.417,426.29,403.73,349.63
2,1.9548,127.73,717.1,109.31,437.27,406.05,357.81
3,1.9722,903.12,1126.9,442.63,1009.2,516.92,397.13
3,1.9897,882.02,1106.5,451.02,1013.7,504.71,420.16
3,2.0071,895.87,1123.3,464.49,1022.6,500.32,402.73
4,2.0246,1312.4,1065.6,-1188.4,1305.7,266.41,253.58
4,2.042,674.36,996.14,-187.31,385.9,988.05,-260.2
4,2.0595,1618.8,-107.24,20.569,1118.5,131.2,453.44
4,2.0769,1001.2,798.51,365.9,776.21,738.28,-355.84
4,2.0944,689.79,537.72,486.37,272.19,691.08,197.95
4,2.1118,1178.9,597.66,-8.482,611.63,994.16,-337.31
4,2.1293,1294.9,188.92,110.45,588.59,865.05,-256.32
4,2.1468,1663.2,1272,-471.08,715.24,1638.8,670.86
4,2.1642,1440.5,531.65,-189.16,1463.8,-435.3,551.33
4,2.1817,1522,314.4,-747.82,45.978,1589.6,609.28
4,2.1991,2302.7,-270.65,138.79,829.13,1438.5,-744.57
4,2.2166,2065.4,-42.434,248.39,808.68,812.48,1398.9
4,2.234,2298.9,956.14,81.326,1359.4,1055.6,516.67
4,2.2515,-614.19,736.32,-39.965,957.73,1151.5,-515.37
5,2.2689,-908.36,-164.07,214.38,-1438.1,539.89,464.58
5,2.2864,-905.76,-171.41,194.5,-1460.4,523.73,520.19
5,2.3038,-911.51,-116.62,200.63,-1484.6,553.72,509.91
5,2.3213,-913.6,-90.849,201.94,-1465.1,528.54,520.64
5,2.3387,-966.84,-130.45,217.38,-1474.4,547.71,535.08
5,2.3562,-1054.6,32.532,231.12,-1458.9,501.44,551.05
5,2.3736,-1070.3,72.265,199.35,-1428.2,540.5,513.78
5,2.3911,-1083.2,67.369,181.21,-1426.5,578.71,462.06
5,2.4086,-1117.6,106.01,147.22,-1443.9,591.79,509.85
5,2.426,-1131.5,127.93,176.23,-1447.4,570.79,485.03
5,2.4435,-1175.4,68.936,390.28,-1472.1,629.7,434.69
5,2.4609,-1235.3,96.842,349.59,-1414.3,630.22,435.07
5,2.4784,-1202.1,118.26,442,-1422.9,648.8,445.82
5,2.4958,-1170.8,115.85,462.47,-1425.4,676.08,403.44
5,2.5133,-1162.1,108.03,469.87,-1456.1,700.21,403.77
5,2.5307,-1153.5,106.52,512.53,-1421.8,668.78,462.07
5,2.5482,-1181,135.69,545.8,-1417.5,662.28,473.67
5,2.5656,-1203.3,177.04,568.97,-1391.2,673.5,449.92
5,2.5831,-1349.8,307.02,518.85,-1314.1,601.09,459.14
5,2.6005,-1357.7,320.54,516.08,-1289,614.01,474.56
5,2.618,-1441.1,353.64,529.37,-1260.1,593.38,458.69
5,2.6354,-1464,400.77,571.54,-1253.3,604,454.5
5,2.6529,-1444.2,402.29,537.14,-1188.9,565.4,471.57
5,2.6704,-1403.9,400.52,543.55,-1174.5,552.16,472.28
5,2.6878,-1375.7,404.61,557.58,-1171.3,560.42,465.16
5,2.7053,-1399.7,412.62,547.34,-1171.9,550.73,490.84
5,2.7227,-1452.3,387.59,525.07,-1176,554.83,467.99
5,2.7402,-1471.2,400.05,487.42,-1182.6,596.33,458.27
5,2.7576,-1432.3,430.1,462.55,-1145.5,604.87,463.29
5,2.7751,-1408.9,415.21,516.5,-1082.7,609.68,456.83
5,2.7925,-1416.4,438.34,410.56,-1050.3,556.2,524.34
5,2.81,-1364.2,442.79,410.69,-1082.4,580.36,521.6
5,2.8274,-1347.9,445.28,402.73,-1041,564.41,517.58
5,2.8449,-1367.2,456.33,352.3,-1061.9,545.25,526.54
5,2.8623,-1365,530.25,379.86,-1090.5,613.04,521.42
5,2.8798,-1445.9,526.6,375.97,-1104.3,632.34,515.32
5,2.8972,-1459.2,563.61,360.34,-1102.8,655.47,495.49
5,2.9147,-1450.1,567.17,386,-1085,715.44,438.27
5,2.9322,-1503.1,621.93,427.91,-1042.6,709.93,448.52
5,2.9496,-1504.1,586.52,465.04,-1055.4,720.91,424.27
5,2.9671,-1511.2,552.75,456.16,-1069,714.81,422.42
5,2.9845,-1526.8,567.14,481.43,-1082.1,723.56,391.46
5,3.002,-1525.3,571.06,445.24,-1061.6,769.66,361.92
5,3.0194,-1596.5,588.4,415.01,-1060.2,839.81,207.38
5,3.0369,-1552,541.36,399.01,-1024.1,843.17,199.98
5,3.0543,-1595.6,519.77,426.46,-1016.7,823.31,199.75
6,3.0718,-1351.3,362.19,344.64,-916.25,885.02,-39.755
6,3.0892,-1372.3,305.38,336.41,-807.17,845.02,-61.604
6,3.1067,-1364.8,299,338.32,-788.29,871.65,-78.322
7,3.1241,-1448.8,220.54,155.9,-937.25,1099.5,-46.258
7,3.1416,-1453.2,280.96,191.19,-961.26,1114.5,-66.046
7,3.159,-1487.6,249.43,211.2,-954.01,1086,-56.598
7,3.1765,-1476.7,223.78,222.21,-942.72,1071.6,-73.848
7,3.194,-1483.9,222.93,249.3,-916.05,1063.5,-63.665
7,3.2114,-1478,243.51,282.58,-900.72,1052.9,-96.203
7,3.2289,-1510.9,250.81,255.73,-867.02,1078.6,-100.99
7,3.2463,-1558.1,209.13,258.93,-831.93,1071.7,-126.24
8,3.2638,-1633.4,103.64,60.523,-720.29,1050.9,-271.11
8,3.2812,-1653,64.463,14.791,-660.3,1087.7,-277.2
8,3.2987,-1617.1,77.694,1.1296,-656.52,1109.8,-269.82
8,3.3161,-1578.3,72.433,20.164,-658.69,1057.8,-279.46
8,3.3336,-1612,60.486,-4.8574,-674.27,1081.8,-284.82
8,3.351,-1631.1,-29.869,-33.765,-617.01,1102.9,-255.57
8,3.3685,-1612.5,-18.097,-101.72,-599.17,1099.8,-276.04
8,3.3859,-1626,-22.67,-93.4,-606.95,1126.1,-265.89
8,3.4034,-1622.2,-34.934,-97.136,-612.98,1123.4,-255.44
8,3.4208,-1628.9,-28.942,-111.74,-660.8,1147.1,-203.74
8,3.4383,-1579.4,-70.922,-111.66,-652.96,1187.9,-240.73
8,3.4558,-1542.1,-125.83,-135.3,-632.77,1185.7,-270.57
8,3.4732,-1567.6,-116.82,-122.4,-619.97,1189.5,-253.93
8,3.4907,-1557.7,-137.56,-144,-606.83,1164,-272.34
8,3.5081,-1519.8,-155.12,-158.56,-609.34,1170.7,-278.13
8,3.5256,-1516.2,-148.43,-176.72,-637.94,1163.3,-281.96
8,3.543,-1516.8,-137.61,-177.28,-623.62,1159.3,-295.18
8,3.5605,-1514.7,-136.62,-121.57,-627.94,1161.2,-289.64
8,3.5779,-1505.8,-114.39,-97.756,-666.12,1176.5,-329.87
8,3.5954,-1515.2,-116.33,-91.875,-646.56,1161.4,-323.65
8,3.6128,-1519.6,-73.199,-59.566,-687.14,1170,-358.82
8,3.6303,-1519.9,-83.638,-95.63,-701.3,1185,-338.48
8,3.6477,-1552.8,-53.452,-103.64,-705.81,1151.6,-374.02
8,3.6652,-1521.1,-42.966,-25.767,-844.47,1124,-393.89
8,3.6826,-1525.4,-3.3113,-77.547,-860.39,1168.1,-513.33
8,3.7001,-1504,-45.027,-157.24,-830.86,1209.4,-597.81
8,3.7176,-1500.2,-29.588,-173.66,-841.03,1211.9,-592.22
8,3.735,-1502.4,-0.63244,-183.87,-815.08,1199.5,-515.4
8,3.7525,-1523.7,12.596,-198.7,-804.76,1182.3,-518.39
8,3.7699,-1558.7,33.804,-185.69,-766.28,1173.4,-546.48
8,3.7874,-1556.6,41.918,-199.65,-773.6,1155.3,-546.1
8,3.8048,-1543.2,18.876,-179.07,-730.47,1208.9,-576.8
8,3.8223,-1529.5,36.638,-188.12,-689.94,1181.4,-567.01
8,3.8397,-1547.6,84.646,-218.4,-748.65,1201.5,-522.83
8,3.8572,-1518.7,81.43,-251.98,-735.36,1186.6,-516.73
8,3.8746,-1516.1,79.207,-193.69,-697.66,1139.9,-538.29
8,3.8921,-1519.8,71.781,-175.96,-697.65,1151,-535.76
8,3.9095,-1524.9,102.95,-177.1,-669.29,1132.1,-525.08
8,3.927,-1491.5,109.31,-202.56,-690.3,1150.4,-552.69
8,3.9444,-1550.5,142.84,-175.68,-644.64,1176.8,-564.04
8,3.9619,-1565.3,170.95,-155.67,-634.69,1168.4,-566.28
8,3.9794,-1557.2,160.31,-149.83,-636.5,1190.4,-584.97
8,3.9968,-1497.2,183.27,-339.49,-803.76,1321.8,-593.19
8,4.0143,-1527.8,167.38,-342.57,-782.12,1324.2,-592.34
8,4.0317,-1497.3,171.73,-343.47,-759.89,1369.6,-604.86
8,4.0492,-1457.8,184.44,-336.61,-781.05,1387.2,-607.63
8,4.0666,-1449.3,191.73,-323.86,-781.52,1367.2,-626.7
8,4.0841,-1473.3,191.33,-317.87,-770.46,1326.4,-636.98
8,4.1015,-1443.9,196.56,-320.79,-756.21,1340.5,-608.9
8,4.119,-1492.6,243.26,-285.72,-768.99,1297,-620.7
8,4.1364,-1489.1,267,-295.37,-776.02,1300.8,-618.41
8,4.1539,-1453.5,246.73,-306.62,-818.89,1346.1,-614.2
8,4.1713,-1460.8,252.73,-311.58,-856.7,1381.1,-623.31
8,4.1888,-1435.4,252.4,-278.27,-826.02,1405.2,-612.13
8,4.2062,-1413.4,221.22,-266.37,-847.78,1420,-608.76
8,4.2237,-1451.1,275.5,-276.17,-877.16,1505.9,-675.69
8,4.2412,-1463.7,284.13,-250.45,-864.98,1517.9,-675.15
8,4.2586,-1460.3,257.85,-235.58,-837.19,1539.2,-736.51
8,4.2761,-1456.1,269.66,-205.35,-835.3,1556.3,-728.55
8,4.2935,-1440.1,263.47,-205.13,-850.12,1584.8,-698.68
8,4.311,-1469.5,304.42,-223.02,-876.5,1538.3,-708.88
8,4.3284,-1468.8,289.98,-238.43,-860.42,1541.1,-713.52
8,4.3459,-1476.4,398.15,-296.14,-868.42,1469.6,-651.57
8,4.3633,-1457.8,361.36,-305.64,-781.6,1463.8,-665.75
8,4.3808,-1428.8,320.9,-284.07,-838.12,1419.7,-641.21
8,4.3982,-1436.1,305.39,-255.6,-814.81,1429.7,-677.36
8,4.4157,-1423.1,306.49,-277.17,-839.49,1472.4,-685.2
8,4.4331,-1426.5,306.89,-260.32,-851.53,1471.2,-687.33
8,4.4506,-1444.5,339.86,-372.24,-798.23,1401.2,-664.37
8,4.468,-1437.3,343.41,-351.35,-802.21,1389.3,-660.68
8,4.4855,-1415.8,343.21,-290.8,-799.22,1395.4,-620.65
8,4.5029,-1440.1,367.14,-315.69,-788.3,1408.2,-643.27
8,4.5204,-1454,386.54,-333.22,-805.94,1409.5,-667.43
8,4.5379,-1439.1,390.77,-331.46,-805.2,1455.8,-673.68
8,4.5553,-1432.8,393.49,-358.15,-822.56,1479,-650.85
8,4.5728,-1405.2,372.27,-388.78,-810.54,1449,-683.06
8,4.5902,-1411.8,369.42,-385.85,-802.24,1487.7,-673.66
8,4.6077,-1418.7,408.55,-376.49,-834.8,1506.6,-665.55
8,4.6251,-1426.1,415.61,-338.13,-786.79,1497.5,-717.99
8,4.6426,-1424.8,344.43,-259.64,-707.83,1417.8,-660.68
8,4.66,-1372.3,363.6,-217.04,-867.73,1466.8,-462.96
8,4.6775,-1365.9,390.93,-221.66,-855.46,1463.2,-459.32
8,4.6949,-1346.2,348.04,-224.97,-862.27,1498.6,-459.33
8,4.7124,-1330,338.09,-235.87,-885.57,1504.6,-489.27
8,4.7298,-1353.8,337.92,-261.96,-854.39,1515.6,-478.34
8,4.7473,-1356,380.98,-204.32,-882.18,1517.7,-535.64
8,4.7647,-1378.5,387.51,-215.98,-859.46,1525.9,-523.85
8,4.7822,-1371,413.32,-240.67,-853.7,1525.1,-501.33
8,4.7997,-1364.4,409.15,-252.79,-868.45,1523.6,-511.54
8,4.8171,-1372.6,427.02,-282.14,-862.51,1570.4,-486.95
8,4.8346,-1382.7,419.83,-248.09,-849.88,1567,-597.8
8,4.852,-1401.9,470.81,-248.88,-830.68,1530.5,-598.67
8,4.8695,-1402.8,433.22,-248.73,-802.21,1553.6,-580.93
8,4.8869,-1372.5,371.17,-234.48,-833.75,1558.1,-541.59
8,4.9044,-1369.6,373.71,-214.41,-846.9,1579.7,-565.69
8,4.9218,-1387.6,384.23,-213.42,-799.33,1534,-573.95
8,4.9393,-1350.7,337.57,-225.07,-814.38,1520.6,-489.18
8,4.9567,-1358.9,330.81,-201.63,-779.39,1493.2,-488.81
8,4.9742,-1370.4,349.56,-186.88,-820.25,1502.2,-469.67
8,4.9916,-1339.9,322.84,-173.8,-761.04,1445.7,-508.11
8,5.0091,-1331.2,289.47,-196.03,-711.07,1412.6,-518.26
8,5.0265,-1287.1,276.9,-234.42,-706.95,1395,-530.09
8,5.044,-1294.9,301.21,-250.72,-700.95,1411.7,-570.85
8,5.0615,-1297.7,321.65,-244.64,-684.15,1416.3,-551.43
8,5.0789,-1294.5,301.92,-261.03,-697.17,1384.1,-524.45
8,5.0964,-1306.6,349.84,-258.65,-701.38,1420.6,-573.29
8,5.1138,-1307.2,365.45,-271.6,-728.6,1422.3,-531.88
8,5.1313,-1302.9,389.35,-272.5,-705.12,1415.5,-578.83
8,5.1487,-1305.3,422.85,-279.06,-651.43,1377.2,-530.48
8,5.1662,-1338.4,472.19,-311.37,-689.83,1426.9,-575.53
8,5.1836,-1340.4,488.97,-298.74,-715.53,1420.7,-553.84
8,5.2011,-1307.9,472.46,-341.91,-734.31,1423.1,-486.97
8,5.2185,-1327.4,488.13,-301.93,-749.18,1471,-500.94
8,5.236,-1296.4,483.8,-272.85,-762.3,1437.9,-491.58
8,5.2534,-1322.7,481.58,-295.45,-698.58,1429.9,-470.94
8,5.2709,-1307.4,495.37,-289.33,-708.88,1375.7,-465.96
8,5.2883,-1305.6,503.22,-270.3,-676.01,1360.1,-454.08
8,5.3058,-1330.3,549.61,-308.21,-665.18,1361.5,-473.92
8,5.3233,-1306.3,514.77,-325.1,-608.86,1299.2,-497.3
8,5.3407,-1282.3,510.43,-335.9,-606.11,1289.7,-488.56
8,5.3582,-1290.7,526.37,-346.77,-608.08,1287.8,-493.93
8,5.3756,-1294.6,537.82,-376.84,-581.42,1351,-526.41
8,5.3931,-1318.5,541.55,-340.44,-655.51,1337,-512.51
8,5.4105,-1290.3,553.1,-402.66,-594.71,1260.3,-416.51
8,5.428,-1320.6,560.99,-337.32,-592.26,1246.7,-382.48
8,5.4454,-1309.5,579.67,-384.45,-595.57,1284.7,-434.95
8,5.4629,-1318.2,588.68,-367.05,-558.66,1262.4,-421.72
8,5.4803,-1317.8,604.6,-400.7,-583.96,1252.2,-425.29
8,5.4978,-1294.2,574.2,-431.31,-572.18,1247,-384.24
8,5.5152,-1330.4,595.93,-327.02,-597.31,1269,-385.33
8,5.5327,-1290.9,559.47,-337.17,-586.68,1271.1,-388.47
8,5.5501,-1265.6,549.34,-381.57,-574.97,1232.9,-363.66
8,5.5676,-1287.7,532.97,-378.24,-556.86,1254.2,-321.35
8,5.5851,-1277.1,577.96,-410.43,-619.1,1276.8,-272.07
8,5.6025,-1301.2,589.62,-401.74,-607.12,1236.1,-253.44
8,5.62,-1271.3,588.22,-371.3,-602.41,1223.7,-253.46
8,5.6374,-1260.5,570.1,-383.91,-586.61,1223.4,-250.11
8,5.6549,-1247.8,545.55,-344.42,-542.96,1229.4,-306.91
8,5.6723,-1246.8,557.53,-359.97,-555.07,1210.2,-322.47
8,5.6898,-1261,538.76,-370.03,-543.87,1198,-331.95
8,5.7072,-1236.1,522.41,-428.72,-489.35,1202.4,-394.71
8,5.7247,-1212.3,525.93,-411.31,-468.56,1229.3,-428.44
8,5.7421,-1204.1,513.99,-402.95,-458.71,1208.7,-436.8
8,5.7596,-1226.3,564.45,-434.76,-442.76,1169,-481.13
8,5.777,-1228.9,535.87,-419.26,-416.41,1197.1,-490.1
8,5.7945,-1190,518.02,-432.87,-379.41,1191.1,-499.32
8,5.8119,-1151.8,473.14,-411.92,-438.26,1199.1,-477.43
8,5.8294,-1251.7,587.03,-330.61,-337.3,1229.2,-549.69
8,5.8469,-1271.1,617.98,-344.57,-387.59,1177.3,-501.41
8,5.8643,-1309.9,666.83,-338.61,-421.7,1254,-533.83
8,5.8818,-1286.1,679.61,-345.92,-369.82,1251.2,-535.33
8,5.8992,-1301.8,704.01,-352.18,-399.68,1259.2,-522.71
8,5.9167,-1264.2,655.63,-381.85,-402.78,1273.6,-510.55
8,5.9341,-1260.5,614.98,-315.36,-386.89,1246.3,-479.48
8,5.9516,-1236.1,605.92,-312.56,-360.55,1238.1,-504.5
8,5.969,-1191.5,586.69,-303.4,-297.95,1209.8,-546.61
9,5.9865,-1217.9,510.35,-84.127,-291.73,1104.2,-396.04
9,6.0039,-1218,493.33,-34.312,-315.95,1169.2,-409.15
9,6.0214,-1242.4,542.3,-84.708,-354.99,1147.5,-425.55
9,6.0388,-1243.5,589.31,-84.147,-252.88,1127.3,-413.88
9,6.0563,-1262.1,570.44,-74.817,-287.56,1125.4,-424.09
9,6.0737,-1258,548.24,-66.483,-276.38,1164.3,-415.31
9,6.0912,-1244.3,518.89,-71.011,-283.64,1145.1,-428.22
9,6.1087,-1155.7,448.07,-20.304,-219.12,1157.5,-461.07
9,6.1261,-1157,427.32,-14.485,-203.97,1180.6,-478.56
9,6.1436,-1182.1,423.42,-30.391,-230.42,1155.2,-495.33
9,6.161,-1156.5,384.75,14.172,-121.3,1107.5,-501.47
9,6.1785,-1165.8,414.94,-17.352,-115.55,1077.2,-545.67
9,6.1959,-1163.1,366.09,-16.12,-127,1095.2,-574.52
9,6.2134,-1103.6,275.08,-84.674,-63.208,1073.3,-553.43
9,6.2308,-1101.7,278.1,-69.865,-90.051,1053.2,-549.28
9,6.2483,-1098.5,266.91,-50.541,-91.769,1044.8,-531.6
9,6.2657,-1117.9,273.11,-89.912,-70.956,1063,-477.55
9,6.2832,-1119.2,281.55,-57.441,-16.865,1013.8,-473.05
