\relax 
\providecommand\hyper@newdestlabel[2]{}
\catcode `"\active 
\providecommand\HyperFirstAtBeginDocument{\AtBeginDocument}
\HyperFirstAtBeginDocument{\ifx\hyper@anchor\@undefined
\global\let\oldcontentsline\contentsline
\gdef\contentsline#1#2#3#4{\oldcontentsline{#1}{#2}{#3}}
\global\let\oldnewlabel\newlabel
\gdef\newlabel#1#2{\newlabelxx{#1}#2}
\gdef\newlabelxx#1#2#3#4#5#6{\oldnewlabel{#1}{{#2}{#3}}}
\AtEndDocument{\ifx\hyper@anchor\@undefined
\let\contentsline\oldcontentsline
\let\newlabel\oldnewlabel
\fi}
\fi}
\global\let\hyper@last\relax 
\gdef\HyperFirstAtBeginDocument#1{#1}
\providecommand\HyField@AuxAddToFields[1]{}
\providecommand\HyField@AuxAddToCoFields[2]{}
\citation{abnt-url-package=url}
\citation{abnt-emphasize=bf}
\select@language{brazilian}
\@writefile{toc}{\select@language{brazilian}}
\@writefile{lof}{\select@language{brazilian}}
\@writefile{lot}{\select@language{brazilian}}
\@writefile{lof}{\addvspace {10\p@ }}
\@writefile{lot}{\addvspace {10\p@ }}
\select@language{english}
\@writefile{toc}{\select@language{english}}
\@writefile{lof}{\select@language{english}}
\@writefile{lot}{\select@language{english}}
\@writefile{lof}{\addvspace {10\p@ }}
\@writefile{lot}{\addvspace {10\p@ }}
\select@language{brazilian}
\@writefile{toc}{\select@language{brazilian}}
\@writefile{lof}{\select@language{brazilian}}
\@writefile{lot}{\select@language{brazilian}}
\@writefile{lof}{\addvspace {10\p@ }}
\@writefile{lot}{\addvspace {10\p@ }}
\tocstyle@set@width {unum}{lof}{}{27.0pt}
\tocstyle@set@width {num}{lof}{1}{27.0pt}
\tocstyle@set@width {skip}{lof}{1}{18.0pt}
\@writefile{lof}{\addvspace {10\p@ }}
\@writefile{lot}{\addvspace {10\p@ }}
\@writefile{lof}{\addvspace {10\p@ }}
\@writefile{lot}{\addvspace {10\p@ }}
\tocstyle@set@width {unum}{toc}{}{30.0pt}
\tocstyle@set@width {skip}{toc}{0}{0.0pt}
\tocstyle@set@width {num}{toc}{1}{21.0pt}
\tocstyle@set@width {skip}{toc}{1}{18.0pt}
\tocstyle@set@width {num}{toc}{2}{30.0pt}
\tocstyle@set@width {skip}{toc}{2}{39.0pt}
\citation{Silva12learningparameterized}
\@writefile{toc}{\contentsline {chapter}{1~Introdu\IeC {\c c}\IeC {\~a}o}{9}{CHAPTER.1}}
\@writefile{lof}{\addvspace {10\p@ }}
\@writefile{lot}{\addvspace {10\p@ }}
\@writefile{lol}{\addvspace {10\p@ }}
\citation{Schaal_dynamicmovement}
\@writefile{toc}{\contentsline {chapter}{2~O Problema de Movimenta\IeC {\c c}\IeC {\~a}o de Bra\IeC {\c c}os Rob\IeC {\'o}ticos}{11}{CHAPTER.2}}
\@writefile{lof}{\addvspace {10\p@ }}
\@writefile{lot}{\addvspace {10\p@ }}
\@writefile{lol}{\addvspace {10\p@ }}
\@writefile{lof}{\contentsline {figure}{\numberline {2.1}{\ignorespaces Simulador do Bra\IeC {\c c}o Mec\IeC {\^a}nico - Configura\IeC {\c c}\IeC {\~o}es com e sem Obst\IeC {\'a}culos}}{11}{figure.2.1}}
\newlabel{fig:robot-print}{{2.1}{11}{O Problema de Movimentação de Braços Robóticos}{figure.2.1}{}}
\citation{Auger:2012:TCE:2330784.2330919}
\@writefile{loa}{\contentsline {algorithm}{\numberline {2.1}{\ignorespaces Treinamento de tarefas ao longo de uma circunfer\IeC {\^e}ncia}}{13}{algorithm.2.1}}
\newlabel{algo:training01}{{2.1}{13}{O Problema de Movimentação de Braços Robóticos}{algorithm.2.1}{}}
\@writefile{toc}{\contentsline {chapter}{3~Visualiza\IeC {\c c}\IeC {\~a}o e An\IeC {\'a}lise dos Dados de Treinamento}{14}{CHAPTER.3}}
\@writefile{lof}{\addvspace {10\p@ }}
\@writefile{lot}{\addvspace {10\p@ }}
\@writefile{lol}{\addvspace {10\p@ }}
\@writefile{toc}{\contentsline {section}{\numberline {3.1}Conjuntos de Treinamento de Pol\IeC {\'\i }ticas de Alta-Dimensionalidade}{14}{section.3.1}}
\@writefile{lof}{\contentsline {figure}{\numberline {3.1}{\ignorespaces Conjunto de Dados sem Obst\IeC {\'a}culos - Atributos da DMP em Fun\IeC {\c c}\IeC {\~a}o do \IeC {\^A}ngulo}}{15}{figure.3.1}}
\newlabel{fig:ds_free_test01}{{3.1}{15}{Conjuntos de Treinamento de Políticas de Alta-Dimensionalidade}{figure.3.1}{}}
\@writefile{lof}{\contentsline {figure}{\numberline {3.2}{\ignorespaces Treinamentos com Obst\IeC {\'a}culos - Atributos da DMP em Fun\IeC {\c c}\IeC {\~a}o do \IeC {\^A}ngulo}}{16}{figure.3.2}}
\newlabel{fig:ds_los_test01}{{3.2}{16}{Conjuntos de Treinamento de Políticas de Alta-Dimensionalidade}{figure.3.2}{}}
\@writefile{lof}{\contentsline {figure}{\numberline {3.3}{\ignorespaces Treinamentos com Obst\IeC {\'a}culos - Erro de Performance}}{16}{figure.3.3}}
\newlabel{fig:error_test01}{{3.3}{16}{Conjuntos de Treinamento de Políticas de Alta-Dimensionalidade}{figure.3.3}{}}
\@writefile{lof}{\contentsline {figure}{\numberline {3.4}{\ignorespaces Treinamentos com Obst\IeC {\'a}culos - Comportamento Err\IeC {\^o}neo do Rob\IeC {\^o}}}{17}{figure.3.4}}
\newlabel{fig:error_test01_behavior}{{3.4}{17}{Conjuntos de Treinamento de Políticas de Alta-Dimensionalidade}{figure.3.4}{}}
\@writefile{lof}{\contentsline {figure}{\numberline {3.5}{\ignorespaces Novos conjuntos treinados com a configura\IeC {\c c}\IeC {\~a}o sem obst\IeC {\'a}culos}}{18}{figure.3.5}}
\newlabel{fig:scatter_free_new}{{3.5}{18}{Conjuntos de Treinamento de Políticas de Alta-Dimensionalidade}{figure.3.5}{}}
\@writefile{lof}{\contentsline {figure}{\numberline {3.6}{\ignorespaces Novos conjuntos treinados com a configura\IeC {\c c}\IeC {\~a}o com obst\IeC {\'a}culos}}{18}{figure.3.6}}
\newlabel{fig:scatter_losangle_new}{{3.6}{18}{Conjuntos de Treinamento de Políticas de Alta-Dimensionalidade}{figure.3.6}{}}
\@writefile{toc}{\contentsline {section}{\numberline {3.2}Mensurando Performance de Pol\IeC {\'\i }ticas}{18}{section.3.2}}
\@writefile{lof}{\contentsline {figure}{\numberline {3.7}{\ignorespaces Erros de Performance do Rob\IeC {\^o} - Treinamentos sem Obst\IeC {\'a}culos}}{19}{figure.3.7}}
\newlabel{fig:errorcharts-free}{{3.7}{19}{Mensurando Performance de Políticas}{figure.3.7}{}}
\@writefile{lof}{\contentsline {figure}{\numberline {3.8}{\ignorespaces Erros de Performance do Rob\IeC {\^o} - Treinamentos com Obst\IeC {\'a}culos}}{20}{figure.3.8}}
\newlabel{fig:errorcharts-losangle}{{3.8}{20}{Mensurando Performance de Políticas}{figure.3.8}{}}
\@writefile{lof}{\contentsline {figure}{\numberline {3.9}{\ignorespaces Fun\IeC {\c c}\IeC {\~a}o de Custo do Treinamento com Obst\IeC {\'a}culos para o \IeC {\^A}ngulo 0\IeC {\textordmasculine }}}{21}{figure.3.9}}
\newlabel{fig:cost-function-0}{{3.9}{21}{Mensurando Performance de Políticas}{figure.3.9}{}}
\@writefile{lof}{\contentsline {figure}{\numberline {3.10}{\ignorespaces Fun\IeC {\c c}\IeC {\~a}o de Custo do Treinamento com Obst\IeC {\'a}culos para o \IeC {\^A}ngulo 120\IeC {\textordmasculine }}}{22}{figure.3.10}}
\newlabel{fig:cost-function-120}{{3.10}{22}{Mensurando Performance de Políticas}{figure.3.10}{}}
\@writefile{lof}{\contentsline {figure}{\numberline {3.11}{\ignorespaces Fun\IeC {\c c}\IeC {\~a}o de Custo do Treinamento com Obst\IeC {\'a}culos para o \IeC {\^A}ngulo 180\IeC {\textordmasculine }}}{22}{figure.3.11}}
\newlabel{fig:cost-function-180}{{3.11}{22}{Mensurando Performance de Políticas}{figure.3.11}{}}
\@writefile{lof}{\contentsline {figure}{\numberline {3.12}{\ignorespaces Fun\IeC {\c c}\IeC {\~a}o de Custo do Treinamento com Obst\IeC {\'a}culos para o \IeC {\^A}ngulo 270\IeC {\textordmasculine }}}{22}{figure.3.12}}
\newlabel{fig:cost-function-270}{{3.12}{22}{Mensurando Performance de Políticas}{figure.3.12}{}}
\@writefile{lof}{\contentsline {figure}{\numberline {3.13}{\ignorespaces Fun\IeC {\c c}\IeC {\~a}o de Custo do Treinamento com Obst\IeC {\'a}culos para o \IeC {\^A}ngulo 335\IeC {\textordmasculine }}}{23}{figure.3.13}}
\newlabel{fig:cost-function-335}{{3.13}{23}{Mensurando Performance de Políticas}{figure.3.13}{}}
\@writefile{lof}{\contentsline {figure}{\numberline {3.14}{\ignorespaces Fun\IeC {\c c}\IeC {\~a}o de Custo do Treinamento com Obst\IeC {\'a}culos para o \IeC {\^A}ngulo 0\IeC {\textordmasculine } (Ap\IeC {\'o}s Modifica\IeC {\c c}\IeC {\~a}o)}}{23}{figure.3.14}}
\newlabel{fig:cost-function-0.1}{{3.14}{23}{Mensurando Performance de Políticas}{figure.3.14}{}}
\@writefile{lof}{\contentsline {figure}{\numberline {3.15}{\ignorespaces Pontos de Controle de cada Tarefa - Treinamento sem Obst\IeC {\'a}culos}}{24}{figure.3.15}}
\newlabel{fig:waypoints_free}{{3.15}{24}{Visualização de Trajetórias Codificadas por Políticas}{figure.3.15}{}}
\@writefile{toc}{\contentsline {section}{\numberline {3.3}Visualiza\IeC {\c c}\IeC {\~a}o de Trajet\IeC {\'o}rias Codificadas por Pol\IeC {\'\i }ticas}{24}{section.3.3}}
\@writefile{lof}{\contentsline {figure}{\numberline {3.16}{\ignorespaces Trajet\IeC {\'o}rias realizadas por cada Tarefa - Treinamento sem Obst\IeC {\'a}culos}}{25}{figure.3.16}}
\newlabel{fig:trajectories_free}{{3.16}{25}{Visualização de Trajetórias Codificadas por Políticas}{figure.3.16}{}}
\@writefile{lof}{\contentsline {figure}{\numberline {3.17}{\ignorespaces Pontos de Controle de cada Tarefa - Treinamento com Obst\IeC {\'a}culos}}{25}{figure.3.17}}
\newlabel{fig:waypoints_losangle}{{3.17}{25}{Visualização de Trajetórias Codificadas por Políticas}{figure.3.17}{}}
\@writefile{toc}{\contentsline {section}{\numberline {3.4}Redu\IeC {\c c}\IeC {\~a}o de Dimensionalidade de Pol\IeC {\'\i }ticas}{25}{section.3.4}}
\citation{WICS:WICS1222}
\@writefile{lof}{\contentsline {figure}{\numberline {3.18}{\ignorespaces Trajet\IeC {\'o}rias realizadas por cada Tarefa - Treinamento com Obst\IeC {\'a}culos}}{26}{figure.3.18}}
\newlabel{fig:trajectories_losangle}{{3.18}{26}{Visualização de Trajetórias Codificadas por Políticas}{figure.3.18}{}}
\citation{Shlens05atutorial}
\@writefile{toc}{\contentsline {subsection}{\numberline {3.4.1}PCA}{27}{subsection.3.4.1}}
\@writefile{loa}{\contentsline {algorithm}{\numberline {3.1}{\ignorespaces M\IeC {\'e}todo PCA}}{27}{algorithm.3.1}}
\newlabel{algo:pca}{{3.1}{27}{PCA}{algorithm.3.1}{}}
\citation{Tenenbaum00isomap}
\@writefile{lof}{\contentsline {figure}{\numberline {3.19}{\ignorespaces PCA - Conjuntos de Dados (Treinamento sem Obst\IeC {\'a}culos)}}{28}{figure.3.19}}
\newlabel{fig:pca-free}{{3.19}{28}{PCA}{figure.3.19}{}}
\@writefile{toc}{\contentsline {subsection}{\numberline {3.4.2}ISOMAP}{28}{subsection.3.4.2}}
\citation{WICS:WICS1222}
\@writefile{lof}{\contentsline {figure}{\numberline {3.20}{\ignorespaces PCA - Conjuntos de Dados (Treinamento com Obst\IeC {\'a}culos)}}{29}{figure.3.20}}
\newlabel{fig:pca-losangle}{{3.20}{29}{PCA}{figure.3.20}{}}
\@writefile{loa}{\contentsline {algorithm}{\numberline {3.2}{\ignorespaces M\IeC {\'e}todo ISOMAP}}{29}{algorithm.3.2}}
\newlabel{algo:isomap}{{3.2}{29}{ISOMAP}{algorithm.3.2}{}}
\citation{Roweis00nonlineardimensionality}
\@writefile{lof}{\contentsline {figure}{\numberline {3.21}{\ignorespaces ISOMAP - Conjuntos de Dados (Treinamento sem Obst\IeC {\'a}culos)}}{30}{figure.3.21}}
\newlabel{fig:isomap-free}{{3.21}{30}{ISOMAP}{figure.3.21}{}}
\@writefile{lof}{\contentsline {figure}{\numberline {3.22}{\ignorespaces ISOMAP - Conjuntos de Dados (Treinamento com Obst\IeC {\'a}culos)}}{31}{figure.3.22}}
\newlabel{fig:isomap-losangle}{{3.22}{31}{ISOMAP}{figure.3.22}{}}
\@writefile{toc}{\contentsline {subsection}{\numberline {3.4.3}LLE}{31}{subsection.3.4.3}}
\@writefile{loa}{\contentsline {algorithm}{\numberline {3.3}{\ignorespaces M\IeC {\'e}todo LLE}}{31}{algorithm.3.3}}
\newlabel{algo:lle}{{3.3}{31}{LLE}{algorithm.3.3}{}}
\citation{ictdbid:2777}
\@writefile{lof}{\contentsline {figure}{\numberline {3.23}{\ignorespaces LLE - Conjunto de Dados (Treinamento sem Obst\IeC {\'a}culos)}}{32}{figure.3.23}}
\newlabel{fig:lle-free}{{3.23}{32}{LLE}{figure.3.23}{}}
\@writefile{lof}{\contentsline {figure}{\numberline {3.24}{\ignorespaces LLE - Conjunto de Dados (Treinamento com Obst\IeC {\'a}culos)}}{32}{figure.3.24}}
\newlabel{fig:lle-losangle}{{3.24}{32}{LLE}{figure.3.24}{}}
\@writefile{lof}{\contentsline {figure}{\numberline {3.25}{\ignorespaces t-SNE - Conjunto de Dados (Treinamento sem Obst\IeC {\'a}culos)}}{33}{figure.3.25}}
\newlabel{fig:tsne-free}{{3.25}{33}{t-SNE}{figure.3.25}{}}
\@writefile{toc}{\contentsline {subsection}{\numberline {3.4.4}t-SNE}{33}{subsection.3.4.4}}
\@writefile{lof}{\contentsline {figure}{\numberline {3.26}{\ignorespaces t-SNE - Conjunto de Dados (Treinamento com Obst\IeC {\'a}culos)}}{34}{figure.3.26}}
\newlabel{fig:tsne-losangle}{{3.26}{34}{t-SNE}{figure.3.26}{}}
\@writefile{toc}{\contentsline {section}{\numberline {3.5}Propriedades dos Manifolds de Solu\IeC {\c c}\IeC {\~o}es do Bra\IeC {\c c}o Rob\IeC {\'o}tico}{34}{section.3.5}}
\@writefile{toc}{\contentsline {chapter}{4~Um M\IeC {\'e}todo para Generaliza\IeC {\c c}\IeC {\~a}o de Comportamentos}{36}{CHAPTER.4}}
\@writefile{lof}{\addvspace {10\p@ }}
\@writefile{lot}{\addvspace {10\p@ }}
\@writefile{lol}{\addvspace {10\p@ }}
\@writefile{lof}{\contentsline {figure}{\numberline {4.1}{\ignorespaces Regress\IeC {\~a}o em conjuntos com m\IeC {\'u}ltiplos \textit  {manifolds}}}{37}{figure.4.1}}
\newlabel{fig:bad_regression}{{4.1}{37}{Um Método para Generalização de Comportamentos}{figure.4.1}{}}
\citation{Xu2015}
\@writefile{loa}{\contentsline {algorithm}{\numberline {4.1}{\ignorespaces Treinamento de tarefas ao longo de uma circunfer\IeC {\^e}ncia com generaliza\IeC {\c c}\IeC {\~a}o do comportamento}}{38}{algorithm.4.1}}
\newlabel{algo:training02}{{4.1}{38}{Um Método para Generalização de Comportamentos}{algorithm.4.1}{}}
\@writefile{toc}{\contentsline {section}{\numberline {4.1}Identifica\IeC {\c c}\IeC {\~a}o e Clusteriza\IeC {\c c}\IeC {\~a}o de Manifolds N\IeC {\~a}o-Lineares}{38}{section.4.1}}
\citation{Elhamifar:SMCE}
\citation{5714408}
\@writefile{toc}{\contentsline {subsection}{\numberline {4.1.1}O M\IeC {\'e}todo SMCE}{39}{subsection.4.1.1}}
\newlabel{eq:smce_opt}{{4.1}{40}{O Método SMCE}{equation.4.1.1}{}}
\citation{DBLP:journals/corr/abs-0711-0189}
\newlabel{eq:smce:w_calc}{{4.2}{41}{O Método SMCE}{equation.4.1.2}{}}
\@writefile{loa}{\contentsline {algorithm}{\numberline {4.2}{\ignorespaces SMCE}}{42}{algorithm.4.2}}
\newlabel{algo:smce}{{4.2}{42}{O Método SMCE}{algorithm.4.2}{}}
\@writefile{lof}{\contentsline {figure}{\numberline {4.2}{\ignorespaces SMCE com o Conjunto de Dados 2 da Configura\IeC {\c c}\IeC {\~a}o com Obst\IeC {\'a}culos}}{42}{figure.4.2}}
\newlabel{fig:smce_losangle02}{{4.2}{42}{O Método SMCE}{figure.4.2}{}}
\@writefile{lof}{\contentsline {figure}{\numberline {4.3}{\ignorespaces SMCE com o Conjunto de Dados 3 da Configura\IeC {\c c}\IeC {\~a}o com Obst\IeC {\'a}culos}}{42}{figure.4.3}}
\newlabel{fig:smce_losangle03}{{4.3}{42}{O Método SMCE}{figure.4.3}{}}
\@writefile{lof}{\contentsline {figure}{\numberline {4.4}{\ignorespaces SMCE com o Conjunto de Dados 4 da Configura\IeC {\c c}\IeC {\~a}o com Obst\IeC {\'a}culos}}{43}{figure.4.4}}
\newlabel{fig:smce_losangle04}{{4.4}{43}{O Método SMCE}{figure.4.4}{}}
\@writefile{lof}{\contentsline {figure}{\numberline {4.5}{\ignorespaces SMCE com o Conjunto de Dados 5 da Configura\IeC {\c c}\IeC {\~a}o com Obst\IeC {\'a}culos}}{43}{figure.4.5}}
\newlabel{fig:smce_losangle05}{{4.5}{43}{O Método SMCE}{figure.4.5}{}}
\@writefile{lof}{\contentsline {figure}{\numberline {4.6}{\ignorespaces SMCE com o Conjunto de Dados 6 da Configura\IeC {\c c}\IeC {\~a}o com Obst\IeC {\'a}culos}}{43}{figure.4.6}}
\newlabel{fig:smce_losangle06}{{4.6}{43}{O Método SMCE}{figure.4.6}{}}
\@writefile{lof}{\contentsline {figure}{\numberline {4.7}{\ignorespaces SMCE com o Conjunto de Dados 2 da Configura\IeC {\c c}\IeC {\~a}o sem Obst\IeC {\'a}culos}}{44}{figure.4.7}}
\newlabel{fig:smce_free02}{{4.7}{44}{O Método SMCE}{figure.4.7}{}}
\@writefile{toc}{\contentsline {section}{\numberline {4.2}Regress\IeC {\~a}o em Manifolds N\IeC {\~a}o-Lineares}{44}{section.4.2}}
\citation{ScikitLearn}
\citation{ScikitLearn}
\@writefile{toc}{\contentsline {subsection}{\numberline {4.2.1}\textit  {Overfitting} e Underfitting}{45}{subsection.4.2.1}}
\citation{Rasmussen:2005:GPM:1162254}
\citation{ScikitLearnOfficial}
\@writefile{lof}{\contentsline {figure}{\numberline {4.8}{\ignorespaces Exemplo de \textit  {Underfitting} e \textit  {Overfitting}}}{46}{figure.4.8}}
\newlabel{fig:under_overfitting}{{4.8}{46}{\textit {Overfitting} e Underfitting}{figure.4.8}{}}
\@writefile{toc}{\contentsline {subsection}{\numberline {4.2.2}Regress\IeC {\~a}o do Processo Gaussiano}{46}{subsection.4.2.2}}
\@writefile{lof}{\contentsline {figure}{\numberline {4.9}{\ignorespaces Processo Gaussiano com SMCE com o Conjunto de Dados 2 da Configura\IeC {\c c}\IeC {\~a}o com Obst\IeC {\'a}culos}}{47}{figure.4.9}}
\newlabel{fig:gp_losangle02}{{4.9}{47}{Regressão do Processo Gaussiano}{figure.4.9}{}}
\@writefile{lof}{\contentsline {figure}{\numberline {4.10}{\ignorespaces Processo Gaussiano com SMCE com o Conjunto de Dados 3 da Configura\IeC {\c c}\IeC {\~a}o com Obst\IeC {\'a}culos}}{48}{figure.4.10}}
\newlabel{fig:gp_losangle03}{{4.10}{48}{Regressão do Processo Gaussiano}{figure.4.10}{}}
\@writefile{lof}{\contentsline {figure}{\numberline {4.11}{\ignorespaces Processo Gaussiano com SMCE com o Conjunto de Dados 4 da Configura\IeC {\c c}\IeC {\~a}o com Obst\IeC {\'a}culos}}{48}{figure.4.11}}
\newlabel{fig:gp_losangle04}{{4.11}{48}{Regressão do Processo Gaussiano}{figure.4.11}{}}
\@writefile{lof}{\contentsline {figure}{\numberline {4.12}{\ignorespaces Processo Gaussiano com SMCE com o Conjunto de Dados 5 da Configura\IeC {\c c}\IeC {\~a}o com Obst\IeC {\'a}culos}}{49}{figure.4.12}}
\newlabel{fig:gp_losangle05}{{4.12}{49}{Regressão do Processo Gaussiano}{figure.4.12}{}}
\@writefile{lof}{\contentsline {figure}{\numberline {4.13}{\ignorespaces Processo Gaussiano com SMCE com o Conjunto de Dados 6 da Configura\IeC {\c c}\IeC {\~a}o com Obst\IeC {\'a}culos}}{49}{figure.4.13}}
\newlabel{fig:gp_losangle06}{{4.13}{49}{Regressão do Processo Gaussiano}{figure.4.13}{}}
\@writefile{lof}{\contentsline {figure}{\numberline {4.14}{\ignorespaces Processo Gaussiano com SMCE com o Conjunto de Dados 2 da Configura\IeC {\c c}\IeC {\~a}o sem Obst\IeC {\'a}culos}}{50}{figure.4.14}}
\newlabel{fig:gp_free02}{{4.14}{50}{Regressão do Processo Gaussiano}{figure.4.14}{}}
\@writefile{lof}{\contentsline {figure}{\numberline {4.15}{\ignorespaces Erro de Performance dos Conjuntos de Dados Originais}}{50}{figure.4.15}}
\newlabel{fig:error_original}{{4.15}{50}{Regressão do Processo Gaussiano}{figure.4.15}{}}
\@writefile{lof}{\contentsline {figure}{\numberline {4.16}{\ignorespaces Erro de Performance dos Conjuntos de Dados Previstos pelas Regress\IeC {\~o}es}}{51}{figure.4.16}}
\newlabel{fig:error_regression}{{4.16}{51}{Regressão do Processo Gaussiano}{figure.4.16}{}}
\@writefile{toc}{\contentsline {section}{\numberline {4.3}Amostragem das Pol\IeC {\'\i }ticas usadas no Treinamento da Regress\IeC {\~a}o}{51}{section.4.3}}
\@writefile{toc}{\contentsline {subsection}{\numberline {4.3.1}An\IeC {\'a}lise da Vari\IeC {\^a}ncia da Regress\IeC {\~a}o}{52}{subsection.4.3.1}}
\newlabel{eq:mse_bias/variance}{{4.3}{53}{Análise da Variância da Regressão}{equation.4.3.3}{}}
\newlabel{eq:bias}{{4.4}{53}{Análise da Variância da Regressão}{equation.4.3.4}{}}
\newlabel{eq:variance}{{4.5}{53}{Análise da Variância da Regressão}{equation.4.3.5}{}}
\@writefile{lof}{\contentsline {figure}{\numberline {4.17}{\ignorespaces Vari\IeC {\^a}ncia em fun\IeC {\c c}\IeC {\~a}o do n\IeC {\'u}mero de amostras}}{54}{figure.4.17}}
\newlabel{fig:varplot}{{4.17}{54}{Análise da Variância da Regressão}{figure.4.17}{}}
\@writefile{toc}{\contentsline {subsection}{\numberline {4.3.2}Amostragem das Pol\IeC {\'\i }ticas Treinadas pela Otimiza\IeC {\c c}\IeC {\~a}o da DMP}{54}{subsection.4.3.2}}
\@writefile{lof}{\contentsline {figure}{\numberline {4.18}{\ignorespaces Conjunto de Dados Treinados pelo Simulador com 90 Pontos}}{55}{figure.4.18}}
\newlabel{fig:step4}{{4.18}{55}{Amostragem das Políticas Treinadas pela Otimização da DMP}{figure.4.18}{}}
\@writefile{lof}{\contentsline {figure}{\numberline {4.19}{\ignorespaces Erro de Performance do Conjunto com 90 Pontos}}{55}{figure.4.19}}
\newlabel{fig:step4_error}{{4.19}{55}{Amostragem das Políticas Treinadas pela Otimização da DMP}{figure.4.19}{}}
\@writefile{toc}{\contentsline {section}{\numberline {4.4}Novas Configura\IeC {\c c}\IeC {\~o}es de Obst\IeC {\'a}culos}{55}{section.4.4}}
\@writefile{lof}{\contentsline {figure}{\numberline {4.20}{\ignorespaces Regress\IeC {\~a}o Realizada a Partir dos 90 Pontos}}{56}{figure.4.20}}
\newlabel{fig:step4reg}{{4.20}{56}{Amostragem das Políticas Treinadas pela Otimização da DMP}{figure.4.20}{}}
\@writefile{lof}{\contentsline {figure}{\numberline {4.21}{\ignorespaces Erro de Performance das Previs\IeC {\~o}es das Regress\IeC {\~o}es}}{56}{figure.4.21}}
\newlabel{fig:step4_errorreg}{{4.21}{56}{Amostragem das Políticas Treinadas pela Otimização da DMP}{figure.4.21}{}}
\@writefile{lof}{\contentsline {figure}{\numberline {4.22}{\ignorespaces Primeiro Teste - Configura\IeC {\c c}\IeC {\~a}o dos Obst\IeC {\'a}culos}}{57}{figure.4.22}}
\newlabel{fig:conf1}{{4.22}{57}{Novas Configurações de Obstáculos}{figure.4.22}{}}
\@writefile{lof}{\contentsline {figure}{\numberline {4.23}{\ignorespaces Primeiro Teste - Amostragem, Clusteriza\IeC {\c c}\IeC {\~a}o e Regress\IeC {\~a}o}}{57}{figure.4.23}}
\newlabel{fig:conf1-reg}{{4.23}{57}{Novas Configurações de Obstáculos}{figure.4.23}{}}
\@writefile{lof}{\contentsline {figure}{\numberline {4.24}{\ignorespaces Primeiro Teste - Compara\IeC {\c c}\IeC {\~a}o do Erro de Performance}}{58}{figure.4.24}}
\newlabel{fig:conf1-err}{{4.24}{58}{Novas Configurações de Obstáculos}{figure.4.24}{}}
\@writefile{lof}{\contentsline {figure}{\numberline {4.25}{\ignorespaces Segundo Teste - Configura\IeC {\c c}\IeC {\~a}o dos Obst\IeC {\'a}culos}}{58}{figure.4.25}}
\newlabel{fig:conf2}{{4.25}{58}{Novas Configurações de Obstáculos}{figure.4.25}{}}
\@writefile{lof}{\contentsline {figure}{\numberline {4.26}{\ignorespaces Segundo Teste - Amostragem, Clusteriza\IeC {\c c}\IeC {\~a}o e Regress\IeC {\~a}o}}{59}{figure.4.26}}
\newlabel{fig:conf2-reg}{{4.26}{59}{Novas Configurações de Obstáculos}{figure.4.26}{}}
\@writefile{lof}{\contentsline {figure}{\numberline {4.27}{\ignorespaces Segundo Teste - Compara\IeC {\c c}\IeC {\~a}o do Erro de Performance}}{59}{figure.4.27}}
\newlabel{fig:conf2-err}{{4.27}{59}{Novas Configurações de Obstáculos}{figure.4.27}{}}
\@writefile{lof}{\contentsline {figure}{\numberline {4.28}{\ignorespaces Terceiro Teste - Configura\IeC {\c c}\IeC {\~a}o dos Obst\IeC {\'a}culos}}{59}{figure.4.28}}
\newlabel{fig:conf3}{{4.28}{59}{Novas Configurações de Obstáculos}{figure.4.28}{}}
\@writefile{lof}{\contentsline {figure}{\numberline {4.29}{\ignorespaces Terceiro Teste - Amostragem, Clusteriza\IeC {\c c}\IeC {\~a}o e Regress\IeC {\~a}o}}{60}{figure.4.29}}
\newlabel{fig:conf3-reg}{{4.29}{60}{Novas Configurações de Obstáculos}{figure.4.29}{}}
\@writefile{lof}{\contentsline {figure}{\numberline {4.30}{\ignorespaces Terceiro Teste - Compara\IeC {\c c}\IeC {\~a}o do Erro de Performance}}{60}{figure.4.30}}
\newlabel{fig:conf3-err}{{4.30}{60}{Novas Configurações de Obstáculos}{figure.4.30}{}}
\@writefile{toc}{\contentsline {chapter}{5~Conclus\IeC {\~a}o}{61}{CHAPTER.5}}
\@writefile{lof}{\addvspace {10\p@ }}
\@writefile{lot}{\addvspace {10\p@ }}
\@writefile{lol}{\addvspace {10\p@ }}
\bibdata{abntex2-options,References}
\bibcite{Auger:2012:TCE:2330784.2330919}{Auger and Hansen 2012}
\bibciteEXPL{Auger:2012:TCE:2330784.2330919}{Auger and Hansen}
\bibciteIMPL{Auger:2012:TCE:2330784.2330919}{AUGER; HANSEN}
\bibciteYEAR{Auger:2012:TCE:2330784.2330919}{2012}
\bibcite{Elhamifar:SMCE}{Elhamifar and Vidal. 2011}
\bibciteEXPL{Elhamifar:SMCE}{Elhamifar and Vidal.}
\bibciteIMPL{Elhamifar:SMCE}{ELHAMIFAR; VIDAL.}
\bibciteYEAR{Elhamifar:SMCE}{2011}
\bibcite{WICS:WICS1222}{Izenman 2012}
\bibciteEXPL{WICS:WICS1222}{Izenman}
\bibciteIMPL{WICS:WICS1222}{IZENMAN}
\bibciteYEAR{WICS:WICS1222}{2012}
\bibcite{DBLP:journals/corr/abs-0711-0189}{Luxburg 2007}
\bibciteEXPL{DBLP:journals/corr/abs-0711-0189}{Luxburg}
\bibciteIMPL{DBLP:journals/corr/abs-0711-0189}{LUXBURG}
\bibciteYEAR{DBLP:journals/corr/abs-0711-0189}{2007}
\bibcite{ictdbid:2777}{Maaten and Hinton 2008}
\bibciteEXPL{ictdbid:2777}{Maaten and Hinton}
\bibciteIMPL{ictdbid:2777}{MAATEN; HINTON}
\bibciteYEAR{ictdbid:2777}{2008}
\bibcite{Rasmussen:2005:GPM:1162254}{Rasmussen and Williams 2005}
\bibciteEXPL{Rasmussen:2005:GPM:1162254}{Rasmussen and Williams}
\bibciteIMPL{Rasmussen:2005:GPM:1162254}{RASMUSSEN; WILLIAMS}
\bibciteYEAR{Rasmussen:2005:GPM:1162254}{2005}
\bibcite{Roweis00nonlineardimensionality}{Roweis and Saul 2000}
\bibciteEXPL{Roweis00nonlineardimensionality}{Roweis and Saul}
\bibciteIMPL{Roweis00nonlineardimensionality}{ROWEIS; SAUL}
\bibciteYEAR{Roweis00nonlineardimensionality}{2000}
\bibcite{Schaal_dynamicmovement}{Schaal}
\bibciteEXPL{Schaal_dynamicmovement}{Schaal}
\bibciteIMPL{Schaal_dynamicmovement}{SCHAAL}
\bibciteYEAR{Schaal_dynamicmovement}{}
\bibcite{ScikitLearnOfficial}{Scikit Learn}
\bibciteEXPL{ScikitLearnOfficial}{Scikit\ldots  }
\bibciteIMPL{ScikitLearnOfficial}{SCIKIT\ldots  }
\bibciteYEAR{ScikitLearnOfficial}{a}
\bibcite{ScikitLearn}{Scikit Learn - Underfitting vs. Overfitting}
\bibciteEXPL{ScikitLearn}{Scikit\ldots  }
\bibciteIMPL{ScikitLearn}{SCIKIT\ldots  }
\bibciteYEAR{ScikitLearn}{b}
\bibcite{Shlens05atutorial}{Shlens 2005}
\bibciteEXPL{Shlens05atutorial}{Shlens}
\bibciteIMPL{Shlens05atutorial}{SHLENS}
\bibciteYEAR{Shlens05atutorial}{2005}
\bibcite{Silva12learningparameterized}{Silva, Konidaris and Barto 2012}
\bibciteEXPL{Silva12learningparameterized}{Silva, Konidaris and Barto}
\bibciteIMPL{Silva12learningparameterized}{SILVA; KONIDARIS; BARTO}
\bibciteYEAR{Silva12learningparameterized}{2012}
\bibcite{Tenenbaum00isomap}{Tenenbaum" 2000}
\bibciteEXPL{Tenenbaum00isomap}{Tenenbaum"}
\bibciteIMPL{Tenenbaum00isomap}{TENENBAUM"}
\bibciteYEAR{Tenenbaum00isomap}{2000}
\bibcite{5714408}{Vidal 2011}
\bibciteEXPL{5714408}{Vidal}
\bibciteIMPL{5714408}{VIDAL}
\bibciteYEAR{5714408}{2011}
\bibcite{Xu2015}{Xu and Tian 2015}
\bibciteEXPL{Xu2015}{Xu and Tian}
\bibciteIMPL{Xu2015}{XU; TIAN}
\bibciteYEAR{Xu2015}{2015}
\bibstyle{abntex2-alf}
\@writefile{toc}{\contentsline {chapter}{\xspace  {}Refer{\^e}ncias}{63}{schapter.6}}
\@writefile{lof}{\addvspace {10\p@ }}
\@writefile{lot}{\addvspace {10\p@ }}
\newlabel{LastPage}{{}{63}{}{page.63}{}}
