\relax 
\citation{c1}
\@writefile{toc}{\contentsline {section}{\numberline {I}INTRODUCTION}{1}}
\newlabel{introduction_section}{{I}{1}}
\citation{c2}
\@writefile{toc}{\contentsline {section}{\numberline {II}SETTING}{2}}
\newlabel{section_setting}{{II}{2}}
\@writefile{toc}{\contentsline {subsection}{\numberline {II-A}Assumptions and Goals}{2}}
\@writefile{toc}{\contentsline {section}{\numberline {III}Behavior Generalization via MC}{2}}
\newlabel{section_explanation}{{III}{2}}
\citation{c10}
\citation{c3}
\citation{c4}
\newlabel{eq:optimization_problem}{{3}{3}}
\newlabel{eq:penalty_weight}{{4}{3}}
\@writefile{lof}{\contentsline {figure}{\numberline {1}{\ignorespaces Reaching a given location in two different workspaces.}}{3}}
\newlabel{circunference}{{1}{3}}
\@writefile{toc}{\contentsline {section}{\numberline {IV}Results}{3}}
\citation{c9}
\newlabel{eq:dmp_equations}{{5}{4}}
\newlabel{eq:dmp_equations2}{{6}{4}}
\newlabel{eq:f_func}{{7}{4}}
\newlabel{eq:f_func2}{{8}{4}}
\@writefile{lof}{\contentsline {figure}{\numberline {2}{\ignorespaces Obstacles free environment: one dimension of the policy manifold spanned by 360 task samples. Single regression (left); multiple regression models from automatically manifold clustering into four charts (right).}}{4}}
\newlabel{free_obstacles-full_learning}{{2}{4}}
\@writefile{toc}{\contentsline {subsection}{\numberline {IV-A}Experiment 1: Obstacle-Free Environment}{4}}
\citation{c8}
\@writefile{lof}{\contentsline {figure}{\numberline {3}{\ignorespaces Obstacles free environment: one dimension of the policy manifold spanned by 24 task samples. Single regression (left); multiple regression models from automatically manifold clustering into four charts (right).}}{5}}
\newlabel{free_obstacles_sampled_regression}{{3}{5}}
\@writefile{lof}{\contentsline {figure}{\numberline {4}{\ignorespaces Comparing executions: single estimator (top) and manifold clustering into four charts (bottom).}}{5}}
\newlabel{free_obstacles_with_clusterssampled_regression_24_error_comparison}{{4}{5}}
\@writefile{toc}{\contentsline {subsection}{\numberline {IV-B}Experiment 2: Environment with Obstacles}{5}}
\@writefile{lof}{\contentsline {figure}{\numberline {5}{\ignorespaces Obstacles environment: one dimension of the policy manifold spanned by 360 task samples. Single regression (left); multiple regression models from automatically manifold clustering into four charts (right).}}{5}}
\newlabel{obstacles_full_learning}{{5}{5}}
\@writefile{lof}{\contentsline {figure}{\numberline {6}{\ignorespaces Obstacles environment: one dimension of the policy manifold spanned by 40 task samples. Single regression (left); multiple regression models from automatically manifold clustering into four charts (right).}}{5}}
\newlabel{obstacles_sampled_regression}{{6}{5}}
\@writefile{toc}{\contentsline {subsection}{\numberline {IV-C}Comparison with CrKr}{5}}
\citation{c8}
\citation{c5}
\citation{c6}
\citation{c7}
\citation{c8}
\citation{c12}
\citation{c13}
\citation{c1}
\bibcite{c1}{1}
\bibcite{c2}{2}
\bibcite{c3}{3}
\bibcite{c4}{4}
\bibcite{c5}{5}
\bibcite{c6}{6}
\bibcite{c7}{7}
\bibcite{c8}{8}
\bibcite{c9}{9}
\bibcite{c10}{10}
\bibcite{c11}{11}
\bibcite{c12}{12}
\bibcite{c13}{13}
\@writefile{lof}{\contentsline {figure}{\numberline {7}{\ignorespaces Comparing performances in the obstacle environment using a single estimator (top) and when the charts are previously clustered (bottom)}}{6}}
\newlabel{obstacles_comparison}{{7}{6}}
\@writefile{lof}{\contentsline {figure}{\numberline {8}{\ignorespaces Comparing predictions achieved by our method and CrKr\nobreakspace  {}\cite  {c8}}}{6}}
\newlabel{crkr_comparison}{{8}{6}}
\@writefile{toc}{\contentsline {section}{\numberline {V}Related Work}{6}}
\@writefile{toc}{\contentsline {section}{\numberline {VI}CONCLUSION}{6}}
\@writefile{toc}{\contentsline {section}{References}{6}}
