-112.5648,-1942.2182,-392.5047,1117.7129,-128.5683,410.0258
-115.1195,-1939.9535,-392.7748,1121.0933,-128.2979,410.6175
-117.7258,-1937.6339,-393.0607,1124.5346,-128.0289,411.2534
-120.3823,-1935.2596,-393.3633,1128.0350,-127.7620,411.9355
-123.0878,-1932.8312,-393.6831,1131.5922,-127.4976,412.6657
-125.8405,-1930.3494,-394.0208,1135.2042,-127.2363,413.4461
818.4115,-1.9535,166.5870,165.3714,-177.8700,28.4047
818.8796,-0.1593,165.3229,165.9011,-179.3464,29.3268
-134.3640,-1922.5912,-395.1478,1146.3419,-126.4757,416.1083
820.0174,3.1912,163.0807,167.1619,-182.4764,31.2472
820.6808,4.7488,162.0914,167.8906,-184.1165,32.2413
821.4025,6.2290,161.1824,168.6832,-185.7974,33.2551
822.1789,7.6328,160.3477,169.5384,-187.5119,34.2865
823.0059,8.9613,159.5813,170.4550,-189.2527,35.3334
823.8793,10.2155,158.8770,171.4317,-191.0124,36.3937
824.7948,11.3968,158.2287,172.4672,-192.7835,37.4655
840.7694,14.7511,183.6406,162.7420,-168.8290,43.1845
826.7334,13.5458,157.0747,174.7095,-196.3294,39.6352
827.7466,14.5165,156.5563,175.9137,-198.0889,40.7292
828.7824,15.4200,156.0683,177.1716,-199.8290,41.8267
829.8353,16.2581,155.6044,178.4820,-201.5419,42.9259
830.8999,17.0324,155.1581,179.8435,-203.2199,44.0251
831.9704,17.7448,154.7229,181.2549,-204.8550,45.1224
868.9754,620.9051,-27.5339,285.9924,943.0389,818.5442
839.7851,23.1431,120.4535,189.4115,-209.6492,18.1078
835.1587,19.5296,153.4210,185.7770,-209.4255,48.3868
836.1935,20.0136,152.9672,187.3765,-210.8117,49.4606
868.9754,620.9051,-27.5339,285.9924,943.0389,818.5442
868.9754,620.9051,-27.5339,285.9924,943.0389,818.5442
839.1249,21.1623,151.4615,192.4357,-214.4519,52.6192
868.9754,620.9051,-27.5339,285.9924,943.0389,818.5442
840.8700,21.6970,150.2789,196.0158,-216.3733,54.6604
840.7494,20.5444,106.9950,183.6254,-206.2756,49.5644
842.3852,22.0678,148.9019,199.7532,-217.8242,56.6400
868.9754,620.9051,-27.5339,285.9924,943.0389,818.5442
843.6165,22.2928,147.2895,203.6412,-218.7508,58.5512
868.9753,620.9051,-27.5339,285.9925,943.0389,818.5441
-220.0387,-1833.9826,-417.8602,1255.3775,-123.8524,475.7413
844.8118,22.3974,144.3485,209.7436,-219.0481,61.2782
868.9753,620.9051,-27.5339,285.9925,943.0389,818.5441
809.5037,31.8946,122.1796,219.7456,-209.6606,87.2177
845.0624,22.2773,140.6839,216.1567,-217.8973,63.8276
844.9048,22.1979,139.2856,218.3615,-217.1681,64.6371
844.6157,22.1024,137.7942,220.5992,-216.2585,65.4264
-233.3242,-1814.7856,-427.0536,1272.3061,-125.2612,500.6711
843.6176,21.8722,134.5229,225.1729,-213.8821,66.9451
842.8961,21.7416,132.7392,227.5085,-212.4081,67.6752
842.0182,21.6034,130.8548,229.8766,-210.7392,68.3863
819.3002,18.6162,156.7906,248.5543,-202.0997,96.5676
839.7697,21.3121,126.7799,234.7103,-206.8061,69.7538
838.3878,21.1628,124.5884,237.1761,-204.5374,70.4116
836.8269,21.0136,122.2939,239.6748,-202.0648,71.0530
835.0817,20.8661,119.8969,242.2067,-199.3871,71.6791
833.1474,20.7221,117.3979,244.7719,-196.5032,72.2908
831.0192,20.5831,114.7981,247.3710,-193.4126,72.8892
868.9753,620.9051,-27.5339,285.9925,943.0390,818.5441
845.6827,4.6646,138.0274,263.8849,-204.2814,87.1769
823.4264,20.2118,106.4094,255.3752,-182.8999,74.6160
820.4793,20.1077,103.4238,258.1140,-178.9840,75.1732
817.3179,20.0157,100.3478,260.8891,-174.8640,75.7235
813.9391,19.9368,97.1847,263.7011,-170.5417,76.2685
810.3398,19.8721,93.9380,266.5507,-166.0191,76.8096
868.9753,620.9051,-27.5339,285.9925,943.0390,818.5441
802.4693,19.7889,87.2095,272.3657,-156.3837,77.8868
832.8512,26.0002,134.7676,252.6040,-186.7606,54.3044
868.9753,620.9051,-27.5339,285.9925,943.0390,818.5441
788.9525,19.7916,76.5964,281.3890,-140.5027,79.5158
783.9844,19.8290,72.9403,284.4802,-134.8437,80.0694
778.7834,19.8853,69.2342,287.6146,-129.0097,80.6314
773.3491,19.9610,65.4842,290.7929,-123.0054,81.2037
767.6812,20.0562,61.6967,294.0162,-116.8364,81.7881
761.7800,20.1712,57.8780,297.2852,-110.5084,82.3866
725.0602,-8.9814,74.6470,278.6412,-122.4813,28.6266
496.0588,-1113.5568,-23.6733,615.9936,-367.2189,1085.3527
742.6828,20.6340,46.3050,307.3758,-90.6314,84.2859
735.8566,20.8272,42.4324,310.8367,-83.7302,84.9600
868.9743,620.9023,-27.5315,286.0014,943.0427,818.5344
721.5242,21.2702,34.7107,317.9097,-69.5575,86.3814
868.9729,620.8983,-27.5281,286.0138,943.0479,818.5209
531.6121,-1139.5609,-58.9512,648.0584,-335.3963,1104.8706
803.2435,59.8010,-24.7795,392.9568,-34.3582,141.9648
868.9672,620.8823,-27.5146,286.0643,943.0689,818.4662
-141.8052,-1827.4122,-481.6843,1189.8883,-141.4052,636.5044
-135.2746,-1831.2189,-482.4975,1183.8541,-141.7032,637.7118
-128.5822,-1835.1899,-483.2396,1177.7023,-141.9779,638.6763
655.5620,23.7117,5.3320,348.3311,-9.1011,93.3141
868.9277,620.7724,-27.4216,286.4102,943.2133,818.0906
868.9102,620.7236,-27.3802,286.5638,943.2775,817.9238
529.1795,24.0888,-60.3682,327.4377,54.6106,79.2350
868.8582,620.5787,-27.2575,287.0201,943.4679,817.4283
868.8213,620.4760,-27.1705,287.3436,943.6029,817.0771
868.7755,620.3484,-27.0625,287.7453,943.7706,816.6410
868.7196,620.1926,-26.9306,288.2359,943.9754,816.1082
604.6373,-1219.7236,-152.6378,722.4459,-253.2906,1136.2559
868.5732,619.7847,-26.5852,289.5203,944.5115,814.7136
868.4814,619.5290,-26.3687,290.3254,944.8476,813.8395
531.6672,23.7379,-31.0902,364.9462,103.5398,114.0195
868.2613,618.9157,-25.8493,292.2568,945.6538,811.7425
868.1352,618.5645,-25.5519,293.3627,946.1154,810.5417
868.0015,618.1919,-25.2364,294.5358,946.6051,809.2679
867.8635,617.8076,-24.9110,295.7459,947.1102,807.9541
867.7258,617.4239,-24.5861,296.9541,947.6145,806.6422
867.5936,617.0556,-24.2741,298.1140,948.0986,805.3829
867.4729,616.7194,-23.9895,299.1725,948.5405,804.2336
867.3703,616.4336,-23.7475,300.0724,948.9161,803.2564
867.2925,616.2168,-23.5638,300.7553,949.2012,802.5150
867.2458,616.0868,-23.4538,301.1646,949.3720,802.0706
867.2361,616.0598,-23.4309,301.2496,949.4075,801.9782
867.2681,616.1487,-23.5062,300.9695,949.2906,802.2824
867.3448,616.3625,-23.6872,300.2965,949.0097,803.0131
663.8916,-1349.0565,-279.0661,804.0269,-148.4960,1141.7806
867.6356,617.1725,-24.3732,297.7457,947.9449,805.7827
867.8457,617.7580,-24.8690,295.9020,947.1754,807.7845
868.0928,618.4464,-25.4519,293.7345,946.2706,810.1381
868.3696,619.2175,-26.1048,291.3066,945.2571,812.7742
868.6671,620.0464,-26.8067,288.6964,944.1676,815.6082
107.8512,-2001.9850,-459.8942,989.4429,-136.2753,519.7625
675.7715,-1409.9613,-331.5663,832.1615,-107.5173,1132.3037
676.7932,-1418.9205,-338.9594,835.8408,-101.8963,1130.3685
677.6405,-1427.9335,-346.3139,839.4285,-96.3453,1128.2873
870.1050,624.0522,-30.1988,276.0829,938.9025,829.3038
678.8057,-1446.1057,-360.8902,846.3204,-85.4696,1123.6877
679.1207,-1455.2572,-368.1040,849.6206,-80.1525,1121.1696
679.2555,-1464.4472,-375.2627,852.8208,-74.9213,1118.5063
679.2091,-1473.6716,-382.3624,855.9193,-69.7797,1115.6981
154.0808,-2037.5882,-438.1122,965.6621,-131.3088,443.9066
158.0847,-2040.5954,-435.4721,964.1819,-130.7763,435.1460
161.8496,-2043.3912,-432.8055,962.9275,-130.2555,426.3855
161.3588,-2040.2848,-430.2725,981.1824,-118.9688,411.3571
168.6571,-2048.3315,-427.4127,961.0790,-129.2573,408.9411
171.6983,-2050.4690,-424.6969,960.4748,-128.7842,400.2958
174.4979,-2052.3812,-421.9751,960.0759,-128.3311,391.7277
177.0568,-2054.0660,-419.2527,959.8755,-127.9000,383.2560
179.3765,-2055.5221,-416.5349,959.8660,-127.4928,374.9002
181.4589,-2056.7488,-413.8269,960.0395,-127.1115,366.6795
183.3066,-2057.7460,-411.1342,960.3872,-126.7577,358.6129
176.5634,-2061.9398,-404.8294,935.3652,-158.7542,361.9349
186.3107,-2059.0548,-405.8151,961.5675,-126.1401,343.0172
187.4749,-2059.3694,-403.1991,962.3801,-125.8794,335.5249
188.4199,-2059.4605,-400.6188,963.3268,-125.6527,328.2601
189.1508,-2059.3312,-398.0793,964.3965,-125.4616,321.2400
189.6730,-2058.9853,-395.5853,965.5776,-125.3072,314.4816
189.9925,-2058.4271,-393.1415,966.8581,-125.1907,308.0010
190.1157,-2057.6615,-390.7526,968.2261,-125.1131,301.8138
208.3674,-2064.1361,-395.6222,953.4997,-94.4907,294.5819
189.7998,-2055.5309,-386.1565,971.1739,-125.0786,290.3783
189.3752,-2054.1786,-383.9578,972.7283,-125.1232,285.1576
188.7826,-2052.6444,-381.8303,974.3192,-125.2098,280.2852
188.0300,-2050.9361,-379.7779,975.9336,-125.3388,275.7727
187.1253,-2049.0619,-377.8038,977.5584,-125.5105,271.6310
186.0767,-2047.0304,-375.9113,979.1806,-125.7252,267.8697
184.8925,-2044.8509,-374.1033,980.7873,-125.9828,264.4976
191.5332,-2039.1359,-369.0100,1007.4973,-133.7285,259.0202
182.1507,-2040.0862,-370.7512,983.9028,-126.6265,258.9508
180.6100,-2037.5215,-369.2117,985.3866,-127.0120,256.7884
178.9675,-2034.8491,-367.7659,986.8045,-127.4392,255.0396
177.2315,-2032.0803,-366.4152,988.1448,-127.9076,253.7078
175.4105,-2029.2261,-365.1609,989.3959,-128.4164,252.7950
173.5127,-2026.2980,-364.0042,990.5464,-128.9647,252.3024
171.5462,-2023.3078,-362.9456,991.5857,-129.5515,252.2297
171.9185,-2023.0490,-371.9565,995.6264,-132.9236,262.2053
167.4390,-2017.1883,-361.1242,993.2895,-130.8361,253.3377
165.3136,-2014.0832,-360.3613,993.9349,-131.5312,254.5121
163.1502,-2010.9639,-359.6963,994.4306,-132.2597,256.0940
160.9558,-2007.8426,-359.1286,994.7686,-133.0199,258.0775
158.7372,-2004.7314,-358.6569,994.9412,-133.8103,260.4552
156.5009,-2001.6425,-358.2799,994.9416,-134.6290,263.2190
154.2530,-1998.5878,-357.9960,994.7634,-135.4741,266.3594
132.5757,-1983.9632,-339.3084,985.5207,-126.1040,271.0283
149.7448,-1992.6284,-357.6992,993.8497,-137.2362,273.7271
147.4951,-1989.7470,-357.6817,993.1052,-138.1491,277.9305
145.2545,-1986.9462,-357.7479,992.1640,-139.0804,282.4624
143.0273,-1984.2371,-357.8948,991.0235,-140.0279,287.3085
140.8172,-1981.6304,-358.1192,989.6817,-140.9895,292.4535
138.6277,-1979.1365,-358.4177,988.1374,-141.9628,297.8812
136.4616,-1976.7656,-358.7868,986.3902,-142.9457,303.5747
96.2460,-1983.5321,-358.6479,997.4314,-162.1775,262.6079
132.2097,-1972.4306,-359.7208,982.2888,-144.9307,315.6873
130.1276,-1970.4847,-360.2776,979.9375,-145.9283,322.0691
128.0765,-1968.6978,-360.8885,977.3888,-146.9261,328.6420
126.0573,-1967.0778,-361.5492,974.6461,-147.9219,335.3858
124.0704,-1965.6321,-362.2550,971.7131,-148.9134,342.2801
122.1158,-1964.3676,-363.0012,968.5945,-149.8983,349.3040
120.1931,-1963.2904,-363.7831,965.2957,-150.8744,356.4361
175.4279,-1965.0945,-375.7467,956.4704,-142.4239,382.6004
116.4403,-1961.7207,-365.4346,958.1813,-152.7913,370.9393
114.6076,-1961.2379,-366.2943,954.3795,-153.7279,378.2669
112.8017,-1960.9620,-367.1701,950.4246,-154.6472,385.6161
111.0206,-1960.8963,-368.0570,946.3249,-155.5472,392.9651
109.2619,-1961.0437,-368.9501,942.0891,-156.4261,400.2923
107.5230,-1961.4061,-369.8445,937.7264,-157.2819,407.5760
105.8008,-1961.9853,-370.7354,933.2464,-158.1129,414.7949
95.9628,-1951.4108,-373.9595,917.2014,-157.8425,466.1241
102.3944,-1963.7965,-372.4873,923.9753,-159.6940,428.9548
100.7033,-1965.0285,-373.3391,919.2052,-160.4410,435.8548
99.0154,-1966.4772,-374.1687,914.3600,-161.1572,442.6083
97.3269,-1968.1408,-374.9718,909.4510,-161.8411,449.1960
95.6340,-1970.0173,-375.7441,904.4896,-162.4916,455.5992
93.9328,-1972.1040,-376.4817,899.4875,-163.1077,461.7999
92.2191,-1974.3976,-377.1804,894.4564,-163.6883,467.7808
82.6960,-1983.6222,-373.0929,896.2687,-165.5719,445.4269
88.7385,-1979.5894,-378.4471,884.3548,-164.7399,479.0176
86.9634,-1982.4783,-379.0080,879.3081,-165.2094,484.2428
85.1599,-1985.5555,-379.5165,874.2799,-165.6406,489.1866
83.3242,-1988.8151,-379.9697,869.2822,-166.0331,493.8360
81.4523,-1992.2507,-380.3647,864.3265,-166.3866,498.1787
79.5406,-1995.8556,-380.6993,859.4244,-166.7009,502.2035
193.2988,-1976.1949,-473.3643,712.4854,-163.4798,582.8132
144.5690,-1941.6567,-403.7067,644.4022,-222.8467,558.9359
179.1927,-1975.2202,-460.9837,701.9415,-177.2238,570.5536
71.4281,-2011.8171,-381.3920,840.5767,-167.5651,514.9327
69.2681,-2016.1523,-381.3959,836.1087,-167.6837,517.2341
158.9361,-1972.4425,-441.4428,686.0105,-198.1129,552.9848
152.4429,-1971.1724,-434.6853,680.6805,-205.1261,547.3579
146.0864,-1969.7332,-427.8124,675.3452,-212.1549,541.8497
206.1347,-106.5729,820.3491,791.3733,-229.1043,331.9478
143.0587,-1943.1659,-412.2120,705.8582,-234.9482,546.3599
127.8786,-1964.4216,-406.5404,659.3342,-233.2765,526.0605
122.1097,-1962.3269,-399.2454,654.0042,-240.3093,521.0496
116.4970,-1960.0739,-391.8552,648.6819,-247.3286,516.1680
111.0443,-1957.6651,-384.3740,643.3699,-254.3285,511.4175
105.7547,-1955.1029,-376.8059,638.0705,-261.3031,506.8000
100.6315,-1952.3900,-369.1554,632.7862,-268.2466,502.3169
95.6778,-1949.5290,-361.4266,627.5192,-275.1530,497.9697
90.8965,-1946.5226,-353.6240,622.2720,-282.0167,493.7598
86.2902,-1943.3737,-345.7520,617.0466,-288.8317,489.6885
81.8616,-1940.0851,-337.8149,611.8454,-295.5924,485.7569
77.6129,-1936.6598,-329.8173,606.6703,-302.2929,481.9660
73.5466,-1933.1007,-321.7634,601.5235,-308.9276,478.3167
69.6645,-1929.4110,-313.6579,596.4069,-315.4908,474.8099
65.9685,-1925.5938,-305.5053,591.3225,-321.9769,471.4461
62.4605,-1921.6523,-297.3099,586.2721,-328.3803,468.2261
59.1417,-1917.5896,-289.0763,581.2575,-334.6955,465.1500
56.0136,-1913.4091,-280.8090,576.2805,-340.9171,462.2184
53.0773,-1909.1142,-272.5125,571.3426,-347.0398,459.4314
50.3338,-1904.7081,-264.1912,566.4455,-353.0581,456.7890
47.7837,-1900.1943,-255.8497,561.5907,-358.9670,454.2912
45.4277,-1895.5763,-247.4925,556.7796,-364.7613,451.9378
43.2662,-1890.8576,-239.1239,552.0135,-370.4360,449.7285
41.2992,-1886.0416,-230.7485,547.2937,-375.9860,447.6630
39.9587,-1897.5301,-205.6160,543.5116,-463.2482,320.2795
37.9489,-1876.1321,-213.9945,537.9978,-386.6931,443.9607
36.5650,-1871.0458,-205.6248,533.4238,-391.8408,442.3225
35.3744,-1865.8766,-197.2657,528.9004,-396.8451,440.8251
34.3764,-1860.6281,-188.9214,524.4286,-401.7017,439.4675
33.5699,-1855.3039,-180.5963,520.0090,-406.4064,438.2486
32.9539,-1849.9078,-172.2946,515.6424,-410.9549,437.1671
32.5270,-1844.4433,-164.0204,511.3294,-415.3432,436.2216
30.4096,-1825.0422,-74.6753,395.1020,-484.1783,424.6667
32.2336,-1833.3240,-147.5711,502.8664,-423.6240,434.7325
32.3635,-1827.6765,-139.4040,498.7173,-427.5091,434.1857
32.6750,-1821.9753,-131.2807,494.6234,-431.2194,433.7682
33.1658,-1816.2240,-123.2049,490.5851,-434.7514,433.4781
33.8332,-1810.4264,-115.1806,486.6024,-438.1022,433.3134
34.6747,-1804.5859,-107.2116,482.6754,-441.2686,433.2719
35.6874,-1798.7062,-99.3014,478.8041,-444.2479,433.3514
8.4874,-1773.2420,-21.1187,448.5032,-401.8419,432.2525
38.2137,-1786.8435,-83.6726,471.2280,-449.6342,433.8637
39.7206,-1780.8676,-75.9609,467.5228,-452.0365,434.2915
41.3854,-1774.8667,-68.3224,463.8723,-454.2418,434.8302
43.2043,-1768.8443,-60.7603,460.2762,-456.2483,435.4771
45.1733,-1762.8037,-53.2780,456.7339,-458.0539,436.2292
47.2884,-1756.7485,-45.8786,453.2449,-459.6571,437.0837
49.5453,-1750.6819,-38.5652,449.8085,-461.0564,438.0376
2.6033,-1708.9996,-18.7117,451.1890,-488.8387,484.2742
54.4668,-1738.5281,-24.2086,443.0908,-463.2381,440.2308
57.1222,-1732.4474,-17.1712,439.8077,-464.0184,441.4637
59.9009,-1726.3685,-10.2314,436.5740,-464.5906,442.7830
62.7980,-1720.2944,-3.3919,433.3886,-464.9542,444.1854
65.8085,-1714.2284,3.3447,430.2505,-465.1087,445.6673
68.9269,-1708.1733,9.9758,427.1586,-465.0539,447.2252
72.1481,-1702.1323,16.4992,424.1117,-464.7897,448.8554
8.2327,-1675.3492,13.8055,445.4549,-511.6332,470.6632
78.8767,-1690.1040,29.2135,418.1480,-463.6341,452.3183
82.3728,-1684.1224,35.4000,415.2285,-462.7436,454.1434
85.9490,-1678.1662,41.4701,412.3487,-461.6454,456.0258
89.5996,-1672.2381,47.4218,409.5073,-460.3404,457.9616
93.3186,-1666.3408,53.2534,406.7026,-458.8297,459.9470
97.0998,-1660.4767,58.9629,403.9332,-457.1146,461.9780
100.9371,-1654.6484,64.5490,401.1975,-455.1964,464.0505
88.0743,-1588.9052,90.6809,399.1064,-420.6715,469.2026
108.7553,-1643.1088,75.3443,395.8205,-450.7575,468.3041
112.7236,-1637.4022,80.5508,393.1760,-448.2406,470.4770
116.7228,-1631.7406,85.6282,390.5584,-445.5280,472.6752
120.7465,-1626.1263,90.5753,387.9661,-442.6221,474.8946
124.7882,-1620.5612,95.3912,385.3972,-439.5255,477.1309
128.8415,-1615.0475,100.0748,382.8499,-436.2406,479.3801
132.8997,-1609.5870,104.6253,380.3224,-432.7703,481.6379
176.4212,-1617.4997,86.9228,350.5260,-437.1964,488.9624
141.0047,-1598.8331,113.3240,375.3195,-425.2856,486.1631
145.0384,-1593.5432,117.4710,372.8403,-421.2775,488.4221
149.0507,-1588.3135,121.4825,370.3735,-417.0968,490.6731
153.0351,-1583.1456,125.3580,367.9170,-412.7470,492.9121
156.9849,-1578.0409,129.0973,365.4691,-408.2318,495.1349
160.8936,-1573.0009,132.7001,363.0278,-403.5552,497.3374
164.7547,-1568.0268,136.1664,360.5912,-398.7210,499.5155
228.5541,-1593.6804,90.4661,387.5568,-389.4064,463.1087
172.3080,-1558.2818,142.6895,355.7245,-388.5969,503.7825
175.9872,-1553.5130,145.7464,353.2907,-383.3155,505.8633
179.5930,-1548.8148,148.6673,350.8539,-377.8939,507.9037
183.1191,-1544.1882,151.4523,348.4125,-372.3367,509.8999
186.5591,-1539.6340,154.1020,345.9644,-366.6487,511.8479
189.9068,-1535.1531,156.6169,343.5080,-360.8347,513.7439
193.1562,-1530.7462,158.9973,341.0413,-354.8996,515.5841
235.4246,-1574.7801,127.0337,364.5541,-331.5079,514.4829
199.3357,-1522.1570,163.3580,336.0702,-342.6864,519.0826
202.2540,-1517.9759,165.3396,333.5623,-336.4188,520.7336
205.0502,-1513.8711,167.1899,331.0372,-330.0509,522.3144
207.7188,-1509.8430,168.9099,328.4932,-323.5880,523.8214
210.2540,-1505.8919,170.5004,325.9287,-317.0356,525.2513
212.6505,-1502.0181,171.9626,323.3422,-310.3994,526.6009
214.9029,-1498.2218,173.2976,320.7321,-303.6848,527.8667
223.2489,-1511.2338,173.0423,332.6083,-277.0413,527.5500
218.9548,-1490.8623,175.5907,315.4349,-290.0435,530.1348
220.7442,-1487.2992,176.5515,312.7450,-283.1281,531.1310
222.3695,-1483.8139,177.3901,310.0258,-276.1575,532.0313
223.8259,-1480.4061,178.1081,307.2759,-269.1373,532.8330
225.1091,-1477.0758,178.7069,304.4940,-262.0734,533.5333
226.2145,-1473.8228,179.1880,301.6790,-254.9718,534.1295
227.1381,-1470.6469,179.5530,298.8296,-247.8384,534.6191
252.9098,-1530.6963,153.9547,336.8714,-270.9730,534.7835
228.4234,-1464.5246,179.9411,293.0237,-233.4998,535.2688
228.7775,-1461.5777,179.9676,290.0651,-226.3065,535.4244
228.9345,-1458.7061,179.8847,287.0683,-219.1052,535.4641
228.8911,-1455.9096,179.6942,284.0322,-211.9018,535.3860
228.6439,-1453.1875,179.3978,280.9562,-204.7023,535.1882
228.1899,-1450.5392,178.9975,277.8395,-197.5125,534.8687
227.5264,-1447.9642,178.4951,274.6816,-190.3383,534.4259
179.1366,-1384.0692,257.6577,224.4730,-159.7482,556.6515
225.5603,-1443.0310,177.1916,268.2394,-176.0604,533.1641
224.2530,-1440.6714,176.3944,264.9543,-168.9682,532.3422
222.7266,-1438.3821,175.5029,261.6260,-161.9150,531.3913
220.9792,-1436.1623,174.5190,258.2541,-154.9063,530.3101
219.0093,-1434.0112,173.4448,254.8385,-147.9478,529.0977
216.8152,-1431.9280,172.2824,251.3790,-141.0453,527.7531
214.3957,-1429.9116,171.0337,247.8755,-134.2040,526.2755
181.0178,-1366.3964,189.5825,216.8481,-139.3469,554.6118
208.8763,-1426.0758,168.2858,240.7365,-120.7275,522.9188
205.7748,-1424.2545,166.7908,237.1012,-114.1029,521.0386
202.4446,-1422.4963,165.2178,233.4223,-107.5610,519.0234
198.8855,-1420.8002,163.5690,229.7001,-101.1071,516.8729
195.0974,-1419.1651,161.8464,225.9349,-94.7462,514.5872
191.0803,-1417.5901,160.0522,222.1271,-88.4832,512.1661
186.8347,-1416.0740,158.1884,218.2773,-82.3230,509.6098
177.1885,-1416.4546,141.7633,190.1288,-49.1486,476.1049
177.6597,-1413.2143,154.2605,210.4538,-70.3301,504.0927
172.7320,-1411.8686,152.2005,206.4814,-64.5065,501.1328
167.5789,-1410.5775,150.0794,202.4696,-58.8042,498.0394
162.2016,-1409.3399,147.8991,198.4193,-53.2274,494.8132
156.6016,-1408.1547,145.6616,194.3314,-47.7804,491.4551
150.7807,-1407.0209,143.3692,190.2068,-42.4673,487.9660
144.7406,-1405.9371,141.0238,186.0467,-37.2919,484.3468
154.7401,-1434.7205,121.3415,213.9162,-57.6102,475.9677
132.0115,-1403.9157,136.1819,177.6240,-27.3699,476.7234
125.3271,-1402.9758,133.6895,173.3639,-22.6304,472.7217
118.4329,-1402.0816,131.1522,169.0730,-18.0433,468.5953
111.3316,-1401.2320,128.5717,164.7526,-13.6118,464.3457
104.0262,-1400.4258,125.9502,160.4043,-9.3390,459.9747
96.5199,-1399.6621,123.2894,156.0293,-5.2281,455.4840
88.8158,-1398.9396,120.5913,151.6294,-1.2818,450.8756
