10.0000,1.0000,906.6487,1227.3971,241.9539,823.7390,1229.3521,1645.9148
10.0000,2.0000,839.8678,1245.1403,288.4223,765.7826,1155.2017,1681.9119
10.0000,3.0000,809.5240,1212.4334,282.2385,762.0203,1156.5081,1685.2499
10.0000,4.0000,794.1907,1207.9373,270.3940,775.7960,1164.6211,1690.2002
10.0000,5.0000,832.1811,1264.4892,250.2840,763.1028,1162.7158,1750.4369
10.0000,6.0000,790.2649,1297.7072,213.6534,707.7504,1153.0852,1766.2775
10.0000,7.0000,785.8691,1283.1430,210.4575,647.0481,1177.5474,1774.7732
9.0000,8.0000,955.2971,1144.1919,140.7617,524.0032,1189.2923,1640.2443
9.0000,9.0000,832.0359,1101.4312,123.0452,491.0762,1254.4676,1539.3453
9.0000,10.0000,812.8248,1080.7483,108.8300,511.9081,1271.4027,1578.8772
9.0000,11.0000,854.5059,998.9440,167.4084,489.2582,1189.4881,1594.7396
9.0000,12.0000,851.6499,967.4647,172.2806,545.4888,1231.8373,1577.8037
9.0000,13.0000,900.2119,957.4924,124.8048,511.4734,1255.8911,1603.2519
9.0000,14.0000,893.6009,1014.8140,166.8087,499.9878,1239.2368,1653.0808
8.0000,15.0000,1131.8197,1073.4700,-69.2993,429.1645,1318.8794,1534.0558
8.0000,16.0000,1117.9614,1045.3402,-75.6811,397.8734,1315.2713,1491.3054
8.0000,17.0000,1113.3620,1095.0098,-43.9014,387.2359,1298.4245,1483.7099
8.0000,18.0000,1277.1128,1030.9005,81.0821,511.5373,1347.5572,1577.9372
8.0000,19.0000,1297.7400,941.8047,80.7053,615.8941,1407.2653,1528.6501
8.0000,20.0000,1335.7352,930.4702,91.4812,603.8520,1428.4965,1523.1588
8.0000,21.0000,1324.7121,896.1529,138.7408,590.5604,1427.7294,1462.1790
8.0000,22.0000,1368.9882,900.4343,156.4903,569.0542,1433.0351,1465.4878
0.0000,23.0000,1429.4977,870.3507,299.3372,438.8588,1414.7941,1610.5439
0.0000,24.0000,1419.0458,876.9969,274.1287,424.5284,1427.1395,1582.0048
0.0000,25.0000,1394.6373,899.2400,253.7003,389.9308,1447.7900,1575.2792
0.0000,26.0000,1466.9393,892.0933,252.8061,439.5145,1522.1193,1556.0338
0.0000,27.0000,1462.0726,905.0362,255.8794,457.5507,1554.7529,1541.5477
0.0000,28.0000,1407.4128,965.7027,301.5302,415.3938,1548.4712,1533.0888
0.0000,29.0000,1392.6745,1029.7489,293.3052,441.1855,1565.7039,1564.7536
0.0000,30.0000,1502.2644,963.3603,221.3567,410.6624,1582.5359,1590.1945
0.0000,31.0000,1497.0218,969.8241,234.4767,403.4305,1574.2727,1586.8406
0.0000,32.0000,1485.3367,983.2895,227.7481,395.1241,1548.6436,1576.0697
0.0000,33.0000,1455.9123,1014.6338,243.2907,424.2436,1572.4083,1632.8494
0.0000,34.0000,1426.4787,995.4433,253.2454,425.0593,1537.9737,1679.1468
0.0000,35.0000,1392.4747,969.0170,283.3531,403.0692,1521.1308,1695.6570
0.0000,36.0000,1376.7787,929.6273,298.3295,402.5173,1510.1228,1696.7512
0.0000,37.0000,1384.8604,939.4590,279.1811,420.9458,1535.9681,1735.2674
0.0000,38.0000,1390.3707,955.8619,280.1550,411.3875,1533.0585,1710.0156
0.0000,39.0000,1365.0150,902.0795,283.2058,398.8009,1493.4805,1716.2313
0.0000,40.0000,1371.1890,932.6940,275.4057,299.0878,1390.2703,1821.1457
0.0000,41.0000,1387.4021,920.9956,272.1797,311.3473,1382.0670,1803.1344
0.0000,42.0000,1394.2944,920.0165,293.9953,294.1088,1393.4822,1797.0598
0.0000,43.0000,1382.7326,949.9080,267.9008,293.0088,1381.6084,1811.4541
0.0000,44.0000,1365.1142,952.4434,271.8600,277.9138,1350.0849,1797.9883
0.0000,45.0000,1338.0316,970.3651,244.5907,286.6439,1364.4550,1819.2744
0.0000,46.0000,1321.2537,937.9026,235.8091,290.1878,1412.1352,1828.8826
0.0000,47.0000,1327.3739,983.6996,254.0076,251.8162,1358.2558,1828.8645
0.0000,48.0000,1313.0881,992.7596,248.1174,254.3785,1357.3705,1856.1351
0.0000,49.0000,1359.4041,1005.8135,234.5817,204.3355,1397.4420,1807.0791
0.0000,50.0000,1365.8695,1008.0416,232.5641,199.7588,1386.2640,1787.1704
0.0000,51.0000,1362.2009,1007.8428,219.3648,208.0426,1375.0963,1807.0148
0.0000,52.0000,1366.7998,1034.0520,243.0283,183.2969,1360.4643,1832.3663
0.0000,53.0000,1363.1659,1013.3255,276.4725,161.8601,1327.0368,1869.3568
0.0000,54.0000,1337.8070,1005.6679,273.2082,179.5710,1337.9738,1900.1523
4.0000,55.0000,1348.0082,1046.1141,151.9620,351.3785,994.6412,1778.6343
4.0000,56.0000,1342.1440,1030.9891,140.1412,324.0368,1006.3210,1691.5422
4.0000,57.0000,1336.4074,1010.5434,156.5936,318.4791,1038.2759,1678.3302
4.0000,58.0000,1340.3675,1027.3005,154.2554,308.6906,1019.3458,1707.0979
4.0000,59.0000,1343.0277,1069.5886,143.7034,348.7858,1041.0317,1701.6289
4.0000,60.0000,1356.5275,1051.4634,106.9195,324.0958,1031.0368,1693.5328
4.0000,61.0000,1375.6336,1001.6952,108.3007,329.1933,1011.2856,1656.1293
4.0000,62.0000,1405.3014,995.2035,155.9699,349.0199,1036.1465,1737.5262
4.0000,63.0000,1385.0084,1010.8052,198.6132,376.0418,1026.7231,1760.2193
4.0000,64.0000,1362.3897,1017.7779,199.6847,370.5210,1031.8359,1755.2034
4.0000,65.0000,1335.3090,1041.3089,177.4110,380.7355,1041.9245,1784.5148
4.0000,66.0000,1325.7472,1070.3418,173.5930,382.1191,1082.8270,1824.1892
4.0000,67.0000,1291.6537,1115.8293,190.4103,394.9759,1048.0041,1805.5060
4.0000,68.0000,1268.6520,1094.9279,191.9035,386.8263,1012.4190,1785.0956
4.0000,69.0000,1228.6395,1062.1185,237.0412,374.5444,988.5063,1773.6887
4.0000,70.0000,1241.1567,1008.7323,226.6776,367.4009,980.2196,1739.7917
4.0000,71.0000,1209.0428,945.1166,371.1110,298.6849,882.1775,1679.4419
4.0000,72.0000,1203.4459,927.7894,370.0418,297.8542,906.6552,1686.2567
4.0000,73.0000,1194.5904,894.0939,352.5595,264.0967,918.2536,1706.9009
4.0000,74.0000,1163.8610,919.4718,302.8723,289.3060,873.5419,1695.9335
4.0000,75.0000,1160.9147,915.7833,257.9446,279.4534,883.9316,1726.9141
2.0000,76.0000,1063.2880,969.4387,185.4531,422.0114,965.8910,1528.3028
2.0000,77.0000,1018.0191,973.1966,137.2595,463.1718,964.6613,1507.5074
2.0000,78.0000,1014.5712,1001.0791,117.9132,440.5542,952.1302,1518.7035
2.0000,79.0000,997.4218,1049.2106,91.0811,415.3818,893.8449,1521.6212
2.0000,80.0000,1127.1123,1065.7725,-12.4277,398.0750,902.3759,1499.5346
2.0000,81.0000,1099.2534,1047.7685,-28.7677,454.2702,916.9599,1453.8572
2.0000,82.0000,1075.7771,1130.3681,-11.6384,439.4695,902.9446,1461.4928
2.0000,83.0000,1076.2314,1214.6005,-4.7725,504.9278,894.1773,1444.0786
2.0000,84.0000,1063.1122,1275.1471,-52.3984,627.4426,901.7147,1480.3271
2.0000,85.0000,1033.4333,1284.2402,-56.1789,624.3760,904.9344,1486.7314
2.0000,86.0000,1078.5104,1245.8640,-54.9316,611.5931,896.4121,1471.2042
2.0000,87.0000,1092.7118,1226.4676,-43.0084,649.0161,883.8190,1488.0045
2.0000,88.0000,1075.1617,1145.2951,-46.1818,716.2441,942.7777,1489.3121
2.0000,89.0000,1108.6173,1180.5624,-76.8985,801.0205,828.5490,1577.2346
2.0000,90.0000,1101.4064,1162.4716,-64.9944,816.3986,818.8585,1571.3096
2.0000,91.0000,1077.2694,1170.0976,-22.9961,805.1757,778.1004,1581.9042
2.0000,92.0000,1041.3529,1175.4908,-9.6632,818.0424,794.2717,1621.7109
2.0000,93.0000,1045.9938,1160.1001,-14.7605,859.9699,790.0371,1637.2981
2.0000,94.0000,1076.6914,1108.8585,-27.9797,812.1638,841.7385,1626.9525
2.0000,95.0000,1053.1645,1009.6320,-49.4454,927.1704,835.4650,1524.6042
2.0000,96.0000,1055.8906,1009.6393,-59.8504,948.4545,804.9593,1536.4093
2.0000,97.0000,1075.4308,1041.3071,-109.2767,961.3593,786.2257,1486.0526
2.0000,98.0000,1051.3747,1066.4480,-85.1108,936.8866,781.3145,1471.9957
2.0000,99.0000,1049.6714,999.8285,-103.9244,931.3768,717.4464,1520.3383
2.0000,100.0000,1092.1652,991.6905,31.6083,881.5440,632.5866,1492.2301
2.0000,101.0000,1082.6690,963.4747,-19.5162,864.4239,579.7396,1528.2160
2.0000,102.0000,1077.4045,966.0024,-83.0008,844.4721,502.1868,1606.0069
2.0000,103.0000,1053.2159,929.5230,-109.5253,839.6289,487.2505,1598.1515
2.0000,104.0000,1106.4624,979.1729,-144.2666,801.5871,505.6550,1504.5778
2.0000,105.0000,1065.3956,972.2529,-135.7408,794.0660,477.8128,1497.9975
2.0000,106.0000,1037.5136,966.6208,-159.3481,820.7248,447.0769,1479.0240
2.0000,107.0000,1029.7627,858.7259,-196.8712,807.7921,375.9892,1409.3587
2.0000,108.0000,1069.5284,825.0996,-268.7696,794.2658,358.0004,1380.4579
2.0000,109.0000,1043.3208,824.3604,-272.9297,797.1723,382.0664,1397.4285
2.0000,110.0000,976.1604,831.9341,-259.5196,801.0705,391.5232,1384.7875
2.0000,111.0000,991.0460,807.7899,-324.6295,729.4436,408.1644,1321.8584
2.0000,112.0000,981.4883,800.4338,-284.1133,680.7084,392.2594,1340.7333
2.0000,113.0000,977.5157,843.5578,-208.2965,676.2247,382.2109,1276.7554
6.0000,114.0000,1159.8619,171.3374,27.7216,695.5388,596.4146,315.9405
6.0000,115.0000,1016.5558,570.2119,-201.7176,800.7679,868.6480,-394.2622
6.0000,116.0000,1298.0113,-1670.1117,-279.3966,1681.6286,-170.7099,1055.1259
6.0000,117.0000,1316.9515,280.7176,-74.1501,746.3915,890.0699,-299.3809
6.0000,118.0000,900.2713,175.8775,216.5493,194.8222,909.8786,159.7362
6.0000,119.0000,1879.6931,479.7146,-635.8786,976.6120,878.0649,510.5450
6.0000,120.0000,154.0629,728.1405,-17.1344,499.4782,961.0555,45.1564
6.0000,121.0000,1600.3812,333.1788,48.8174,1217.0903,238.8602,-1.8046
6.0000,122.0000,257.3171,-495.7432,-164.2107,1100.1649,459.9489,772.8676
6.0000,123.0000,849.3733,662.5843,509.5086,756.4217,58.5690,407.7629
6.0000,124.0000,2006.6017,849.8170,737.3659,1494.9610,897.1383,84.0532
6.0000,125.0000,1599.0147,-349.5073,-177.7049,1616.8080,610.4542,-484.8662
12.0000,126.0000,-367.5899,-1299.5715,-55.2277,-1380.9224,299.8576,632.1941
12.0000,127.0000,-369.9186,-1321.8941,-48.4064,-1370.7301,348.8770,583.1664
13.0000,128.0000,-318.9917,-1158.6485,-78.1079,-1308.1705,303.1336,561.5132
13.0000,129.0000,-354.5458,-1181.7282,-55.9012,-1315.8449,270.9016,603.0996
11.0000,130.0000,-363.5388,-1223.9031,19.0442,-1189.3408,103.2425,712.2279
11.0000,131.0000,-402.2615,-1159.6801,-1.6482,-1151.8821,72.8222,735.4292
11.0000,132.0000,-322.2285,-1201.9199,-23.1182,-1123.5394,40.0129,734.2760
11.0000,133.0000,-395.6302,-1168.0554,-52.8622,-1100.3765,50.9245,710.2696
11.0000,134.0000,-396.0234,-1137.8118,-31.6468,-1062.0982,83.2307,720.0581
11.0000,135.0000,-393.7069,-1165.8952,-13.6778,-1059.6203,31.8877,748.4675
11.0000,136.0000,-405.2149,-1175.8166,-0.5360,-1047.2635,65.2966,749.4620
11.0000,137.0000,-437.4478,-1200.4961,18.0100,-1007.7175,65.2360,723.5859
7.0000,138.0000,-456.3140,-898.5139,80.6151,-980.2517,69.3096,701.9232
7.0000,139.0000,-350.0531,-860.1878,165.3341,-947.7299,29.2075,783.0447
7.0000,140.0000,-392.6147,-847.5510,166.6656,-891.5447,67.0827,786.8804
7.0000,141.0000,-414.8778,-883.8062,163.9196,-898.9433,38.8883,755.1273
7.0000,142.0000,-390.0978,-922.3182,182.8302,-895.2553,64.8981,732.1373
7.0000,143.0000,-389.6374,-925.6483,167.5347,-816.8925,39.6400,713.0960
7.0000,144.0000,-385.8114,-923.3460,196.0009,-759.6300,30.0650,731.3240
7.0000,145.0000,-376.5724,-926.2047,192.6512,-788.3658,26.0417,739.6478
7.0000,146.0000,-340.5560,-881.1874,245.8252,-714.4492,21.3335,771.4310
7.0000,147.0000,-293.7048,-761.0200,270.3077,-764.1771,-51.8514,732.1279
7.0000,148.0000,-275.3930,-737.3222,168.7831,-578.8961,45.4869,764.4651
3.0000,149.0000,889.5156,-503.2298,-293.7863,-1582.6321,836.6617,1084.4518
3.0000,150.0000,912.1466,-496.2240,-300.0031,-1599.5357,809.1358,1107.6134
3.0000,151.0000,929.8997,-493.6104,-281.8953,-1606.9792,794.7270,1123.2141
3.0000,152.0000,981.3497,-535.1237,-267.8796,-1616.9562,817.0420,1094.7464
3.0000,153.0000,995.5986,-563.4846,-296.3016,-1622.7181,815.6664,1095.2089
3.0000,154.0000,1003.7799,-610.6202,-290.0944,-1618.3339,780.6779,1115.4146
3.0000,155.0000,1015.6252,-575.4094,-295.7490,-1569.6572,765.5213,1110.2752
3.0000,156.0000,1005.0826,-539.9343,-318.8959,-1555.9872,802.3139,1044.4642
3.0000,157.0000,1042.0423,-563.3384,-344.9776,-1538.2038,752.9658,1019.4640
3.0000,158.0000,1024.4183,-542.1905,-323.2380,-1488.6581,743.8613,998.2728
3.0000,159.0000,1044.4610,-531.1042,-313.2232,-1491.0766,765.4647,998.7933
3.0000,160.0000,1059.4456,-535.6099,-300.7606,-1467.0924,802.7557,977.0691
3.0000,161.0000,1070.4943,-547.9450,-308.3565,-1441.9645,777.4698,981.8124
3.0000,162.0000,1127.2249,-525.9519,-323.0092,-1407.7941,764.2541,982.9682
3.0000,163.0000,1191.8329,-409.7662,-336.9668,-1327.2602,724.5512,981.0225
3.0000,164.0000,1209.5071,-408.9383,-346.9445,-1329.3129,747.2009,987.4977
3.0000,165.0000,1145.9174,-334.0186,-220.8832,-1360.7732,765.6487,1076.2328
3.0000,166.0000,1111.3386,-326.7867,-149.7987,-1298.4061,704.5885,1108.3108
3.0000,167.0000,1164.5856,-274.0249,-162.9547,-1269.0980,712.7402,1111.3617
3.0000,168.0000,1140.1980,-325.5237,-235.6839,-1257.4940,698.4132,1135.7293
3.0000,169.0000,1150.1832,-345.0989,-251.0740,-1260.5872,698.2865,1140.0780
3.0000,170.0000,1076.9926,-422.2628,-181.2927,-1224.7274,725.6640,1087.1654
3.0000,171.0000,1164.8503,-415.4887,-236.0942,-1183.6526,734.1584,1081.2784
5.0000,172.0000,-1005.2643,-1354.1577,1120.7061,-711.7970,-111.9472,215.6966
5.0000,173.0000,-1005.1003,-1378.9739,1107.5481,-695.5239,-137.8419,238.7242
5.0000,174.0000,-998.0944,-1374.6082,1115.9080,-597.8660,-177.8926,288.8007
5.0000,175.0000,-985.3424,-1398.1186,1091.9716,-588.6899,-213.2238,270.7406
5.0000,176.0000,-982.0111,-1309.2142,1093.8773,-608.7786,-119.8981,194.6226
5.0000,177.0000,-969.5271,-1329.8711,1070.8449,-656.8462,-145.7144,204.6370
5.0000,178.0000,-991.2420,-1331.6707,1078.4150,-696.9810,-120.7987,179.9005
5.0000,179.0000,-1032.4823,-1280.2296,1091.4930,-696.3240,-90.4014,181.6037
5.0000,180.0000,-1001.7653,-1286.9609,1086.5974,-678.3485,-98.3257,187.5374
5.0000,181.0000,-1012.8523,-1271.5393,1080.7287,-680.4192,-1.3572,150.3311
5.0000,182.0000,-1065.2284,-1180.6678,1082.2519,-589.6239,-41.0285,152.1057
5.0000,183.0000,-1043.9310,-1173.3967,1050.7428,-574.3782,-28.9116,150.0950
5.0000,184.0000,-1069.4395,-1166.4644,1012.0284,-560.6045,-49.2839,153.3738
1.0000,185.0000,-1056.2663,-1254.0907,945.0878,-536.3831,148.0257,52.9249
1.0000,186.0000,-1053.4071,-1252.6309,973.4419,-514.2111,178.7432,49.6900
1.0000,187.0000,-1071.8964,-1232.0673,960.1555,-504.2166,170.9726,15.7354
1.0000,188.0000,-1091.2851,-1202.9793,955.0734,-502.0372,169.6314,51.4301
1.0000,189.0000,-1075.1392,-1214.7978,970.5414,-520.1154,126.7877,19.8684
1.0000,190.0000,-1058.4794,-1254.3013,1004.5643,-466.4283,151.7523,40.7975
1.0000,191.0000,-1060.5896,-1240.9559,1033.9685,-491.1689,139.8432,24.1592
1.0000,192.0000,-1033.3579,-1296.7095,1061.8057,-464.6929,160.9796,15.6076
1.0000,193.0000,-1031.8891,-1289.3348,1043.8404,-399.2213,273.4490,-136.3854
1.0000,194.0000,-1019.6671,-1281.6518,1095.9195,-403.5331,257.7892,-132.8900
1.0000,195.0000,-992.8198,-1262.9347,1061.9555,-387.5551,290.7681,-134.6112
1.0000,196.0000,-1000.3673,-1276.9079,1097.4115,-407.3443,273.1685,-138.4745
1.0000,197.0000,-981.7899,-1239.4782,1074.8963,-400.6227,345.0638,-142.1303
1.0000,198.0000,-1037.4993,-1256.8035,1085.3706,-415.6876,357.0503,-153.7681
1.0000,199.0000,-1028.6125,-1244.1322,1095.7955,-441.4040,354.4819,-151.4118
1.0000,200.0000,-980.0526,-1245.9633,1116.8689,-418.6369,327.2930,-143.3008
1.0000,201.0000,-1002.3111,-1252.9640,1126.8987,-393.8149,297.7453,-129.3146
1.0000,202.0000,-1028.2152,-1158.0136,1075.1529,-433.9825,346.0760,-135.3837
1.0000,203.0000,-1037.0553,-1229.1839,1055.3552,-428.7274,338.2738,-118.9086
1.0000,204.0000,-1033.9179,-1238.5981,1044.9778,-388.7614,348.2631,-122.5227
1.0000,205.0000,-989.4274,-1264.2834,1086.4867,-428.4978,325.7079,-42.3290
1.0000,206.0000,-986.4893,-1208.9278,1096.9332,-406.5634,320.5641,-31.3718
1.0000,207.0000,-986.1773,-1191.5471,1081.4713,-403.8779,304.7417,-28.4590
1.0000,208.0000,-883.7090,-1271.8934,1019.6311,-302.4994,262.3399,-8.2620
1.0000,209.0000,-860.4319,-1265.1103,1023.1177,-368.0007,248.5991,14.2238
1.0000,210.0000,-843.1747,-1257.1232,1025.2321,-341.9641,221.4721,22.2386
1.0000,211.0000,-842.5902,-1220.1444,1057.6962,-345.8978,225.9002,42.7680
1.0000,212.0000,-848.8575,-1207.3721,948.7331,-333.1440,264.0040,-40.1033
1.0000,213.0000,-830.4287,-1211.8737,905.6930,-336.6829,271.4494,-28.0787
1.0000,214.0000,-832.9857,-1184.2248,968.5872,-282.7947,237.4602,-11.0574
1.0000,215.0000,-864.7969,-1184.6130,956.9468,-253.3391,243.1236,-57.4993
1.0000,216.0000,-813.5922,-1223.6322,980.4492,-290.1419,235.6847,-26.1597
1.0000,217.0000,-802.6441,-1239.8208,974.2025,-316.4183,259.0936,-43.6532
1.0000,218.0000,-796.2617,-1214.6394,967.1381,-316.3334,281.8018,-47.1949
1.0000,219.0000,-791.8957,-1218.6904,950.0413,-359.0943,334.9678,-78.8863
1.0000,220.0000,-751.3721,-1232.1936,933.9185,-324.2017,350.2646,-98.8559
1.0000,221.0000,-757.7498,-1207.3329,929.1687,-359.0001,367.7490,-71.4757
1.0000,222.0000,-730.9637,-1111.2088,927.3177,-480.0191,421.3324,-86.4074
1.0000,223.0000,-708.9072,-1099.3682,922.7036,-477.2986,439.8498,-62.6179
1.0000,224.0000,-703.8324,-1074.5635,943.5099,-469.1970,420.4350,-53.6918
1.0000,225.0000,-656.2701,-1112.4540,884.2692,-517.3436,440.0786,-43.2734
1.0000,226.0000,-631.6431,-1130.9555,890.6037,-542.5903,470.5321,-54.3364
1.0000,227.0000,-640.7198,-1133.9481,897.0083,-510.0038,457.8609,-41.2478
1.0000,228.0000,-584.2004,-1117.2185,877.8197,-482.2884,475.9129,-52.6318
1.0000,229.0000,-589.6466,-1126.3558,978.4788,-524.8308,484.0011,-26.7495
1.0000,230.0000,-562.5581,-1088.9172,973.4566,-525.3611,528.3517,-22.8016
1.0000,231.0000,-548.3381,-1092.9481,987.3905,-568.6596,524.9288,-68.5385
1.0000,232.0000,-519.4079,-1058.2543,939.3275,-565.3237,563.1173,-77.7991
1.0000,233.0000,-525.7098,-1021.6044,931.0669,-562.3487,568.0983,-41.6009
1.0000,234.0000,-427.4504,-1067.8858,802.0947,-560.8200,521.3167,-18.8300
1.0000,235.0000,-447.9103,-1069.6841,782.0258,-563.8853,544.3512,-54.6683
1.0000,236.0000,-467.5238,-1089.3296,836.7723,-489.7485,519.5251,-10.3569
1.0000,237.0000,-448.8631,-1125.0936,807.7079,-524.1955,483.9972,-55.7737
1.0000,238.0000,-476.0501,-1080.8751,798.9699,-514.7627,473.8914,0.8250
1.0000,239.0000,-465.5691,-1080.4023,838.2370,-484.2982,478.2488,-15.7144
1.0000,240.0000,-451.0861,-1115.6740,789.8193,-509.8559,420.9287,-24.3724
1.0000,241.0000,-452.4181,-1070.4658,776.0190,-515.5923,471.7454,15.9492
1.0000,242.0000,-442.4597,-1024.8596,752.5147,-516.3792,444.3605,12.6773
1.0000,243.0000,-466.0703,-1011.7963,749.5524,-526.8460,426.5411,30.7485
1.0000,244.0000,-470.2659,-1007.2160,723.4212,-516.3737,406.4120,21.2024
1.0000,245.0000,-460.7973,-1023.0884,739.8276,-483.2731,393.3357,2.4591
1.0000,246.0000,-498.8572,-1002.4895,744.6470,-457.0066,389.9223,-38.1459
1.0000,247.0000,-492.7086,-1016.2352,772.5247,-463.5331,397.7834,4.4594
1.0000,248.0000,-465.9053,-1110.8202,795.4019,-502.8998,513.0883,54.2791
1.0000,249.0000,-463.5934,-1032.4525,750.0574,-477.6466,485.9892,6.2118
1.0000,250.0000,-459.7556,-1035.6706,757.7678,-478.3423,487.0737,13.1813
1.0000,251.0000,-458.3508,-1034.0514,767.0669,-518.0132,545.0136,-12.5705
1.0000,252.0000,-448.3667,-1053.1803,777.4654,-507.3650,499.4430,17.6978
1.0000,253.0000,-458.3639,-976.4687,814.6550,-493.9629,493.1503,15.3582
1.0000,254.0000,-460.6987,-968.3126,760.3608,-506.7016,503.0138,23.5333
1.0000,255.0000,-461.4115,-977.0376,737.2182,-487.8101,496.0793,-9.4582
1.0000,256.0000,-493.5276,-972.4934,721.9475,-472.1062,506.7924,-42.0963
1.0000,257.0000,-483.1568,-972.4916,698.0009,-463.2447,515.9460,-18.1349
1.0000,258.0000,-452.9506,-1030.1610,822.5074,-436.3008,427.2513,19.3198
1.0000,259.0000,-436.6279,-1029.1922,780.8145,-451.3503,428.7866,33.0982
1.0000,260.0000,-411.0054,-1044.1568,752.0626,-426.4992,468.5165,16.2404
1.0000,261.0000,-369.0588,-1090.6371,736.2519,-505.3742,492.0324,74.0239
1.0000,262.0000,-383.5827,-1099.5415,756.0144,-508.2022,485.9446,28.7592
1.0000,263.0000,-392.4783,-1068.0020,765.4842,-487.9289,480.3777,47.3916
1.0000,264.0000,-373.0587,-1108.2400,738.0744,-510.5950,472.2800,36.0267
1.0000,265.0000,-373.4174,-1082.8225,733.7697,-518.0966,446.8973,15.7619
1.0000,266.0000,-367.9928,-1061.3806,744.9372,-507.0127,451.0876,13.4599
1.0000,267.0000,-381.3800,-1048.1037,733.9350,-534.9926,470.8397,40.0393
1.0000,268.0000,-375.7541,-1038.5188,707.4009,-555.0908,518.0404,37.7464
1.0000,269.0000,-417.3123,-1026.4747,721.2564,-547.6803,495.3582,33.6281
1.0000,270.0000,-362.8817,-1064.0293,728.2320,-591.7336,499.8815,38.6503
1.0000,271.0000,-364.8746,-1076.2288,685.6664,-577.2887,516.3766,5.1116
1.0000,272.0000,-370.7182,-1037.3974,703.7539,-520.7299,524.2978,-22.4352
1.0000,273.0000,-438.5935,-1017.4621,759.1566,-476.5782,491.7964,4.1315
1.0000,274.0000,-393.1157,-1090.1699,744.3007,-470.1516,449.2846,38.2558
1.0000,275.0000,-381.3750,-1103.8534,759.9965,-530.8529,412.1794,-2.6012
1.0000,276.0000,-372.8213,-1089.0054,778.9173,-534.6933,466.8066,24.3712
1.0000,277.0000,-415.1616,-1061.7187,739.7787,-451.8389,476.5354,14.7307
1.0000,278.0000,-405.2650,-1078.1928,753.0557,-474.5463,495.2508,-2.2149
1.0000,279.0000,-383.5679,-1081.9587,729.2236,-480.8319,464.0857,38.4356
1.0000,280.0000,-406.5592,-1054.6166,737.0533,-463.5685,444.7773,48.9860
1.0000,281.0000,-417.9512,-1053.8366,658.2124,-503.7199,398.2696,48.2077
1.0000,282.0000,-391.3243,-1084.5999,674.7844,-454.0808,409.8709,12.0841
1.0000,283.0000,-384.6336,-1106.3699,778.0858,-462.6962,464.5353,6.7871
1.0000,284.0000,-390.7920,-1095.2272,758.6227,-488.4612,440.0919,28.1694
1.0000,285.0000,-401.1956,-1083.6979,749.0935,-499.7769,470.7263,38.4351
1.0000,286.0000,-399.6725,-1094.7078,709.3816,-479.7495,478.1477,50.8525
1.0000,287.0000,-411.6040,-1036.7882,711.9748,-486.9621,520.0323,-21.6568
1.0000,288.0000,-413.8941,-1067.1614,710.7081,-463.5477,518.2783,11.8893
1.0000,289.0000,-421.8850,-1042.0641,680.4088,-469.2837,514.3076,6.2205
1.0000,290.0000,-481.4723,-976.3325,656.3926,-451.1103,450.3779,-16.2418
1.0000,291.0000,-484.9408,-978.4222,676.3295,-444.4960,481.3000,-52.2513
1.0000,292.0000,-459.7148,-985.1061,653.5326,-418.9249,498.5833,-75.7761
1.0000,293.0000,-482.9782,-1013.1395,672.8088,-394.4712,544.3016,-67.2383
1.0000,294.0000,-474.5648,-994.8285,645.6538,-411.0075,522.7390,-66.8296
1.0000,295.0000,-473.8073,-983.4304,683.4374,-411.9759,478.8638,-50.0168
1.0000,296.0000,-470.3965,-969.2382,654.1188,-418.1993,483.1550,-20.1813
1.0000,297.0000,-483.6949,-983.5318,619.7503,-469.6153,498.9580,20.8168
1.0000,298.0000,-490.1031,-968.9435,607.9341,-437.9032,527.3494,-30.5545
1.0000,299.0000,-512.3249,-962.5724,613.8843,-449.2550,529.8653,-15.5333
1.0000,300.0000,-518.2438,-953.6170,596.0011,-397.6205,481.0134,-6.0892
1.0000,301.0000,-506.2068,-937.8408,604.6640,-426.6305,462.5139,8.6943
1.0000,302.0000,-476.9984,-980.2778,627.3841,-399.7702,479.5575,-112.1211
1.0000,303.0000,-489.7897,-1009.3267,632.1291,-375.3688,496.8392,-97.0666
1.0000,304.0000,-441.7091,-1040.6497,658.8383,-368.8310,467.5005,-125.0135
1.0000,305.0000,-456.2957,-1022.3084,632.1010,-349.5239,496.7809,-102.9978
1.0000,306.0000,-468.3360,-1004.9082,644.4742,-358.4068,499.0487,-82.0569
1.0000,307.0000,-467.9808,-1000.0554,647.4585,-380.2092,503.1368,-94.6776
1.0000,308.0000,-463.7618,-994.4997,649.1836,-375.3279,518.9209,-96.2895
1.0000,309.0000,-457.0865,-1009.2976,664.1515,-345.4529,514.8325,-131.0883
1.0000,310.0000,-474.3241,-1058.6310,629.9439,-327.4385,565.1723,-173.8938
1.0000,311.0000,-458.9800,-1076.9385,647.8315,-324.6447,555.9455,-139.8096
1.0000,312.0000,-409.1704,-1050.3694,639.4839,-332.6031,542.6472,-142.9864
1.0000,313.0000,-372.1110,-1069.3049,667.9474,-313.6380,558.2301,-149.5793
1.0000,314.0000,-430.7330,-1093.3304,666.1911,-334.5282,497.2493,-202.1656
1.0000,315.0000,-460.5914,-1069.8144,699.8624,-314.3646,525.4156,-222.0691
1.0000,316.0000,-439.3193,-1086.6253,691.7437,-292.4268,575.7123,-211.2092
1.0000,317.0000,-452.4501,-1060.4878,715.5613,-333.9814,516.2302,-152.4413
1.0000,318.0000,-458.7668,-1065.4208,688.6315,-379.8247,565.6388,-169.8457
1.0000,319.0000,-451.0250,-1080.1355,683.9862,-362.4133,534.2663,-178.6825
1.0000,320.0000,-467.3000,-1065.3739,692.8380,-361.4133,565.9727,-198.3607
1.0000,321.0000,-481.2452,-1040.8295,701.5386,-332.5091,574.1124,-192.2118
1.0000,322.0000,-491.7833,-1071.6524,692.0212,-356.4984,560.8550,-217.6204
1.0000,323.0000,-454.3276,-1113.2730,697.8547,-322.0965,570.4897,-209.2120
1.0000,324.0000,-450.8346,-1109.5525,745.7014,-337.7613,576.4327,-189.9475
1.0000,325.0000,-474.8196,-1084.7045,746.5940,-349.5843,589.5498,-190.1826
1.0000,326.0000,-396.2664,-1099.2126,742.9294,-287.8659,603.0967,-178.6640
1.0000,327.0000,-381.0807,-1082.4934,734.5597,-278.3169,604.3892,-174.6906
1.0000,328.0000,-379.9670,-1102.9046,746.7832,-251.6295,602.4127,-198.6935
1.0000,329.0000,-393.2030,-1116.3869,746.2565,-239.1241,589.9671,-197.5804
1.0000,330.0000,-372.9410,-1114.4980,693.5565,-242.5776,600.3655,-215.0985
1.0000,331.0000,-370.2049,-1162.6199,669.2172,-242.9919,592.6314,-160.2911
1.0000,332.0000,-370.1962,-1179.5740,668.1196,-273.0866,565.7073,-145.9596
1.0000,333.0000,-294.4217,-1210.3610,657.2852,-260.9033,588.6054,-157.8832
1.0000,334.0000,-292.4074,-1177.1303,735.2510,-275.1138,644.0699,-189.4342
1.0000,335.0000,-328.6805,-1149.3433,737.8139,-298.6660,620.9741,-164.2260
1.0000,336.0000,-346.8929,-1174.6414,798.0061,-311.4584,625.9193,-155.8274
1.0000,337.0000,-349.4670,-1137.9540,764.2941,-306.0095,632.3420,-181.2520
1.0000,338.0000,-349.3321,-1118.7656,751.3137,-278.4104,600.7547,-131.4230
1.0000,339.0000,-442.0711,-1118.8402,691.6120,-298.8870,573.6909,-160.9631
1.0000,340.0000,-425.0085,-1103.8732,702.9224,-299.0192,598.1467,-167.9780
1.0000,341.0000,-461.0121,-1051.3054,710.4576,-255.8800,596.4999,-191.8106
1.0000,342.0000,-449.8268,-1027.4104,615.2889,-220.2956,558.7154,-185.9148
1.0000,343.0000,-443.6044,-1032.9537,597.6116,-217.4814,553.8620,-172.0990
1.0000,344.0000,-430.5748,-1013.4116,587.2129,-222.7940,560.5268,-160.2074
1.0000,345.0000,-464.9707,-947.3530,522.4074,-231.7967,614.2296,-133.5968
1.0000,346.0000,-511.9066,-915.7581,532.1203,-184.0287,561.5648,-168.1259
1.0000,347.0000,-491.3717,-932.8273,449.3304,-183.6428,534.7413,-152.4396
1.0000,348.0000,-468.8930,-953.6923,438.6393,-159.5978,540.2800,-163.2305
1.0000,349.0000,-463.5364,-967.7706,422.3607,-152.2673,549.6087,-160.0010
1.0000,350.0000,-451.6302,-976.2364,451.1048,-119.9610,525.3898,-171.0699
1.0000,351.0000,-457.7216,-949.8243,420.6704,-116.9050,555.4118,-148.9320
1.0000,352.0000,-461.4620,-940.5464,416.8044,-111.9489,559.5963,-140.5793
1.0000,353.0000,-467.6908,-913.4611,394.0785,-86.6244,553.0724,-139.1687
1.0000,354.0000,-465.8516,-904.5518,351.1499,-100.3141,550.2568,-108.3609
1.0000,355.0000,-503.3366,-837.2915,331.0963,-139.3640,565.4393,-89.2379
1.0000,356.0000,-560.9436,-829.3212,305.8056,-137.8033,513.3006,-92.9922
1.0000,357.0000,-550.8526,-842.9959,308.1234,-113.3204,574.0037,-118.8513
1.0000,358.0000,-571.7923,-836.4866,335.1225,-139.8339,549.1645,-121.2110
1.0000,359.0000,-566.1736,-828.7249,343.8441,-152.4670,545.2071,-77.9626
1.0000,360.0000,-587.9924,-878.8728,363.8249,-150.1660,547.9352,-126.3728
