23.0000,1397.5977,831.6695,275.6237,445.9811,1377.8687,1522.4840
23.2500,1401.4774,844.5164,275.3075,445.6665,1391.8890,1523.4351
23.5000,1405.1694,856.7173,274.9912,445.3174,1405.3837,1524.5245
23.7500,1408.6764,868.2855,274.6748,444.9339,1418.3498,1525.7494
24.0000,1412.0006,879.2346,274.3583,444.5160,1430.7852,1527.1072
24.2500,1415.1446,889.5785,274.0417,444.0636,1442.6883,1528.5951
24.5000,1418.1109,899.3312,273.7249,443.5768,1454.0582,1530.2102
24.7500,1420.9020,908.5067,273.4081,443.0556,1464.8946,1531.9499
25.0000,1423.5204,917.1196,273.0911,442.5000,1475.1976,1533.8112
25.2500,1425.9688,925.1841,272.7740,441.9100,1484.9684,1535.7915
25.5000,1428.2497,932.7151,272.4569,441.2855,1494.2082,1537.8878
25.7500,1430.3658,939.7271,272.1396,440.6267,1502.9194,1540.0974
26.0000,1432.3198,946.2352,271.8222,439.9334,1511.1046,1542.4173
26.2500,1434.1143,952.2543,271.5047,439.2058,1518.7672,1544.8448
26.5000,1435.7522,957.7995,271.1871,438.4437,1525.9112,1547.3770
26.7500,1437.2360,962.8858,270.8694,437.6473,1532.5410,1550.0109
27.0000,1438.5687,967.5285,270.5516,436.8165,1538.6617,1552.7437
27.2500,1439.7530,971.7429,270.2336,435.9513,1544.2791,1555.5726
27.5000,1440.7918,975.5442,269.9156,435.0517,1549.3993,1558.4945
27.7500,1441.6878,978.9476,269.5975,434.1177,1554.0292,1561.5066
28.0000,1442.4440,981.9686,269.2792,433.1494,1558.1762,1564.6060
28.2500,1443.0633,984.6224,268.9609,432.1468,1561.8479,1567.7896
28.5000,1443.5486,986.9242,268.6424,431.1097,1565.0529,1571.0547
28.7500,1443.9028,988.8894,268.3238,430.0384,1567.8001,1574.3982
29.0000,1444.1288,990.5330,268.0052,428.9327,1570.0986,1577.8172
29.2500,1444.2298,991.8703,267.6864,427.7927,1571.9585,1581.3088
29.5000,1444.2087,992.9163,267.3675,426.6183,1573.3900,1584.8699
29.7500,1444.0685,993.6860,267.0485,425.4097,1574.4037,1588.4976
30.0000,1443.8123,994.1942,266.7294,424.1667,1575.0109,1592.1889
30.2500,1443.4432,994.4557,266.4102,422.8895,1575.2231,1595.9409
30.5000,1442.9642,994.4852,266.0909,421.5779,1575.0523,1599.7506
30.7500,1442.3784,994.2970,265.7715,420.2321,1574.5106,1603.6150
31.0000,1441.6890,993.9056,265.4520,418.8521,1573.6108,1607.5311
31.2500,1440.8992,993.3252,265.1324,417.4377,1572.3658,1611.4960
31.5000,1440.0120,992.5696,264.8127,415.9892,1570.7889,1615.5066
31.7500,1439.0307,991.6528,264.4928,414.5064,1568.8936,1619.5599
32.0000,1437.9584,990.5884,264.1729,412.9893,1566.6936,1623.6530
32.2500,1436.7984,989.3897,263.8529,411.4381,1564.2032,1627.7828
32.5000,1435.5539,988.0699,263.5327,409.8527,1561.4364,1631.9465
32.7500,1434.2282,986.6420,263.2125,408.2330,1558.4077,1636.1409
33.0000,1432.8244,985.1187,262.8921,406.5792,1555.1318,1640.3631
33.2500,1431.3459,983.5123,262.5717,404.8913,1551.6233,1644.6102
33.5000,1429.7960,981.8351,262.2511,403.1691,1547.8971,1648.8790
33.7500,1428.1778,980.0990,261.9305,401.4129,1543.9682,1653.1667
34.0000,1426.4948,978.3155,261.6097,399.6225,1539.8515,1657.4703
34.2500,1424.7503,976.4960,261.2888,397.7980,1535.5621,1661.7867
34.5000,1422.9475,974.6514,260.9679,395.9395,1531.1151,1666.1130
34.7500,1421.0899,972.7925,260.6468,394.0468,1526.5254,1670.4463
35.0000,1419.1807,970.9295,260.3256,392.1201,1521.8082,1674.7835
35.2500,1417.2234,969.0725,260.0043,390.1593,1516.9783,1679.1217
35.5000,1415.2213,967.2312,259.6830,388.1645,1512.0506,1683.4580
35.7500,1413.1777,965.4149,259.3615,386.1356,1507.0399,1687.7894
36.0000,1411.0961,963.6326,259.0399,384.0728,1501.9607,1692.1129
36.2500,1408.9798,961.8928,258.7182,381.9759,1496.8275,1696.4256
36.5000,1406.8323,960.2038,258.3964,379.8451,1491.6545,1700.7246
36.7500,1404.6569,958.5735,258.0745,377.6804,1486.4557,1705.0070
37.0000,1402.4570,957.0092,257.7525,375.4817,1481.2449,1709.2698
37.2500,1400.2361,955.5180,257.4304,373.2490,1476.0356,1713.5101
37.5000,1397.9976,954.1067,257.1083,370.9825,1470.8410,1717.7251
37.7500,1395.7449,952.7814,256.7860,368.6821,1465.6739,1721.9118
38.0000,1393.4814,951.5480,256.4636,366.3478,1460.5471,1726.0674
38.2500,1391.2105,950.4119,256.1411,363.9797,1455.4725,1730.1890
38.5000,1388.9358,949.3782,255.8185,361.5777,1450.4620,1734.2737
38.7500,1386.6605,948.4515,255.4958,359.1419,1445.5270,1738.3187
39.0000,1384.3881,947.6359,255.1730,356.6724,1440.6784,1742.3211
39.2500,1382.1221,946.9351,254.8501,354.1690,1435.9267,1746.2782
39.5000,1379.8659,946.3524,254.5271,351.6319,1431.2818,1750.1871
39.7500,1377.6229,945.8908,254.2040,349.0611,1426.7533,1754.0449
40.0000,1375.3966,945.5527,253.8808,346.4565,1422.3502,1757.8490
40.2500,1373.1904,945.3400,253.5575,343.8183,1418.0808,1761.5966
40.5000,1371.0076,945.2544,253.2341,341.1464,1413.9531,1765.2848
40.7500,1368.8518,945.2968,252.9106,338.4409,1409.9742,1768.9110
41.0000,1366.7263,945.4681,252.5870,335.7017,1406.1510,1772.4723
41.2500,1364.6346,945.7684,252.2633,332.9289,1402.4895,1775.9662
41.5000,1362.5800,946.1976,251.9395,330.1226,1398.9952,1779.3898
41.7500,1360.5660,946.7549,251.6156,327.2826,1395.6728,1782.7405
42.0000,1358.5959,947.4394,251.2916,324.4092,1392.5265,1786.0157
42.2500,1356.6733,948.2495,250.9675,321.5022,1389.5598,1789.2126
42.5000,1354.8013,949.1832,250.6433,318.5617,1386.7754,1792.3287
42.7500,1352.9835,950.2381,250.3190,315.5878,1384.1755,1795.3612
43.0000,1351.2231,951.4115,249.9947,312.5805,1381.7614,1798.3077
43.2500,1349.5236,952.7001,249.6702,309.5397,1379.5338,1801.1655
43.5000,1347.8883,954.1002,249.3456,306.4655,1377.4926,1803.9321
43.7500,1346.3205,955.6077,249.0209,303.3579,1375.6371,1806.6048
44.0000,1344.8236,957.2182,248.6961,300.2171,1373.9656,1809.1813
44.2500,1343.4009,958.9266,248.3713,297.0428,1372.4759,1811.6589
44.5000,1342.0557,960.7278,248.0463,293.8354,1371.1649,1814.0352
44.7500,1340.7913,962.6159,247.7212,290.5946,1370.0289,1816.3077
45.0000,1339.6110,964.5849,247.3961,287.3206,1369.0633,1818.4739
45.2500,1338.5180,966.6282,247.0708,284.0134,1368.2627,1820.5316
45.5000,1337.5156,968.7389,246.7454,280.6730,1367.6210,1822.4781
45.7500,1336.6071,970.9098,246.4200,277.2994,1367.1315,1824.3112
46.0000,1335.7957,973.1333,246.0944,273.8927,1366.7865,1826.0284
46.2500,1335.0846,975.4013,245.7688,270.4530,1366.5776,1827.6275
46.5000,1334.4770,977.7055,245.4430,266.9801,1366.4957,1829.1061
46.7500,1333.9760,980.0372,245.1172,263.4742,1366.5309,1830.4619
47.0000,1333.5850,982.3873,244.7913,259.9353,1366.6726,1831.6927
47.2500,1333.3069,984.7464,244.4652,256.3634,1366.9095,1832.7962
47.5000,1333.1450,987.1050,244.1391,252.7585,1367.2294,1833.7701
47.7500,1333.1023,989.4529,243.8129,249.1207,1367.6196,1834.6123
48.0000,1333.1819,991.7798,243.4866,245.4500,1368.0665,1835.3206
48.2500,1333.3870,994.0752,243.1601,241.7464,1368.5559,1835.8929
48.5000,1333.7205,996.3282,242.8336,238.0100,1369.0729,1836.3269
48.7500,1334.1856,998.5276,242.5070,234.2408,1369.6018,1836.6207
49.0000,1334.7852,1000.6620,242.1803,230.4388,1370.1265,1836.7721
49.2500,1335.5223,1002.7196,241.8535,226.6041,1370.6301,1836.7791
49.5000,1336.3999,1004.6887,241.5267,222.7367,1371.0950,1836.6396
49.7500,1337.4209,1006.5570,241.1997,218.8365,1371.5030,1836.3517
50.0000,1338.5883,1008.3122,240.8726,214.9038,1371.8355,1835.9134
50.2500,1339.9050,1009.9416,240.5454,210.9384,1372.0731,1835.3227
50.5000,1341.3739,1011.4326,240.2182,206.9404,1372.1960,1834.5777
50.7500,1342.9977,1012.7721,239.8908,202.9099,1372.1837,1833.6766
51.0000,1344.7795,1013.9471,239.5634,198.8468,1372.0153,1832.6174
51.2500,1346.7218,1014.9442,239.2358,194.7513,1371.6694,1831.3984
51.5000,1348.8276,1015.7500,238.9082,190.6233,1371.1241,1830.0177
51.7500,1351.0996,1016.3509,238.5805,186.4629,1370.3571,1828.4735
52.0000,1353.5406,1016.7332,238.2526,182.2701,1369.3456,1826.7641
52.2500,1356.1531,1016.8831,237.9247,178.0450,1368.0664,1824.8878
52.5000,1358.9400,1016.7867,237.5967,173.7876,1366.4960,1822.8429
52.7500,1361.9038,1016.4299,237.2686,169.4978,1364.6106,1820.6277
53.0000,1365.0472,1015.7988,236.9404,165.1759,1362.3860,1818.2406
53.2500,1368.3727,1014.8791,236.6121,160.8217,1359.7976,1815.6800
53.5000,1371.8830,1013.6567,236.2838,156.4354,1356.8208,1812.9443
53.7500,1375.5805,1012.1173,235.9553,152.0169,1353.4305,1810.0320
54.0000,1379.4678,1010.2468,235.6267,147.5664,1349.6017,1806.9416
185.0000,-1090.1124,-1331.0163,1037.4375,-319.1342,78.3482,-24.8907
185.2500,-1091.2253,-1330.3442,1039.0756,-320.7763,82.9130,-26.7229
185.5000,-1092.2544,-1329.6379,1040.6636,-322.4113,87.4423,-28.5254
185.7500,-1093.2005,-1328.8981,1042.2021,-324.0394,91.9362,-30.2984
186.0000,-1094.0642,-1328.1255,1043.6916,-325.6604,96.3947,-32.0421
186.2500,-1094.8462,-1327.3209,1045.1327,-327.2743,100.8181,-33.7566
186.5000,-1095.5472,-1326.4850,1046.5259,-328.8813,105.2065,-35.4421
186.7500,-1096.1678,-1325.6184,1047.8718,-330.4813,109.5601,-37.0987
187.0000,-1096.7088,-1324.7220,1049.1710,-332.0743,113.8789,-38.7266
187.2500,-1097.1709,-1323.7964,1050.4241,-333.6602,118.1631,-40.3259
187.5000,-1097.5547,-1322.8422,1051.6314,-335.2392,122.4128,-41.8968
187.7500,-1097.8609,-1321.8603,1052.7937,-336.8112,126.6283,-43.4394
188.0000,-1098.0903,-1320.8512,1053.9114,-338.3763,130.8096,-44.9539
188.2500,-1098.2435,-1319.8156,1054.9852,-339.9343,134.9569,-46.4405
188.5000,-1098.3212,-1318.7543,1056.0154,-341.4854,139.0703,-47.8993
188.7500,-1098.3240,-1317.6679,1057.0027,-343.0295,143.1499,-49.3305
189.0000,-1098.2528,-1316.5570,1057.9475,-344.5666,147.1960,-50.7343
189.2500,-1098.1082,-1315.4223,1058.8505,-346.0968,151.2086,-52.1107
189.5000,-1097.8909,-1314.2644,1059.7121,-347.6200,155.1879,-53.4600
189.7500,-1097.6015,-1313.0840,1060.5328,-349.1363,159.1341,-54.7822
190.0000,-1097.2409,-1311.8817,1061.3132,-350.6456,163.0472,-56.0777
190.2500,-1096.8096,-1310.6582,1062.0538,-352.1480,166.9275,-57.3465
190.5000,-1096.3085,-1309.4141,1062.7551,-353.6434,170.7750,-58.5888
190.7500,-1095.7381,-1308.1499,1063.4175,-355.1320,174.5899,-59.8047
191.0000,-1095.0992,-1306.8663,1064.0416,-356.6136,178.3724,-60.9945
191.2500,-1094.3925,-1305.5639,1064.6279,-358.0882,182.1226,-62.1582
191.5000,-1093.6187,-1304.2433,1065.1769,-359.5560,185.8406,-63.2961
191.7500,-1092.7785,-1302.9051,1065.6891,-361.0168,189.5266,-64.4083
192.0000,-1091.8725,-1301.5498,1066.1649,-362.4708,193.1808,-65.4949
192.2500,-1090.9016,-1300.1781,1066.6048,-363.9178,196.8032,-66.5561
192.5000,-1089.8664,-1298.7906,1067.0094,-365.3579,200.3940,-67.5922
192.7500,-1088.7676,-1297.3877,1067.3791,-366.7912,203.9534,-68.6032
193.0000,-1087.6059,-1295.9701,1067.7144,-368.2175,207.4815,-69.5893
193.2500,-1086.3820,-1294.5383,1068.0157,-369.6370,210.9785,-70.5506
193.5000,-1085.0967,-1293.0929,1068.2835,-371.0496,214.4445,-71.4875
193.7500,-1083.7505,-1291.6343,1068.5183,-372.4553,217.8796,-72.3999
194.0000,-1082.3443,-1290.1632,1068.7205,-373.8541,221.2840,-73.2880
194.2500,-1080.8787,-1288.6801,1068.8907,-375.2461,224.6579,-74.1521
194.5000,-1079.3544,-1287.1854,1069.0292,-376.6312,228.0013,-74.9923
194.7500,-1077.7722,-1285.6798,1069.1364,-378.0095,231.3144,-75.8088
195.0000,-1076.1327,-1284.1637,1069.2130,-379.3809,234.5975,-76.6017
195.2500,-1074.4366,-1282.6376,1069.2592,-380.7454,237.8505,-77.3711
195.5000,-1072.6847,-1281.1020,1069.2755,-382.1031,241.0737,-78.1174
195.7500,-1070.8776,-1279.5575,1069.2624,-383.4540,244.2673,-78.8405
196.0000,-1069.0161,-1278.0045,1069.2204,-384.7981,247.4312,-79.5407
196.2500,-1067.1008,-1276.4435,1069.1497,-386.1353,250.5658,-80.2182
196.5000,-1065.1324,-1274.8749,1069.0509,-387.4657,253.6711,-80.8730
196.7500,-1063.1117,-1273.2993,1068.9243,-388.7893,256.7474,-81.5055
197.0000,-1061.0393,-1271.7171,1068.7705,-390.1061,259.7946,-82.1157
197.2500,-1058.9160,-1270.1288,1068.5897,-391.4160,262.8131,-82.7038
197.5000,-1056.7424,-1268.5347,1068.3825,-392.7192,265.8029,-83.2700
197.7500,-1054.5192,-1266.9354,1068.1492,-394.0155,268.7641,-83.8144
198.0000,-1052.2471,-1265.3313,1067.8902,-395.3051,271.6970,-84.3373
198.2500,-1049.9269,-1263.7229,1067.6060,-396.5879,274.6017,-84.8387
198.5000,-1047.5592,-1262.1104,1067.2969,-397.8639,277.4783,-85.3188
198.7500,-1045.1447,-1260.4945,1066.9633,-399.1331,280.3269,-85.7779
199.0000,-1042.6841,-1258.8754,1066.6056,-400.3956,283.1478,-86.2160
199.2500,-1040.1782,-1257.2537,1066.2242,-401.6513,285.9410,-86.6334
199.5000,-1037.6275,-1255.6296,1065.8195,-402.9002,288.7068,-87.0302
199.7500,-1035.0327,-1254.0037,1065.3919,-404.1423,291.4451,-87.4066
200.0000,-1032.3947,-1252.3762,1064.9417,-405.3777,294.1563,-87.7627
200.2500,-1029.7140,-1250.7476,1064.4693,-406.6064,296.8404,-88.0987
200.5000,-1026.9913,-1249.1183,1063.9751,-407.8283,299.4977,-88.4148
200.7500,-1024.2274,-1247.4886,1063.4595,-409.0435,302.1281,-88.7112
201.0000,-1021.4228,-1245.8589,1062.9227,-410.2519,304.7320,-88.9880
201.2500,-1018.5784,-1244.2295,1062.3653,-411.4536,307.3093,-89.2453
201.5000,-1015.6947,-1242.6009,1061.7874,-412.6486,309.8604,-89.4834
201.7500,-1012.7725,-1240.9733,1061.1895,-413.8369,312.3853,-89.7024
202.0000,-1009.8124,-1239.3471,1060.5720,-415.0185,314.8841,-89.9026
202.2500,-1006.8151,-1237.7227,1059.9351,-416.1933,317.3571,-90.0839
202.5000,-1003.7813,-1236.1003,1059.2793,-417.3615,319.8043,-90.2467
202.7500,-1000.7116,-1234.4803,1058.6048,-418.5229,322.2259,-90.3911
203.0000,-997.6068,-1232.8631,1057.9119,-419.6777,324.6222,-90.5172
203.2500,-994.4674,-1231.2489,1057.2011,-420.8258,326.9931,-90.6252
203.5000,-991.2942,-1229.6380,1056.4727,-421.9672,329.3388,-90.7154
203.7500,-988.0878,-1228.0308,1055.7269,-423.1019,331.6596,-90.7878
204.0000,-984.8490,-1226.4275,1054.9641,-424.2299,333.9555,-90.8426
204.2500,-981.5782,-1224.8285,1054.1846,-425.3513,336.2267,-90.8801
204.5000,-978.2763,-1223.2339,1053.3887,-426.4660,338.4733,-90.9002
204.7500,-974.9439,-1221.6442,1052.5768,-427.5741,340.6955,-90.9034
205.0000,-971.5816,-1220.0596,1051.7491,-428.6755,342.8935,-90.8896
205.2500,-968.1901,-1218.4803,1050.9059,-429.7702,345.0673,-90.8591
205.5000,-964.7700,-1216.9067,1050.0476,-430.8584,347.2171,-90.8120
205.7500,-961.3220,-1215.3389,1049.1744,-431.9398,349.3431,-90.7486
206.0000,-957.8468,-1213.7772,1048.2867,-433.0147,351.4455,-90.6689
206.2500,-954.3449,-1212.2219,1047.3847,-434.0829,353.5242,-90.5731
206.5000,-950.8171,-1210.6732,1046.4687,-435.1445,355.5796,-90.4615
206.7500,-947.2639,-1209.1314,1045.5390,-436.1995,357.6118,-90.3341
207.0000,-943.6861,-1207.5966,1044.5959,-437.2479,359.6208,-90.1912
207.2500,-940.0842,-1206.0692,1043.6396,-438.2897,361.6069,-90.0328
207.5000,-936.4588,-1204.5493,1042.6705,-439.3249,363.5702,-89.8593
207.7500,-932.8107,-1203.0371,1041.6888,-440.3535,365.5108,-89.6707
208.0000,-929.1405,-1201.5329,1040.6948,-441.3755,367.4289,-89.4672
208.2500,-925.4487,-1200.0368,1039.6887,-442.3909,369.3246,-89.2490
208.5000,-921.7360,-1198.5491,1038.6707,-443.3997,371.1981,-89.0162
208.7500,-918.0031,-1197.0700,1037.6413,-444.4020,373.0495,-88.7691
209.0000,-914.2505,-1195.5995,1036.6005,-445.3977,374.8789,-88.5077
209.2500,-910.4788,-1194.1381,1035.5487,-446.3868,376.6866,-88.2323
209.5000,-906.6888,-1192.6857,1034.4862,-447.3694,378.4726,-87.9430
209.7500,-902.8809,-1191.2426,1033.4130,-448.3454,380.2371,-87.6400
210.0000,-899.0558,-1189.8089,1032.3296,-449.3149,381.9803,-87.3234
210.2500,-895.2142,-1188.3848,1031.2361,-450.2778,383.7022,-86.9934
210.5000,-891.3565,-1186.9705,1030.1328,-451.2342,385.4030,-86.6502
210.7500,-887.4835,-1185.5662,1029.0199,-452.1841,387.0830,-86.2940
211.0000,-883.5956,-1184.1719,1027.8976,-453.1275,388.7421,-85.9248
211.2500,-879.6936,-1182.7878,1026.7662,-454.0643,390.3806,-85.5430
211.5000,-875.7780,-1181.4140,1025.6259,-454.9946,391.9987,-85.1486
211.7500,-871.8494,-1180.0508,1024.4769,-455.9184,393.5963,-84.7418
212.0000,-867.9083,-1178.6981,1023.3194,-456.8357,395.1738,-84.3227
212.2500,-863.9554,-1177.3562,1022.1536,-457.7465,396.7312,-83.8916
212.5000,-859.9913,-1176.0252,1020.9798,-458.6509,398.2686,-83.4486
212.7500,-856.0164,-1174.7051,1019.7981,-459.5487,399.7863,-82.9939
213.0000,-852.0315,-1173.3961,1018.6089,-460.4401,401.2843,-82.5276
213.2500,-848.0370,-1172.0983,1017.4121,-461.3249,402.7629,-82.0499
213.5000,-844.0336,-1170.8118,1016.2082,-462.2033,404.2221,-81.5609
213.7500,-840.0218,-1169.5367,1014.9972,-463.0753,405.6621,-81.0609
214.0000,-836.0021,-1168.2731,1013.7794,-463.9408,407.0830,-80.5500
214.2500,-831.9751,-1167.0210,1012.5549,-464.7998,408.4850,-80.0283
214.5000,-827.9414,-1165.7806,1011.3240,-465.6524,409.8683,-79.4960
214.7500,-823.9016,-1164.5519,1010.0867,-466.4985,411.2328,-78.9533
215.0000,-819.8561,-1163.3350,1008.8434,-467.3382,412.5789,-78.4004
215.2500,-815.8055,-1162.1300,1007.5942,-468.1715,413.9066,-77.8373
215.5000,-811.7504,-1160.9369,1006.3392,-468.9983,415.2162,-77.2643
215.7500,-807.6913,-1159.7559,1005.0787,-469.8188,416.5076,-76.6816
216.0000,-803.6288,-1158.5869,1003.8128,-470.6328,417.7811,-76.0892
216.2500,-799.5633,-1157.4300,1002.5417,-471.4404,419.0368,-75.4874
216.5000,-795.4954,-1156.2852,1001.2655,-472.2416,420.2748,-74.8763
216.7500,-791.4256,-1155.1527,999.9844,-473.0364,421.4954,-74.2560
217.0000,-787.3545,-1154.0324,998.6986,-473.8248,422.6985,-73.6268
217.2500,-783.2825,-1152.9245,997.4082,-474.6068,423.8845,-72.9888
217.5000,-779.2101,-1151.8288,996.1134,-475.3825,425.0533,-72.3422
217.7500,-775.1380,-1150.7455,994.8143,-476.1517,426.2052,-71.6870
218.0000,-771.0666,-1149.6745,993.5111,-476.9146,427.3402,-71.0236
218.2500,-766.9963,-1148.6159,992.2040,-477.6712,428.4586,-70.3519
218.5000,-762.9277,-1147.5698,990.8930,-478.4214,429.5604,-69.6723
218.7500,-758.8613,-1146.5361,989.5783,-479.1652,430.6459,-68.9848
219.0000,-754.7976,-1145.5148,988.2602,-479.9027,431.7151,-68.2896
219.2500,-750.7370,-1144.5059,986.9386,-480.6338,432.7681,-67.5869
219.5000,-746.6801,-1143.5095,985.6137,-481.3586,433.8052,-66.8768
219.7500,-742.6273,-1142.5256,984.2858,-482.0771,434.8264,-66.1595
220.0000,-738.5791,-1141.5540,982.9548,-482.7892,435.8319,-65.4351
220.2500,-734.5360,-1140.5949,981.6209,-483.4950,436.8219,-64.7038
220.5000,-730.4984,-1139.6483,980.2843,-484.1946,437.7963,-63.9658
220.7500,-726.4668,-1138.7140,978.9451,-484.8878,438.7555,-63.2211
221.0000,-722.4417,-1137.7921,977.6034,-485.5747,439.6996,-62.4701
221.2500,-718.4234,-1136.8826,976.2593,-486.2553,440.6286,-61.7127
221.5000,-714.4126,-1135.9854,974.9129,-486.9296,441.5427,-60.9493
221.7500,-710.4096,-1135.1006,973.5644,-487.5976,442.4420,-60.1798
222.0000,-706.4148,-1134.2280,972.2138,-488.2594,443.3267,-59.4046
222.2500,-702.4287,-1133.3677,970.8614,-488.9149,444.1970,-58.6237
222.5000,-698.4518,-1132.5195,969.5071,-489.5641,445.0528,-57.8372
222.7500,-694.4844,-1131.6836,968.1510,-490.2071,445.8945,-57.0454
223.0000,-690.5270,-1130.8598,966.7934,-490.8438,446.7221,-56.2484
223.2500,-686.5800,-1130.0480,965.4343,-491.4742,447.5357,-55.4464
223.5000,-682.6439,-1129.2483,964.0737,-492.0985,448.3355,-54.6394
223.7500,-678.7190,-1128.4605,962.7118,-492.7164,449.1216,-53.8277
224.0000,-674.8058,-1127.6847,961.3488,-493.3282,449.8942,-53.0114
224.2500,-670.9046,-1126.9208,959.9845,-493.9337,450.6533,-52.1907
224.5000,-667.0160,-1126.1686,958.6193,-494.5330,451.3992,-51.3656
224.7500,-663.1401,-1125.4282,957.2531,-495.1261,452.1319,-50.5364
225.0000,-659.2776,-1124.6994,955.8861,-495.7130,452.8515,-49.7032
225.2500,-655.4286,-1123.9823,954.5182,-496.2937,453.5583,-48.8662
225.5000,-651.5937,-1123.2767,953.1497,-496.8681,454.2523,-48.0254
225.7500,-647.7733,-1122.5825,951.7806,-497.4364,454.9337,-47.1811
226.0000,-643.9676,-1121.8998,950.4110,-497.9985,455.6026,-46.3334
226.2500,-640.1770,-1121.2283,949.0409,-498.5545,456.2591,-45.4824
226.5000,-636.4020,-1120.5681,947.6704,-499.1042,456.9034,-44.6283
226.7500,-632.6429,-1119.9190,946.2997,-499.6478,457.5355,-43.7713
227.0000,-628.9000,-1119.2809,944.9287,-500.1852,458.1557,-42.9114
227.2500,-625.1738,-1118.6538,943.5575,-500.7165,458.7640,-42.0489
227.5000,-621.4645,-1118.0376,942.1863,-501.2416,459.3606,-41.1838
227.7500,-617.7724,-1117.4322,940.8151,-501.7606,459.9456,-40.3163
228.0000,-614.0981,-1116.8374,939.4439,-502.2735,460.5192,-39.4466
228.2500,-610.4416,-1116.2533,938.0728,-502.7802,461.0813,-38.5747
228.5000,-606.8035,-1115.6796,936.7019,-503.2808,461.6323,-37.7009
228.7500,-603.1841,-1115.1163,935.3312,-503.7752,462.1722,-36.8253
229.0000,-599.5835,-1114.5634,933.9608,-504.2636,462.7011,-35.9480
229.2500,-596.0023,-1114.0206,932.5908,-504.7458,463.2192,-35.0692
229.5000,-592.4406,-1113.4878,931.2212,-505.2220,463.7266,-34.1890
229.7500,-588.8989,-1112.9651,929.8520,-505.6921,464.2233,-33.3075
230.0000,-585.3773,-1112.4522,928.4834,-506.1560,464.7097,-32.4249
230.2500,-581.8762,-1111.9490,927.1153,-506.6139,465.1857,-31.5414
230.5000,-578.3960,-1111.4555,925.7478,-507.0657,465.6514,-30.6570
230.7500,-574.9368,-1110.9715,924.3811,-507.5115,466.1071,-29.7719
231.0000,-571.4990,-1110.4969,923.0150,-507.9511,466.5528,-28.8862
231.2500,-568.0828,-1110.0316,921.6497,-508.3847,466.9887,-28.0001
231.5000,-564.6886,-1109.5754,920.2852,-508.8123,467.4149,-27.1137
231.7500,-561.3166,-1109.1283,918.9216,-509.2338,467.8314,-26.2271
232.0000,-557.9670,-1108.6901,917.5588,-509.6493,468.2385,-25.3406
232.2500,-554.6402,-1108.2607,916.1970,-510.0588,468.6362,-24.4541
232.5000,-551.3364,-1107.8400,914.8362,-510.4622,469.0247,-23.5679
232.7500,-548.0558,-1107.4278,913.4764,-510.8596,469.4041,-22.6821
233.0000,-544.7988,-1107.0241,912.1176,-511.2509,469.7745,-21.7967
233.2500,-541.5654,-1106.6286,910.7600,-511.6363,470.1360,-20.9121
233.5000,-538.3561,-1106.2413,909.4034,-512.0157,470.4888,-20.0282
233.7500,-535.1709,-1105.8620,908.0480,-512.3891,470.8329,-19.1452
234.0000,-532.0103,-1105.4906,906.6939,-512.7564,471.1685,-18.2632
234.2500,-528.8743,-1105.1270,905.3409,-513.1178,471.4958,-17.3824
234.5000,-525.7632,-1104.7710,903.9892,-513.4733,471.8147,-16.5029
234.7500,-522.6772,-1104.4225,902.6388,-513.8227,472.1255,-15.6248
235.0000,-519.6165,-1104.0813,901.2897,-514.1662,472.4282,-14.7483
235.2500,-516.5814,-1103.7474,899.9419,-514.5037,472.7230,-13.8734
235.5000,-513.5720,-1103.4206,898.5956,-514.8353,473.0100,-13.0004
235.7500,-510.5885,-1103.1007,897.2506,-515.1609,473.2893,-12.1293
236.0000,-507.6312,-1102.7876,895.9070,-515.4806,473.5610,-11.2602
236.2500,-504.7002,-1102.4812,894.5649,-515.7943,473.8253,-10.3933
236.5000,-501.7957,-1102.1813,893.2243,-516.1021,474.0821,-9.5287
236.7500,-498.9179,-1101.8879,891.8852,-516.4040,474.3318,-8.6665
237.0000,-496.0669,-1101.6006,890.5476,-516.7000,474.5743,-7.8069
237.2500,-493.2430,-1101.3195,889.2115,-516.9901,474.8098,-6.9500
237.5000,-490.4463,-1101.0443,887.8770,-517.2742,475.0385,-6.0958
237.7500,-487.6769,-1100.7750,886.5441,-517.5525,475.2603,-5.2445
238.0000,-484.9351,-1100.5113,885.2128,-517.8249,475.4754,-4.3963
238.2500,-482.2209,-1100.2532,883.8831,-518.0914,475.6840,-3.5512
238.5000,-479.5345,-1100.0005,882.5550,-518.3520,475.8862,-2.7094
238.7500,-476.8761,-1099.7530,881.2286,-518.6068,476.0820,-1.8710
239.0000,-474.2458,-1099.5106,879.9038,-518.8556,476.2715,-1.0360
239.2500,-471.6437,-1099.2733,878.5808,-519.0986,476.4549,-0.2047
239.5000,-469.0700,-1099.0407,877.2595,-519.3358,476.6324,0.6229
239.7500,-466.5248,-1098.8128,875.9398,-519.5671,476.8039,1.4466
240.0000,-464.0082,-1098.5894,874.6219,-519.7926,476.9696,2.2664
240.2500,-461.5202,-1098.3704,873.3058,-520.0123,477.1296,3.0821
240.5000,-459.0612,-1098.1557,871.9914,-520.2261,477.2841,3.8936
240.7500,-456.6310,-1097.9451,870.6788,-520.4341,477.4330,4.7008
241.0000,-454.2299,-1097.7384,869.3680,-520.6363,477.5766,5.5036
241.2500,-451.8580,-1097.5356,868.0590,-520.8326,477.7149,6.3019
241.5000,-449.5152,-1097.3364,866.7518,-521.0232,477.8481,7.0956
241.7500,-447.2018,-1097.1407,865.4464,-521.2080,477.9762,7.8845
242.0000,-444.9178,-1096.9485,864.1428,-521.3870,478.0993,8.6686
242.2500,-442.6633,-1096.7595,862.8411,-521.5602,478.2177,9.4478
242.5000,-440.4383,-1096.5736,861.5413,-521.7276,478.3312,10.2218
242.7500,-438.2430,-1096.3906,860.2433,-521.8893,478.4401,10.9908
243.0000,-436.0773,-1096.2105,858.9472,-522.0452,478.5445,11.7544
243.2500,-433.9414,-1096.0331,857.6529,-522.1953,478.6444,12.5127
243.5000,-431.8354,-1095.8582,856.3606,-522.3397,478.7400,13.2655
243.7500,-429.7591,-1095.6857,855.0702,-522.4784,478.8314,14.0127
244.0000,-427.7128,-1095.5155,853.7817,-522.6113,478.9186,14.7542
244.2500,-425.6965,-1095.3474,852.4951,-522.7385,479.0018,15.4900
244.5000,-423.7101,-1095.1813,851.2104,-522.8599,479.0810,16.2198
244.7500,-421.7538,-1095.0171,849.9277,-522.9757,479.1565,16.9437
245.0000,-419.8276,-1094.8546,848.6469,-523.0857,479.2281,17.6615
245.2500,-417.9314,-1094.6936,847.3681,-523.1900,479.2961,18.3732
245.5000,-416.0653,-1094.5341,846.0912,-523.2887,479.3606,19.0785
245.7500,-414.2294,-1094.3760,844.8163,-523.3816,479.4216,19.7775
246.0000,-412.4236,-1094.2190,843.5434,-523.4688,479.4793,20.4700
246.2500,-410.6480,-1094.0630,842.2725,-523.5504,479.5337,21.1560
246.5000,-408.9025,-1093.9080,841.0036,-523.6263,479.5849,21.8353
246.7500,-407.1872,-1093.7538,839.7366,-523.6965,479.6331,22.5078
247.0000,-405.5020,-1093.6002,838.4717,-523.7611,479.6783,23.1736
247.2500,-403.8470,-1093.4472,837.2088,-523.8200,479.7206,23.8323
247.5000,-402.2221,-1093.2946,835.9480,-523.8733,479.7601,24.4841
247.7500,-400.6273,-1093.1422,834.6891,-523.9210,479.7969,25.1288
248.0000,-399.0626,-1092.9900,833.4323,-523.9630,479.8311,25.7662
248.2500,-397.5280,-1092.8379,832.1776,-523.9993,479.8628,26.3964
248.5000,-396.0234,-1092.6857,830.9249,-524.0301,479.8921,27.0192
248.7500,-394.5489,-1092.5333,829.6743,-524.0553,479.9190,27.6345
249.0000,-393.1043,-1092.3805,828.4258,-524.0748,479.9437,28.2423
249.2500,-391.6897,-1092.2273,827.1794,-524.0887,479.9662,28.8425
249.5000,-390.3049,-1092.0735,825.9350,-524.0971,479.9867,29.4349
249.7500,-388.9500,-1091.9191,824.6928,-524.0999,480.0052,30.0196
250.0000,-387.6249,-1091.7639,823.4527,-524.0971,480.0218,30.5964
250.2500,-386.3295,-1091.6077,822.2146,-524.0887,480.0365,31.1652
250.5000,-385.0638,-1091.4506,820.9788,-524.0747,480.0496,31.7260
250.7500,-383.8277,-1091.2923,819.7451,-524.0552,480.0610,32.2786
251.0000,-382.6211,-1091.1328,818.5135,-524.0301,480.0709,32.8231
251.2500,-381.4440,-1090.9720,817.2841,-523.9995,480.0793,33.3593
251.5000,-380.2963,-1090.8097,816.0569,-523.9634,480.0863,33.8871
251.7500,-379.1779,-1090.6458,814.8318,-523.9217,480.0920,34.4065
252.0000,-378.0887,-1090.4804,813.6090,-523.8745,480.0965,34.9175
252.2500,-377.0286,-1090.3131,812.3883,-523.8218,480.0999,35.4198
252.5000,-375.9976,-1090.1440,811.1699,-523.7635,480.1022,35.9135
252.7500,-374.9956,-1089.9730,809.9538,-523.6998,480.1035,36.3985
253.0000,-374.0224,-1089.7999,808.7398,-523.6305,480.1039,36.8747
253.2500,-373.0780,-1089.6247,807.5282,-523.5558,480.1036,37.3420
253.5000,-372.1622,-1089.4472,806.3188,-523.4756,480.1025,37.8004
253.7500,-371.2749,-1089.2675,805.1117,-523.3899,480.1007,38.2498
254.0000,-370.4161,-1089.0853,803.9069,-523.2987,480.0984,38.6902
254.2500,-369.5856,-1088.9006,802.7044,-523.2021,480.0955,39.1214
254.5000,-368.7832,-1088.7133,801.5043,-523.1000,480.0922,39.5434
254.7500,-368.0089,-1088.5234,800.3065,-522.9924,480.0886,39.9562
255.0000,-367.2626,-1088.3307,799.1110,-522.8795,480.0848,40.3597
255.2500,-366.5441,-1088.1352,797.9180,-522.7610,480.0807,40.7537
255.5000,-365.8532,-1087.9368,796.7273,-522.6372,480.0765,41.1383
255.7500,-365.1899,-1087.7354,795.5391,-522.5079,480.0722,41.5134
256.0000,-364.5539,-1087.5310,794.3533,-522.3732,480.0680,41.8790
256.2500,-363.9452,-1087.3234,793.1699,-522.2331,480.0639,42.2349
256.5000,-363.3636,-1087.1126,791.9890,-522.0876,480.0599,42.5811
256.7500,-362.8090,-1086.8986,790.8106,-521.9367,480.0562,42.9176
257.0000,-362.2811,-1086.6812,789.6348,-521.7804,480.0527,43.2443
257.2500,-361.7799,-1086.4605,788.4614,-521.6187,480.0497,43.5611
257.5000,-361.3052,-1086.2362,787.2906,-521.4516,480.0471,43.8680
257.7500,-360.8568,-1086.0085,786.1224,-521.2792,480.0451,44.1650
258.0000,-360.4345,-1085.7772,784.9567,-521.1014,480.0436,44.4520
258.2500,-360.0382,-1085.5422,783.7937,-520.9182,480.0428,44.7289
258.5000,-359.6677,-1085.3036,782.6333,-520.7297,480.0427,44.9957
258.7500,-359.3229,-1085.0612,781.4756,-520.5359,480.0433,45.2523
259.0000,-359.0035,-1084.8150,780.3206,-520.3367,480.0449,45.4987
259.2500,-358.7093,-1084.5650,779.1682,-520.1322,480.0473,45.7349
259.5000,-358.4403,-1084.3110,778.0186,-519.9224,480.0508,45.9607
259.7500,-358.1961,-1084.0532,776.8718,-519.7073,480.0552,46.1762
260.0000,-357.9767,-1083.7914,775.7278,-519.4868,480.0608,46.3814
260.2500,-357.7818,-1083.5256,774.5866,-519.2611,480.0676,46.5760
260.5000,-357.6112,-1083.2557,773.4482,-519.0301,480.0756,46.7603
260.7500,-357.4647,-1082.9817,772.3127,-518.7937,480.0849,46.9339
261.0000,-357.3421,-1082.7036,771.1800,-518.5521,480.0956,47.0971
261.2500,-357.2432,-1082.4214,770.0503,-518.3053,480.1076,47.2496
261.5000,-357.1679,-1082.1350,768.9236,-518.0531,480.1212,47.3915
261.7500,-357.1159,-1081.8444,767.7999,-517.7957,480.1362,47.5227
262.0000,-357.0869,-1081.5496,766.6791,-517.5331,480.1529,47.6433
262.2500,-357.0808,-1081.2505,765.5615,-517.2652,480.1712,47.7530
262.5000,-357.0974,-1080.9471,764.4469,-516.9920,480.1913,47.8520
262.7500,-357.1364,-1080.6394,763.3354,-516.7137,480.2131,47.9402
263.0000,-357.1976,-1080.3275,762.2270,-516.4301,480.2367,48.0176
263.2500,-357.2808,-1080.0112,761.1219,-516.1413,480.2621,48.0841
263.5000,-357.3858,-1079.6906,760.0199,-515.8473,480.2895,48.1396
263.7500,-357.5123,-1079.3656,758.9212,-515.5481,480.3189,48.1843
264.0000,-357.6602,-1079.0363,757.8258,-515.2436,480.3504,48.2180
264.2500,-357.8290,-1078.7026,756.7337,-514.9340,480.3839,48.2406
264.5000,-358.0188,-1078.3646,755.6449,-514.6193,480.4195,48.2523
264.7500,-358.2291,-1078.0222,754.5596,-514.2993,480.4573,48.2530
265.0000,-358.4598,-1077.6755,753.4777,-513.9742,480.4974,48.2425
265.2500,-358.7106,-1077.3244,752.3992,-513.6439,480.5398,48.2210
265.5000,-358.9813,-1076.9689,751.3243,-513.3085,480.5845,48.1884
265.7500,-359.2716,-1076.6091,750.2529,-512.9679,480.6316,48.1447
266.0000,-359.5813,-1076.2450,749.1850,-512.6222,480.6811,48.0898
266.2500,-359.9102,-1075.8766,748.1208,-512.2713,480.7331,48.0238
266.5000,-360.2579,-1075.5039,747.0603,-511.9153,480.7876,47.9465
266.7500,-360.6243,-1075.1269,746.0035,-511.5543,480.8447,47.8581
267.0000,-361.0090,-1074.7456,744.9504,-511.1880,480.9044,47.7585
267.2500,-361.4118,-1074.3601,743.9012,-510.8167,480.9668,47.6476
267.5000,-361.8325,-1073.9703,742.8557,-510.4403,481.0318,47.5255
267.7500,-362.2708,-1073.5764,741.8142,-510.0588,481.0997,47.3921
268.0000,-362.7264,-1073.1783,740.7765,-509.6723,481.1703,47.2475
268.2500,-363.1992,-1072.7760,739.7428,-509.2806,481.2437,47.0916
268.5000,-363.6887,-1072.3697,738.7132,-508.8839,481.3200,46.9244
268.7500,-364.1947,-1071.9593,737.6876,-508.4821,481.3993,46.7459
269.0000,-364.7171,-1071.5448,736.6661,-508.0753,481.4814,46.5561
269.2500,-365.2554,-1071.1263,735.6487,-507.6634,481.5666,46.3550
269.5000,-365.8095,-1070.7039,734.6356,-507.2465,481.6548,46.1426
269.7500,-366.3790,-1070.2776,733.6267,-506.8246,481.7461,45.9189
270.0000,-366.9638,-1069.8474,732.6220,-506.3976,481.8405,45.6839
270.2500,-367.5634,-1069.4133,731.6218,-505.9656,481.9380,45.4376
270.5000,-368.1777,-1068.9755,730.6259,-505.5286,482.0387,45.1799
270.7500,-368.8064,-1068.5340,729.6344,-505.0866,482.1425,44.9109
271.0000,-369.4491,-1068.0888,728.6474,-504.6396,482.2497,44.6306
271.2500,-370.1057,-1067.6399,727.6650,-504.1876,482.3601,44.3390
271.5000,-370.7757,-1067.1875,726.6872,-503.7306,482.4738,44.0361
271.7500,-371.4591,-1066.7316,725.7140,-503.2687,482.5909,43.7219
272.0000,-372.1553,-1066.2723,724.7454,-502.8018,482.7114,43.3964
272.2500,-372.8643,-1065.8096,723.7816,-502.3299,482.8352,43.0596
272.5000,-373.5857,-1065.3435,722.8227,-501.8531,482.9625,42.7115
272.7500,-374.3192,-1064.8742,721.8685,-501.3713,483.0933,42.3521
273.0000,-375.0645,-1064.4017,720.9192,-500.8846,483.2275,41.9815
273.2500,-375.8213,-1063.9261,719.9749,-500.3930,483.3653,41.5996
273.5000,-376.5894,-1063.4475,719.0356,-499.8964,483.5066,41.2065
273.7500,-377.3685,-1062.9659,718.1014,-499.3949,483.6515,40.8021
274.0000,-378.1583,-1062.4814,717.1722,-498.8885,483.8000,40.3865
274.2500,-378.9584,-1061.9941,716.2482,-498.3772,483.9521,39.9598
274.5000,-379.7687,-1061.5041,715.3295,-497.8611,484.1078,39.5218
274.7500,-380.5887,-1061.0114,714.4160,-497.3400,484.2673,39.0727
275.0000,-381.4183,-1060.5161,713.5078,-496.8140,484.4304,38.6125
275.2500,-382.2572,-1060.0184,712.6050,-496.2832,484.5973,38.1411
275.5000,-383.1049,-1059.5182,711.7076,-495.7475,484.7679,37.6587
275.7500,-383.9614,-1059.0158,710.8157,-495.2070,484.9422,37.1651
276.0000,-384.8262,-1058.5111,709.9294,-494.6616,485.1204,36.6605
276.2500,-385.6990,-1058.0043,709.0487,-494.1114,485.3023,36.1449
276.5000,-386.5797,-1057.4954,708.1736,-493.5563,485.4881,35.6182
276.7500,-387.4678,-1056.9846,707.3042,-492.9964,485.6777,35.0806
277.0000,-388.3631,-1056.4719,706.4406,-492.4317,485.8711,34.5320
277.2500,-389.2654,-1055.9575,705.5828,-491.8621,486.0685,33.9725
277.5000,-390.1742,-1055.4415,704.7308,-491.2878,486.2697,33.4022
277.7500,-391.0894,-1054.9239,703.8848,-490.7086,486.4748,32.8209
278.0000,-392.0106,-1054.4048,703.0448,-490.1247,486.6839,32.2288
278.2500,-392.9376,-1053.8844,702.2108,-489.5360,486.8969,31.6260
278.5000,-393.8700,-1053.3627,701.3830,-488.9425,487.1138,31.0123
278.7500,-394.8075,-1052.8399,700.5613,-488.3442,487.3347,30.3880
279.0000,-395.7500,-1052.3161,699.7457,-487.7412,487.5596,29.7529
279.2500,-396.6970,-1051.7914,698.9365,-487.1334,487.7884,29.1072
279.5000,-397.6483,-1051.2658,698.1336,-486.5209,488.0213,28.4509
279.7500,-398.6036,-1050.7396,697.3370,-485.9036,488.2581,27.7840
280.0000,-399.5626,-1050.2128,696.5469,-485.2816,488.4990,27.1066
280.2500,-400.5250,-1049.6854,695.7632,-484.6549,488.7439,26.4186
280.5000,-401.4906,-1049.1578,694.9861,-484.0234,488.9928,25.7203
280.7500,-402.4591,-1048.6299,694.2156,-483.3873,489.2458,25.0115
281.0000,-403.4300,-1048.1018,693.4517,-482.7464,489.5028,24.2924
281.2500,-404.4033,-1047.5738,692.6946,-482.1009,489.7638,23.5629
281.5000,-405.3786,-1047.0459,691.9442,-481.4506,490.0289,22.8232
281.7500,-406.3556,-1046.5182,691.2006,-480.7957,490.2981,22.0733
282.0000,-407.3340,-1045.9908,690.4638,-480.1361,490.5713,21.3132
282.2500,-408.3135,-1045.4640,689.7340,-479.4718,490.8486,20.5430
282.5000,-409.2940,-1044.9377,689.0111,-478.8029,491.1299,19.7627
282.7500,-410.2750,-1044.4122,688.2953,-478.1294,491.4153,18.9724
283.0000,-411.2563,-1043.8875,687.5865,-477.4511,491.7048,18.1722
283.2500,-412.2376,-1043.3638,686.8849,-476.7683,491.9984,17.3620
283.5000,-413.2187,-1042.8411,686.1904,-476.0808,492.2960,16.5421
283.7500,-414.1993,-1042.3198,685.5032,-475.3887,492.5977,15.7123
284.0000,-415.1790,-1041.7997,684.8232,-474.6920,492.9034,14.8728
284.2500,-416.1577,-1041.2812,684.1505,-473.9907,493.2133,14.0236
284.5000,-417.1351,-1040.7642,683.4852,-473.2848,493.5271,13.1648
284.7500,-418.1108,-1040.2490,682.8274,-472.5743,493.8451,12.2965
285.0000,-419.0847,-1039.7357,682.1770,-471.8592,494.1670,11.4186
285.2500,-420.0563,-1039.2244,681.5341,-471.1395,494.4931,10.5314
285.5000,-421.0256,-1038.7152,680.8988,-470.4153,494.8231,9.6348
285.7500,-421.9922,-1038.2083,680.2711,-469.6865,495.1572,8.7289
286.0000,-422.9559,-1037.7038,679.6510,-468.9531,495.4953,7.8138
286.2500,-423.9163,-1037.2018,679.0387,-468.2152,495.8375,6.8895
286.5000,-424.8733,-1036.7025,678.4341,-467.4728,496.1836,5.9561
286.7500,-425.8265,-1036.2059,677.8372,-466.7258,496.5337,5.0138
287.0000,-426.7758,-1035.7124,677.2482,-465.9744,496.8878,4.0625
287.2500,-427.7208,-1035.2218,676.6671,-465.2184,497.2459,3.1023
287.5000,-428.6613,-1034.7345,676.0939,-464.4579,497.6080,2.1333
287.7500,-429.5971,-1034.2505,675.5286,-463.6928,497.9739,1.1556
288.0000,-430.5279,-1033.7699,674.9713,-462.9233,498.3439,0.1692
288.2500,-431.4535,-1033.2930,674.4220,-462.1494,498.7177,-0.8257
288.5000,-432.3735,-1032.8198,673.8808,-461.3709,499.0955,-1.8291
288.7500,-433.2879,-1032.3505,673.3477,-460.5880,499.4771,-2.8410
289.0000,-434.1963,-1031.8851,672.8227,-459.8006,499.8627,-3.8611
289.2500,-435.0985,-1031.4239,672.3059,-459.0087,500.2520,-4.8896
289.5000,-435.9942,-1030.9670,671.7973,-458.2124,500.6453,-5.9261
289.7500,-436.8833,-1030.5144,671.2969,-457.4117,501.0423,-6.9708
290.0000,-437.7654,-1030.0664,670.8048,-456.6065,501.4432,-8.0235
290.2500,-438.6404,-1029.6230,670.3209,-455.7969,501.8478,-9.0841
290.5000,-439.5081,-1029.1845,669.8454,-454.9829,502.2562,-10.1525
290.7500,-440.3681,-1028.7509,669.3782,-454.1645,502.6683,-11.2287
291.0000,-441.2203,-1028.3223,668.9195,-453.3417,503.0842,-12.3125
291.2500,-442.0645,-1027.8989,668.4691,-452.5145,503.5038,-13.4038
291.5000,-442.9005,-1027.4809,668.0271,-451.6829,503.9270,-14.5027
291.7500,-443.7280,-1027.0683,667.5935,-450.8469,504.3539,-15.6089
292.0000,-444.5468,-1026.6612,667.1685,-450.0065,504.7844,-16.7224
292.2500,-445.3567,-1026.2599,666.7519,-449.1618,505.2185,-17.8431
292.5000,-446.1575,-1025.8644,666.3438,-448.3128,505.6562,-18.9709
292.7500,-446.9490,-1025.4749,665.9442,-447.4593,506.0975,-20.1058
293.0000,-447.7310,-1025.0914,665.5532,-446.6016,506.5422,-21.2475
293.2500,-448.5033,-1024.7142,665.1707,-445.7395,506.9905,-22.3960
293.5000,-449.2657,-1024.3433,664.7967,-444.8731,507.4422,-23.5512
293.7500,-450.0180,-1023.9789,664.4314,-444.0024,507.8974,-24.7130
294.0000,-450.7601,-1023.6210,664.0746,-443.1273,508.3559,-25.8814
294.2500,-451.4916,-1023.2699,663.7264,-442.2480,508.8179,-27.0561
294.5000,-452.2125,-1022.9255,663.3868,-441.3644,509.2831,-28.2371
294.7500,-452.9226,-1022.5881,663.0557,-440.4764,509.7517,-29.4244
295.0000,-453.6216,-1022.2578,662.7333,-439.5842,510.2236,-30.6177
295.2500,-454.3095,-1021.9346,662.4195,-438.6878,510.6987,-31.8170
295.5000,-454.9860,-1021.6187,662.1143,-437.7870,511.1771,-33.0221
295.7500,-455.6510,-1021.3103,661.8176,-436.8820,511.6586,-34.2331
296.0000,-456.3042,-1021.0093,661.5296,-435.9728,512.1432,-35.4497
296.2500,-456.9457,-1020.7160,661.2501,-435.0593,512.6310,-36.6718
296.5000,-457.5751,-1020.4304,660.9792,-434.1416,513.1218,-37.8993
296.7500,-458.1923,-1020.1526,660.7169,-433.2197,513.6156,-39.1322
297.0000,-458.7972,-1019.8828,660.4631,-432.2935,514.1125,-40.3703
297.2500,-459.3896,-1019.6210,660.2179,-431.3632,514.6123,-41.6135
297.5000,-459.9694,-1019.3674,659.9812,-430.4286,515.1150,-42.8616
297.7500,-460.5364,-1019.1220,659.7529,-429.4899,515.6206,-44.1146
298.0000,-461.0906,-1018.8850,659.5332,-428.5469,516.1290,-45.3724
298.2500,-461.6317,-1018.6565,659.3219,-427.5998,516.6402,-46.6348
298.5000,-462.1596,-1018.4365,659.1191,-426.6485,517.1541,-47.9016
298.7500,-462.6743,-1018.2251,658.9247,-425.6931,517.6708,-49.1729
299.0000,-463.1755,-1018.0225,658.7386,-424.7335,518.1901,-50.4483
299.2500,-463.6632,-1017.8286,658.5609,-423.7697,518.7120,-51.7280
299.5000,-464.1372,-1017.6437,658.3915,-422.8018,519.2365,-53.0116
299.7500,-464.5974,-1017.4678,658.2304,-421.8298,519.7635,-54.2991
300.0000,-465.0438,-1017.3010,658.0775,-420.8537,520.2930,-55.5904
300.2500,-465.4762,-1017.1433,657.9329,-419.8734,520.8250,-56.8853
300.5000,-465.8945,-1016.9948,657.7964,-418.8891,521.3593,-58.1837
300.7500,-466.2987,-1016.8556,657.6680,-417.9006,521.8959,-59.4855
301.0000,-466.6885,-1016.7259,657.5476,-416.9080,522.4349,-60.7905
301.2500,-467.0640,-1016.6055,657.4353,-415.9114,522.9761,-62.0987
301.5000,-467.4250,-1016.4947,657.3310,-414.9107,523.5194,-63.4098
301.7500,-467.7715,-1016.3935,657.2345,-413.9059,524.0649,-64.7237
302.0000,-468.1034,-1016.3019,657.1459,-412.8970,524.6125,-66.0404
302.2500,-468.4207,-1016.2201,657.0651,-411.8841,525.1621,-67.3597
302.5000,-468.7231,-1016.1480,656.9921,-410.8672,525.7137,-68.6813
302.7500,-469.0108,-1016.0857,656.9266,-409.8462,526.2672,-70.0053
303.0000,-469.2835,-1016.0333,656.8688,-408.8212,526.8226,-71.3315
303.2500,-469.5413,-1015.9908,656.8185,-407.7921,527.3798,-72.6597
303.5000,-469.7842,-1015.9583,656.7757,-406.7591,527.9388,-73.9897
303.7500,-470.0120,-1015.9358,656.7402,-405.7220,528.4994,-75.3215
304.0000,-470.2247,-1015.9234,656.7120,-404.6810,529.0617,-76.6550
304.2500,-470.4223,-1015.9210,656.6911,-403.6359,529.6256,-77.9898
304.5000,-470.6048,-1015.9288,656.6772,-402.5869,530.1910,-79.3260
304.7500,-470.7720,-1015.9467,656.6704,-401.5339,530.7579,-80.6634
305.0000,-470.9241,-1015.9748,656.6705,-400.4769,531.3262,-82.0018
305.2500,-471.0609,-1016.0131,656.6775,-399.4160,531.8959,-83.3411
305.5000,-471.1825,-1016.0616,656.6913,-398.3511,532.4668,-84.6811
305.7500,-471.2888,-1016.1203,656.7117,-397.2823,533.0390,-86.0216
306.0000,-471.3798,-1016.1893,656.7387,-396.2096,533.6123,-87.3627
306.2500,-471.4555,-1016.2686,656.7721,-395.1329,534.1868,-88.7040
306.5000,-471.5160,-1016.3582,656.8118,-394.0523,534.7623,-90.0454
306.7500,-471.5612,-1016.4580,656.8578,-392.9678,535.3387,-91.3868
307.0000,-471.5911,-1016.5681,656.9099,-391.8793,535.9161,-92.7281
307.2500,-471.6058,-1016.6885,656.9680,-390.7870,536.4943,-94.0690
307.5000,-471.6053,-1016.8191,657.0320,-389.6908,537.0733,-95.4094
307.7500,-471.5895,-1016.9600,657.1017,-388.5907,537.6530,-96.7492
308.0000,-471.5586,-1017.1111,657.1770,-387.4868,538.2333,-98.0882
308.2500,-471.5126,-1017.2724,657.2578,-386.3790,538.8142,-99.4262
308.5000,-471.4514,-1017.4440,657.3440,-385.2673,539.3956,-100.7632
308.7500,-471.3752,-1017.6256,657.4354,-384.1518,539.9775,-102.0988
309.0000,-471.2839,-1017.8175,657.5318,-383.0324,540.5597,-103.4330
309.2500,-471.1777,-1018.0194,657.6332,-381.9092,541.1423,-104.7657
309.5000,-471.0566,-1018.2314,657.7394,-380.7822,541.7250,-106.0966
309.7500,-470.9207,-1018.4533,657.8502,-379.6514,542.3079,-107.4255
310.0000,-470.7699,-1018.6853,657.9654,-378.5167,542.8909,-108.7524
310.2500,-470.6045,-1018.9272,658.0850,-377.3783,543.4739,-110.0770
310.5000,-470.4244,-1019.1789,658.2087,-376.2361,544.0569,-111.3992
310.7500,-470.2298,-1019.4404,658.3364,-375.0900,544.6397,-112.7189
311.0000,-470.0208,-1019.7116,658.4679,-373.9403,545.2223,-114.0357
311.2500,-469.7974,-1019.9925,658.6031,-372.7867,545.8046,-115.3497
311.5000,-469.5597,-1020.2829,658.7417,-371.6294,546.3865,-116.6606
311.7500,-469.3078,-1020.5829,658.8836,-370.4683,546.9680,-117.9682
312.0000,-469.0419,-1020.8923,659.0285,-369.3035,547.5490,-119.2724
312.2500,-468.7620,-1021.2110,659.1764,-368.1349,548.1294,-120.5730
312.5000,-468.4683,-1021.5390,659.3270,-366.9626,548.7091,-121.8699
312.7500,-468.1609,-1021.8760,659.4801,-365.7866,549.2881,-123.1627
313.0000,-467.8399,-1022.2221,659.6356,-364.6069,549.8662,-124.4515
313.2500,-467.5055,-1022.5772,659.7931,-363.4235,550.4434,-125.7360
313.5000,-467.1577,-1022.9410,659.9526,-362.2364,551.0197,-127.0160
313.7500,-466.7968,-1023.3136,660.1137,-361.0456,551.5948,-128.2913
314.0000,-466.4228,-1023.6947,660.2763,-359.8511,552.1688,-129.5619
314.2500,-466.0360,-1024.0842,660.4402,-358.6529,552.7415,-130.8274
314.5000,-465.6365,-1024.4820,660.6051,-357.4511,553.3130,-132.0877
314.7500,-465.2244,-1024.8881,660.7709,-356.2456,553.8830,-133.3427
315.0000,-464.8000,-1025.3021,660.9372,-355.0365,554.4515,-134.5921
315.2500,-464.3633,-1025.7240,661.1038,-353.8237,555.0185,-135.8358
315.5000,-463.9147,-1026.1537,661.2705,-352.6073,555.5837,-137.0736
315.7500,-463.4541,-1026.5908,661.4371,-351.3873,556.1473,-138.3054
316.0000,-462.9820,-1027.0354,661.6033,-350.1636,556.7090,-139.5308
316.2500,-462.4983,-1027.4873,661.7688,-348.9364,557.2688,-140.7498
316.5000,-462.0035,-1027.9461,661.9334,-347.7055,557.8265,-141.9621
316.7500,-461.4975,-1028.4119,662.0969,-346.4711,558.3822,-143.1676
317.0000,-460.9808,-1028.8843,662.2589,-345.2330,558.9357,-144.3660
317.2500,-460.4534,-1029.3632,662.4193,-343.9914,559.4869,-145.5573
317.5000,-459.9156,-1029.8484,662.5776,-342.7463,560.0357,-146.7412
317.7500,-459.3676,-1030.3396,662.7338,-341.4975,560.5821,-147.9175
318.0000,-458.8097,-1030.8368,662.8873,-340.2452,561.1259,-149.0860
318.2500,-458.2421,-1031.3396,663.0381,-338.9894,561.6671,-150.2465
318.5000,-457.6650,-1031.8479,663.1857,-337.7300,562.2055,-151.3989
318.7500,-457.0787,-1032.3613,663.3299,-336.4671,562.7412,-152.5429
319.0000,-456.4834,-1032.8798,663.4705,-335.2007,563.2739,-153.6784
319.2500,-455.8795,-1033.4030,663.6070,-333.9308,563.8035,-154.8051
319.5000,-455.2671,-1033.9306,663.7391,-332.6574,564.3301,-155.9229
319.7500,-454.6465,-1034.4626,663.8667,-331.3805,564.8535,-157.0316
320.0000,-454.0181,-1034.9985,663.9893,-330.1000,565.3736,-158.1310
320.2500,-453.3820,-1035.5381,664.1066,-328.8162,565.8902,-159.2208
320.5000,-452.7386,-1036.0812,664.2183,-327.5288,566.4034,-160.3009
320.7500,-452.0882,-1036.6275,664.3241,-326.2380,566.9130,-161.3711
321.0000,-451.4310,-1037.1766,664.4236,-324.9437,567.4189,-162.4312
321.2500,-450.7674,-1037.7284,664.5165,-323.6460,567.9210,-163.4809
321.5000,-450.0977,-1038.2825,664.6024,-322.3448,568.4192,-164.5202
321.7500,-449.4221,-1038.8386,664.6810,-321.0402,568.9135,-165.5487
322.0000,-448.7411,-1039.3965,664.7520,-319.7322,569.4036,-166.5663
322.2500,-448.0549,-1039.9557,664.8149,-318.4208,569.8896,-167.5727
322.5000,-447.3638,-1040.5160,664.8695,-317.1059,570.3713,-168.5679
322.7500,-446.6682,-1041.0770,664.9153,-315.7877,570.8485,-169.5515
323.0000,-445.9685,-1041.6385,664.9520,-314.4660,571.3213,-170.5234
323.2500,-445.2649,-1042.2001,664.9791,-313.1410,571.7895,-171.4833
323.5000,-444.5579,-1042.7613,664.9964,-311.8127,572.2530,-172.4311
323.7500,-443.8477,-1043.3220,665.0034,-310.4809,572.7117,-173.3666
324.0000,-443.1348,-1043.8817,664.9997,-309.1458,573.1655,-174.2895
324.2500,-442.4195,-1044.4401,664.9850,-307.8073,573.6143,-175.1996
324.5000,-441.7022,-1044.9967,664.9587,-306.4655,574.0580,-176.0967
324.7500,-440.9832,-1045.5513,664.9206,-305.1204,574.4964,-176.9807
325.0000,-440.2630,-1046.1034,664.8703,-303.7720,574.9295,-177.8512
325.2500,-439.5419,-1046.6526,664.8072,-302.4202,575.3572,-178.7082
325.5000,-438.8203,-1047.1986,664.7309,-301.0651,575.7794,-179.5514
325.7500,-438.0987,-1047.7409,664.6412,-299.7067,576.1959,-180.3805
326.0000,-437.3774,-1048.2791,664.5374,-298.3450,576.6066,-181.1954
326.2500,-436.6568,-1048.8128,664.4192,-296.9801,577.0115,-181.9958
326.5000,-435.9374,-1049.3415,664.2862,-295.6118,577.4104,-182.7816
326.7500,-435.2195,-1049.8650,664.1378,-294.2403,577.8032,-183.5524
327.0000,-434.5037,-1050.3826,663.9737,-292.8656,578.1898,-184.3082
327.2500,-433.7903,-1050.8940,663.7934,-291.4876,578.5701,-185.0487
327.5000,-433.0797,-1051.3986,663.5964,-290.1063,578.9440,-185.7737
327.7500,-432.3725,-1051.8962,663.3822,-288.7218,579.3113,-186.4829
328.0000,-431.6690,-1052.3861,663.1504,-287.3341,579.6720,-187.1762
328.2500,-430.9697,-1052.8679,662.9006,-285.9431,580.0260,-187.8533
328.5000,-430.2751,-1053.3411,662.6322,-284.5490,580.3731,-188.5140
328.7500,-429.5856,-1053.8052,662.3447,-283.1516,580.7132,-189.1581
329.0000,-428.9017,-1054.2598,662.0376,-281.7511,581.0462,-189.7854
329.2500,-428.2239,-1054.7043,661.7106,-280.3474,581.3720,-190.3956
329.5000,-427.5527,-1055.1382,661.3629,-278.9404,581.6905,-190.9885
329.7500,-426.8884,-1055.5610,660.9943,-277.5304,582.0016,-191.5640
330.0000,-426.2317,-1055.9722,660.6040,-276.1171,582.3050,-192.1218
330.2500,-425.5830,-1056.3712,660.1917,-274.7007,582.6009,-192.6616
330.5000,-424.9429,-1056.7576,659.7568,-273.2812,582.8889,-193.1832
330.7500,-424.3117,-1057.1307,659.2988,-271.8585,583.1690,-193.6865
331.0000,-423.6901,-1057.4900,658.8171,-270.4327,583.4411,-194.1712
331.2500,-423.0785,-1057.8349,658.3112,-269.0037,583.7051,-194.6371
331.5000,-422.4774,-1058.1649,657.7806,-267.5717,583.9608,-195.0840
331.7500,-421.8875,-1058.4795,657.2247,-266.1366,584.2081,-195.5115
332.0000,-421.3092,-1058.7779,656.6429,-264.6983,584.4469,-195.9196
332.2500,-420.7430,-1059.0597,656.0348,-263.2570,584.6771,-196.3079
332.5000,-420.1895,-1059.3242,655.3997,-261.8126,584.8986,-196.6763
332.7500,-419.6493,-1059.5709,654.7371,-260.3651,585.1112,-197.0245
333.0000,-419.1228,-1059.7990,654.0465,-258.9145,585.3148,-197.3524
333.2500,-418.6107,-1060.0081,653.3271,-257.4609,585.5094,-197.6596
333.5000,-418.1135,-1060.1974,652.5785,-256.0043,585.6947,-197.9459
333.7500,-417.6317,-1060.3664,651.8001,-254.5446,585.8706,-198.2112
334.0000,-417.1660,-1060.5143,650.9912,-253.0819,586.0371,-198.4551
334.2500,-416.7169,-1060.6406,650.1514,-251.6162,586.1940,-198.6775
334.5000,-416.2850,-1060.7446,649.2798,-250.1474,586.3412,-198.8782
334.7500,-415.8709,-1060.8256,648.3761,-248.6756,586.4786,-199.0568
335.0000,-415.4751,-1060.8829,647.4395,-247.2009,586.6059,-199.2132
335.2500,-415.0983,-1060.9160,646.4695,-245.7231,586.7232,-199.3471
335.5000,-414.7410,-1060.9240,645.4653,-244.2424,586.8303,-199.4584
335.7500,-414.4039,-1060.9063,644.4265,-242.7587,586.9271,-199.5467
336.0000,-414.0876,-1060.8622,643.3523,-241.2720,587.0133,-199.6119
336.2500,-413.7926,-1060.7910,642.2421,-239.7824,587.0890,-199.6537
336.5000,-413.5196,-1060.6920,641.0953,-238.2899,587.1540,-199.6719
336.7500,-413.2693,-1060.5644,639.9112,-236.7944,587.2081,-199.6662
337.0000,-413.0422,-1060.4075,638.6892,-235.2959,587.2513,-199.6364
337.2500,-412.8390,-1060.2206,637.4286,-233.7946,587.2833,-199.5823
337.5000,-412.6603,-1060.0029,636.1288,-232.2903,587.3041,-199.5037
337.7500,-412.5067,-1059.7537,634.7890,-230.7831,587.3136,-199.4002
338.0000,-412.3790,-1059.4723,633.4087,-229.2730,587.3116,-199.2718
338.2500,-412.2776,-1059.1577,631.9871,-227.7600,587.2979,-199.1181
338.5000,-412.2034,-1058.8094,630.5235,-226.2442,587.2726,-198.9389
338.7500,-412.1570,-1058.4264,629.0173,-224.7255,587.2353,-198.7339
339.0000,-412.1390,-1058.0080,627.4678,-223.2039,587.1860,-198.5030
339.2500,-412.1501,-1057.5534,625.8742,-221.6794,587.1246,-198.2459
339.5000,-412.1909,-1057.0618,624.2359,-220.1521,587.0510,-197.9624
339.7500,-412.2622,-1056.5324,622.5522,-218.6220,586.9649,-197.6522
340.0000,-412.3646,-1055.9644,620.8223,-217.0890,586.8663,-197.3150
340.2500,-412.4988,-1055.3569,619.0455,-215.5532,586.7550,-196.9508
340.5000,-412.6655,-1054.7091,617.2212,-214.0146,586.6310,-196.5591
340.7500,-412.8653,-1054.0201,615.3485,-212.4732,586.4940,-196.1398
341.0000,-413.0991,-1053.2892,613.4268,-210.9289,586.3440,-195.6927
341.2500,-413.3674,-1052.5154,611.4553,-209.3819,586.1807,-195.2174
341.5000,-413.6711,-1051.6978,609.4332,-207.8321,586.0041,-194.7138
341.7500,-414.0107,-1050.8357,607.3599,-206.2796,585.8141,-194.1816
342.0000,-414.3870,-1049.9281,605.2345,-204.7242,585.6105,-193.6206
342.2500,-414.8008,-1048.9742,603.0564,-203.1661,585.3931,-193.0306
342.5000,-415.2527,-1047.9730,600.8247,-201.6053,585.1619,-192.4112
342.7500,-415.7435,-1046.9236,598.5387,-200.0417,584.9166,-191.7623
343.0000,-416.2739,-1045.8252,596.1976,-198.4754,584.6573,-191.0837
343.2500,-416.8446,-1044.6768,593.8007,-196.9064,584.3836,-190.3750
343.5000,-417.4564,-1043.4776,591.3471,-195.3346,584.0956,-189.6360
343.7500,-418.1100,-1042.2264,588.8361,-193.7601,583.7929,-188.8666
344.0000,-418.8062,-1040.9225,586.2668,-192.1830,583.4756,-188.0664
344.2500,-419.5457,-1039.5649,583.6386,-190.6031,583.1435,-187.2352
344.5000,-420.3293,-1038.1527,580.9506,-189.0206,582.7965,-186.3728
344.7500,-421.1576,-1036.6848,578.2019,-187.4354,582.4343,-185.4790
345.0000,-422.0315,-1035.1603,575.3918,-185.8475,582.0569,-184.5534
345.2500,-422.9518,-1033.5782,572.5195,-184.2570,581.6641,-183.5959
345.5000,-423.9192,-1031.9376,569.5841,-182.6638,581.2558,-182.6062
345.7500,-424.9344,-1030.2374,566.5849,-181.0679,580.8319,-181.5840
346.0000,-425.9983,-1028.4767,563.5209,-179.4695,580.3921,-180.5292
346.2500,-427.1116,-1026.6545,560.3914,-177.8684,579.9365,-179.4415
346.5000,-428.2751,-1024.7697,557.1956,-176.2647,579.4647,-178.3206
346.7500,-429.4896,-1022.8214,553.9325,-174.6584,578.9768,-177.1663
347.0000,-430.7558,-1020.8085,550.6014,-173.0495,578.4725,-175.9784
347.2500,-432.0747,-1018.7300,547.2014,-171.4379,577.9517,-174.7565
347.5000,-433.4468,-1016.5848,543.7316,-169.8239,577.4143,-173.5005
347.7500,-434.8731,-1014.3719,540.1912,-168.2072,576.8601,-172.2102
348.0000,-436.3544,-1012.0903,536.5794,-166.5880,576.2890,-170.8852
348.2500,-437.8914,-1009.7389,532.8952,-164.9662,575.7008,-169.5254
348.5000,-439.4850,-1007.3166,529.1378,-163.3418,575.0954,-168.1305
348.7500,-441.1359,-1004.8223,525.3063,-161.7150,574.4728,-166.7002
349.0000,-442.8450,-1002.2551,521.3999,-160.0855,573.8326,-165.2344
349.2500,-444.6130,-999.6137,517.4176,-158.4536,573.1748,-163.7327
349.5000,-446.4409,-996.8972,513.3585,-156.8191,572.4992,-162.1949
349.7500,-448.3294,-994.1043,509.2218,-155.1822,571.8057,-160.6208
350.0000,-450.2794,-991.2341,505.0067,-153.5427,571.0942,-159.0101
350.2500,-452.2916,-988.2853,500.7120,-151.9008,570.3645,-157.3626
350.5000,-454.3669,-985.2569,496.3371,-150.2563,569.6164,-155.6781
350.7500,-456.5062,-982.1478,491.8809,-148.6094,568.8498,-153.9562
351.0000,-458.7102,-978.9568,487.3426,-146.9600,568.0647,-152.1969
351.2500,-460.9798,-975.6827,482.7212,-145.3082,567.2607,-150.3997
351.5000,-463.3158,-972.3245,478.0159,-143.6539,566.4378,-148.5645
351.7500,-465.7191,-968.8810,473.2256,-141.9971,565.5959,-146.6910
352.0000,-468.1905,-965.3510,468.3495,-140.3380,564.7348,-144.7790
352.2500,-470.7309,-961.7333,463.3867,-138.6764,563.8543,-142.8283
352.5000,-473.3411,-958.0269,458.3361,-137.0124,562.9543,-140.8385
352.7500,-476.0220,-954.2305,453.1969,-135.3460,562.0347,-138.8095
353.0000,-478.7744,-950.3429,447.9681,-133.6771,561.0953,-136.7411
353.2500,-481.5991,-946.3630,442.6488,-132.0059,560.1359,-134.6328
353.5000,-484.4971,-942.2895,437.2380,-130.3323,559.1565,-132.4846
353.7500,-487.4691,-938.1213,431.7348,-128.6564,558.1569,-130.2962
354.0000,-490.5161,-933.8571,426.1382,-126.9780,557.1369,-128.0673
354.2500,-493.6389,-929.4958,420.4473,-125.2973,556.0963,-125.7977
354.5000,-496.8383,-925.0361,414.6610,-123.6143,555.0351,-123.4871
354.7500,-500.1153,-920.4768,408.7785,-121.9289,553.9531,-121.1354
355.0000,-503.4707,-915.8167,402.7987,-120.2412,552.8502,-118.7422
355.2500,-506.9053,-911.0545,396.7207,-118.5511,551.7261,-116.3073
355.5000,-510.4201,-906.1890,390.5435,-116.8588,550.5808,-113.8305
355.7500,-514.0159,-901.2189,384.2661,-115.1641,549.4140,-111.3115
356.0000,-517.6936,-896.1431,377.8875,-113.4671,548.2258,-108.7501
356.2500,-521.4540,-890.9602,371.4068,-111.7679,547.0158,-106.1460
356.5000,-525.2981,-885.6689,364.8229,-110.0663,545.7840,-103.4991
356.7500,-529.2267,-880.2681,358.1349,-108.3625,544.5302,-100.8090
357.0000,-533.2407,-874.7564,351.3418,-106.6564,543.2543,-98.0756
357.2500,-537.3410,-869.1325,344.4425,-104.9481,541.9560,-95.2985
357.5000,-541.5285,-863.3952,337.4361,-103.2375,540.6354,-92.4775
357.7500,-545.8040,-857.5432,330.3216,-101.5246,539.2921,-89.6125
358.0000,-550.1684,-851.5752,323.0979,-99.8096,537.9262,-86.7030
358.2500,-554.6227,-845.4899,315.7640,-98.0923,536.5373,-83.7490
358.5000,-559.1677,-839.2859,308.3189,-96.3728,535.1254,-80.7502
358.7500,-563.8042,-832.9621,300.7617,-94.6510,533.6903,-77.7063
359.0000,-568.5333,-826.5169,293.0912,-92.9271,532.2320,-74.6171
359.2500,-573.3557,-819.9492,285.3065,-91.2010,530.7501,-71.4823
359.5000,-578.2724,-813.2576,277.4065,-89.4727,529.2446,-68.3017
359.7500,-583.2843,-806.4408,269.3903,-87.7423,527.7153,-65.0751
360.0000,-588.3922,-799.4974,261.2567,-86.0096,526.1621,-61.8022
76.0000,1071.2868,866.9518,146.4451,410.8937,971.6369,1510.9970
76.2500,1071.2433,885.9753,136.2843,406.9256,965.0946,1508.6370
76.5000,1071.1981,904.4139,126.4453,403.7278,958.9509,1506.4140
76.7500,1071.1512,922.2733,116.9237,401.2788,953.1931,1504.3255
77.0000,1071.1025,939.5594,107.7148,399.5567,947.8083,1502.3693
77.2500,1071.0521,956.2783,98.8141,398.5399,942.7838,1500.5427
77.5000,1070.9999,972.4358,90.2168,398.2065,938.1066,1498.8434
77.7500,1070.9460,988.0381,81.9184,398.5347,933.7640,1497.2690
78.0000,1070.8903,1003.0913,73.9142,399.5027,929.7430,1495.8168
78.2500,1070.8329,1017.6015,66.1993,401.0886,926.0307,1494.4845
78.5000,1070.7738,1031.5750,58.7691,403.2704,922.6142,1493.2696
78.7500,1070.7129,1045.0180,51.6188,406.0264,919.4806,1492.1695
79.0000,1070.6502,1057.9369,44.7436,409.3347,916.6172,1491.1817
79.2500,1070.5858,1070.3380,38.1385,413.1736,914.0109,1490.3037
79.5000,1070.5196,1082.2278,31.7989,417.5212,911.6491,1489.5329
79.7500,1070.4517,1093.6128,25.7198,422.3560,909.5189,1488.8668
80.0000,1070.3821,1104.4994,19.8962,427.6563,907.6076,1488.3029
80.2500,1070.3107,1114.8943,14.3234,433.4007,905.9026,1487.8384
80.5000,1070.2376,1124.8040,8.9963,439.5676,904.3912,1487.4710
80.7500,1070.1627,1134.2352,3.9099,446.1359,903.0610,1487.1979
81.0000,1070.0860,1143.1946,-0.9406,453.0843,901.8995,1487.0166
81.2500,1070.0077,1151.6889,-5.5604,460.3918,900.8943,1486.9245
81.5000,1069.9275,1159.7248,-9.9544,468.0376,900.0332,1486.9190
81.7500,1069.8456,1167.3093,-14.1276,476.0008,899.3041,1486.9973
82.0000,1069.7620,1174.4491,-18.0852,484.2610,898.6948,1487.1569
82.2500,1069.6766,1181.1511,-21.8321,492.7977,898.1936,1487.3952
82.5000,1069.5895,1187.4222,-25.3734,501.5908,897.7885,1487.7095
82.7500,1069.5007,1193.2694,-28.7143,510.6203,897.4679,1488.0971
83.0000,1069.4100,1198.6996,-31.8598,519.8664,897.2203,1488.5554
83.2500,1069.3177,1203.7198,-34.8150,529.3096,897.0344,1489.0817
83.5000,1069.2236,1208.3371,-37.5850,538.9306,896.8989,1489.6734
83.7500,1069.1277,1212.5584,-40.1750,548.7102,896.8027,1490.3277
84.0000,1069.0301,1216.3910,-42.5901,558.6299,896.7351,1491.0419
84.2500,1068.9307,1219.8419,-44.8354,568.6708,896.6854,1491.8134
84.5000,1068.8296,1222.9182,-46.9160,578.8150,896.6429,1492.6395
84.7500,1068.7268,1225.6270,-48.8372,589.0442,896.5974,1493.5174
85.0000,1068.6222,1227.9756,-50.6041,599.3410,896.5389,1494.4445
85.2500,1068.5159,1229.9711,-52.2217,609.6878,896.4573,1495.4180
85.5000,1068.4078,1231.6207,-53.6954,620.0677,896.3430,1496.4352
85.7500,1068.2979,1232.9317,-55.0301,630.4639,896.1866,1497.4934
86.0000,1068.1863,1233.9112,-56.2312,640.8601,895.9787,1498.5899
86.2500,1068.0730,1234.5665,-57.3036,651.2400,895.7105,1499.7219
86.5000,1067.9579,1234.9049,-58.2527,661.5882,895.3730,1500.8868
86.7500,1067.8411,1234.9336,-59.0835,671.8891,894.9578,1502.0817
87.0000,1067.7225,1234.6599,-59.8011,682.1278,894.4565,1503.3039
87.2500,1067.6022,1234.0911,-60.4108,692.2898,893.8613,1504.5507
87.5000,1067.4801,1233.2344,-60.9176,702.3606,893.1643,1505.8193
87.7500,1067.3563,1232.0973,-61.3267,712.3266,892.3581,1507.1070
88.0000,1067.2308,1230.6868,-61.6432,722.1742,891.4354,1508.4111
88.2500,1067.1034,1229.0105,-61.8722,731.8904,890.3892,1509.7288
88.5000,1066.9744,1227.0755,-62.0188,741.4625,889.2131,1511.0573
88.7500,1066.8436,1224.8891,-62.0881,750.8783,887.9005,1512.3940
89.0000,1066.7110,1222.4587,-62.0852,760.1260,886.4455,1513.7359
89.2500,1066.5767,1219.7915,-62.0151,769.1942,884.8423,1515.0805
89.5000,1066.4407,1216.8949,-61.8829,778.0720,883.0854,1516.4249
89.7500,1066.3029,1213.7760,-61.6936,786.7487,881.1697,1517.7664
90.0000,1066.1633,1210.4423,-61.4523,795.2143,879.0903,1519.1023
90.2500,1066.0221,1206.9008,-61.1639,803.4592,876.8427,1520.4297
90.5000,1065.8790,1203.1590,-60.8335,811.4742,874.4227,1521.7460
90.7500,1065.7342,1199.2241,-60.4660,819.2505,871.8265,1523.0484
91.0000,1065.5877,1195.1032,-60.0664,826.7798,869.0505,1524.3341
91.2500,1065.4394,1190.8036,-59.6396,834.0543,866.0915,1525.6005
91.5000,1065.2894,1186.3325,-59.1906,841.0667,862.9465,1526.8447
91.7500,1065.1376,1181.6971,-58.7242,847.8100,859.6132,1528.0640
92.0000,1064.9841,1176.9045,-58.2452,854.2778,856.0892,1529.2557
92.2500,1064.8289,1171.9620,-57.7586,860.4641,852.3726,1530.4171
92.5000,1064.6719,1166.8765,-57.2692,866.3635,848.4621,1531.5454
92.7500,1064.5131,1161.6554,-56.7818,871.9710,844.3564,1532.6379
93.0000,1064.3526,1156.3055,-56.3011,877.2819,840.0546,1533.6918
93.2500,1064.1903,1150.8340,-55.8319,882.2923,835.5565,1534.7045
93.5000,1064.0263,1145.2479,-55.3790,886.9985,830.8617,1535.6733
93.7500,1063.8606,1139.5543,-54.9469,891.3975,825.9706,1536.5954
94.0000,1063.6931,1133.7601,-54.5404,895.4865,820.8838,1537.4681
94.2500,1063.5239,1127.8722,-54.1642,899.2636,815.6022,1538.2887
94.5000,1063.3529,1121.8976,-53.8228,902.7269,810.1272,1539.0545
94.7500,1063.1802,1115.8432,-53.5208,905.8753,804.4603,1539.7629
95.0000,1063.0057,1109.7157,-53.2627,908.7080,798.6038,1540.4112
95.2500,1062.8295,1103.5222,-53.0531,911.2249,792.5598,1540.9966
95.5000,1062.6515,1097.2693,-52.8964,913.4262,786.3313,1541.5165
95.7500,1062.4718,1090.9637,-52.7971,915.3124,779.9213,1541.9682
96.0000,1062.2903,1084.6123,-52.7595,916.8850,773.3333,1542.3492
96.2500,1062.1071,1078.2216,-52.7882,918.1453,766.5711,1542.6567
96.5000,1061.9222,1071.7984,-52.8873,919.0957,759.6389,1542.8880
96.7500,1061.7355,1065.3492,-53.0612,919.7386,752.5413,1543.0406
97.0000,1061.5471,1058.8805,-53.3142,920.0770,745.2831,1543.1119
97.2500,1061.3569,1052.3989,-53.6504,920.1145,737.8697,1543.0991
97.5000,1061.1649,1045.9108,-54.0741,919.8550,730.3066,1542.9997
97.7500,1060.9713,1039.4227,-54.5895,919.3029,722.5997,1542.8112
98.0000,1060.7758,1032.9410,-55.2005,918.4630,714.7555,1542.5308
98.2500,1060.5787,1026.4719,-55.9113,917.3405,706.7806,1542.1560
98.5000,1060.3797,1020.0217,-56.7259,915.9412,698.6820,1541.6843
98.7500,1060.1791,1013.5968,-57.6483,914.2712,690.4669,1541.1131
99.0000,1059.9767,1007.2031,-58.6824,912.3371,682.1432,1540.4398
99.2500,1059.7725,1000.8470,-59.8321,910.1459,673.7188,1539.6619
99.5000,1059.5666,994.5344,-61.1012,907.7048,665.2021,1538.7768
99.7500,1059.3590,988.2714,-62.4936,905.0219,656.6018,1537.7820
100.0000,1059.1496,982.0639,-64.0130,902.1052,647.9269,1536.6751
100.2500,1058.9385,975.9179,-65.6631,898.9633,639.1867,1535.4535
100.5000,1058.7256,969.8392,-67.4476,895.6053,630.3910,1534.1146
100.7500,1058.5110,963.8336,-69.3700,892.0405,621.5496,1532.6562
101.0000,1058.2946,957.9068,-71.4341,888.2786,612.6728,1531.0756
101.2500,1058.0765,952.0646,-73.6432,884.3299,603.7713,1529.3704
101.5000,1057.8566,946.3126,-76.0008,880.2046,594.8559,1527.5382
101.7500,1057.6350,940.6562,-78.5104,875.9138,585.9379,1525.5766
102.0000,1057.4117,935.1010,-81.1754,871.4686,577.0286,1523.4831
102.2500,1057.1866,929.6525,-83.9990,866.8804,568.1399,1521.2554
102.5000,1056.9598,924.3160,-86.9845,862.1611,559.2838,1518.8910
102.7500,1056.7312,919.0968,-90.1351,857.3230,550.4727,1516.3876
103.0000,1056.5009,914.0002,-93.4541,852.3783,541.7191,1513.7428
103.2500,1056.2688,909.0313,-96.9445,847.3401,533.0359,1510.9542
103.5000,1056.0350,904.1953,-100.6093,842.2212,524.4363,1508.0196
103.7500,1055.7994,899.4971,-104.4516,837.0351,515.9334,1504.9366
104.0000,1055.5621,894.9418,-108.4743,831.7954,507.5411,1501.7030
104.2500,1055.3231,890.5343,-112.6804,826.5160,499.2732,1498.3163
104.5000,1055.0823,886.2794,-117.0726,821.2111,491.1436,1494.7744
104.7500,1054.8398,882.1818,-121.6537,815.8950,483.1668,1491.0750
105.0000,1054.5955,878.2463,-126.4266,810.5825,475.3573,1487.2158
105.2500,1054.3495,874.4774,-131.3937,805.2884,467.7298,1483.1947
105.5000,1054.1017,870.8798,-136.5578,800.0278,460.2992,1479.0094
105.7500,1053.8522,867.4578,-141.9215,794.8160,453.0808,1474.6577
106.0000,1053.6010,864.2160,-147.4872,789.6684,446.0898,1470.1374
106.2500,1053.3480,861.1586,-153.2573,784.6009,439.3417,1465.4464
106.5000,1053.0933,858.2898,-159.2343,779.6292,432.8523,1460.5826
106.7500,1052.8368,855.6139,-165.4205,774.7694,426.6373,1455.5437
107.0000,1052.5786,853.1350,-171.8181,770.0376,420.7129,1450.3278
107.2500,1052.3186,850.8570,-178.4294,765.4503,415.0951,1444.9327
107.5000,1052.0569,848.7840,-185.2565,761.0238,409.8003,1439.3563
107.7500,1051.7934,846.9197,-192.3015,756.7748,404.8449,1433.5965
108.0000,1051.5283,845.2680,-199.5665,752.7200,400.2455,1427.6515
108.2500,1051.2613,843.8325,-207.0534,748.8761,396.0188,1421.5190
108.5000,1050.9927,842.6170,-214.7641,745.2602,392.1815,1415.1972
108.7500,1050.7222,841.6250,-222.7005,741.8891,388.7506,1408.6840
109.0000,1050.4501,840.8598,-230.8644,738.7800,385.7430,1401.9774
109.2500,1050.1762,840.3250,-239.2575,735.9499,383.1757,1395.0756
109.5000,1049.9005,840.0239,-247.8815,733.4160,381.0661,1387.9766
109.7500,1049.6232,839.9596,-256.7380,731.1955,379.4311,1380.6785
110.0000,1049.3440,840.1353,-265.8285,729.3056,378.2882,1373.1794
110.2500,1049.0632,840.5540,-275.1545,727.7636,377.6546,1365.4775
110.5000,1048.7806,841.2189,-284.7175,726.5867,377.5476,1357.5708
110.7500,1048.4962,842.1326,-294.5187,725.7921,377.9847,1349.4577
111.0000,1048.2101,843.2982,-304.5596,725.3972,378.9831,1341.1362
111.2500,1047.9223,844.7182,-314.8414,725.4190,380.5605,1332.6045
111.5000,1047.6327,846.3954,-325.3652,725.8747,382.7340,1323.8610
111.7500,1047.3414,848.3323,-336.1321,726.7814,385.5212,1314.9039
112.0000,1047.0483,850.5313,-347.1432,728.1562,388.9394,1305.7314
112.2500,1046.7535,852.9950,-358.3995,730.0161,393.0059,1296.3419
112.5000,1046.4570,855.7255,-369.9020,732.3778,397.7381,1286.7337
112.7500,1046.1587,858.7252,-381.6514,735.2583,403.1533,1276.9050
113.0000,1045.8587,861.9962,-393.6486,738.6742,409.2687,1266.8544
149.0000,892.4385,-490.2588,-260.7108,-1625.4515,788.7834,1033.6035
149.2500,898.2686,-494.1149,-263.0977,-1625.7569,787.9487,1052.0143
149.5000,904.0359,-498.1551,-265.4127,-1625.8050,787.1139,1068.7391
149.7500,909.7405,-502.3470,-267.6557,-1625.5998,786.2792,1083.8110
150.0000,915.3821,-506.6589,-269.8267,-1625.1453,785.4443,1097.2666
150.2500,920.9608,-511.0595,-271.9257,-1624.4459,784.6095,1109.1458
150.5000,926.4765,-515.5181,-273.9525,-1623.5056,783.7746,1119.4916
150.7500,931.9292,-520.0044,-275.9073,-1622.3287,782.9397,1128.3500
151.0000,937.3188,-524.4891,-277.7900,-1620.9197,782.1047,1135.7698
151.2500,942.6452,-528.9434,-279.6006,-1619.2828,781.2698,1141.8026
151.5000,947.9085,-533.3391,-281.3390,-1617.4225,780.4348,1146.5027
151.7500,953.1085,-537.6491,-283.0052,-1615.3433,779.5997,1149.9265
152.0000,958.2451,-541.8470,-284.5993,-1613.0498,778.7647,1152.1331
152.2500,963.3185,-545.9073,-286.1211,-1610.5465,777.9296,1153.1832
152.5000,968.3284,-549.8054,-287.5707,-1607.8381,777.0945,1153.1398
152.7500,973.2749,-553.5177,-288.9480,-1604.9293,776.2593,1152.0672
153.0000,978.1579,-557.0216,-290.2531,-1601.8249,775.4242,1150.0315
153.2500,982.9773,-560.2956,-291.4859,-1598.5296,774.5890,1147.1001
153.5000,987.7332,-563.3193,-292.6464,-1595.0482,773.7537,1143.3414
153.7500,992.4254,-566.0734,-293.7346,-1591.3857,772.9185,1138.8245
154.0000,997.0540,-568.5399,-294.7505,-1587.5469,772.0832,1133.6196
154.2500,1001.6188,-570.7018,-295.6940,-1583.5368,771.2480,1127.7971
154.5000,1006.1199,-572.5435,-296.5652,-1579.3604,770.4126,1121.4275
154.7500,1010.5571,-574.0506,-297.3640,-1575.0227,769.5773,1114.5817
155.0000,1014.9305,-575.2102,-298.0904,-1570.5288,768.7420,1107.3299
155.2500,1019.2401,-576.0104,-298.7445,-1565.8837,767.9066,1099.7424
155.5000,1023.4857,-576.4411,-299.3261,-1561.0927,767.0712,1091.8884
155.7500,1027.6673,-576.4931,-299.8354,-1556.1607,766.2358,1083.8365
156.0000,1031.7849,-576.1590,-300.2722,-1551.0931,765.4004,1075.6541
156.2500,1035.8385,-575.4328,-300.6366,-1545.8950,764.5650,1067.4071
156.5000,1039.8279,-574.3097,-300.9286,-1540.5717,763.7295,1059.1603
156.7500,1043.7533,-572.7866,-301.1482,-1535.1284,762.8941,1050.9762
157.0000,1047.6145,-570.8619,-301.2953,-1529.5704,762.0586,1042.9158
157.2500,1051.4115,-568.5355,-301.3700,-1523.9030,761.2231,1035.0376
157.5000,1055.1442,-565.8087,-301.3722,-1518.1315,760.3876,1027.3980
157.7500,1058.8127,-562.6843,-301.3020,-1512.2613,759.5521,1020.0506
158.0000,1062.4169,-559.1670,-301.1593,-1506.2977,758.7165,1013.0464
158.2500,1065.9568,-555.2626,-300.9442,-1500.2460,757.8810,1006.4332
158.5000,1069.4323,-550.9786,-300.6566,-1494.1117,757.0455,1000.2561
158.7500,1072.8434,-546.3242,-300.2966,-1487.9002,756.2099,994.5566
159.0000,1076.1900,-541.3101,-299.8641,-1481.6167,755.3743,989.3729
159.2500,1079.4723,-535.9483,-299.3592,-1475.2668,754.5388,984.7394
159.5000,1082.6900,-530.2526,-298.7818,-1468.8558,753.7032,980.6869
159.7500,1085.8432,-524.2382,-298.1320,-1462.3892,752.8676,977.2426
160.0000,1088.9319,-517.9220,-297.4097,-1455.8723,752.0320,974.4292
160.2500,1091.9559,-511.3222,-296.6150,-1449.3106,751.1964,972.2657
160.5000,1094.9154,-504.4586,-295.7478,-1442.7095,750.3608,970.7667
160.7500,1097.8103,-497.3525,-294.8083,-1436.0744,749.5252,969.9427
161.0000,1100.6405,-490.0265,-293.7963,-1429.4108,748.6896,969.7996
161.2500,1103.4060,-482.5050,-292.7119,-1422.7240,747.8540,970.3391
161.5000,1106.1069,-474.8134,-291.5550,-1416.0193,747.0184,971.5583
161.7500,1108.7430,-466.9788,-290.3258,-1409.3023,746.1827,973.4500
162.0000,1111.3144,-459.0296,-289.0242,-1402.5783,745.3471,976.0021
162.2500,1113.8209,-450.9954,-287.6502,-1395.8526,744.5115,979.1983
162.5000,1116.2627,-442.9072,-286.2039,-1389.1306,743.6759,983.0176
162.7500,1118.6397,-434.7974,-284.6852,-1382.4177,742.8403,987.4345
163.0000,1120.9519,-426.6995,-283.0941,-1375.7191,742.0047,992.4189
163.2500,1123.1992,-418.6482,-281.4307,-1369.0401,741.1691,997.9364
163.5000,1125.3816,-410.6794,-279.6950,-1362.3861,740.3335,1003.9481
163.7500,1127.4992,-402.8302,-277.8870,-1355.7623,739.4979,1010.4107
164.0000,1129.5518,-395.1387,-276.0067,-1349.1739,738.6623,1017.2768
164.2500,1131.5396,-387.6440,-274.0542,-1342.6261,737.8267,1024.4946
164.5000,1133.4624,-380.3864,-272.0294,-1336.1241,736.9912,1032.0084
164.7500,1135.3202,-373.4069,-269.9323,-1329.6732,736.1556,1039.7584
165.0000,1137.1131,-366.7475,-267.7631,-1323.2783,735.3200,1047.6811
165.2500,1138.8410,-360.4511,-265.5216,-1316.9446,734.4845,1055.7091
165.5000,1140.5038,-354.5613,-263.2079,-1310.6772,733.6490,1063.7717
165.7500,1142.1017,-349.1226,-260.8221,-1304.4811,732.8134,1071.7946
166.0000,1143.6346,-344.1801,-258.3642,-1298.3613,731.9779,1079.7005
166.2500,1145.1025,-339.7795,-255.8341,-1292.3227,731.1424,1087.4088
166.5000,1146.5053,-335.9670,-253.2320,-1286.3703,730.3069,1094.8363
166.7500,1147.8430,-332.7896,-250.5578,-1280.5090,729.4714,1101.8969
167.0000,1149.1157,-330.2945,-247.8115,-1274.7435,728.6360,1108.5023
167.2500,1150.3233,-328.5295,-244.9932,-1269.0787,727.8005,1114.5619
167.5000,1151.4659,-327.5425,-242.1030,-1263.5194,726.9651,1119.9831
167.7500,1152.5434,-327.3819,-239.1407,-1258.0703,726.1297,1124.6714
168.0000,1153.5558,-328.0963,-236.1065,-1252.7359,725.2943,1128.5309
168.2500,1154.5031,-329.7344,-233.0004,-1247.5211,724.4589,1131.4644
168.5000,1155.3853,-332.3449,-229.8225,-1242.4302,723.6235,1133.3737
168.7500,1156.2024,-335.9768,-226.5726,-1237.4678,722.7882,1134.1597
169.0000,1156.9544,-340.6787,-223.2509,-1232.6384,721.9529,1133.7227
169.2500,1157.6413,-346.4995,-219.8575,-1227.9464,721.1175,1131.9630
169.5000,1158.2631,-353.4876,-216.3923,-1223.3962,720.2823,1128.7806
169.7500,1158.8198,-361.6914,-212.8553,-1218.9921,719.4470,1124.0759
170.0000,1159.3113,-371.1589,-209.2466,-1214.7382,718.6118,1117.7497
170.2500,1159.7378,-381.9378,-205.5663,-1210.6389,717.7765,1109.7036
170.5000,1160.0991,-394.0754,-201.8144,-1206.6981,716.9414,1099.8403
170.7500,1160.3954,-407.6183,-197.9908,-1202.9201,716.1062,1088.0637
171.0000,1160.6265,-422.6129,-194.0957,-1199.3088,715.2710,1074.2794
55.0000,1356.9791,1025.4852,106.3735,350.8677,990.3381,1758.0478
55.2500,1349.4650,1027.1169,107.2051,343.7870,993.7009,1744.0278
55.5000,1343.3182,1028.6694,108.0987,337.5061,996.9406,1731.4567
55.7500,1338.4466,1030.1428,109.0544,331.9990,1000.0568,1720.2873
56.0000,1334.7570,1031.5370,110.0721,327.2388,1003.0495,1710.4706
56.2500,1332.1554,1032.8519,111.1518,323.1974,1005.9185,1701.9557
56.5000,1330.5476,1034.0875,112.2936,319.8459,1008.6635,1694.6902
56.7500,1329.8397,1035.2437,113.4975,317.1544,1011.2845,1688.6200
57.0000,1329.9383,1036.3207,114.7634,315.0923,1013.7813,1683.6897
57.2500,1330.7508,1037.3182,116.0913,313.6281,1016.1536,1679.8428
57.5000,1332.1863,1038.2363,117.4812,312.7298,1018.4015,1677.0215
57.7500,1334.1554,1039.0750,118.9332,312.3648,1020.5247,1675.1672
58.0000,1336.5710,1039.8342,120.4472,312.4999,1022.5230,1674.2207
58.2500,1339.3484,1040.5139,122.0231,313.1017,1024.3964,1674.1218
58.5000,1342.4055,1041.1141,123.6611,314.1361,1026.1447,1674.8101
58.7500,1345.6637,1041.6347,125.3611,315.5692,1027.7678,1676.2250
59.0000,1349.0475,1042.0758,127.1231,317.3666,1029.2656,1678.3057
59.2500,1352.4851,1042.4373,128.9470,319.4939,1030.6379,1680.9913
59.5000,1355.9088,1042.7191,130.8330,321.9167,1031.8846,1684.2213
59.7500,1359.2547,1042.9214,132.7808,324.6009,1033.0056,1687.9356
60.0000,1362.4636,1043.0440,134.7907,327.5123,1034.0009,1692.0744
60.2500,1365.4804,1043.0869,136.8624,330.6170,1034.8702,1696.5789
60.5000,1368.2550,1043.0501,138.9961,333.8816,1035.6135,1701.3910
60.7500,1370.7419,1042.9337,141.1917,337.2731,1036.2308,1706.4537
61.0000,1372.9005,1042.7375,143.4492,340.7589,1036.7218,1711.7112
61.2500,1374.6949,1042.4616,145.7685,344.3071,1037.0866,1717.1088
61.5000,1376.0943,1042.1060,148.1498,347.8864,1037.3251,1722.5938
61.7500,1377.0729,1041.6706,150.5928,351.4665,1037.4371,1728.1147
62.0000,1377.6096,1041.1554,153.0978,355.0177,1037.4227,1733.6219
62.2500,1377.6885,1040.5605,155.6645,358.5114,1037.2816,1739.0679
62.5000,1377.2980,1039.8858,158.2930,361.9198,1037.0140,1744.4072
62.7500,1376.4316,1039.1313,160.9834,365.2164,1036.6197,1749.5963
63.0000,1375.0870,1038.2970,163.7355,368.3756,1036.0987,1754.5944
63.2500,1373.2667,1037.3829,166.5493,371.3734,1035.4509,1759.3628
63.5000,1370.9769,1036.3890,169.4249,374.1867,1034.6762,1763.8656
63.7500,1368.2282,1035.3153,172.3622,376.7939,1033.7747,1768.0694
64.0000,1365.0349,1034.1618,175.3611,379.1749,1032.7463,1771.9439
64.2500,1361.4147,1032.9285,178.4218,381.3110,1031.5910,1775.4613
64.5000,1357.3887,1031.6154,181.5440,383.1849,1030.3087,1778.5969
64.7500,1352.9809,1030.2225,184.7279,384.7811,1028.8995,1781.3292
65.0000,1348.2180,1028.7498,187.9734,386.0855,1027.3632,1783.6396
65.2500,1343.1294,1027.1972,191.2805,387.0858,1025.7000,1785.5127
65.5000,1337.7461,1025.5649,194.6491,387.7715,1023.9097,1786.9366
65.7500,1332.1012,1023.8528,198.0793,388.1336,1021.9925,1787.9024
66.0000,1326.2292,1022.0609,201.5709,388.1650,1019.9482,1788.4046
66.2500,1320.1654,1020.1892,205.1241,387.8605,1017.7769,1788.4412
66.5000,1313.9462,1018.2377,208.7386,387.2165,1015.4786,1788.0134
66.7500,1307.6082,1016.2065,212.4146,386.2313,1013.0533,1787.1260
67.0000,1301.1880,1014.0955,216.1520,384.9054,1010.5010,1785.7869
67.2500,1294.7221,1011.9048,219.9507,383.2406,1007.8219,1784.0077
67.5000,1288.2461,1009.6344,223.8108,381.2410,1005.0158,1781.8034
67.7500,1281.7949,1007.2843,227.7322,378.9125,1002.0828,1779.1920
68.0000,1275.4020,1004.8544,231.7148,376.2627,999.0229,1776.1954
68.2500,1269.0991,1002.3449,235.7587,373.3012,995.8363,1772.8382
68.5000,1262.9164,999.7557,239.8638,370.0396,992.5229,1769.1488
68.7500,1256.8815,997.0869,244.0301,366.4910,989.0829,1765.1585
69.0000,1251.0199,994.3385,248.2575,362.6706,985.5161,1760.9017
69.2500,1245.3541,991.5104,252.5460,358.5952,981.8228,1756.4160
69.5000,1239.9037,988.6027,256.8956,354.2835,978.0030,1751.7420
69.7500,1234.6851,985.6155,261.3063,349.7560,974.0567,1746.9231
70.0000,1229.7116,982.5488,265.7779,345.0345,969.9840,1742.0056
70.2500,1224.9925,979.4025,270.3105,340.1430,965.7850,1737.0383
70.5000,1220.5337,976.1768,274.9041,335.1067,961.4598,1732.0728
70.7500,1216.3371,972.8715,279.5585,329.9525,957.0085,1727.1630
71.0000,1212.4008,969.4869,284.2739,324.7088,952.4311,1722.3654
71.2500,1208.7188,966.0228,289.0500,319.4053,947.7278,1717.7383
71.5000,1205.2809,962.4793,293.8869,314.0733,942.8987,1713.3424
71.7500,1202.0731,958.8566,298.7846,308.7453,937.9438,1709.2402
72.0000,1199.0768,955.1544,303.7429,303.4550,932.8633,1705.4960
72.2500,1196.2698,951.3730,308.7619,298.2374,927.6572,1702.1757
72.5000,1193.6256,947.5124,313.8416,293.1284,922.3258,1699.3467
72.7500,1191.1137,943.5725,318.9818,288.1650,916.8691,1697.0777
73.0000,1188.6998,939.5535,324.1826,283.3854,911.2873,1695.4384
73.2500,1186.3458,935.4553,329.4438,278.8283,905.5804,1694.4997
73.5000,1184.0100,931.2780,334.7655,274.5332,899.7487,1694.3331
73.7500,1181.6472,927.0216,340.1476,270.5406,893.7922,1695.0109
74.0000,1179.2091,922.6862,345.5901,266.8912,887.7112,1696.6055
74.2500,1176.6443,918.2718,351.0928,263.6265,881.5057,1699.1899
74.5000,1173.8983,913.7785,356.6559,260.7883,875.1759,1702.8370
74.7500,1170.9145,909.2063,362.2791,258.4187,868.7220,1707.6197
75.0000,1167.6336,904.5552,367.9626,256.5600,862.1442,1713.6104
172.0000,-1007.8165,-1412.8624,1115.4645,-839.1489,-177.6436,263.0841
172.2500,-1005.6191,-1408.1149,1114.1568,-792.7092,-174.7433,260.3902
172.5000,-1003.5739,-1403.3537,1112.8444,-751.8352,-171.8329,257.6988
172.7500,-1001.6809,-1398.5790,1111.5273,-716.3326,-168.9122,255.0099
173.0000,-999.9403,-1393.7907,1110.2056,-685.9807,-165.9813,252.3235
173.2500,-998.3520,-1388.9889,1108.8792,-660.5335,-163.0402,249.6397
173.5000,-996.9162,-1384.1735,1107.5481,-639.7223,-160.0890,246.9585
173.7500,-995.6328,-1379.3446,1106.2124,-623.2579,-157.1275,244.2798
174.0000,-994.5020,-1374.5022,1104.8721,-610.8331,-154.1559,241.6037
174.2500,-993.5238,-1369.6463,1103.5271,-602.1249,-151.1741,238.9302
174.5000,-992.6982,-1364.7769,1102.1774,-596.7983,-148.1822,236.2592
174.7500,-992.0251,-1359.8940,1100.8232,-594.5078,-145.1801,233.5909
175.0000,-991.5048,-1354.9976,1099.4643,-594.9014,-142.1678,230.9251
175.2500,-991.1370,-1350.0878,1098.1007,-597.6232,-139.1454,228.2620
175.5000,-990.9220,-1345.1646,1096.7326,-602.3163,-136.1129,225.6015
175.7500,-990.8595,-1340.2279,1095.3598,-608.6261,-133.0703,222.9436
176.0000,-990.9498,-1335.2778,1093.9824,-616.2032,-130.0175,220.2883
176.2500,-991.1926,-1330.3143,1092.6003,-624.7064,-126.9547,217.6356
176.5000,-991.5881,-1325.3374,1091.2137,-633.8057,-123.8817,214.9856
176.7500,-992.1362,-1320.3472,1089.8224,-643.1851,-120.7987,212.3383
177.0000,-992.8369,-1315.3435,1088.4266,-652.5454,-117.7056,209.6936
177.2500,-993.6900,-1310.3266,1087.0261,-661.6070,-114.6024,207.0516
177.5000,-994.6957,-1305.2963,1085.6210,-670.1117,-111.4892,204.4122
177.7500,-995.8537,-1300.2527,1084.2114,-677.8260,-108.3659,201.7756
178.0000,-997.1642,-1295.1957,1082.7971,-684.5423,-105.2325,199.1416
178.2500,-998.6269,-1290.1255,1081.3783,-690.0812,-102.0892,196.5103
178.5000,-1000.2419,-1285.0420,1079.9549,-694.2933,-98.9357,193.8817
178.7500,-1002.0091,-1279.9452,1078.5269,-697.0603,-95.7723,191.2558
179.0000,-1003.9284,-1274.8352,1077.0943,-698.2965,-92.5989,188.6326
179.2500,-1005.9997,-1269.7119,1075.6571,-697.9493,-89.4154,186.0122
179.5000,-1008.2228,-1264.5755,1074.2154,-696.0002,-86.2220,183.3945
179.7500,-1010.5978,-1259.4258,1072.7691,-692.4651,-83.0186,180.7795
180.0000,-1013.1245,-1254.2629,1071.3183,-687.3944,-79.8052,178.1672
180.2500,-1015.8028,-1249.0868,1069.8629,-680.8724,-76.5818,175.5577
180.5000,-1018.6326,-1243.8975,1068.4029,-673.0177,-73.3485,172.9510
180.7500,-1021.6137,-1238.6951,1066.9384,-663.9814,-70.1052,170.3470
181.0000,-1024.7461,-1233.4796,1065.4694,-653.9467,-66.8520,167.7458
181.2500,-1028.0295,-1228.2509,1063.9958,-643.1278,-63.5889,165.1474
181.5000,-1031.4639,-1223.0091,1062.5176,-631.7676,-60.3158,162.5518
181.7500,-1035.0491,-1217.7542,1061.0350,-620.1366,-57.0328,159.9589
182.0000,-1038.7849,-1212.4863,1059.5478,-608.5304,-53.7400,157.3689
182.2500,-1042.6713,-1207.2052,1058.0560,-597.2681,-50.4372,154.7816
182.5000,-1046.7079,-1201.9111,1056.5598,-586.6891,-47.1245,152.1972
182.7500,-1050.8948,-1196.6040,1055.0590,-577.1510,-43.8020,149.6156
183.0000,-1055.2316,-1191.2838,1053.5537,-569.0267,-40.4696,147.0368
183.2500,-1059.7181,-1185.9507,1052.0439,-562.7016,-37.1273,144.4609
183.5000,-1064.3543,-1180.6045,1050.5297,-558.5704,-33.7752,141.8878
183.7500,-1069.1399,-1175.2453,1049.0109,-557.0343,-30.4133,139.3175
184.0000,-1074.0747,-1169.8732,1047.4876,-558.4975,-27.0415,136.7501
114.0000,1059.4970,84.3074,-199.1725,344.4774,868.0369,179.4446
114.2500,1055.9177,94.2155,-191.6568,361.7191,863.3041,180.9981
114.5000,1052.4203,104.0657,-184.1025,379.0595,858.5263,182.5212
114.7500,1049.0047,113.8581,-176.5097,396.4986,853.7033,184.0139
115.0000,1045.6710,123.5927,-168.8783,414.0362,848.8353,185.4762
115.2500,1042.4192,133.2694,-161.2085,431.6724,843.9223,186.9081
115.5000,1039.2492,142.8881,-153.5002,449.4070,838.9643,188.3096
115.7500,1036.1612,152.4489,-145.7534,467.2400,833.9612,189.6807
116.0000,1033.1551,161.9517,-137.9683,485.1714,828.9132,191.0213
116.2500,1030.2309,171.3965,-130.1447,503.2012,823.8202,192.3315
116.5000,1027.3886,180.7832,-122.2828,521.3291,818.6822,193.6113
116.7500,1024.6283,190.1119,-114.3825,539.5553,813.4993,194.8607
117.0000,1021.9499,199.3824,-106.4439,557.8797,808.2714,196.0796
117.2500,1019.3536,208.5948,-98.4669,576.3021,802.9986,197.2681
117.5000,1016.8392,217.7490,-90.4517,594.8226,797.6810,198.4261
117.7500,1014.4068,226.8450,-82.3983,613.4411,792.3184,199.5537
118.0000,1012.0564,235.8828,-74.3066,632.1575,786.9110,200.6508
118.2500,1009.7881,244.8623,-66.1767,650.9717,781.4587,201.7174
118.5000,1007.6017,253.7835,-58.0087,669.8838,775.9616,202.7536
118.7500,1005.4974,262.6464,-49.8024,688.8936,770.4197,203.7593
119.0000,1003.4752,271.4509,-41.5581,708.0011,764.8330,204.7345
119.2500,1001.5350,280.1971,-33.2756,727.2063,759.2015,205.6792
119.5000,999.6768,288.8848,-24.9551,746.5090,753.5252,206.5935
119.7500,997.9007,297.5141,-16.5965,765.9092,747.8042,207.4772
120.0000,996.2067,306.0850,-8.1999,785.4069,742.0385,208.3305
120.2500,994.5948,314.5973,0.2347,805.0019,736.2281,209.1533
120.5000,993.0649,323.0512,8.7073,824.6943,730.3729,209.9456
120.7500,991.6171,331.4465,17.2178,844.4840,724.4731,210.7074
121.0000,990.2514,339.7832,25.7662,864.3708,718.5287,211.4387
121.2500,988.9678,348.0613,34.3525,884.3548,712.5396,212.1395
121.5000,987.7663,356.2808,42.9767,904.4359,706.5060,212.8097
121.7500,986.6470,364.4417,51.6388,924.6139,700.4277,213.4495
122.0000,985.6097,372.5439,60.3386,944.8889,694.3048,214.0588
122.2500,984.6545,380.5874,69.0762,965.2608,688.1375,214.6375
122.5000,983.7814,388.5722,77.8516,985.7295,681.9255,215.1858
122.7500,982.9905,396.4982,86.6647,1006.2949,675.6691,215.7035
123.0000,982.2816,404.3654,95.5155,1026.9570,669.3682,216.1907
123.2500,981.6549,412.1739,104.4039,1047.7157,663.0228,216.6474
123.5000,981.1103,419.9236,113.3300,1068.5709,656.6330,217.0736
123.7500,980.6478,427.6144,122.2937,1089.5226,650.1988,217.4692
124.0000,980.2674,435.2464,131.2949,1110.5707,643.7201,217.8344
124.2500,979.9691,442.8194,140.3338,1131.7152,637.1971,218.1690
124.5000,979.7530,450.3336,149.4101,1152.9559,630.6297,218.4731
124.7500,979.6189,457.7889,158.5239,1174.2928,624.0180,218.7466
125.0000,979.5670,465.1852,167.6752,1195.7257,617.3620,218.9897
138.0000,-401.5339,-873.0999,126.2747,-989.3491,69.7656,712.0086
138.2500,-402.9408,-868.4146,128.7726,-980.9267,68.2562,734.9108
138.5000,-404.1316,-865.2053,131.2709,-972.5006,66.7453,752.8402
138.7500,-405.1062,-863.3622,133.7698,-964.0707,65.2328,766.2295
139.0000,-405.8644,-862.7726,136.2691,-955.6371,63.7187,775.5283
139.2500,-406.4059,-863.3208,138.7689,-947.1999,62.2032,781.1971
139.5000,-406.7307,-864.8890,141.2692,-938.7590,60.6861,783.7016
139.7500,-406.8385,-867.3571,143.7699,-930.3146,59.1675,783.5072
140.0000,-406.7291,-870.6034,146.2711,-921.8665,57.6474,781.0729
140.2500,-406.4026,-874.5050,148.7727,-913.4149,56.1258,776.8466
140.5000,-405.8586,-878.9383,151.2747,-904.9598,54.6027,771.2592
140.7500,-405.0972,-883.7790,153.7772,-896.5013,53.0781,764.7202
141.0000,-404.1182,-888.9028,156.2800,-888.0392,51.5520,757.6131
141.2500,-402.9216,-894.1859,158.7833,-879.5738,50.0244,750.2916
141.5000,-401.5073,-899.5051,161.2869,-871.1050,48.4953,743.0759
141.7500,-399.8753,-904.7384,163.7909,-862.6328,46.9648,736.2497
142.0000,-398.0256,-909.7652,166.2953,-854.1573,45.4328,730.0578
142.2500,-395.9581,-914.4670,168.8001,-845.6786,43.8994,724.7044
142.5000,-393.6728,-918.7273,171.3051,-837.1965,42.3645,720.3516
142.7500,-391.1699,-922.4326,173.8106,-828.7113,40.8281,717.1188
143.0000,-388.4493,-925.4720,176.3163,-820.2228,39.2903,715.0830
143.2500,-385.5111,-927.7383,178.8224,-811.7312,37.7511,714.2786
143.5000,-382.3553,-929.1276,181.3288,-803.2365,36.2104,714.6993
143.7500,-378.9821,-929.5403,183.8355,-794.7386,34.6683,716.2991
144.0000,-375.3916,-928.8810,186.3425,-786.2377,33.1248,718.9950
144.2500,-371.5838,-927.0586,188.8498,-777.7338,31.5799,722.6690
144.5000,-367.5589,-923.9874,191.3574,-769.2269,30.0336,727.1719
144.7500,-363.3171,-919.5862,193.8652,-760.7170,28.4858,732.3261
145.0000,-358.8585,-913.7796,196.3733,-752.2041,26.9367,737.9295
145.2500,-354.1833,-906.4975,198.8816,-743.6884,25.3862,743.7599
145.5000,-349.2918,-897.6756,201.3901,-735.1698,23.8343,749.5786
145.7500,-344.1841,-887.2556,203.8989,-726.6483,22.2810,755.1348
146.0000,-338.8604,-875.1853,206.4079,-718.1240,20.7264,760.1706
146.2500,-333.3211,-861.4186,208.9171,-709.5970,19.1704,764.4245
146.5000,-327.5663,-845.9159,211.4266,-701.0672,17.6130,767.6364
146.7500,-321.5964,-828.6439,213.9362,-692.5347,16.0543,769.5515
147.0000,-315.4116,-809.5759,216.4459,-683.9995,14.4942,769.9244
147.2500,-309.0123,-788.6918,218.9559,-675.4617,12.9328,768.5229
147.5000,-302.3987,-765.9781,221.4660,-666.9212,11.3700,765.1315
147.7500,-295.5713,-741.4278,223.9763,-658.3782,9.8059,759.5546
148.0000,-288.5303,-715.0406,226.4867,-649.8326,8.2405,751.6195
15.0000,1102.0230,1088.6133,-91.6774,390.2498,1295.4749,1527.6213
15.2500,1111.7704,1080.9588,-82.0885,398.6697,1300.9569,1525.5318
15.5000,1121.5092,1073.3025,-72.5067,407.0739,1306.4375,1523.4287
15.7500,1131.2393,1065.6443,-62.9319,415.4626,1311.9167,1521.3118
16.0000,1140.9606,1057.9843,-53.3643,423.8356,1317.3944,1519.1814
16.2500,1150.6731,1050.3226,-43.8039,432.1928,1322.8707,1517.0373
16.5000,1160.3766,1042.6592,-34.2508,440.5343,1328.3454,1514.8795
16.7500,1170.0712,1034.9941,-24.7050,448.8599,1333.8185,1512.7082
17.0000,1179.7567,1027.3275,-15.1666,457.1696,1339.2899,1510.5233
17.2500,1189.4331,1019.6594,-5.6357,465.4633,1344.7597,1508.3248
17.5000,1199.1002,1011.9898,3.8877,473.7409,1350.2279,1506.1127
17.7500,1208.7582,1004.3188,13.4034,482.0025,1355.6942,1503.8871
18.0000,1218.4068,996.6464,22.9115,490.2479,1361.1588,1501.6479
18.2500,1228.0460,988.9727,32.4118,498.4771,1366.6216,1499.3953
18.5000,1237.6757,981.2978,41.9043,506.6900,1372.0825,1497.1291
18.7500,1247.2959,973.6217,51.3889,514.8866,1377.5415,1494.8495
19.0000,1256.9065,965.9445,60.8655,523.0668,1382.9986,1492.5564
19.2500,1266.5074,958.2662,70.3341,531.2305,1388.4537,1490.2498
19.5000,1276.0985,950.5868,79.7947,539.3777,1393.9068,1487.9299
19.7500,1285.6799,942.9065,89.2470,547.5084,1399.3578,1485.5965
20.0000,1295.2513,935.2253,98.6912,555.6224,1404.8067,1483.2497
20.2500,1304.8128,927.5432,108.1270,563.7198,1410.2535,1480.8895
20.5000,1314.3643,919.8604,117.5545,571.8004,1415.6981,1478.5159
20.7500,1323.9057,912.1767,126.9735,579.8641,1421.1406,1476.1290
21.0000,1333.4370,904.4924,136.3841,587.9111,1426.5807,1473.7288
21.2500,1342.9580,896.8075,145.7861,595.9411,1432.0186,1471.3153
21.5000,1352.4688,889.1219,155.1795,603.9542,1437.4542,1468.8884
21.7500,1361.9692,881.4358,164.5641,611.9502,1442.8874,1466.4483
22.0000,1371.4591,873.7493,173.9401,619.9291,1448.3181,1463.9949
8.0000,828.6925,1115.8051,114.5996,505.8287,1239.9108,1562.4075
8.2500,830.5378,1108.8946,116.8829,505.9669,1239.5372,1564.8632
8.5000,832.4019,1102.0026,119.1648,506.1052,1239.1656,1567.3312
8.7500,834.2848,1095.1292,121.4453,506.2435,1238.7960,1569.8115
9.0000,836.1863,1088.2745,123.7245,506.3820,1238.4285,1572.3042
9.2500,838.1066,1081.4386,126.0022,506.5206,1238.0629,1574.8091
9.5000,840.0455,1074.6215,128.2785,506.6592,1237.6994,1577.3263
9.7500,842.0031,1067.8232,130.5533,506.7980,1237.3380,1579.8557
10.0000,843.9793,1061.0439,132.8267,506.9368,1236.9785,1582.3974
10.2500,845.9742,1054.2836,135.0986,507.0757,1236.6211,1584.9512
10.5000,847.9877,1047.5423,137.3689,507.2147,1236.2658,1587.5172
10.7500,850.0198,1040.8202,139.6377,507.3538,1235.9125,1590.0954
11.0000,852.0704,1034.1172,141.9050,507.4930,1235.5612,1592.6856
11.2500,854.1396,1027.4336,144.1707,507.6323,1235.2120,1595.2880
11.5000,856.2273,1020.7692,146.4347,507.7716,1234.8649,1597.9024
11.7500,858.3335,1014.1242,148.6972,507.9110,1234.5198,1600.5289
12.0000,860.4582,1007.4987,150.9580,508.0505,1234.1768,1603.1674
12.2500,862.6014,1000.8927,153.2171,508.1901,1233.8358,1605.8179
12.5000,864.7631,994.3062,155.4745,508.3298,1233.4969,1608.4803
12.7500,866.9431,987.7394,157.7302,508.4695,1233.1601,1611.1547
13.0000,869.1416,981.1923,159.9842,508.6093,1232.8254,1613.8410
13.2500,871.3585,974.6649,162.2365,508.7492,1232.4927,1616.5393
13.5000,873.5937,968.1573,164.4869,508.8891,1232.1621,1619.2493
13.7500,875.8473,961.6696,166.7356,509.0292,1231.8337,1621.9712
14.0000,878.1192,955.2019,168.9825,509.1692,1231.5073,1624.7050
1.0000,861.2624,1185.9766,308.0741,824.5042,1227.7075,1643.7245
1.2500,858.3270,1190.7521,304.1180,801.3705,1201.8060,1649.8472
1.5000,855.3890,1195.5352,300.1476,783.6396,1182.1709,1655.9666
1.7500,852.4483,1200.3258,296.1632,770.9735,1168.1564,1662.0825
2.0000,849.5050,1205.1240,292.1647,762.8928,1159.0210,1668.1950
2.2500,846.5591,1209.9297,288.1522,758.7940,1153.9574,1674.3039
2.5000,843.6106,1214.7428,284.1256,757.9725,1152.1238,1680.4093
2.7500,840.6596,1219.5634,280.0851,759.6499,1152.6768,1686.5110
3.0000,837.7061,1224.3913,276.0307,763.0038,1154.8036,1692.6090
3.2500,834.7501,1229.2265,271.9624,767.2004,1157.7535,1698.7032
3.5000,831.7916,1234.0690,267.8803,771.4272,1160.8655,1704.7936
3.7500,828.8306,1238.9187,263.7843,774.9261,1163.5932,1710.8802
4.0000,825.8673,1243.7755,259.6746,777.0243,1165.5253,1716.9628
4.2500,822.9016,1248.6395,255.5512,777.1624,1166.3994,1723.0414
4.5000,819.9335,1253.5106,251.4140,774.9184,1166.1116,1729.1160
4.7500,816.9631,1258.3887,247.2632,770.0271,1164.7188,1735.1865
5.0000,813.9904,1263.2738,243.0988,762.3926,1162.4347,1741.2528
5.2500,811.0155,1268.1659,238.9208,752.0958,1159.6207,1747.3150
5.5000,808.0383,1273.0648,234.7293,739.3938,1156.7697,1753.3728
5.7500,805.0589,1277.9706,230.5242,724.7134,1154.4863,1759.4263
6.0000,802.0773,1282.8832,226.3058,708.6378,1153.4612,1765.4754
6.2500,799.0935,1287.8026,222.0739,691.8868,1154.4441,1771.5201
6.5000,796.1076,1292.7287,217.8286,675.2924,1158.2128,1777.5603
6.7500,793.1196,1297.6614,213.5700,659.7692,1165.5424,1783.5959
7.0000,790.1296,1302.6008,209.2981,646.2823,1177.1741,1789.6269
130.0000,-355.2076,-1176.8125,19.9581,-1170.4748,61.1532,726.8480
130.2500,-357.2878,-1176.7293,12.6000,-1164.9729,60.9164,727.4475
130.5000,-359.3774,-1176.6527,5.7968,-1159.4730,60.6869,728.0464
130.7500,-361.4763,-1176.5827,-0.4502,-1153.9751,60.4649,728.6448
131.0000,-363.5845,-1176.5191,-6.1393,-1148.4792,60.2503,729.2426
131.2500,-365.7021,-1176.4621,-11.2697,-1142.9853,60.0432,729.8399
131.5000,-367.8290,-1176.4117,-15.8402,-1137.4936,59.8435,730.4366
131.7500,-369.9652,-1176.3677,-19.8503,-1132.0040,59.6512,731.0327
132.0000,-372.1107,-1176.3303,-23.2993,-1126.5165,59.4663,731.6282
132.2500,-374.2654,-1176.2994,-26.1870,-1121.0313,59.2889,732.2232
132.5000,-376.4294,-1176.2751,-28.5134,-1115.5483,59.1189,732.8176
132.7500,-378.6027,-1176.2573,-30.2785,-1110.0676,58.9563,733.4114
133.0000,-380.7851,-1176.2460,-31.4826,-1104.5893,58.8012,734.0046
133.2500,-382.9768,-1176.2413,-32.1264,-1099.1133,58.6535,734.5972
133.5000,-385.1777,-1176.2430,-32.2106,-1093.6398,58.5132,735.1892
133.7500,-387.3877,-1176.2514,-31.7361,-1088.1686,58.3804,735.7806
134.0000,-389.6069,-1176.2662,-30.7041,-1082.7000,58.2551,736.3713
134.2500,-391.8353,-1176.2876,-29.1161,-1077.2339,58.1371,736.9615
134.5000,-394.0727,-1176.3156,-26.9735,-1071.7704,58.0267,737.5510
134.7500,-396.3193,-1176.3500,-24.2782,-1066.3095,57.9236,738.1400
135.0000,-398.5750,-1176.3910,-21.0321,-1060.8512,57.8280,738.7283
135.2500,-400.8398,-1176.4386,-17.2375,-1055.3956,57.7399,739.3159
135.5000,-403.1136,-1176.4926,-12.8968,-1049.9427,57.6592,739.9030
135.7500,-405.3965,-1176.5532,-8.0126,-1044.4926,57.5859,740.4893
136.0000,-407.6884,-1176.6203,-2.5876,-1039.0453,57.5201,741.0751
136.2500,-409.9893,-1176.6940,3.3751,-1033.6009,57.4617,741.6602
136.5000,-412.2992,-1176.7742,9.8724,-1028.1593,57.4108,742.2446
136.7500,-414.6181,-1176.8609,16.9009,-1022.7206,57.3673,742.8284
137.0000,-416.9460,-1176.9542,24.4569,-1017.2849,57.3313,743.4115
126.0000,-367.5899,-1299.5718,-55.2276,-1380.9222,299.8583,632.1934
126.2500,-368.1299,-1304.7476,-53.6460,-1378.5590,311.2242,620.8256
126.5000,-368.7543,-1310.7328,-51.8171,-1375.8263,324.3673,607.6803
126.7500,-369.3786,-1316.7180,-49.9881,-1373.0935,337.5104,594.5349
127.0000,-369.9186,-1321.8938,-48.4065,-1370.7303,348.8763,583.1671
128.0000,-318.9922,-1158.6489,-78.1076,-1308.1706,303.1331,561.5138
128.2500,-327.2359,-1164.0002,-72.9586,-1309.9500,295.6597,571.1562
128.5000,-336.7687,-1170.1883,-67.0046,-1312.0077,287.0176,582.3064
128.7500,-346.3016,-1176.3765,-61.0505,-1314.0654,278.3755,593.4566
129.0000,-354.5453,-1181.7278,-55.9015,-1315.8448,270.9021,603.0990
