-504.3117,-760.0985,45.1476,41.9970,331.3508,155.4547
-508.3497,-762.6505,44.3736,44.3226,335.1395,157.7306
-512.3896,-765.2049,43.5976,46.6486,338.9285,159.9274
-516.4317,-767.7601,42.8175,48.9756,342.7181,162.0458
-520.4758,-770.3145,42.0315,51.3041,346.5085,164.0868
-524.5219,-772.8667,41.2374,53.6346,350.3002,166.0514
-528.5703,-775.4151,40.4333,55.9676,354.0933,167.9404
-532.6208,-777.9581,39.6172,58.3035,357.8882,169.7547
-536.6735,-780.4943,38.7870,60.6429,361.6851,171.4954
-540.7285,-783.0221,37.9408,62.9862,365.4844,173.1632
-544.7857,-785.5400,37.0766,65.3340,369.2863,174.7591
-548.8453,-788.0465,36.1923,67.6868,373.0912,176.2841
-552.9073,-790.5399,35.2860,70.0450,376.8993,177.7391
-556.9716,-793.0189,34.3556,72.4091,380.7110,179.1249
-561.0384,-795.4818,33.3992,74.7797,384.5265,180.4427
-565.1077,-797.9271,32.4147,77.1572,388.3461,181.6932
-569.1797,-800.3534,31.4000,79.5421,392.1698,182.8775
-573.2553,-802.7592,30.3527,81.9355,395.9961,183.9965
-577.3355,-805.1435,29.2703,84.3382,399.8232,185.0510
-581.4216,-807.5048,28.1502,86.7511,403.6494,186.0422
-585.5145,-809.8419,26.9898,89.1753,407.4728,186.9709
-589.6154,-812.1535,25.7866,91.6117,411.2916,187.8381
-593.7254,-814.4384,24.5381,94.0612,415.1042,188.6448
-597.8455,-816.6952,23.2417,96.5248,418.9086,189.3918
-601.9769,-818.9228,21.8949,99.0034,422.7031,190.0802
-606.1206,-821.1197,20.4951,101.4981,426.4859,190.7109
-610.2778,-823.2848,19.0398,104.0096,430.2552,191.2849
-614.4494,-825.4168,17.5265,106.5391,434.0093,191.8031
-618.6367,-827.5144,15.9525,109.0874,437.7462,192.2666
-622.8407,-829.5762,14.3153,111.6555,441.4643,192.6762
-627.0624,-831.6012,12.6125,114.2444,445.1617,193.0329
-631.3027,-833.5881,10.8421,116.8548,448.8368,193.3377
-635.5607,-835.5367,9.0048,119.4874,452.4893,193.5917
-639.8353,-837.4468,7.1021,122.1423,456.1186,193.7956
-644.1254,-839.3185,5.1353,124.8201,459.7244,193.9505
-648.4299,-841.1516,3.1058,127.5209,463.3066,194.0574
-652.7475,-842.9460,1.0151,130.2453,466.8646,194.1173
-657.0772,-844.7016,-1.1356,132.9936,470.3982,194.1310
-661.4178,-846.4184,-3.3447,135.7661,473.9071,194.0996
-665.7681,-848.0962,-5.6109,138.5632,477.3910,194.0240
-670.1271,-849.7350,-7.9329,141.3852,480.8494,193.9053
-674.4936,-851.3347,-10.3092,144.2326,484.2821,193.7442
-678.8665,-852.8952,-12.7384,147.1056,487.6888,193.5419
-683.2445,-854.4163,-15.2191,150.0046,491.0692,193.2993
-687.6267,-855.8981,-17.7500,152.9301,494.4228,193.0174
-692.0118,-857.3403,-20.3296,155.8823,497.7494,192.6970
-696.3985,-858.7433,-22.9565,158.8611,501.0488,192.3392
-700.7845,-860.1079,-25.6292,161.8643,504.3208,191.9449
-705.1674,-861.4356,-28.3459,164.8891,507.5657,191.5151
-709.5448,-862.7276,-31.1050,167.9328,510.7835,191.0507
-713.9141,-863.9852,-33.9049,170.9926,513.9742,190.5527
-718.2729,-865.2096,-36.7440,174.0658,517.1379,190.0220
-722.6187,-866.4023,-39.6205,177.1496,520.2748,189.4596
-726.9492,-867.5644,-42.5330,180.2413,523.3848,188.8664
-731.2617,-868.6974,-45.4796,183.3382,526.4680,188.2434
-735.5539,-869.8023,-48.4588,186.4375,529.5246,187.5914
-739.8233,-870.8807,-51.4689,189.5364,532.5546,186.9115
-744.0675,-871.9337,-54.5082,192.6322,535.5580,186.2046
-748.2839,-872.9626,-57.5752,195.7221,538.5349,185.4716
-752.4702,-873.9688,-60.6683,198.8035,541.4855,184.7134
-756.6238,-874.9536,-63.7856,201.8735,544.4098,183.9309
-760.7425,-875.9181,-66.9257,204.9293,547.3077,183.1251
-764.8249,-876.8636,-70.0868,207.9672,550.1787,182.2969
-768.8698,-877.7911,-73.2674,210.9836,553.0222,181.4472
-772.8759,-878.7017,-76.4658,213.9748,555.8374,180.5768
-776.8420,-879.5967,-79.6804,216.9370,558.6238,179.6868
-780.7669,-880.4770,-82.9096,219.8665,561.3807,178.7780
-784.6494,-881.3438,-86.1517,222.7596,564.1074,177.8514
-788.4882,-882.1981,-89.4052,225.6126,566.8034,176.9077
-792.2822,-883.0412,-92.6683,228.4217,569.4678,175.9478
-796.0300,-883.8741,-95.9395,231.1832,572.1001,174.9728
-799.7306,-884.6979,-99.2171,233.8935,574.6996,173.9834
-803.3826,-885.5137,-102.4995,236.5487,577.2657,172.9805
-806.9848,-886.3226,-105.7851,239.1451,579.7977,171.9650
-810.5360,-887.1258,-109.0723,241.6791,582.2950,170.9377
-814.0351,-887.9243,-112.3594,244.1470,584.7568,169.8995
-817.4808,-888.7192,-115.6452,246.5448,587.1827,168.8513
-820.8722,-889.5109,-118.9302,248.8688,589.5719,167.7938
-824.2087,-890.3000,-122.2151,251.1148,591.9240,166.7280
-827.4894,-891.0868,-125.5009,253.2788,594.2384,165.6547
-830.7134,-891.8718,-128.7884,255.3569,596.5146,164.5746
-833.8801,-892.6554,-132.0784,257.3449,598.7521,163.4887
-836.9885,-893.4380,-135.3718,259.2388,600.9503,162.3977
-840.0380,-894.2201,-138.6695,261.0348,603.1087,161.3024
-843.0277,-895.0021,-141.9722,262.7286,605.2266,160.2036
-845.9569,-895.7845,-145.2809,264.3163,607.3037,159.1022
-848.8247,-896.5675,-148.5963,265.7939,609.3393,157.9989
-851.6303,-897.3518,-151.9194,267.1573,611.3330,156.8945
-854.3730,-898.1377,-155.2510,268.4026,613.2841,155.7898
-857.0519,-898.9256,-158.5919,269.5256,615.1921,154.6855
-859.6664,-899.7160,-161.9429,270.5224,617.0566,153.5824
-862.2155,-900.5092,-165.3050,271.3894,618.8769,152.4812
-864.6991,-901.3047,-168.6787,272.1244,620.6524,151.3827
-867.1169,-902.1019,-172.0648,272.7256,622.3827,150.2877
-869.4686,-902.9004,-175.4639,273.1915,624.0669,149.1968
-871.7541,-903.6994,-178.8767,273.5201,625.7047,148.1108
-873.9729,-904.4985,-182.3038,273.7099,627.2954,147.0304
-876.1250,-905.2970,-185.7459,273.7590,628.8384,145.9562
-878.2101,-906.0945,-189.2037,273.6658,630.3331,144.8891
-880.2278,-906.8902,-192.6778,273.4285,631.7789,143.8296
-882.1781,-907.6838,-196.1689,273.0453,633.1752,142.7784
-884.0606,-908.4744,-199.6776,272.5146,634.5215,141.7363
-885.8750,-909.2617,-203.2046,271.8346,635.8171,140.7039
-887.6212,-910.0450,-206.7506,271.0036,637.0614,139.6818
-889.2989,-910.8238,-210.3162,270.0199,638.2539,138.6706
-890.9079,-911.5974,-213.9022,268.8817,639.3940,137.6711
-892.4478,-912.3653,-217.5090,267.5878,640.4809,136.6838
-893.9186,-913.1271,-221.1374,266.1398,641.5136,135.7094
-895.3198,-913.8820,-224.7878,264.5394,642.4908,134.7484
-896.6514,-914.6297,-228.4608,262.7886,643.4114,133.8014
-897.9130,-915.3697,-232.1570,260.8895,644.2740,132.8691
-899.1045,-916.1012,-235.8768,258.8438,645.0775,131.9520
-900.2255,-916.8240,-239.6209,256.6537,645.8206,131.0507
-901.2759,-917.5374,-243.3897,254.3209,646.5022,130.1658
-902.2554,-918.2409,-247.1838,251.8476,647.1210,129.2977
-903.1638,-918.9339,-251.0037,249.2355,647.6758,128.4470
-904.0008,-919.6161,-254.8501,246.4867,648.1653,127.6143
-904.7661,-920.2867,-258.7234,243.6032,648.5884,126.8000
-905.4597,-920.9454,-262.6242,240.5868,648.9439,126.0047
-906.0812,-921.5916,-266.5530,237.4394,649.2304,125.2289
-906.6303,-922.2247,-270.5104,234.1632,649.4469,124.4730
-907.1070,-922.8440,-274.4968,230.7603,649.5922,123.7375
-907.5115,-923.4480,-278.5122,227.2341,649.6660,123.0230
-907.8441,-924.0347,-282.5566,223.5883,649.6683,122.3297
-908.1053,-924.6024,-286.6299,219.8269,649.5988,121.6583
-908.2953,-925.1491,-290.7321,215.9534,649.4574,121.0090
-908.4146,-925.6732,-294.8630,211.9716,649.2440,120.3824
-908.4634,-926.1727,-299.0226,207.8853,648.9584,119.7789
-908.4421,-926.6459,-303.2108,203.6983,648.6006,119.1987
-908.3512,-927.0908,-307.4275,199.4141,648.1703,118.6424
-908.1909,-927.5057,-311.6727,195.0367,647.6674,118.1103
-907.9616,-927.8887,-315.9463,190.5698,647.0918,117.6027
-907.6636,-928.2381,-320.2483,186.0170,646.4433,117.1201
-907.2973,-928.5519,-324.5784,181.3822,645.7219,116.6626
-906.8632,-928.8283,-328.9368,176.6691,644.9273,116.2308
-906.3614,-929.0656,-333.3233,171.8814,644.0594,115.8249
-905.7927,-929.2619,-337.7373,167.0229,643.1182,115.4451
-905.1584,-929.4163,-342.1756,162.0972,642.1041,115.0919
-904.4603,-929.5278,-346.6345,157.1078,641.0175,114.7654
-903.7001,-929.5953,-351.1105,152.0584,639.8589,114.4659
-902.8795,-929.6180,-355.5999,146.9526,638.6286,114.1938
-902.0002,-929.5948,-360.0988,141.7940,637.3273,113.9492
-901.0638,-929.5248,-364.6038,136.5861,635.9553,113.7323
-900.0722,-929.4070,-369.1111,131.3326,634.5132,113.5435
-899.0270,-929.2404,-373.6170,126.0371,633.0013,113.3828
-897.9299,-929.0242,-378.1178,120.7031,631.4201,113.2506
-896.7826,-928.7573,-382.6099,115.3344,629.7701,113.1469
-895.5869,-928.4388,-387.0896,109.9344,628.0518,113.0720
-894.3443,-928.0676,-391.5532,104.5067,626.2656,113.0259
-893.0567,-927.6429,-395.9971,99.0551,624.4120,113.0090
-891.7257,-927.1637,-400.4175,93.5830,622.4914,113.0212
-890.3530,-926.6292,-404.8107,88.0941,620.5043,113.0627
-888.9399,-926.0395,-409.1729,82.5923,618.4512,113.1337
-887.4879,-925.3949,-413.5000,77.0817,616.3326,113.2341
-885.9983,-924.6958,-417.7882,71.5661,614.1490,113.3642
-884.4725,-923.9426,-422.0335,66.0494,611.9008,113.5239
-882.9117,-923.1354,-426.2319,60.5357,609.5886,113.7133
-881.3174,-922.2747,-430.3795,55.0290,607.2128,113.9326
-879.6910,-921.3608,-434.4723,49.5331,604.7740,114.1816
-878.0336,-920.3940,-438.5063,44.0520,602.2725,114.4604
-876.3468,-919.3745,-442.4777,38.5896,599.7090,114.7691
-874.6319,-918.3029,-446.3825,33.1500,597.0840,115.1076
-872.8902,-917.1793,-450.2167,27.7371,594.3978,115.4759
-871.1231,-916.0041,-453.9764,22.3549,591.6510,115.8740
-869.3319,-914.7776,-457.6576,17.0072,588.8441,116.3018
-867.5180,-913.5001,-461.2563,11.6981,585.9776,116.7593
-865.6830,-912.1720,-464.7690,6.4316,583.0519,117.2464
-863.8293,-910.7931,-468.1935,1.2119,580.0677,117.7630
-861.9596,-909.3633,-471.5279,-3.9565,577.0254,118.3090
-860.0766,-907.8824,-474.7703,-9.0693,573.9256,118.8844
-858.1830,-906.3505,-477.9188,-14.1222,570.7688,119.4889
-856.2815,-904.7672,-480.9717,-19.1107,567.5556,120.1225
-854.3748,-903.1326,-483.9269,-24.0306,564.2864,120.7851
-852.4656,-901.4464,-486.7828,-28.8775,560.9620,121.4763
-850.5564,-899.7086,-489.5373,-33.6469,557.5827,122.1962
-848.6502,-897.9190,-492.1887,-38.3346,554.1491,122.9445
-846.7494,-896.0774,-494.7351,-42.9362,550.6618,123.7210
-844.8569,-894.1839,-497.1745,-47.4473,547.1213,124.5255
-842.9752,-892.2381,-499.5052,-51.8636,543.5281,125.3577
-841.1072,-890.2401,-501.7253,-56.1806,539.8828,126.2175
-839.2554,-888.1896,-503.8329,-60.3941,536.1860,127.1045
-837.4222,-886.0868,-505.8264,-64.5000,532.4379,128.0186
-835.6084,-883.9330,-507.7054,-68.4955,528.6384,128.9595
-833.8143,-881.7295,-509.4694,-72.3781,524.7873,129.9268
-832.0403,-879.4779,-511.1182,-76.1453,520.8841,130.9202
-830.2868,-877.1796,-512.6517,-79.7947,516.9285,131.9396
-828.5542,-874.8361,-514.0695,-83.3237,512.9201,132.9844
-826.8428,-872.4489,-515.3713,-86.7299,508.8588,134.0544
-825.1531,-870.0194,-516.5569,-90.0107,504.7440,135.1493
-823.4854,-867.5491,-517.6260,-93.1638,500.5755,136.2687
-821.8401,-865.0394,-518.5783,-96.1865,496.3529,137.4122
-820.2176,-862.4919,-519.4136,-99.0764,492.0759,138.5794
-818.6182,-859.9080,-520.1317,-101.8311,487.7441,139.7699
-817.0424,-857.2891,-520.7322,-104.4481,483.3573,140.9834
-815.4905,-854.6368,-521.2148,-106.9247,478.9151,142.2193
-813.9630,-851.9526,-521.5794,-109.2587,474.4171,143.4773
-812.4600,-849.2378,-521.8257,-111.4479,469.8633,144.7569
-810.9812,-846.4944,-521.9544,-113.4921,465.2547,146.0576
-809.5261,-843.7240,-521.9660,-115.3916,460.5923,147.3791
-808.0942,-840.9286,-521.8611,-117.1466,455.8775,148.7207
-806.6851,-838.1099,-521.6405,-118.7574,451.1114,150.0821
-805.2981,-835.2697,-521.3047,-120.2242,446.2952,151.4626
-803.9329,-832.4099,-520.8545,-121.5472,441.4302,152.8618
-802.5889,-829.5323,-520.2904,-122.7267,436.5175,154.2792
-801.2657,-826.6386,-519.6130,-123.7630,431.5584,155.7142
-799.9627,-823.7308,-518.8232,-124.6563,426.5540,157.1662
-798.6795,-820.8105,-517.9214,-125.4067,421.5056,158.6347
-797.4156,-817.8797,-516.9083,-126.0147,416.4143,160.1192
-796.1704,-814.9401,-515.7846,-126.4803,411.2815,161.6189
-794.9434,-811.9935,-514.5510,-126.8040,406.1081,163.1335
-793.7343,-809.0419,-513.2080,-126.9858,400.8956,164.6621
-792.5423,-806.0866,-511.7564,-127.0267,395.6454,166.2042
-791.3665,-803.1284,-510.1977,-126.9303,390.3602,167.7592
-790.2058,-800.1677,-508.5335,-126.7006,385.0430,169.3265
-789.0591,-797.2048,-506.7651,-126.3419,379.6970,170.9053
-787.9253,-794.2401,-504.8944,-125.8583,374.3252,172.4951
-786.8033,-791.2741,-502.9226,-125.2540,368.9305,174.0950
-785.6919,-788.3071,-500.8515,-124.5331,363.5161,175.7046
-784.5902,-785.3395,-498.6826,-123.6998,358.0850,177.3230
-783.4969,-782.3716,-496.4174,-122.7583,352.6402,178.9495
-782.4110,-779.4040,-494.0575,-121.7128,347.1848,180.5836
-781.3314,-776.4370,-491.6045,-120.5674,341.7219,182.2243
-780.2570,-773.4709,-489.0598,-119.3262,336.2544,183.8710
-779.1867,-770.5062,-486.4251,-117.9935,330.7854,185.5229
-778.1194,-767.5432,-483.7019,-116.5735,325.3180,187.1794
-777.0540,-764.5824,-480.8917,-115.0702,319.8552,188.8395
-775.9895,-761.6241,-477.9961,-113.4877,314.4001,190.5026
-774.9261,-758.6685,-475.0163,-111.8295,308.9564,192.1679
-773.8638,-755.7161,-471.9536,-110.0992,303.5276,193.8345
-772.8027,-752.7669,-468.8092,-108.3000,298.1175,195.5017
-771.7432,-749.8214,-465.5844,-106.4354,292.7297,197.1686
-770.6853,-746.8796,-462.2804,-104.5088,287.3679,198.8345
-769.6292,-743.9420,-458.8984,-102.5236,282.0357,200.4984
-768.5751,-741.0087,-455.4396,-100.4832,276.7368,202.1596
-767.5231,-738.0800,-451.9054,-98.3910,271.4749,203.8173
-766.4735,-735.1563,-448.2970,-96.2504,266.2536,205.4705
-765.4263,-732.2376,-444.6155,-94.0649,261.0766,207.1184
-764.3818,-729.3244,-440.8622,-91.8378,255.9475,208.7601
-763.3402,-726.4168,-437.0384,-89.5726,250.8701,210.3948
-762.3015,-723.5152,-433.1454,-87.2726,245.8480,212.0215
-761.2660,-720.6197,-429.1842,-84.9414,240.8848,213.6393
-760.2336,-717.7309,-425.1565,-82.5817,235.9840,215.2475
-759.2033,-714.8503,-421.0648,-80.1947,231.1476,216.8449
-758.1738,-711.9794,-416.9120,-77.7809,226.3775,218.4308
-757.1438,-709.1200,-412.7008,-75.3408,221.6757,220.0041
-756.1120,-706.2736,-408.4341,-72.8752,217.0438,221.5641
-755.0773,-703.4420,-404.1148,-70.3844,212.4839,223.1096
-754.0383,-700.6269,-399.7457,-67.8691,207.9976,224.6398
-752.9937,-697.8299,-395.3296,-65.3298,203.5870,226.1537
-751.9423,-695.0526,-390.8694,-62.7672,199.2538,227.6503
-750.8829,-692.2968,-386.3678,-60.1817,194.9999,229.1287
-749.8140,-689.5640,-381.8278,-57.5740,190.8272,230.5879
-748.7346,-686.8561,-377.2521,-54.9445,186.7374,232.0270
-747.6433,-684.1745,-372.6436,-52.2939,182.7325,233.4448
-746.5388,-681.5210,-368.0052,-49.6228,178.8143,234.8405
-745.4199,-678.8973,-363.3396,-46.9317,174.9847,236.2130
-744.2855,-676.3046,-358.6498,-44.2211,171.2453,237.5614
-743.1351,-673.7426,-353.9394,-41.4920,167.5967,238.8845
-741.9686,-671.2105,-349.2118,-38.7449,164.0395,240.1814
-740.7858,-668.7077,-344.4709,-35.9807,160.5740,241.4511
-739.5865,-666.2335,-339.7201,-33.2003,157.2007,242.6926
-738.3704,-663.7870,-334.9630,-30.4043,153.9201,243.9047
-737.1373,-661.3675,-330.2034,-27.5936,150.7327,245.0865
-735.8870,-658.9745,-325.4447,-24.7689,147.6388,246.2370
-734.6193,-656.6070,-320.6907,-21.9310,144.6390,247.3550
-733.3340,-654.2644,-315.9449,-19.0807,141.7336,248.4395
-732.0309,-651.9461,-311.2110,-16.2188,138.9232,249.4895
-730.7098,-649.6511,-306.4926,-13.3460,136.2081,250.5039
-729.3703,-647.3789,-301.7932,-10.4632,133.5889,251.4817
-728.0125,-645.1286,-297.1166,-7.5711,131.0660,252.4217
-726.6359,-642.8997,-292.4663,-4.6706,128.6398,253.3229
-725.2406,-640.6914,-287.8455,-1.7623,126.3109,254.1842
-723.8269,-638.5039,-283.2565,1.1530,124.0798,255.0045
-722.3955,-636.3375,-278.7008,4.0746,121.9474,255.7828
-720.9468,-634.1922,-274.1801,7.0017,119.9142,256.5180
-719.4815,-632.0684,-269.6963,9.9336,117.9810,257.2089
-718.0000,-629.9663,-265.2510,12.8696,116.1485,257.8545
-716.5030,-627.8861,-260.8458,15.8090,114.4174,258.4538
-714.9910,-625.8281,-256.4826,18.7511,112.7884,259.0054
-713.4645,-623.7925,-252.1630,21.6951,111.2621,259.5085
-711.9241,-621.7794,-247.8888,24.6403,109.8394,259.9619
-710.3704,-619.7892,-243.6616,27.5860,108.5208,260.3644
-708.8039,-617.8220,-239.4831,30.5314,107.3071,260.7150
-707.2251,-615.8782,-235.3552,33.4759,106.1989,261.0126
-705.6347,-613.9578,-231.2795,36.4187,105.1970,261.2561
-704.0331,-612.0613,-227.2576,39.3591,104.3021,261.4442
-702.4207,-610.1889,-223.2907,42.2964,103.5147,261.5760
-700.7970,-608.3425,-219.3773,45.2300,102.8344,261.6503
-699.1609,-606.5239,-215.5151,48.1593,102.2609,261.6660
-697.5118,-604.7351,-211.7021,51.0837,101.7936,261.6220
-695.8488,-602.9779,-207.9360,54.0026,101.4320,261.5172
-694.1710,-601.2544,-204.2147,56.9155,101.1758,261.3504
-692.4776,-599.5664,-200.5360,59.8217,101.0243,261.1205
-690.7678,-597.9159,-196.8977,62.7208,100.9771,260.8264
-689.0408,-596.3049,-193.2978,65.6120,101.0338,260.4670
-687.2956,-594.7351,-189.7339,68.4949,101.1938,260.0412
-685.5315,-593.2086,-186.2039,71.3688,101.4567,259.5479
-683.7476,-591.7273,-182.7058,74.2331,101.8220,258.9859
-681.9431,-590.2931,-179.2372,77.0874,102.2893,258.3541
-680.1172,-588.9079,-175.7961,79.9309,102.8579,257.6514
-678.2690,-587.5738,-172.3803,82.7630,103.5276,256.8767
-676.3976,-586.2922,-168.9877,85.5835,104.2974,256.0288
-674.5023,-585.0637,-165.6176,88.3925,105.1651,255.1068
-672.5823,-583.8884,-162.2691,91.1904,106.1284,254.1093
-670.6368,-582.7664,-158.9414,93.9776,107.1845,253.0354
-668.6648,-581.6980,-155.6338,96.7545,108.3312,251.8839
-666.6657,-580.6833,-152.3456,99.5216,109.5657,250.6538
-664.6386,-579.7224,-149.0760,102.2791,110.8856,249.3438
-662.5827,-578.8154,-145.8244,105.0276,112.2885,247.9530
-660.4972,-577.9626,-142.5898,107.7674,113.7717,246.4802
-658.3813,-577.1641,-139.3716,110.4988,115.3328,244.9242
-656.2341,-576.4200,-136.1690,113.2224,116.9692,243.2841
-654.0549,-575.7306,-132.9814,115.9386,118.6785,241.5587
-651.8428,-575.0959,-129.8078,118.6476,120.4582,239.7469
-649.5970,-574.5160,-126.6477,121.3499,122.3056,237.8477
-647.3168,-573.9913,-123.5002,124.0460,124.2184,235.8599
-645.0017,-573.5213,-120.3647,126.7361,126.1938,233.7824
-642.6532,-573.1039,-117.2409,129.4209,128.2290,231.6143
-640.2732,-572.7364,-114.1285,132.1007,130.3209,229.3544
-637.8635,-572.4163,-111.0275,134.7761,132.4664,227.0016
-635.4261,-572.1408,-107.9374,137.4475,134.6625,224.5549
-632.9628,-571.9074,-104.8583,140.1154,136.9060,222.0131
-630.4755,-571.7135,-101.7897,142.7804,139.1940,219.3754
-627.9661,-571.5563,-98.7316,145.4428,141.5234,216.6405
-625.4365,-571.4333,-95.6837,148.1031,143.8912,213.8075
-622.8885,-571.3418,-92.6458,150.7619,146.2942,210.8752
-620.3241,-571.2792,-89.6177,153.4196,148.7294,207.8427
-617.7450,-571.2428,-86.5991,156.0767,151.1937,204.7089
-615.1533,-571.2301,-83.5900,158.7337,153.6842,201.4728
-612.5508,-571.2384,-80.5900,161.3911,156.1977,198.1334
-609.9393,-571.2651,-77.5989,164.0492,158.7311,194.6896
-607.3206,-571.3077,-74.6165,166.7087,161.2819,191.1403
-604.6951,-571.3647,-71.6423,169.3693,163.8484,187.4847
-602.0633,-571.4349,-68.6756,172.0311,166.4296,183.7217
-599.4254,-571.5169,-65.7159,174.6939,169.0243,179.8503
-596.7819,-571.6094,-62.7627,177.3578,171.6314,175.8694
-594.1330,-571.7111,-59.8152,180.0224,174.2498,171.7782
-591.4791,-571.8207,-56.8730,182.6879,176.8784,167.5756
-588.8206,-571.9369,-53.9355,185.3541,179.5159,163.2606
-586.1577,-572.0583,-51.0020,188.0209,182.1614,158.8323
-583.4908,-572.1838,-48.0721,190.6883,184.8137,154.2897
-580.8202,-572.3119,-45.1450,193.3560,187.4716,149.6318
-578.1464,-572.4414,-42.2203,196.0242,190.1340,144.8578
-575.4696,-572.5710,-39.2973,198.6926,192.7997,139.9666
-572.7901,-572.6993,-36.3755,201.3611,195.4678,134.9573
-570.1084,-572.8250,-33.4543,204.0298,198.1369,129.8290
-567.4246,-572.9472,-30.5331,206.6985,200.8063,124.5808
-564.7389,-573.0654,-27.6120,209.3671,203.4757,119.2117
-562.0513,-573.1798,-24.6908,212.0358,206.1450,113.7209
-559.3617,-573.2904,-21.7697,214.7045,208.8144,108.1074
-556.6701,-573.3971,-18.8486,217.3731,211.4837,102.3703
-553.9766,-573.4999,-15.9274,220.0418,214.1531,96.5088
-551.2811,-573.5989,-13.0063,222.7105,216.8225,90.5219
-548.5837,-573.6940,-10.0852,225.3792,219.4918,84.4088
-545.8843,-573.7853,-7.1640,228.0478,222.1612,78.1687
-543.1830,-573.8727,-4.2429,230.7165,224.8305,71.8007
-540.4797,-573.9562,-1.3218,233.3852,227.4999,65.3039
-537.7745,-574.0359,1.5994,236.0538,230.1692,58.6775
-535.0673,-574.1117,4.5205,238.7225,232.8386,51.9207
-532.3581,-574.1837,7.4416,241.3912,235.5080,45.0326
