0,-847.05,-60.488,-136.28,-14.574,853.24,-127.45
1,-940.03,-61.857,-181.21,-14.144,824.96,-166.89
2,-925.19,-73.315,-179.79,-5.3967,798.18,-146.85
3,-914.61,-60.096,-157.87,-33.102,774.47,-195.49
4,-896.11,-84.165,-110.01,-154.53,837.92,-192.8
5,-890.28,-91.602,-115.16,-105.33,832.35,-203.91
6,-904.78,-82.843,-176.92,-114.78,826.16,-173.17
7,-923.92,-108.69,-201.06,-148.95,817.52,-153.5
8,-940.18,-134.05,-249.13,-177.04,813.74,-165.7
9,-927.36,-113.89,-278.57,-136.45,777.14,-50.249
10,-944.12,-125.44,-244.77,-158.16,767.47,-66.498
11,-975.7,-156.29,-221.39,-174.08,764.43,-109.08
12,-980.91,-173.04,-242.32,-185.19,742.83,-119.48
13,-1013.6,-138.87,-201.6,-225.64,756.94,-88.975
14,-993.61,-129.75,-194.16,-192.37,773.94,-77.932
15,-1057,-87.223,-144.07,-186.47,766.87,-95.298
16,-1003.8,-96.968,-188.28,-115.14,801.95,-90.152
17,-989.49,-80.649,-202.21,-152.51,795.79,-80.371
18,-1004,-69.729,-163.38,-92.843,878.64,-124.55
19,-1053.3,-58.636,-186.42,-133.11,830.22,-166.17
20,-1123.1,-90.389,-189.06,-152.46,847.05,-202.83
21,-1106.7,-102.67,-200.81,-192.35,852.14,-203.15
22,-1117.8,-103.75,-226.6,-183.71,826.59,-163.64
23,-1121.2,-95.872,-201.1,-214.63,838.37,-203.13
24,-1143,-83.297,-246.79,-240.81,878.38,-197.14
25,-1133.6,-129.16,-207.58,-273.32,889.77,-137
26,-1178.1,-106.74,-235.48,-301.04,864.38,-141.94
27,-1158.2,-119.31,-233.57,-327.12,892.19,-138.94
28,-1173.3,-118.21,-238.05,-325.49,885.66,-129.49
29,-1155.3,-126.76,-257.19,-327.13,898.32,-150.98
30,-1213.3,-25.932,-238.36,-244.41,899.61,-206.67
31,-1201.8,-35.597,-220.66,-222.18,850.4,-206.42
32,-1203.6,-95.076,-198.4,-157.18,882.19,-176.96
33,-1178.2,-104.24,-203.49,-140.95,869.64,-219.14
34,-1212,-198.59,-131.76,-123.27,875.32,-279.93
35,-1225.3,-175.67,-126.91,-124.8,897.18,-241.62
36,-1225.7,-126.82,-139.37,-113.88,887.66,-230.26
37,-1216.9,-127.01,-120.6,-123.25,892.27,-225.88
38,-1243.4,-137.75,-118.59,-103.86,844.05,-192.99
39,-1271.3,-163.6,-213.25,-107.38,809.18,-154.03
40,-1294,-169.51,-218.3,-122,795.71,-152.96
41,-1354.9,-131.26,-170.81,-87.516,764.02,-199.72
42,-1191.8,-274.02,-175.82,30.281,768.07,-198.45
43,-1079.8,-432.01,-87.201,-25.76,809.85,-215.99
44,-1122.4,-480.89,-84.033,-52.569,813.04,-219.93
45,-1122,-520.86,-54.156,-28.276,783.1,-196.22
46,-1097.5,-479.03,-27.612,16.081,753.54,-148.59
47,-1094.7,-463.04,10.381,12.396,776.59,-134.12
48,-1107.2,-476.87,19.427,25.686,757.32,-153.87
49,-1129.4,-494.41,96.535,49.764,778.23,-164.36
50,-1124.4,-499.09,120.4,150.71,831.97,-189.38
51,-1097,-518.68,92.504,131.24,843.26,-230.75
52,-1061.5,-477.46,72.786,142.88,827.98,-173.15
53,-1074.9,-495.07,40.067,146.65,831.38,-223.82
54,-1102.3,-519.57,32.85,150.32,810.86,-229.66
55,-1100.1,-511.9,-7.0405,116.26,820.36,-260.08
56,-1087.7,-523.8,8.4056,109.27,851.61,-259.72
57,-1090.9,-526.04,-12.663,129.45,851.69,-236.06
58,-1105.4,-503.78,-60.269,149.85,790.12,-193.86
59,-1096.2,-465.76,-41.243,111.36,838.06,-183.29
60,-1114.4,-461.39,-53.891,127.07,789.55,-180.29
61,-1174.6,-470.04,-66.155,154.44,771.68,-207.29
62,-1157.2,-456.22,-54.818,150.96,768.64,-196.29
63,-1190.5,-450.12,-70.352,89.557,791.46,-201.22
64,-1188.8,-451.78,-103.3,80.421,814.56,-179.6
65,-1200.1,-435.97,-36.312,90.176,794.61,-185.93
66,-1250.4,-411.57,-58.351,111.54,792.21,-174.2
67,-1231.3,-448.98,-63.2,110.17,795.72,-165.21
68,-1217.8,-411.54,-54.93,114.73,807.03,-131.37
69,-1215.1,-423.32,-89.519,110.89,796.82,-150.05
70,-1210.3,-457.38,-78.356,116.35,834.6,-148.05
71,-1230.2,-466.03,-43.416,82.824,806.33,-138.99
72,-1282.6,-455.91,36.484,87.306,800.99,-171.3
73,-1271.7,-481.53,29.006,86.909,812.6,-157.71
74,-1250.4,-503.66,56.517,74.762,806.23,-172.74
75,-1247.6,-507.27,77.923,116.07,836.71,-167.01
76,-1289.6,-516.38,88.569,111.79,836.8,-153.67
77,-1222.1,-535.65,85.854,149.37,832.69,-229.11
78,-1218.1,-540.59,71.973,154.45,843.69,-238.89
79,-1175.3,-585.2,81.093,229.01,908.56,-213.61
80,-1190.1,-550.78,85.742,226.23,865.25,-233.61
81,-1207.7,-530.22,103.06,283.21,871.67,-269.85
82,-1220.3,-508.06,156.74,309.92,868.79,-290.69
83,-1194.8,-531.93,173.65,332.68,861.38,-281.38
84,-1178.6,-607.76,183.6,282,860.21,-323.01
85,-1181.6,-645.24,175.02,288.24,909.01,-298.88
86,-1173.5,-602.5,206.07,298,838.74,-305.97
87,-1211.1,-580.24,203.55,295.19,881.86,-313.12
88,-1244.5,-570.16,195.59,278.63,892.07,-312.48
89,-1213,-577.46,197.45,286.06,920.02,-348.36
90,-1257.7,-579.62,238.74,232.16,870.24,-313.41
91,-1297.5,-569.63,276.36,230.18,871.47,-314.75
92,-1278.8,-570.23,287.29,242.83,848.33,-316.39
93,-1304.6,-582.1,376.35,317.62,813.51,-338.58
94,-1317,-612.3,369,306.82,818.4,-367.94
95,-1388.6,-508.71,402.55,255.02,853.61,-363.52
96,-1366.6,-532.1,404.41,288.28,856.72,-374.45
97,-1374.2,-550.68,403.82,276.17,841.48,-407.05
98,-1355.2,-560.97,390.21,287.2,838.86,-397.03
99,-1368.7,-579.55,431.34,270.36,830.75,-402.06
100,-1408.7,-561.49,462.83,282.12,844.06,-405.87
101,-1423.4,-528.31,487.28,254.41,834.36,-415.19
102,-1414.8,-553.53,485.51,287.16,821.75,-429.54
103,-1452.3,-561.05,565.05,337.12,822.17,-437.13
104,-1440.6,-569.8,550.07,284.91,711.7,-333
105,-1496.1,-587.58,549,333.17,670.08,-288.79
106,-1470.7,-567.96,570.22,285.38,727.04,-312.72
107,-1473.5,-558.3,552.75,282.8,771.93,-323.96
108,-1472.9,-549.69,527.88,254.79,738.06,-279.07
109,-1485.1,-595.07,604.53,222.22,780.93,-244.8
110,-1462.7,-573.24,597.35,181.22,806.16,-233.04
111,-1484,-540.58,571.18,145.48,803.99,-216.13
112,-1484.1,-535.16,592.28,147.12,794.86,-193.19
113,-1491.2,-565.38,597.64,99.75,845.44,-155.75
114,-1574.1,-545.56,601.31,124.07,746.2,-158.38
115,-1587.5,-544.97,601.68,120.63,729.88,-153.13
116,-1590.2,-521.23,607.87,117.17,716.05,-173.65
117,-1562.3,-486.08,600.16,196.72,679.74,-199.42
118,-1540.6,-474.06,566.54,195.22,684.87,-199.79
119,-1519.7,-529.77,515.84,207.3,689.14,-177.46
120,-1539.6,-489.54,460.89,257.7,676.24,-230
121,-1529.6,-478.82,375.84,196.18,702.09,-170.07
122,-1552.8,-458.64,382.14,185.51,694.63,-194.45
123,-1525.3,-468.24,343.5,192.77,665.21,-173.1
124,-1546.2,-477.07,316.73,206.14,665.19,-167.44
125,-1537.1,-535.61,336.81,199.9,629.53,-174.42
126,-1518.6,-569.09,353.49,189.31,686.82,-126.66
127,-1492.3,-563.78,324.01,184.86,687.68,-117.22
128,-1464.9,-554.9,323.82,193.76,694.15,-125.04
129,-1506.2,-564.6,355.19,166.4,694.46,-122.17
130,-1480.9,-565.5,353.33,187.48,654.96,-82.299
131,-1487.8,-579.45,347.36,160.81,647.26,-108.97
132,-1485,-572.89,355.27,166.71,626.87,-103.75
133,-1492.5,-614.31,365.73,157.78,625.35,-110.37
134,-1489.4,-602.73,379.21,167.62,599.02,-102.08
135,-1496.7,-601.51,357.31,153.07,574.27,-109.11
136,-1524.8,-580.23,352.2,192.47,585.13,-129.24
137,-1545.5,-513.06,354.54,188.85,672.41,-139.29
138,-1541.1,-494,334.27,182.71,598.79,-132.87
139,-1555.8,-507.25,336.75,225.16,562.6,-89.786
140,-1569.2,-509.79,300.98,193.99,559.32,-102.54
141,-1543.1,-512,310.52,207.08,532.08,-97.271
142,-1555.9,-525.32,278.96,155.46,497.73,-73.514
143,-1550.1,-545.62,233.69,169.51,490.74,-80.309
144,-1525.2,-539.69,248.65,175.6,490.27,-53.513
145,-1538.7,-513.26,237.28,180.62,409.63,-33.411
146,-1537.4,-547.37,287.05,169.11,389.39,-26.596
147,-1552.3,-560.38,263.39,141.1,407.76,-20.494
148,-1547.1,-546.12,276.82,189.98,390.39,0.45846
149,-1554.3,-541.17,229.08,161.51,424.89,-25.913
150,-1601.1,-491.16,270.08,94.44,420.57,-52.767
151,-1696.5,-297.24,250.41,103.3,379.17,-13.491
152,-1695.8,-324.99,334.88,79.358,386.32,-39.242
153,-1680.8,-325.77,339.35,66.639,405.4,-39.33
154,-1691.1,-293.91,265.06,77.072,458.83,-96.448
155,-1712.2,-279.85,304.71,69.329,432.1,-109.66
156,-1730.4,-367.96,326.2,37.221,483.85,-126.22
157,-1723.4,-340.94,343.15,61.165,457.56,-149.34
158,-1708.9,-331.07,343.93,58.527,415.09,-129.56
159,-1729.9,-321.65,375.74,54.382,380.3,-81.718
160,-1724.9,-311.7,373.67,76.101,378.13,-68.104
161,-1732.8,-270.39,389.81,100.01,355.48,-68.388
162,-1748.9,-253.74,362.85,67.062,307.75,-73.051
163,-1784.6,-260.97,353.19,45.711,307.64,-61.045
164,-1782.4,-250.22,376.55,39.493,316.88,-53.432
165,-1785.5,-290.36,386.2,61.844,300.91,-43.895
166,-1762.1,-243.78,412.74,52.088,272.79,-33.935
167,-1801.5,-262.1,408.89,37.543,276.75,-38.785
168,-1769.7,-232.51,345.3,29.716,279.46,-45.278
169,-1788.1,-209.54,368.83,63.801,244,-53.879
170,-1746.2,-196.11,375.58,74.575,251.35,-41.63
171,-1764.2,-187.49,378.21,87.599,288.65,-52.606
172,-1752.2,-154.59,393.65,86.146,315.24,-59.534
173,-1725.4,-178.94,341.25,74.038,253.36,-3.6008
174,-1706.9,-215.23,333.27,63.104,252.96,2.0613
175,-1674.8,-264.62,326.72,11.573,264.54,19.298
176,-1681.7,-237.75,344.87,-32.131,272.65,15.544
177,-1695.5,-226.83,342.87,-38.833,300.64,-5.052
178,-1681.9,-275.31,314.99,-107.65,309.55,16.699
179,-1650.8,-236.51,366.1,-28.557,235.8,11.994
180,-1676.4,-267.25,334.99,-45.594,205.65,52.38
181,-1629.6,-298.8,353.32,-81.568,188.32,76.886
182,-1635.2,-290.15,356.41,-95.925,181.4,107.3
183,-1594.5,-324.89,297.72,-50.886,164.75,117.06
184,-1580.4,-322.7,300.2,-34.861,128.53,138.85
185,-1571.5,-277.93,303.96,-45.894,121.42,142.05
186,-1573.5,-319.11,331,-42.311,132.62,130.23
187,-1577.4,-299.49,328.62,-50.061,106.33,120.11
188,-1562,-299.59,351.05,-49.077,121.14,98.358
189,-1597.1,-257.38,365.63,-88.113,114.83,160.29
190,-1608.2,-245.01,379.73,-101.14,112.54,164.13
191,-1597.5,-200.56,366.49,-103.73,99.33,166.42
192,-1617.5,-192.67,370.52,-79.998,87.034,165.39
193,-1649.4,-166.3,291.85,-75.284,68.631,149.66
194,-1649.8,-179.47,311.48,-77.418,54.93,125.12
195,-1610.4,-161.09,283.3,-57.389,51.54,153.68
196,-1619,-147.67,269.15,-38.988,-7.9463,150.84
197,-1526.7,-190.98,270.55,-56.616,-20.656,190.56
198,-1527.8,-180.19,262.47,-62.863,-53.838,217.9
199,-1567.8,-220.58,233.32,-137.38,20.715,172.02
200,-1564.2,-145.98,208.52,-110.61,-31.039,207.45
201,-1528.4,-166.5,186.08,-88.431,-22.277,207.67
202,-1535.2,-164.53,179.56,-144.73,-19.441,279.46
203,-1535.1,-171.3,194.61,-162.92,-26.999,253.99
204,-1528.5,-150.93,195.53,-176.95,-7.74,238.1
205,-1523.7,-179.41,208.6,-204.18,10.969,235.63
206,-1464.8,-231.34,173.34,-223.04,38.497,223.53
207,-1410.4,-195.53,178.96,-214.08,46.541,255.05
208,-1400.7,-164.41,153.98,-227.3,74.143,294.94
209,-1390.7,-202.85,136.06,-227.45,59.319,251.47
210,-1394.9,-166.05,173.81,-228.11,79.232,243.74
211,-1396.5,-200.27,170.85,-205.91,64.82,269
212,-1370.7,-172.51,159.97,-239.44,51.019,258.13
213,-1368.1,-161.67,121.85,-197.21,3.4456,269
214,-1364.7,-145.4,110.77,-169.63,30.228,240.05
215,-1340.9,-158.01,112.57,-203.75,36.77,266.28
216,-1372.1,-149.57,111.05,-207.86,28.121,296.62
217,-1346,-177.31,110.59,-194.46,-7.7127,315.6
218,-1337.1,-166.55,127.33,-181.22,12.71,300.85
219,-1333.3,-136.56,144.56,-186.05,18.564,285.55
220,-1296.5,-154.6,126.72,-218.63,-8.1617,262.76
221,-1300.2,-164.41,92.588,-203.25,27.727,243.95
222,-1346.2,-96.378,51.893,-192.23,19.032,265.24
223,-1341.8,-103.55,45.398,-206.29,23.843,275.68
224,-1331.9,-85.433,51.64,-217.55,8.313,292.17
225,-1335.9,-86.696,58.783,-194.22,-15.067,289.14
226,-1287.6,-142.95,93.221,-197.69,41.433,309.63
227,-1270.8,-145.08,77.983,-181.28,-13.357,293.62
228,-1265,-111.99,60.052,-195.04,-1.941,292.66
229,-1294.1,-106.42,60.79,-220.78,-4.9846,299.69
230,-1287.5,-99.918,61.65,-196.8,-3.2212,288.84
231,-1270.2,-90.758,46.636,-177.11,-4.7794,275.05
232,-1288.5,-94.289,64.184,-191.44,9.8576,235.64
233,-1252.5,-90.991,19.564,-177.74,32.335,296.34
234,-1251.7,-125.89,48.579,-167.79,72.74,228.2
235,-1233.6,-149.85,89.687,-206.42,-15.225,304.07
236,-1232.3,-117.47,42.334,-203.38,-1.1495,292.03
237,-1222.7,-127.53,50.4,-187.62,-6.8417,308.16
238,-1228.9,-121.86,54.372,-150.81,-9.2337,279.18
239,-1216.6,-140.25,68.13,-133.32,3.1414,284.1
240,-1212,-139.91,80.287,-134.5,-11.839,308.13
241,-1186.5,-168.09,73.454,-163.16,20.328,329.45
242,-1170.6,-190.35,57.65,-150.8,11.167,309.1
243,-1156.1,-203.9,130.82,-190.41,32.635,353.13
244,-1155.3,-204.55,104,-136.02,37.637,316.85
245,-1188.5,-151.87,81.761,-109.95,38.255,327.04
246,-1194,-167.05,80.238,-79.981,40.338,298.28
247,-1168.8,-152,50.208,-118.32,24.929,271.43
248,-1174.4,-153.53,58.636,-100.33,11.052,291.7
249,-1165.7,-153.94,45.56,-93.223,3.9801,301.75
250,-1121.6,-177.87,58.568,-84.421,-72.991,337.28
251,-1120.4,-208.44,64.487,-76.235,-85.202,306.32
252,-1115.7,-232.62,70.749,-65.587,-101.18,309.17
253,-1063,-233.09,76.329,-77.781,-105.68,319.12
254,-1037.8,-305.87,91.333,-67.225,-114.46,378.46
255,-1029.6,-310.29,103.14,-51.589,-113.24,369.15
256,-1025,-330.14,137.91,-37.554,-104.61,416.2
257,-1010,-333.92,169.78,-61.374,-136.26,402.12
258,-981.34,-373.35,194.94,-86.079,-89.821,374.53
259,-979.31,-363.75,136.3,-79.392,-135.22,382.88
260,-962.38,-414.68,147.62,-9.3031,-106.28,361.89
261,-955.29,-401.85,159.3,7.7544,-139.84,375.81
262,-965.31,-404.65,151.69,11.332,-150.65,390.2
263,-958.05,-393.53,140.74,-15.133,-176.64,344.64
264,-933.95,-442.46,170.44,36.885,-151.58,406.51
265,-874.98,-508.01,179.48,33.373,-206.89,448.43
266,-861.92,-515.78,164.31,16.796,-197.7,480.97
267,-879.54,-499.32,200.82,40.565,-195.51,424.15
268,-865.54,-483.76,205.89,50.188,-187.29,408.59
269,-860.18,-502.19,157.74,63.444,-182.42,362.63
270,-912.14,-527.96,193.86,102.55,-194.02,383.67
271,-856.85,-529.32,206.88,51.063,-213.77,432.16
272,-856.09,-533,210.48,47.462,-199.89,411.96
273,-878.67,-502.26,241.76,53.332,-202.14,416.48
274,-848.96,-523.82,242.8,47.253,-161.5,394.29
275,-852.61,-534.13,252.81,28.955,-127.48,400.12
276,-848.99,-550.68,295.78,32.906,-128.78,393.43
277,-829.88,-572.65,245.5,51.772,-145.59,369.96
278,-808,-579.63,233.68,64.56,-144.48,387.03
279,-832.46,-573.02,230.36,118.09,-137.76,357.25
280,-828.33,-565.42,244.22,124.72,-168.9,344.8
281,-838.06,-557.01,267.48,103.1,-158.17,307.48
282,-822.21,-549.45,259.4,90.334,-140.77,299.55
283,-818.31,-564.22,242.03,88.07,-166.99,302.02
284,-826.14,-537.24,190.04,127.73,-178.9,317.76
285,-821.75,-537.67,192.18,152.41,-176.02,270.28
286,-807.84,-539.98,173.04,132.79,-165.2,334.02
287,-790.36,-584.76,185.55,107,-72.073,347.24
288,-774.24,-581.81,196.21,116.98,-73.54,357.76
289,-774.01,-602.13,231.39,122.06,-92.505,365.83
290,-738.17,-638.03,230.91,102.14,-70.177,322
291,-720.71,-661.95,242.95,65.981,-31.68,327.75
292,-722.66,-644.96,227.87,99.741,-25.048,335.32
293,-724.44,-615.59,149.67,109.5,-29.308,301.78
294,-720.82,-643.85,161.86,98.091,-59.69,313.57
295,-718.79,-635.08,174.02,87.132,-31.213,294.71
296,-716.12,-653.87,234.43,88.013,-6.5623,270.21
297,-693.07,-665.42,227.76,122.41,15.31,266.08
298,-714.47,-625.95,198.49,83.478,32.888,266.91
299,-711.58,-624.4,203.16,74.21,19.687,249.22
300,-715.9,-648.76,195.05,85.523,42.011,264.48
301,-735.44,-592.86,174.63,114.59,22.997,236.1
302,-737.7,-599.13,185.11,105.87,48.795,184.06
303,-754.2,-572.22,187.79,93.934,63.654,88.636
304,-766,-557.96,209.55,107.73,63.97,105.06
305,-765.19,-556.24,188.62,133.69,75.832,100.53
306,-784.45,-555.32,206.09,104.81,77.53,112.33
307,-780.89,-558.99,181.95,117.57,57.987,75.226
308,-756.09,-540.48,144.67,166.12,48.236,98.769
309,-758.42,-536.39,153.26,116.51,64.745,97.458
310,-774.46,-540.71,164.74,128.75,124.11,112.9
311,-768.83,-537.37,140.4,121.43,147,116.44
312,-765.51,-539.12,123.22,112.38,161.67,96.892
313,-771.79,-530.26,144.79,108.32,158.31,95.325
314,-772.48,-536.91,127.85,118.25,159.55,98.344
315,-773.7,-547.91,135.43,131.17,152.84,126.07
316,-775.84,-528.1,164.81,111.58,179.29,145.21
317,-771.94,-500.11,148.84,88.492,174.43,163.2
318,-771.29,-530.35,155.05,82.979,178.08,185.57
319,-762.28,-572.43,169.18,127.26,147.54,145.67
320,-691.42,-590.63,167.2,138.75,155.53,141.53
321,-682.55,-631.43,229.72,120.28,175.03,134.45
322,-679.96,-679.49,227.51,152.61,95.309,179.32
323,-706.47,-666.67,197.68,170.18,97.848,148.6
324,-653.76,-695.65,220.96,178.19,105.03,166.95
325,-686.53,-689.96,225.11,176.6,87.148,162.68
326,-664.01,-674.8,214.78,201.51,65.825,149.2
327,-707.92,-663.58,245.27,192.62,68.96,105.59
328,-713.37,-621.59,182.41,190.52,102.17,95.622
329,-712.1,-560.34,169.96,239.83,131.82,145.32
330,-684.94,-543.01,174.54,226.46,144.56,128.68
331,-722.23,-568.88,181.26,213.6,103.34,105.27
332,-703.22,-566.05,139.7,201.21,89.804,106.98
333,-663.87,-543.11,119.24,239.63,97.212,92.356
334,-666.08,-566.28,116.99,240.24,92.598,121.64
335,-664.5,-562.96,116.22,227.04,126.68,87.263
336,-642.45,-582.9,120.87,171.76,169.05,111.8
337,-643.48,-586.57,117.45,215.46,145.78,101.13
338,-631.19,-596,152.62,236.71,143.64,106.77
339,-673.26,-596.05,130.07,226.16,107.22,119.97
340,-665.53,-601.46,127.74,244.53,100.06,129.7
341,-704.5,-585.07,125.65,244.53,93.571,132.97
342,-707.71,-555.35,131.79,258.4,86.56,124.06
343,-723.52,-572.73,117.58,265.91,48.242,125.29
344,-764.11,-469.36,86.832,224.15,149.24,112.98
345,-782.39,-443.75,104.05,258.35,114.85,158.33
346,-758.9,-450.56,115.08,259.71,113.66,147.24
347,-770.95,-445.4,119.27,284.67,108.97,151.7
348,-779.12,-473.15,111.16,260.05,153.44,129.22
349,-745.9,-458.84,81.183,244.48,146.11,147.76
350,-743.07,-456.67,47.097,250.65,133.03,157.49
351,-750.67,-484.53,81.461,239.11,146.19,252.02
352,-720.71,-488.58,98.689,250.4,138.2,228.63
353,-731.84,-513.56,148.05,330.93,107.6,206.4
354,-771.62,-506.01,184.08,340.01,75.262,199.59
355,-785.65,-502.68,198.98,329.39,15.598,178.68
356,-786.41,-472.14,200.4,350.63,26.017,204.66
357,-808.66,-508.26,229.37,401.29,7.9662,196.32
358,-806.75,-524.92,237.2,390.61,4.6507,201.19
359,-786.83,-526.67,255.63,404.34,-2.1631,167.49
