1.0, 199.969539031, 3.49048128746, -847.052603945, -60.4877449919, -136.283803733, -14.5738847164, 853.237309003, -127.448942904
10.0, 196.961550602, 34.7296355334, -927.355960095, -113.89306327, -278.568492102, -136.454702953, 777.141804738, -50.2486646733
100.0, -34.7296355334, 196.961550602, -1368.74837714, -579.545916805, 431.343493088, 270.362479778, 830.751761687, -402.057054579
101.0, -38.1617990753, 196.32543669, -1408.6752224, -561.490283546, 462.830291131, 282.115290047, 844.06340509, -405.872746786
102.0, -41.5823381636, 195.629520147, -1423.44879292, -528.307234053, 487.282157829, 254.408690488, 834.362904362, -415.193493904
103.0, -44.9902108688, 194.874012957, -1414.7930208, -553.534113636, 485.509314908, 287.155752961, 821.748998304, -429.543079211
104.0, -48.3843791199, 194.059145255, -1452.33218196, -561.050464231, 565.051597337, 337.122007266, 822.172185076, -437.12975257
105.0, -51.7638090205, 193.185165258, -1440.58567566, -569.799724169, 550.067045112, 284.911208116, 711.695865014, -332.996868576
106.0, -55.1274711634, 192.252339188, -1496.08814882, -587.577835385, 548.999956504, 333.1745162, 670.076102798, -288.785648781
107.0, -58.4743409445, 191.260951193, -1470.71707991, -567.955498771, 570.218961526, 285.3790245, 727.042526567, -312.718759938
108.0, -61.803398875, 190.211303259, -1473.47598124, -558.299736069, 552.753574221, 282.801081887, 771.932067615, -323.955884496
109.0, -65.1136308914, 189.10371512, -1472.8799902, -549.685197707, 527.879490864, 254.78557521, 738.064733146, -279.073835367
11.0, 196.32543669, 38.1617990753, -944.118493794, -125.436202576, -244.767953398, -158.162561005, 767.465880134, -66.4980189381
110.0, -68.4040286651, 187.938524157, -1485.1413592, -595.072526389, 604.526193559, 222.221081536, 780.934707284, -244.804956683
111.0, -71.6735899091, 186.716085299, -1462.66944342, -573.244922187, 597.354509007, 181.220193433, 806.162129857, -233.037261121
112.0, -74.9213186832, 185.436770913, -1483.98748981, -540.582476321, 571.183004781, 145.477188635, 803.991624177, -216.129112502
113.0, -78.1462256979, 184.10097069, -1484.13172756, -535.158088035, 592.283878818, 147.118826978, 794.863584873, -193.188918474
114.0, -81.3473286152, 182.709091529, -1491.23479188, -565.381938491, 597.639061996, 99.7496343124, 845.439472062, -155.754424776
115.0, -84.5236523481, 181.261557407, -1574.08262528, -545.555453538, 601.305151261, 124.074342643, 746.198639339, -158.384539294
116.0, -87.6742293578, 179.75880926, -1587.52649379, -544.971820978, 601.682328707, 120.630988308, 729.879835852, -153.126641843
117.0, -90.7980999479, 178.201304838, -1590.24028505, -521.22697496, 607.874234716, 117.165885018, 716.052338371, -173.653849513
118.0, -93.8943125572, 176.589518572, -1562.32225288, -486.082798848, 600.161173356, 196.72405787, 679.743445962, -199.42338067
119.0, -96.9619240493, 174.923941428, -1540.55515783, -474.059364419, 566.544627164, 195.220238455, 684.869459463, -199.789523844
12.0, 195.629520147, 41.5823381636, -975.701532226, -156.291229271, -221.390631413, -174.081075841, 764.427459872, -109.075712348
120.0, -100.0, 173.205080757, -1519.69583257, -529.769926635, 515.838048769, 207.297584478, 689.141794553, -177.460104763
121.0, -103.007614982, 171.43346014, -1539.59753369, -489.54341143, 460.893453792, 257.703024803, 676.243569892, -229.99981784
122.0, -105.983852847, 169.609619231, -1529.59603905, -478.815562616, 375.841309274, 196.179381512, 702.086125544, -170.070873354
123.0, -108.927807003, 167.734113589, -1552.76296231, -458.638068036, 382.139726723, 185.508580728, 694.633365529, -194.445896743
124.0, -111.838580694, 165.807514511, -1525.30066305, -468.237622937, 343.498071405, 192.76585363, 665.206214499, -173.101638771
125.0, -114.71528727, 163.830408858, -1546.23351889, -477.07036586, 316.733970217, 206.144321897, 665.191579112, -167.4431677
126.0, -117.557050458, 161.803398875, -1537.13296624, -535.605517006, 336.807677882, 199.896928356, 629.528473224, -174.418334563
127.0, -120.36300463, 159.727102009, -1518.60439372, -569.087514878, 353.493139194, 189.306109022, 686.822850926, -126.662001664
128.0, -123.132295065, 157.602150721, -1492.34728491, -563.775061177, 324.012160412, 184.855651226, 687.683877313, -117.215978375
129.0, -125.86407821, 155.429192291, -1464.8773584, -554.903320733, 323.823682265, 193.756751118, 694.145889019, -125.035925899
13.0, 194.874012957, 44.9902108688, -980.908362394, -173.044667265, -242.317112296, -185.191081125, 742.830622762, -119.479848773
130.0, -128.557521937, 153.208888624, -1506.2333413, -564.597613798, 355.19210507, 166.398345462, 694.457543915, -122.171134136
131.0, -131.211805798, 150.941916045, -1480.91880168, -565.497459121, 353.332904235, 187.478244115, 654.958777191, -82.2988360527
132.0, -133.826121272, 148.628965095, -1487.82169477, -579.452408172, 347.356647483, 160.810038073, 647.263269949, -108.970883671
133.0, -136.399672012, 146.270740324, -1485.02943205, -572.885064733, 355.266429309, 166.71392743, 626.868692128, -103.750453166
134.0, -138.931674092, 143.867960068, -1492.51768652, -614.314759964, 365.734354558, 157.784941806, 625.348576189, -110.374676574
135.0, -141.421356237, 141.421356237, -1489.44622887, -602.72869492, 379.214716567, 167.617332103, 599.024712355, -102.076043076
136.0, -143.867960068, 138.931674092, -1496.65639221, -601.512418901, 357.311798082, 153.069237082, 574.272009599, -109.114284784
137.0, -146.270740324, 136.399672012, -1524.79043832, -580.233137249, 352.196476592, 192.473044807, 585.131872601, -129.238212795
138.0, -148.628965095, 133.826121272, -1545.54620594, -513.056123419, 354.544219447, 188.852724226, 672.413604447, -139.289389183
139.0, -150.941916045, 131.211805798, -1541.11182907, -493.995360993, 334.268075616, 182.70701428, 598.787727253, -132.867486713
14.0, 194.059145255, 48.3843791199, -1013.55072827, -138.870973137, -201.59661406, -225.636390256, 756.936379021, -88.9753641322
140.0, -153.208888624, 128.557521937, -1555.81316002, -507.250132273, 336.754928871, 225.157419966, 562.599594586, -89.7855312571
141.0, -155.429192291, 125.86407821, -1569.18843524, -509.785566184, 300.976359227, 193.985234127, 559.315809239, -102.541390429
142.0, -157.602150721, 123.132295065, -1543.11439703, -512.004490705, 310.521485301, 207.075453478, 532.079250465, -97.2714548852
143.0, -159.727102009, 120.36300463, -1555.88052153, -525.315924275, 278.955331432, 155.464757244, 497.731066308, -73.5138833431
144.0, -161.803398875, 117.557050458, -1550.11583283, -545.624246688, 233.694671265, 169.509284183, 490.736892107, -80.3091716396
145.0, -163.830408858, 114.71528727, -1525.19498554, -539.693678699, 248.650386953, 175.595772347, 490.266070673, -53.5125270517
146.0, -165.807514511, 111.838580694, -1538.65052142, -513.256575058, 237.276103471, 180.617540961, 409.628847539, -33.4112174993
147.0, -167.734113589, 108.927807003, -1537.37276699, -547.367032517, 287.045911253, 169.113406049, 389.389507403, -26.5956575062
148.0, -169.609619231, 105.983852847, -1552.30567768, -560.377677739, 263.385939881, 141.096148467, 407.76086047, -20.4940375463
149.0, -171.43346014, 103.007614982, -1547.08128383, -546.119211243, 276.82439382, 189.98399697, 390.394220561, 0.458463370085
15.0, 193.185165258, 51.7638090205, -993.60570601, -129.748127093, -194.157829139, -192.365784991, 773.940281081, -77.9315287757
150.0, -173.205080757, 100.0, -1554.34706242, -541.174366258, 229.084051134, 161.514028254, 424.890036392, -25.9129620067
151.0, -174.923941428, 96.9619240493, -1601.06355873, -491.159451744, 270.081824083, 94.4404700368, 420.573118769, -52.7669555441
152.0, -176.589518572, 93.8943125572, -1696.45789507, -297.239947083, 250.407580514, 103.300112324, 379.174389385, -13.490923598
153.0, -178.201304838, 90.7980999479, -1695.75960596, -324.990098341, 334.876139178, 79.3584984142, 386.322316498, -39.2421133589
154.0, -179.75880926, 87.6742293578, -1680.82454323, -325.771182387, 339.34753781, 66.6389036354, 405.399444364, -39.3302871025
155.0, -181.261557407, 84.5236523481, -1691.08124768, -293.913775089, 265.062902528, 77.0718505231, 458.827246188, -96.4484435084
156.0, -182.709091529, 81.3473286152, -1712.15948458, -279.846776956, 304.706795246, 69.3290216399, 432.103903251, -109.656074063
157.0, -184.10097069, 78.1462256979, -1730.40552485, -367.961207372, 326.199430855, 37.2211272941, 483.850293301, -126.215313214
158.0, -185.436770913, 74.9213186832, -1723.42031067, -340.94273645, 343.150894164, 61.1648459554, 457.557401048, -149.336590884
159.0, -186.716085299, 71.6735899091, -1708.89938482, -331.072057918, 343.927275459, 58.5265872054, 415.086828993, -129.561618429
16.0, 192.252339188, 55.1274711634, -1057.03825231, -87.2233723888, -144.065019622, -186.468546543, 766.868032098, -95.2977600568
160.0, -187.938524157, 68.4040286651, -1729.94178999, -321.651682011, 375.742144653, 54.3823592074, 380.300573079, -81.7176435594
161.0, -189.10371512, 65.1136308914, -1724.91462974, -311.695572468, 373.667067467, 76.1007776434, 378.132031278, -68.1039740844
162.0, -190.211303259, 61.803398875, -1732.83789799, -270.38790913, 389.806407821, 100.014307655, 355.480946112, -68.3884169238
163.0, -191.260951193, 58.4743409445, -1748.91318407, -253.742528887, 362.847163912, 67.0615160942, 307.749145891, -73.0505228341
164.0, -192.252339188, 55.1274711634, -1784.61149312, -260.972439498, 353.189679687, 45.7114648617, 307.640460145, -61.0453653161
165.0, -193.185165258, 51.7638090205, -1782.36711255, -250.2185499, 376.548511513, 39.4930036546, 316.882494895, -53.431726084
166.0, -194.059145255, 48.3843791199, -1785.54676683, -290.356945955, 386.200303246, 61.8443566093, 300.907783288, -43.8947181393
167.0, -194.874012957, 44.9902108688, -1762.07219418, -243.779963229, 412.736070719, 52.0876836598, 272.791957267, -33.9349726624
168.0, -195.629520147, 41.5823381636, -1801.5202919, -262.104569116, 408.889470528, 37.5429270421, 276.751819518, -38.784850961
169.0, -196.32543669, 38.1617990753, -1769.73557351, -232.505283297, 345.300195792, 29.7156641795, 279.463571165, -45.2775316848
17.0, 191.260951193, 58.4743409445, -1003.83840969, -96.9682211474, -188.284382378, -115.139748012, 801.945670085, -90.1515383819
170.0, -196.961550602, 34.7296355334, -1788.09916211, -209.540225367, 368.832348418, 63.8009056869, 244.002142918, -53.879307035
171.0, -197.537668119, 31.286893008, -1746.17725018, -196.110995188, 375.576450133, 74.574582328, 251.35319248, -41.6298767736
172.0, -198.053613748, 27.834620192, -1764.22303332, -187.487346598, 378.205588438, 87.5992764422, 288.646323038, -52.606021704
173.0, -198.509230328, 24.373868681, -1752.17920423, -154.586872036, 393.649832884, 86.1457695085, 315.2358466, -59.5336585458
174.0, -198.904379074, 20.9056926535, -1725.44996492, -178.942285024, 341.251118839, 74.0381713374, 253.361687491, -3.60078858856
175.0, -199.238939618, 17.4311485495, -1706.94614856, -215.228401039, 333.272531353, 63.1036384966, 252.961959994, 2.06131838897
176.0, -199.512810052, 13.9512947488, -1674.82189211, -264.61710978, 326.723746754, 11.5731821218, 264.538040256, 19.297688075
177.0, -199.725906951, 10.4671912486, -1681.6896985, -237.753725707, 344.870992392, -32.1309058199, 272.650591256, 15.5436865079
178.0, -199.878165404, 6.9798993405, -1695.54439366, -226.831286404, 342.872681907, -38.8329898662, 300.635528795, -5.05201138965
179.0, -199.969539031, 3.49048128746, -1681.9373661, -275.314271783, 314.990937392, -107.65169616, 309.545199027, 16.698676276
18.0, 190.211303259, 61.803398875, -989.491361326, -80.64869736, -202.214296675, -152.507407626, 795.791262299, -80.3712010083
180.0, -200.0, 2.44929359829e-14, -1650.80359792, -236.507784674, 366.09662846, -28.5568748769, 235.801248901, 11.9940627369
-179.0, -199.969539031, -3.49048128746, -1676.37630408, -267.245291623, 334.994957189, -45.5941947639, 205.652200566, 52.3799843765
-178.0, -199.878165404, -6.9798993405, -1629.58061585, -298.801005895, 353.322271484, -81.5683010439, 188.320638706, 76.8859877212
-177.0, -199.725906951, -10.4671912486, -1635.19136604, -290.147520143, 356.409520649, -95.924873721, 181.398536137, 107.301824142
-176.0, -199.512810052, -13.9512947488, -1594.54140848, -324.891725052, 297.724100682, -50.8858322452, 164.745033037, 117.055299991
-175.0, -199.238939618, -17.4311485495, -1580.41960349, -322.703892899, 300.200115634, -34.8612598487, 128.527055276, 138.845093415
-174.0, -198.904379074, -20.9056926535, -1571.5418936, -277.925909722, 303.956657065, -45.8936670783, 121.424103653, 142.052925923
-173.0, -198.509230328, -24.373868681, -1573.52358671, -319.109972266, 331.003109547, -42.3112421312, 132.623583745, 130.228962127
-172.0, -198.053613748, -27.834620192, -1577.37792147, -299.493982862, 328.621536534, -50.0612299592, 106.325866692, 120.113852001
-171.0, -197.537668119, -31.286893008, -1561.99921991, -299.594427795, 351.049560815, -49.0766853072, 121.135911984, 98.3583169645
19.0, 189.10371512, 65.1136308914, -1003.98052061, -69.7290415236, -163.384632777, -92.8427590513, 878.635714292, -124.548415588
-170.0, -196.961550602, -34.7296355334, -1597.05666273, -257.379501652, 365.630535008, -88.1130131715, 114.831806131, 160.292242896
-169.0, -196.32543669, -38.1617990753, -1608.15669214, -245.013759618, 379.725247211, -101.142935609, 112.537908098, 164.13305088
-168.0, -195.629520147, -41.5823381636, -1597.4626184, -200.559155874, 366.492415869, -103.731884835, 99.3295342343, 166.421733636
-167.0, -194.874012957, -44.9902108688, -1617.54436563, -192.671392788, 370.523845202, -79.9978103196, 87.0336344025, 165.388615209
-166.0, -194.059145255, -48.3843791199, -1649.36151916, -166.297247869, 291.85225288, -75.2835271692, 68.6312230354, 149.656850011
-165.0, -193.185165258, -51.7638090205, -1649.75221047, -179.465841329, 311.479043831, -77.4179447258, 54.9297729253, 125.119896968
-164.0, -192.252339188, -55.1274711634, -1610.41418363, -161.08654811, 283.304836418, -57.3891958285, 51.5395550458, 153.680355556
-163.0, -191.260951193, -58.4743409445, -1619.04011646, -147.670493622, 269.152346456, -38.9884350448, -7.9463014695, 150.84020346
-162.0, -190.211303259, -61.803398875, -1526.69864858, -190.977123022, 270.55264971, -56.6163885252, -20.6562199964, 190.560343222
-161.0, -189.10371512, -65.1136308914, -1527.77255709, -180.193204755, 262.465910273, -62.8634318509, -53.8379542677, 217.901229937
2.0, 199.878165404, 6.9798993405, -940.031164922, -61.8568048851, -181.209691438, -14.1442726764, 824.956697428, -166.88619157
20.0, 187.938524157, 68.4040286651, -1053.29050273, -58.6358582704, -186.424811586, -133.107154341, 830.223322618, -166.16746088
-160.0, -187.938524157, -68.4040286651, -1567.77149284, -220.581773326, 233.317898039, -137.378844857, 20.7151300509, 172.017496992
-159.0, -186.716085299, -71.6735899091, -1564.21983349, -145.977246159, 208.515814838, -110.610800736, -31.0393506628, 207.448686668
-158.0, -185.436770913, -74.9213186832, -1528.36267701, -166.496229436, 186.081213331, -88.4307055369, -22.2770373634, 207.666421403
-157.0, -184.10097069, -78.1462256979, -1535.24900452, -164.528402451, 179.563242547, -144.729721505, -19.440601807, 279.456064267
-156.0, -182.709091529, -81.3473286152, -1535.08363127, -171.295180415, 194.61097379, -162.92495551, -26.9985928275, 253.986089944
-155.0, -181.261557407, -84.5236523481, -1528.50328859, -150.927027006, 195.528983152, -176.954223905, -7.73999886179, 238.096555946
-154.0, -179.75880926, -87.6742293578, -1523.67651299, -179.410254124, 208.595556282, -204.178190537, 10.9687989496, 235.634741512
-153.0, -178.201304838, -90.7980999479, -1464.78453793, -231.340023664, 173.343339001, -223.043507129, 38.4971701705, 223.533851566
-152.0, -176.589518572, -93.8943125572, -1410.42133443, -195.528516184, 178.962474781, -214.082755159, 46.5409094848, 255.049728854
-151.0, -174.923941428, -96.9619240493, -1400.73420559, -164.410450057, 153.981816152, -227.302213332, 74.1427238986, 294.941238397
21.0000000001, 186.716085299, 71.6735899091, -1123.14337769, -90.3890262016, -189.062962739, -152.462291883, 847.050326116, -202.828896618
-150.0, -173.205080757, -100.0, -1390.68953731, -202.854331701, 136.057055706, -227.451317037, 59.3192291503, 251.471679755
-149.0, -171.43346014, -103.007614982, -1394.86080544, -166.046385248, 173.811643356, -228.109301313, 79.2317542637, 243.735067374
-148.0, -169.609619231, -105.983852847, -1396.47919355, -200.267179424, 170.85075142, -205.914799823, 64.819563612, 268.99730097
-147.0, -167.734113589, -108.927807003, -1370.70936602, -172.509691753, 159.971912621, -239.443487419, 51.0193849746, 258.132388087
-146.0, -165.807514511, -111.838580694, -1368.14422934, -161.671719468, 121.85458122, -197.207296028, 3.44558535519, 268.999696332
-145.0, -163.830408858, -114.71528727, -1364.72599885, -145.403487596, 110.770177357, -169.626370722, 30.2280463717, 240.052620928
-144.0, -161.803398875, -117.557050458, -1340.87047463, -158.012290677, 112.57352133, -203.754615163, 36.7702081722, 266.280091646
-143.0, -159.727102009, -120.36300463, -1372.05326701, -149.567850885, 111.054350999, -207.856454882, 28.1212417343, 296.619309565
-142.0, -157.602150721, -123.132295065, -1345.9655573, -177.306090995, 110.594849254, -194.45940099, -7.71265139227, 315.59521871
-141.0, -155.429192291, -125.86407821, -1337.13914183, -166.549149423, 127.327174507, -181.223170838, 12.7097496269, 300.850945925
22.0, 185.436770913, 74.9213186832, -1106.69979231, -102.670819419, -200.814568493, -192.347042191, 852.137143643, -203.146072618
-140.0, -153.208888624, -128.557521937, -1333.25398896, -136.562440777, 144.564081183, -186.051848178, 18.5641546117, 285.550862606
-139.0, -150.941916045, -131.211805798, -1296.54331531, -154.604560286, 126.721624366, -218.628679742, -8.16172245916, 262.759047229
-138.0, -148.628965095, -133.826121272, -1300.21089988, -164.407793695, 92.588387537, -203.246797576, 27.7268498298, 243.954673692
-137.0, -146.270740324, -136.399672012, -1346.22036817, -96.3777180498, 51.8932640156, -192.231739964, 19.0322276006, 265.240368533
-136.0, -143.867960068, -138.931674092, -1341.75235497, -103.551115458, 45.397870851, -206.292918476, 23.8431416054, 275.677680808
-135.0, -141.421356237, -141.421356237, -1331.94051979, -85.4334928588, 51.6395452037, -217.545776903, 8.31299655838, 292.169476879
-134.0, -138.931674092, -143.867960068, -1335.85139494, -86.6961292879, 58.7832108343, -194.220173466, -15.0668452511, 289.144202879
-133.0, -136.399672012, -146.270740324, -1287.61829054, -142.954307725, 93.2209859935, -197.692645228, 41.4325286732, 309.634308085
-132.0, -133.826121272, -148.628965095, -1270.8286259, -145.084320101, 77.9827472668, -181.281271123, -13.3570932831, 293.620038358
-131.0, -131.211805798, -150.941916045, -1265.00906045, -111.992496665, 60.0524191966, -195.039856006, -1.94099481473, 292.663014302
23.0000000001, 184.10097069, 78.1462256979, -1117.75796564, -103.750540815, -226.604164442, -183.712832616, 826.586743747, -163.643197902
-130.0, -128.557521937, -153.208888624, -1294.06561872, -106.420817469, 60.7902517712, -220.779000327, -4.98463158149, 299.688970253
-129.0, -125.86407821, -155.429192291, -1287.46894641, -99.9182900582, 61.649698053, -196.8047268, -3.22116323303, 288.842182027
-128.0, -123.132295065, -157.602150721, -1270.24412779, -90.7578490995, 46.6357710081, -177.111220055, -4.7794492261, 275.049142241
-127.0, -120.36300463, -159.727102009, -1288.48736962, -94.2887432114, 64.1837484533, -191.443577813, 9.85760365411, 235.644530947
-126.0, -117.557050458, -161.803398875, -1252.54759033, -90.9913288116, 19.5644751474, -177.740618515, 32.3350888828, 296.343173226
-125.0, -114.71528727, -163.830408858, -1251.73571249, -125.88866028, 48.5792200617, -167.793763745, 72.7401035735, 228.198042033
-124.0, -111.838580694, -165.807514511, -1233.59828069, -149.854130542, 89.6870755125, -206.416211296, -15.2251280959, 304.073136574
-123.0, -108.927807003, -167.734113589, -1232.25712359, -117.47132043, 42.3342590573, -203.377048055, -1.14946163958, 292.025115693
-122.0, -105.983852847, -169.609619231, -1222.67392868, -127.533354992, 50.3998862487, -187.617858869, -6.84170659438, 308.155643132
-121.0, -103.007614982, -171.43346014, -1228.87577473, -121.861335169, 54.3718558982, -150.80717899, -9.23365966169, 279.17807721
24.0, 182.709091529, 81.3473286152, -1121.16653317, -95.8723936115, -201.101003717, -214.625011126, 838.367701106, -203.126938441
-120.0, -100.0, -173.205080757, -1216.59954521, -140.254922616, 68.12969927, -133.319470853, 3.14137090844, 284.098275171
-119.0, -96.9619240493, -174.923941428, -1211.97138189, -139.908941083, 80.2869106804, -134.49783854, -11.839325406, 308.128753358
-118.0, -93.8943125572, -176.589518572, -1186.50668001, -168.086789222, 73.4539539871, -163.16114605, 20.3276015172, 329.453203236
-117.0, -90.7980999479, -178.201304838, -1170.60300164, -190.353681772, 57.6500267133, -150.802097878, 11.1672695612, 309.10477488
-116.0, -87.6742293578, -179.75880926, -1156.11851818, -203.900419996, 130.822607123, -190.406745427, 32.6349161584, 353.132791673
-115.0, -84.5236523481, -181.261557407, -1155.33112566, -204.554267638, 104.003483206, -136.019020218, 37.6366581612, 316.849601883
-114.0, -81.3473286152, -182.709091529, -1188.45425968, -151.873622412, 81.760819291, -109.945859127, 38.2548878725, 327.03996818
-113.0, -78.1462256979, -184.10097069, -1194.03604871, -167.052884894, 80.2377842038, -79.981403242, 40.3376528056, 298.27985942
-112.0, -74.9213186832, -185.436770913, -1168.79768296, -151.996066656, 50.2076478526, -118.322499793, 24.9288046127, 271.432966324
-111.0, -71.6735899091, -186.716085299, -1174.38218641, -153.534172053, 58.6363349731, -100.329226843, 11.0517161034, 291.703393926
25.0, 181.261557407, 84.5236523481, -1142.95061975, -83.2969029749, -246.793844298, -240.809171296, 878.379301568, -197.140739285
-110.0, -68.4040286651, -187.938524157, -1165.70571521, -153.935131279, 45.5598740728, -93.2229826412, 3.98012451584, 301.754603568
-109.0, -65.1136308914, -189.10371512, -1121.63298938, -177.873606834, 58.567690041, -84.4205105452, -72.9905002019, 337.284220683
-108.0, -61.803398875, -190.211303259, -1120.43347646, -208.435102808, 64.4866387831, -76.2351334061, -85.2018061699, 306.321579126
-107.0, -58.4743409445, -191.260951193, -1115.67906613, -232.620962074, 70.7494605396, -65.5868050788, -101.176886704, 309.171694509
-106.0, -55.1274711634, -192.252339188, -1063.01085581, -233.094611278, 76.3286219956, -77.7812828423, -105.684082974, 319.118988633
-105.0, -51.7638090205, -193.185165258, -1037.77902466, -305.866611474, 91.3333837527, -67.2254659125, -114.463204805, 378.461474958
-104.0, -48.3843791199, -194.059145255, -1029.59136002, -310.285585576, 103.139159434, -51.5891942577, -113.238044912, 369.150635261
-103.0, -44.9902108688, -194.874012957, -1024.99423631, -330.136846307, 137.90939048, -37.5538121687, -104.611737247, 416.198327076
-102.0, -41.5823381636, -195.629520147, -1009.99645633, -333.919118331, 169.775660067, -61.374133591, -136.264968029, 402.118885091
-101.0, -38.1617990753, -196.32543669, -981.343385317, -373.354950188, 194.937005391, -86.0787340314, -89.8210244198, 374.528787766
26.0, 179.75880926, 87.6742293578, -1133.63301155, -129.158866418, -207.575633625, -273.3166845, 889.767364308, -137.003736707
-100.0, -34.7296355334, -196.961550602, -979.309932204, -363.746235528, 136.298561151, -79.391757791, -135.219923732, 382.879482517
-99.0, -31.286893008, -197.537668119, -962.37771046, -414.680184727, 147.618900413, -9.30305855738, -106.281892205, 361.889468195
-98.0, -27.834620192, -198.053613748, -955.294501877, -401.849815183, 159.302521566, 7.75441031983, -139.835444216, 375.808003843
-97.0, -24.373868681, -198.509230328, -965.306259516, -404.654873085, 151.685185266, 11.3320669626, -150.65146683, 390.196714637
-96.0, -20.9056926535, -198.904379074, -958.053526884, -393.529394883, 140.739062835, -15.1333850179, -176.641489934, 344.636010271
-95.0, -17.4311485495, -199.238939618, -933.949229849, -442.462656311, 170.443008988, 36.8849423126, -151.582227697, 406.507593511
-94.0, -13.9512947488, -199.512810052, -874.983704126, -508.00747006, 179.477385365, 33.3731962001, -206.886702153, 448.431948441
-93.0, -10.4671912486, -199.725906951, -861.923103897, -515.782977497, 164.312439448, 16.7958703956, -197.700100368, 480.966571355
-92.0, -6.9798993405, -199.878165404, -879.540831095, -499.319533672, 200.815541439, 40.5654630968, -195.507453636, 424.147081688
-91.0, -3.49048128746, -199.969539031, -865.53751022, -483.756543871, 205.887045833, 50.1882428948, -187.28884406, 408.593695137
27.0, 178.201304838, 90.7980999479, -1178.12318757, -106.741275079, -235.477201229, -301.039406262, 864.378702442, -141.936907749
-90.0, -3.67394039744e-14, -200.0, -860.17998045, -502.189629919, 157.744790315, 63.4436141861, -182.419694181, 362.629477772
-89.0, 3.49048128746, -199.969539031, -912.139080366, -527.958119774, 193.864897109, 102.55321672, -194.022963659, 383.67425504
-88.0, 6.9798993405, -199.878165404, -856.849963431, -529.321693217, 206.878197961, 51.0625382115, -213.767774491, 432.157385882
-87.0, 10.4671912486, -199.725906951, -856.091187636, -533.003849062, 210.477875952, 47.4623602517, -199.892159018, 411.96277877
-86.0, 13.9512947488, -199.512810052, -878.672304675, -502.257424017, 241.762960515, 53.3316528107, -202.141309282, 416.483030787
-85.0, 17.4311485495, -199.238939618, -848.962549113, -523.822580684, 242.796121333, 47.2529375039, -161.497992667, 394.285044721
-84.0, 20.9056926535, -198.904379074, -852.609450526, -534.134016651, 252.805086555, 28.9549416084, -127.475951994, 400.117106347
-83.0, 24.373868681, -198.509230328, -848.986547229, -550.681708177, 295.778830819, 32.9059694002, -128.77748688, 393.432235508
-82.0, 27.834620192, -198.053613748, -829.877499987, -572.650738341, 245.500989535, 51.7722819847, -145.589765472, 369.960857418
-81.0, 31.286893008, -197.537668119, -807.995698899, -579.634686544, 233.675219023, 64.5600456361, -144.481018822, 387.034417701
28.0, 176.589518572, 93.8943125572, -1158.15058892, -119.305137514, -233.569714233, -327.117374574, 892.191461723, -138.94268432
-80.0, 34.7296355334, -196.961550602, -832.463646917, -573.024799818, 230.35886277, 118.085471548, -137.762745637, 357.245575683
-79.0, 38.1617990753, -196.32543669, -828.332827768, -565.424644757, 244.221211975, 124.716790369, -168.896571917, 344.803302684
-78.0, 41.5823381636, -195.629520147, -838.063828313, -557.013215829, 267.478592783, 103.096347579, -158.166225158, 307.483381389
-77.0, 44.9902108688, -194.874012957, -822.206113344, -549.452209722, 259.395039843, 90.3344252191, -140.773727675, 299.545354855
-76.0, 48.3843791199, -194.059145255, -818.314455363, -564.2245321, 242.028006911, 88.0699204918, -166.994436525, 302.022169221
-75.0, 51.7638090205, -193.185165258, -826.142280889, -537.244641912, 190.039625017, 127.731644821, -178.895081843, 317.75752901
-74.0, 55.1274711634, -192.252339188, -821.746012037, -537.667811692, 192.183948112, 152.412938255, -176.017344684, 270.277740683
-73.0, 58.4743409445, -191.260951193, -807.84164776, -539.981550167, 173.038780438, 132.791331302, -165.201095911, 334.022516086
-72.0, 61.803398875, -190.211303259, -790.359251563, -584.756999446, 185.549791826, 107.002791737, -72.0731448496, 347.240303086
-71.0, 65.1136308914, -189.10371512, -774.235332402, -581.812810125, 196.208621302, 116.975629688, -73.5404654324, 357.763571238
29.0, 174.923941428, 96.9619240493, -1173.28846896, -118.213568589, -238.049391813, -325.492038416, 885.657070923, -129.492841645
-70.0, 68.4040286651, -187.938524157, -774.014106901, -602.125297657, 231.386708889, 122.057992364, -92.5052633111, 365.834144781
-68.9999999999, 71.6735899091, -186.716085299, -738.165321349, -638.026170994, 230.908708363, 102.140304477, -70.1774297035, 322.003952556
-68.0, 74.9213186832, -185.436770913, -720.709445641, -661.953848327, 242.94965572, 65.9814504376, -31.6803977229, 327.752456391
-66.9999999999, 78.1462256979, -184.10097069, -722.664040813, -644.957683768, 227.867542305, 99.7411665251, -25.0483216797, 335.31967826
-66.0, 81.3473286152, -182.709091529, -724.443723304, -615.586906554, 149.668250996, 109.497173553, -29.307732016, 301.779029544
-65.0, 84.5236523481, -181.261557407, -720.822134856, -643.852026057, 161.862543441, 98.0905614606, -59.6901603207, 313.56970613
-64.0, 87.6742293578, -179.75880926, -718.78511468, -635.076647599, 174.016169924, 87.1317465537, -31.2133480278, 294.70817919
-63.0, 90.7980999479, -178.201304838, -716.115689741, -653.87385533, 234.432550507, 88.0130868337, -6.56225001767, 270.21221605
-62.0, 93.8943125572, -176.589518572, -693.071832062, -665.417253874, 227.764010173, 122.409666943, 15.309575349, 266.079796089
-61.0, 96.9619240493, -174.923941428, -714.466176422, -625.949923116, 198.486491175, 83.478262517, 32.8875787166, 266.908446505
3.0, 199.725906951, 10.4671912486, -925.192897479, -73.3153693573, -179.790519633, -5.39668478312, 798.17855538, -146.853286968
30.0, 173.205080757, 100.0, -1155.30849548, -126.761108408, -257.193666976, -327.134648, 898.323008169, -150.97816397
-60.0, 100.0, -173.205080757, -711.577416152, -624.399795331, 203.15590363, 74.2100352484, 19.6865954971, 249.21699302
-58.9999999999, 103.007614982, -171.43346014, -715.904759606, -648.763261464, 195.048964085, 85.52271936, 42.0114754713, 264.484922431
-57.9999999999, 105.983852847, -169.609619231, -735.436621478, -592.857981611, 174.631844539, 114.585920295, 22.9972670575, 236.10276682
-57.0, 108.927807003, -167.734113589, -737.704263653, -599.133960236, 185.11123797, 105.868437971, 48.7947657987, 184.062914864
-56.0, 111.838580694, -165.807514511, -754.201073764, -572.215143511, 187.794874219, 93.9341675165, 63.6541136839, 88.6364319192
-55.0000000001, 114.71528727, -163.830408858, -765.995105453, -557.963015467, 209.545521657, 107.729638876, 63.9696293598, 105.057549202
-54.0000000001, 117.557050458, -161.803398875, -765.188193672, -556.238223789, 188.615739166, 133.686902398, 75.8321993701, 100.531097793
-53.0, 120.36300463, -159.727102009, -784.450278446, -555.320632794, 206.086862276, 104.810810374, 77.5297084772, 112.331043503
-52.0, 123.132295065, -157.602150721, -780.893023819, -558.985215763, 181.94924337, 117.569830314, 57.9873446389, 75.2263782221
-50.9999999999, 125.86407821, -155.429192291, -756.08566819, -540.484047826, 144.665090145, 166.117162979, 48.2361036675, 98.7691674687
31.0000000001, 171.43346014, 103.007614982, -1213.33888218, -25.9320059641, -238.358070617, -244.412962252, 899.610960148, -206.6670996
-50.0000000001, 128.557521937, -153.208888624, -758.424016356, -536.391369967, 153.26186929, 116.509230014, 64.7447725646, 97.4584106749
-49.0000000001, 131.211805798, -150.941916045, -774.459381932, -540.705181404, 164.735728279, 128.752040574, 124.113524979, 112.898617818
-47.9999999999, 133.826121272, -148.628965095, -768.831975911, -537.372337364, 140.403550757, 121.426515968, 147.002077638, 116.44145184
-47.0000000001, 136.399672012, -146.270740324, -765.513640238, -539.121194779, 123.216382215, 112.375369948, 161.66675199, 96.8922209921
-46.0, 138.931674092, -143.867960068, -771.79472438, -530.259291793, 144.793860934, 108.324358705, 158.310978537, 95.3249988848
-45.0, 141.421356237, -141.421356237, -772.475195947, -536.90911955, 127.850656887, 118.249429477, 159.547695908, 98.3440811925
-44.0, 143.867960068, -138.931674092, -773.697116286, -547.911827131, 135.425920255, 131.169982854, 152.840803792, 126.066367469
-42.9999999999, 146.270740324, -136.399672012, -775.83637553, -528.098923926, 164.807751239, 111.581084989, 179.293148991, 145.208862438
-42.0000000001, 148.628965095, -133.826121272, -771.941499746, -500.114742041, 148.837340756, 88.4919268885, 174.425433314, 163.197962279
-40.9999999999, 150.941916045, -131.211805798, -771.293716525, -530.346355089, 155.051473943, 82.9787902903, 178.080763393, 185.571476739
32.0000000001, 169.609619231, 105.983852847, -1201.83525271, -35.5972689387, -220.659911736, -222.183078556, 850.397668519, -206.420542818
-39.9999999999, 153.208888624, -128.557521937, -762.278080966, -572.429761554, 169.17778618, 127.257988104, 147.538057978, 145.668387021
-39.0000000001, 155.429192291, -125.86407821, -691.419935249, -590.62977382, 167.204209823, 138.752382888, 155.526363131, 141.525339336
-38.0, 157.602150721, -123.132295065, -682.552797168, -631.426317557, 229.719308576, 120.281128637, 175.034409294, 134.450752807
-37.0, 159.727102009, -120.36300463, -679.958206568, -679.485559119, 227.50719973, 152.613140175, 95.3086231946, 179.320311674
-35.9999999999, 161.803398875, -117.557050458, -706.472761075, -666.670578501, 197.683129513, 170.176547564, 97.8482651985, 148.601073603
-34.9999999999, 163.830408858, -114.71528727, -653.759794999, -695.647073092, 220.961901611, 178.189412134, 105.02506138, 166.948855403
-34.0, 165.807514511, -111.838580694, -686.532101883, -689.95545751, 225.105298527, 176.598141864, 87.1477266206, 162.677490517
-33.0, 167.734113589, -108.927807003, -664.012851894, -674.801846369, 214.781019099, 201.512744962, 65.824776755, 149.197877547
-32.0000000001, 169.609619231, -105.983852847, -707.924795367, -663.581180602, 245.269684203, 192.618491197, 68.960158105, 105.590886326
-31.0000000001, 171.43346014, -103.007614982, -713.368902556, -621.588180969, 182.414165447, 190.522857845, 102.171880365, 95.6218452691
33.0, 167.734113589, 108.927807003, -1203.57008147, -95.0757302632, -198.399349665, -157.176969074, 882.186774213, -176.961516948
-30.0, 173.205080757, -100.0, -712.095621835, -560.337965267, 169.955393171, 239.826747212, 131.815858814, 145.318241672
-29.0, 174.923941428, -96.9619240493, -684.944283693, -543.008212906, 174.541118342, 226.462680126, 144.555156593, 128.678111203
-28.0, 176.589518572, -93.8943125572, -722.234456095, -568.875796583, 181.256463452, 213.600392607, 103.339273335, 105.266502311
-27.0, 178.201304838, -90.7980999479, -703.222002464, -566.047736867, 139.696575355, 201.207406353, 89.8037781872, 106.978597227
-26.0, 179.75880926, -87.6742293578, -663.86937896, -543.110876255, 119.243095523, 239.634294943, 97.2119215719, 92.3556416236
-25.0, 181.261557407, -84.5236523481, -666.080315432, -566.284579672, 116.993909413, 240.238828478, 92.5983577144, 121.635460144
-24.0, 182.709091529, -81.3473286152, -664.499916576, -562.955403527, 116.219320118, 227.040234018, 126.682668567, 87.263496542
-23.0000000001, 184.10097069, -78.1462256979, -642.448024595, -582.897015191, 120.865186305, 171.760426131, 169.049777861, 111.802215547
-22.0, 185.436770913, -74.9213186832, -643.483778996, -586.571881166, 117.450875911, 215.462335374, 145.776722894, 101.131806644
-21.0000000001, 186.716085299, -71.6735899091, -631.18588484, -596.00187207, 152.622094454, 236.705726869, 143.63880443, 106.770314599
34.0, 165.807514511, 111.838580694, -1178.22174612, -104.236224503, -203.486077838, -140.953271603, 869.637266409, -219.137082718
-20.0, 187.938524157, -68.4040286651, -673.263760394, -596.047429681, 130.069182498, 226.162344252, 107.224173141, 119.969626759
-19.0, 189.10371512, -65.1136308914, -665.527460397, -601.458858591, 127.735444601, 244.527518245, 100.063676462, 129.699370113
-18.0, 190.211303259, -61.803398875, -704.498086649, -585.068129034, 125.650206977, 244.533460923, 93.5707147616, 132.965330825
-17.0, 191.260951193, -58.4743409445, -707.709918109, -555.351500365, 131.792410169, 258.401589722, 86.5599094593, 124.063924319
-16.0, 192.252339188, -55.1274711634, -723.519527159, -572.725510831, 117.577598706, 265.911534261, 48.242280917, 125.286676287
-15.0, 193.185165258, -51.7638090205, -764.111519274, -469.36421819, 86.8315318945, 224.14739081, 149.236612903, 112.980080136
-14.0, 194.059145255, -48.3843791199, -782.389108647, -443.750332336, 104.045006485, 258.349381617, 114.853979479, 158.326551124
-13.0, 194.874012957, -44.9902108688, -758.899162355, -450.563505761, 115.078731783, 259.711921304, 113.659757508, 147.242945939
-12.0, 195.629520147, -41.5823381636, -770.951848941, -445.400791137, 119.268163647, 284.668718549, 108.967999208, 151.697302373
-11.0, 196.32543669, -38.1617990753, -779.117852863, -473.146799292, 111.159991799, 260.053843103, 153.441455874, 129.216465992
34.9999999999, 163.830408858, 114.71528727, -1212.00154653, -198.589032379, -131.762082587, -123.266865039, 875.323352746, -279.930758473
-10.0, 196.961550602, -34.7296355334, -745.898150536, -458.836630541, 81.1825185157, 244.475338606, 146.113882989, 147.764769764
-8.99999999999, 197.537668119, -31.286893008, -743.070491471, -456.674887454, 47.0965538173, 250.646466752, 133.033544755, 157.49389712
-8.00000000001, 198.053613748, -27.834620192, -750.67178107, -484.528228404, 81.4613967351, 239.105589795, 146.194496462, 252.020526152
-7.0, 198.509230328, -24.373868681, -720.710403922, -488.584317292, 98.6892212108, 250.401897286, 138.19582194, 228.632336536
-5.99999999998, 198.904379074, -20.9056926535, -731.839529089, -513.55818841, 148.047535396, 330.928899416, 107.604353185, 206.39929322
-5.0, 199.238939618, -17.4311485495, -771.621251828, -506.013581793, 184.07509632, 340.006534774, 75.2622503213, 199.59241825
-3.99999999999, 199.512810052, -13.9512947488, -785.652463814, -502.681727989, 198.984659813, 329.394579069, 15.598222942, 178.679304311
-3.0, 199.725906951, -10.4671912486, -786.408983327, -472.142077054, 200.404281262, 350.633415737, 26.0168996855, 204.659031977
-2.0, 199.878165404, -6.9798993405, -808.663472776, -508.2635471, 229.366486561, 401.285950572, 7.96621025062, 196.324912891
-1.0, 199.969539031, -3.49048128746, -806.75404031, -524.917007952, 237.196382221, 390.607966122, 4.65066876327, 201.193648573
35.9999999999, 161.803398875, 117.557050458, -1225.29756647, -175.673950422, -126.912336399, -124.797148145, 897.176930576, -241.616951985
-1.73129238686e-14, 200.0, -4.89858719659e-14, -786.829659954, -526.673387522, 255.632609291, 404.344511156, -2.16305216766, 167.491110742
37.0, 159.727102009, 120.36300463, -1225.71807111, -126.823044883, -139.366392461, -113.879644665, 887.655991974, -230.257899117
38.0, 157.602150721, 123.132295065, -1216.8611758, -127.006291313, -120.596066887, -123.251994099, 892.27085668, -225.879055227
39.0000000001, 155.429192291, 125.86407821, -1243.44347817, -137.753548314, -118.593646282, -103.85950686, 844.053578158, -192.986969824
3.99999999999, 199.512810052, 13.9512947488, -914.612103841, -60.0956861229, -157.865488376, -33.1018064177, 774.474983801, -195.492682198
39.9999999999, 153.208888624, 128.557521937, -1271.27556652, -163.59850319, -213.254995957, -107.384840642, 809.180314826, -154.027815734
40.9999999999, 150.941916045, 131.211805798, -1294.04145837, -169.507681264, -218.296499617, -122.000410311, 795.705402116, -152.955946459
42.0000000001, 148.628965095, 133.826121272, -1354.91509407, -131.261657789, -170.814207366, -87.5155312766, 764.019695467, -199.715296681
42.9999999999, 146.270740324, 136.399672012, -1191.79853044, -274.023324886, -175.821435749, 30.2813964967, 768.072276928, -198.448079085
44.0, 143.867960068, 138.931674092, -1079.78146556, -432.009325816, -87.2013446218, -25.7596600621, 809.845484123, -215.993832783
45.0, 141.421356237, 141.421356237, -1122.37230168, -480.893508243, -84.0328762871, -52.5686047549, 813.040706418, -219.925553038
46.0, 138.931674092, 143.867960068, -1122.00151775, -520.855341422, -54.1560942217, -28.2756237679, 783.102027649, -196.221991787
47.0000000001, 136.399672012, 146.270740324, -1097.47706525, -479.025154261, -27.612176646, 16.0811472333, 753.542413992, -148.588339885
47.9999999999, 133.826121272, 148.628965095, -1094.67816452, -463.03586804, 10.3810837858, 12.3959955845, 776.587179435, -134.124108592
49.0000000001, 131.211805798, 150.941916045, -1107.16582725, -476.874179896, 19.4273548052, 25.6863106152, 757.324668519, -153.870528646
5.0, 199.238939618, 17.4311485495, -896.113605655, -84.1647184822, -110.010780703, -154.525279291, 837.923658708, -192.801929014
50.0000000001, 128.557521937, 153.208888624, -1129.43629549, -494.411390973, 96.5347771287, 49.7637026478, 778.227432636, -164.362274716
50.9999999999, 125.86407821, 155.429192291, -1124.37104059, -499.089804399, 120.397856595, 150.714560753, 831.969629881, -189.383487717
52.0, 123.132295065, 157.602150721, -1096.99452208, -518.682855801, 92.5041002306, 131.24453786, 843.259898546, -230.745739277
53.0, 120.36300463, 159.727102009, -1061.50852963, -477.457717746, 72.7857242509, 142.884647851, 827.976392497, -173.154003298
54.0000000001, 117.557050458, 161.803398875, -1074.92543217, -495.073752892, 40.0672140255, 146.647342561, 831.384598544, -223.822552541
55.0000000001, 114.71528727, 163.830408858, -1102.2528207, -519.566165329, 32.8504531612, 150.322412147, 810.860068584, -229.660837699
56.0, 111.838580694, 165.807514511, -1100.10743086, -511.901040587, -7.04054061902, 116.263068101, 820.360514821, -260.08264184
57.0, 108.927807003, 167.734113589, -1087.73312008, -523.803425048, 8.40559239768, 109.272823968, 851.608474489, -259.717445494
57.9999999999, 105.983852847, 169.609619231, -1090.90570745, -526.041536901, -12.663003118, 129.448984935, 851.692738039, -236.064991324
58.9999999999, 103.007614982, 171.43346014, -1105.43696557, -503.779415034, -60.2688459014, 149.85351173, 790.121697146, -193.859759541
5.99999999998, 198.904379074, 20.9056926535, -890.276611066, -91.6018686941, -115.157279403, -105.330342801, 832.348825221, -203.906170353
60.0, 100.0, 173.205080757, -1096.15170108, -465.757291641, -41.2428812463, 111.363049927, 838.056793667, -183.294516144
61.0, 96.9619240493, 174.923941428, -1114.42325215, -461.394984054, -53.8909774681, 127.068474234, 789.553937684, -180.289549773
62.0, 93.8943125572, 176.589518572, -1174.5761489, -470.042587796, -66.154572006, 154.440713523, 771.677190157, -207.28692166
63.0, 90.7980999479, 178.201304838, -1157.19806231, -456.220685056, -54.8177842992, 150.958219544, 768.635121055, -196.294449866
64.0, 87.6742293578, 179.75880926, -1190.52086098, -450.123567923, -70.3516703263, 89.5574949405, 791.460986759, -201.222754922
65.0, 84.5236523481, 181.261557407, -1188.8305389, -451.782321421, -103.303997474, 80.4209230554, 814.555642285, -179.603472346
66.0, 81.3473286152, 182.709091529, -1200.07301871, -435.967368651, -36.3122548576, 90.1763058812, 794.609670505, -185.92881666
66.9999999999, 78.1462256979, 184.10097069, -1250.44546226, -411.568243379, -58.3508839547, 111.540895171, 792.208294314, -174.198263283
68.0, 74.9213186832, 185.436770913, -1231.32258954, -448.98037005, -63.2000599729, 110.174159289, 795.723087783, -165.20813513
68.9999999999, 71.6735899091, 186.716085299, -1217.81078182, -411.543719101, -54.9299292864, 114.729339542, 807.029345762, -131.369131652
7.0, 198.509230328, 24.373868681, -904.783838094, -82.842973275, -176.917102748, -114.781770272, 826.161817665, -173.173640365
70.0, 68.4040286651, 187.938524157, -1215.12857314, -423.321937153, -89.5192602701, 110.892390851, 796.824392179, -150.054525364
71.0, 65.1136308914, 189.10371512, -1210.27810266, -457.380599881, -78.3562240857, 116.351775135, 834.602710317, -148.047055072
72.0, 61.803398875, 190.211303259, -1230.22199682, -466.02607217, -43.416179459, 82.8244122683, 806.333510415, -138.987590212
73.0, 58.4743409445, 191.260951193, -1282.62643925, -455.911713193, 36.4842726941, 87.3064057323, 800.988813376, -171.303268016
74.0, 55.1274711634, 192.252339188, -1271.70620624, -481.527289346, 29.005930375, 86.9086809259, 812.604450536, -157.710230196
75.0, 51.7638090205, 193.185165258, -1250.39202809, -503.655996471, 56.5168351679, 74.7616574533, 806.231999561, -172.744208335
76.0, 48.3843791199, 194.059145255, -1247.62898458, -507.269107008, 77.9232187435, 116.074843851, 836.707122933, -167.012158816
77.0, 44.9902108688, 194.874012957, -1289.57256334, -516.380489489, 88.5694865517, 111.792061639, 836.803856331, -153.669733298
78.0, 41.5823381636, 195.629520147, -1222.10763081, -535.651714612, 85.8542289419, 149.37241461, 832.686246995, -229.105963771
79.0, 38.1617990753, 196.32543669, -1218.13753662, -540.586001164, 71.9733379022, 154.453281834, 843.685324232, -238.892136317
8.00000000001, 198.053613748, 27.834620192, -923.915411159, -108.692191625, -201.058130065, -148.948965123, 817.520417006, -153.497273852
80.0, 34.7296355334, 196.961550602, -1175.34183426, -585.195139684, 81.0926651514, 229.011311266, 908.560967458, -213.613871752
81.0, 31.286893008, 197.537668119, -1190.08944315, -550.775917903, 85.7424385102, 226.234732516, 865.247466163, -233.607843592
82.0, 27.834620192, 198.053613748, -1207.73403482, -530.219784202, 103.064325387, 283.208705036, 871.665924822, -269.852331225
83.0, 24.373868681, 198.509230328, -1220.29497986, -508.058586985, 156.736628906, 309.918208222, 868.791008452, -290.69030775
84.0, 20.9056926535, 198.904379074, -1194.78921892, -531.925054207, 173.646964299, 332.675887937, 861.37966781, -281.377712983
85.0, 17.4311485495, 199.238939618, -1178.59302827, -607.760222191, 183.596605257, 282.000505107, 860.209775593, -323.012718305
86.0, 13.9512947488, 199.512810052, -1181.5871899, -645.238923835, 175.017723955, 288.238074376, 909.011512245, -298.880053934
87.0, 10.4671912486, 199.725906951, -1173.46504021, -602.500595248, 206.074777079, 297.997052342, 838.736940891, -305.973108259
88.0, 6.9798993405, 199.878165404, -1211.08503534, -580.244287019, 203.55333622, 295.192014456, 881.861201558, -313.121759928
89.0, 3.49048128746, 199.969539031, -1244.46585583, -570.155181262, 195.591058704, 278.631136793, 892.073386992, -312.479735542
8.99999999999, 197.537668119, 31.286893008, -940.176313935, -134.054680624, -249.133393697, -177.038562413, 813.742200821, -165.704069922
90.0, 1.22464679915e-14, 200.0, -1212.96866146, -577.463126991, 197.454551407, 286.059738044, 920.020961552, -348.358600296
91.0, -3.49048128746, 199.969539031, -1257.74924281, -579.617892322, 238.739659673, 232.16192665, 870.243564863, -313.411563062
92.0, -6.9798993405, 199.878165404, -1297.48463725, -569.626506461, 276.363239209, 230.176108752, 871.468899257, -314.753879037
93.0, -10.4671912486, 199.725906951, -1278.75461124, -570.228871201, 287.29359022, 242.832622317, 848.32964469, -316.392247301
94.0, -13.9512947488, 199.512810052, -1304.58849737, -582.097774688, 376.354597409, 317.616283485, 813.507554707, -338.583558934
95.0, -17.4311485495, 199.238939618, -1317.042252, -612.29618222, 368.996473631, 306.816733007, 818.397326564, -367.936216165
96.0, -20.9056926535, 198.904379074, -1388.59094798, -508.707854051, 402.546659862, 255.023433897, 853.614784794, -363.515050632
97.0, -24.373868681, 198.509230328, -1366.64108391, -532.096419747, 404.408995151, 288.282778284, 856.721983438, -374.450974126
98.0, -27.834620192, 198.053613748, -1374.20627307, -550.675371719, 403.819792536, 276.168600495, 841.481829295, -407.050318723
99.0, -31.286893008, 197.537668119, -1355.16992935, -560.965550487, 390.212361189, 287.199982988, 838.855829043, -397.027341015

