-259.5713,-184.2472,148.9118,356.2736,538.7215,44.9241
-241.6778,-177.4160,95.3332,306.4327,562.7899,100.6215
-239.6161,-180.9735,96.6538,320.1965,562.6988,99.4128
-237.7658,-184.5168,98.0565,333.8391,562.6249,98.1500
-236.1251,-188.0458,99.5393,347.3587,562.5682,96.8345
-234.6923,-191.5607,101.1002,360.7540,562.5285,95.4677
-233.4654,-195.0616,102.7371,374.0235,562.5058,94.0511
-232.4425,-198.5486,104.4479,387.1657,562.4997,92.5863
-292.8508,-162.3417,115.9545,348.9089,572.3954,66.0892
-230.9999,-205.4817,108.0825,413.0631,562.5372,89.5180
-230.5759,-208.9279,110.0019,425.8156,562.5804,87.9175
-230.3469,-212.3609,111.9863,438.4356,562.6395,86.2749
-230.3107,-215.7807,114.0336,450.9220,562.7145,84.5917
-230.4647,-219.1875,116.1413,463.2735,562.8050,82.8695
-230.8063,-222.5816,118.3073,475.4892,562.9107,81.1099
-231.3330,-225.9629,120.5290,487.5680,563.0315,79.3144
-273.3150,-257.4844,49.7382,369.8440,646.4175,148.2565
-232.9305,-232.6883,125.1306,511.3107,563.3170,75.6225
-233.9958,-236.0328,127.5055,522.9727,563.4811,73.7291
-235.2350,-239.3652,129.9267,534.4941,563.6591,71.8064
-236.6450,-242.6859,132.3917,545.8741,563.8506,69.8558
-238.2229,-245.9951,134.8980,557.1117,564.0553,67.8791
-239.9656,-249.2928,137.4432,568.2064,564.2728,65.8778
-241.8699,-252.5793,140.0248,579.1575,564.5028,63.8536
-153.6776,-272.8035,139.2852,656.6479,502.6743,130.3343
-246.1506,-259.1195,145.2871,600.6263,564.9988,59.7429
-248.5206,-262.3736,147.9629,611.1430,565.2640,57.6596
-251.0391,-265.6172,150.6650,621.5139,565.5402,55.5598
-253.7028,-268.8506,153.3910,631.7386,565.8269,53.4453
-256.5084,-272.0739,156.1384,641.8167,566.1239,51.3175
-259.4522,-275.2874,158.9047,651.7479,566.4306,49.1780
-262.5309,-278.4911,161.6872,661.5319,566.7466,47.0286
-197.3510,-242.8210,166.1587,690.1015,581.7184,77.5467
-269.0785,-284.8704,167.2914,680.6576,567.4050,42.7059
-272.5403,-288.0463,170.1080,689.9990,567.7466,40.5359
-276.1226,-291.2132,172.9309,699.1926,568.0957,38.3621
-279.8217,-294.3714,175.7577,708.2385,568.4521,36.1862
-283.6340,-297.5209,178.5860,717.1365,568.8152,34.0097
-287.5557,-300.6621,181.4131,725.8869,569.1847,31.8341
-291.5832,-303.7950,184.2368,734.4898,569.5600,29.6609
-240.5496,-288.6566,108.7374,750.5935,551.9651,48.1823
-299.9404,-310.0368,189.8641,751.2535,570.3266,25.3278
-304.2626,-313.1459,192.6630,759.4148,570.7169,23.1709
-308.6756,-316.2475,195.4487,767.4295,571.1113,21.0224
-313.1755,-319.3415,198.2191,775.2980,571.5095,18.8836
-317.7587,-322.4282,200.9718,783.0207,571.9108,16.7561
-322.4213,-325.5078,203.7045,790.5980,572.3150,14.6413
-327.1595,-328.5802,206.4150,798.0303,572.7215,12.5405
-349.1251,-354.9241,247.1212,842.9437,562.4667,-45.0801
-336.8480,-334.7043,211.7603,812.4626,573.5401,8.3864
-341.7906,-337.7561,214.3908,819.4637,573.9513,6.3358
-346.7940,-340.8014,216.9902,826.3223,574.3632,4.3046
-351.8542,-343.8400,219.5566,833.0392,574.7754,2.2941
-356.9677,-346.8722,222.0878,839.6150,575.1875,0.3055
-362.1307,-349.8979,224.5818,846.0507,575.5992,-1.6599
-367.3396,-352.9174,227.0366,852.3470,576.0100,-3.6008
-342.7978,-401.6625,228.1259,889.6297,554.0006,-29.0105
-377.8805,-358.9374,231.8210,864.5252,576.8276,-7.4049
-383.2053,-361.9381,234.1467,870.4089,577.2338,-9.2656
-388.5615,-364.9326,236.4256,876.1570,577.6377,-11.0973
-393.9458,-367.9209,238.6561,881.7705,578.0390,-12.8989
-399.3545,-370.9031,240.8362,887.2506,578.4374,-14.6694
-404.7842,-373.8791,242.9645,892.5983,578.8326,-16.4076
-410.2316,-376.8490,245.0391,897.8148,579.2244,-18.1125
-437.2205,-417.8781,316.7970,954.7078,597.2897,-114.3355
-421.1659,-382.7700,249.0212,907.8589,579.9964,-21.4189
-426.6461,-385.7212,250.9257,912.6890,580.3761,-23.0185
-432.1309,-388.6660,252.7705,917.3928,580.7514,-24.5810
-437.6168,-391.6045,254.5542,921.9716,581.1219,-26.1057
-443.1010,-394.5364,256.2756,926.4269,581.4876,-27.5917
-448.5802,-397.4618,257.9333,930.7598,581.8482,-29.0383
-454.0515,-400.3806,259.5261,934.9720,582.2035,-30.4445
-524.2969,-412.7632,252.5479,920.4166,578.5721,-30.7755
-464.9586,-406.1976,262.5124,943.0396,582.8980,-33.1332
-470.3887,-409.0956,263.9037,946.8980,583.2368,-34.4143
-475.7994,-411.9864,265.2258,950.6415,583.5699,-35.6522
-481.1880,-414.8699,266.4778,954.2717,583.8973,-36.8465
-486.5519,-417.7459,267.6587,957.7900,584.2188,-37.9965
-491.8886,-420.6142,268.7677,961.1982,584.5344,-39.1015
-497.1954,-423.4746,269.8041,964.4977,584.8442,-40.1612
-557.1823,-400.3603,246.5770,948.5356,609.6004,-57.3889
-507.7102,-429.1709,271.6563,970.7777,585.4462,-42.1424
-512.9134,-432.0064,272.4709,973.7614,585.7385,-43.0630
-518.0776,-434.8330,273.2104,976.6432,586.0251,-43.9364
-523.2005,-437.6506,273.8744,979.4249,586.3061,-44.7622
-528.2802,-440.4589,274.4625,982.1081,586.5816,-45.5401
-533.3147,-443.2577,274.9743,984.6945,586.8517,-46.2697
-538.3021,-446.0465,275.4097,987.1861,587.1167,-46.9507
-546.8062,-393.8577,287.6370,941.0302,594.4599,-67.7263
-548.1282,-451.5934,276.0501,991.8915,587.6318,-48.1662
-552.9635,-454.3508,276.2549,994.1091,587.8825,-48.7003
-557.7449,-457.0970,276.3828,996.2389,588.1288,-49.1849
-562.4709,-459.8318,276.4338,998.2828,588.3712,-49.6201
-567.1401,-462.5547,276.4079,1000.2427,588.6098,-50.0057
-571.7510,-465.2654,276.3054,1002.1203,588.8450,-50.3416
-576.3026,-467.9635,276.1265,1003.9177,589.0772,-50.6278
-573.1612,-436.8928,294.5583,923.2818,520.3706,6.6145
-585.2230,-473.3204,275.5406,1007.2790,589.5341,-51.0510
-589.5897,-475.9784,275.1343,1008.8466,589.7596,-51.1880
-593.8929,-478.6222,274.6532,1010.3415,589.9837,-51.2755
-598.1317,-481.2514,274.0977,1011.7654,590.2068,-51.3135
-602.3055,-483.8655,273.4684,1013.1203,590.4296,-51.3021
-606.4135,-486.4641,272.7659,1014.4082,590.6525,-51.2415
-610.4552,-489.0467,271.9911,1015.6307,590.8760,-51.1318
-634.2322,-426.4111,336.9622,998.8929,570.6820,20.0539
-618.3380,-494.1622,270.2271,1017.8879,591.3272,-50.7663
-622.1784,-496.6941,269.2397,1018.9262,591.5561,-50.5109
-625.9511,-499.2082,268.1833,1019.9070,591.7880,-50.2075
-629.6560,-501.7039,267.0588,1020.8320,592.0237,-49.8563
-633.2930,-504.1808,265.8673,1021.7032,592.2637,-49.4577
-636.8622,-506.6383,264.6098,1022.5224,592.5088,-49.0121
-640.3636,-509.0759,263.2876,1023.2916,592.7597,-48.5198
-666.4201,-560.4221,229.8516,1075.3398,630.2693,-22.0685
-647.1643,-513.8893,260.4536,1024.6874,593.2820,-47.3968
-650.4642,-516.2641,258.9445,1025.3177,593.5549,-46.7670
-653.6976,-518.6170,257.3756,1025.9055,593.8367,-46.0923
-656.8651,-520.9472,255.7484,1026.4525,594.1283,-45.3731
-659.9672,-523.2544,254.0643,1026.9606,594.4304,-44.6100
-663.0048,-525.5379,252.3248,1027.4317,594.7441,-43.8035
-665.9784,-527.7973,250.5315,1027.8676,595.0701,-42.9541
-645.8536,-564.0346,228.5912,1045.7140,648.5475,-49.4380
-671.7373,-532.2412,246.7897,1028.6409,595.7628,-41.1290
-674.5245,-534.4246,244.8444,1028.9819,596.1314,-40.1545
-677.2516,-536.5816,242.8517,1029.2948,596.5161,-39.1395
-679.9196,-538.7115,240.8135,1029.5815,596.9178,-38.0846
-682.5297,-540.8140,238.7315,1029.8436,597.3377,-36.9904
-685.0833,-542.8882,236.6074,1030.0829,597.7766,-35.8577
-687.5815,-544.9338,234.4431,1030.3011,598.2356,-34.6871
-670.7636,-580.6116,201.4828,1053.3706,648.0661,-56.7546
-692.4178,-548.9365,230.0014,1030.6810,599.2181,-32.2350
-694.7587,-550.8926,227.7279,1030.8460,599.7438,-30.9548
-697.0503,-552.8177,225.4218,1030.9967,600.2937,-29.6396
-699.2940,-554.7112,223.0852,1031.1346,600.8692,-28.2900
-701.4917,-556.5727,220.7200,1031.2613,601.4711,-26.9069
-703.6451,-558.4014,218.3284,1031.3785,602.1008,-25.4908
-705.7559,-560.1970,215.9123,1031.4878,602.7592,-24.0427
-699.9430,-596.6078,200.9255,1060.1363,650.1847,-36.0568
-709.8572,-563.6864,211.0151,1031.6886,604.1669,-21.0533
-711.8515,-565.3790,208.5382,1031.7833,604.9185,-19.5136
-713.8109,-567.0363,206.0453,1031.8761,605.7035,-17.9449
-715.7374,-568.6576,203.5386,1031.9685,606.5230,-16.3480
-717.6331,-570.2425,201.0201,1032.0621,607.3783,-14.7237
-719.5001,-571.7905,198.4921,1032.1582,608.2704,-13.0728
-721.3405,-573.3009,195.9568,1032.2582,609.2006,-11.3962
-710.1399,-555.6826,193.0174,1035.5754,585.6761,-19.6501
-724.9504,-576.2074,190.8730,1032.4757,611.1799,-7.9689
-726.7242,-577.6024,188.3289,1032.5958,612.2314,-6.2199
-728.4805,-578.9579,185.7863,1032.7254,613.3258,-4.4483
-730.2214,-580.2735,183.2475,1032.8656,614.4641,-2.6550
-731.9492,-581.5487,180.7145,1033.0179,615.6477,-0.8408
-733.6664,-582.7830,178.1897,1033.1834,616.8776,0.9934
-735.3752,-583.9761,175.6752,1033.3634,618.1551,2.8469
-718.1893,-576.6282,163.3131,994.9840,541.7259,-12.2757
-738.7776,-586.2366,170.6863,1033.7716,620.8577,6.6084
-740.4759,-587.3032,168.2162,1034.0022,622.2850,8.5148
-742.1756,-588.3268,165.7653,1034.2521,623.7647,10.4372
-743.8790,-589.3071,163.3358,1034.5222,625.2978,12.3749
-745.5888,-590.2436,160.9298,1034.8138,626.8855,14.3270
-747.3072,-591.1360,158.5496,1035.1278,628.5290,16.2928
-749.0367,-591.9840,156.1972,1035.4654,630.2294,18.2714
-703.3332,-560.7509,176.0598,1025.2531,545.1579,15.8660
-752.5393,-593.5454,151.5846,1036.2153,633.8055,22.2641
-754.3171,-594.2581,149.3286,1036.6296,635.6834,24.2767
-756.1160,-594.9251,147.1088,1037.0713,637.6227,26.2991
-757.9384,-595.5461,144.9275,1037.5416,639.6244,28.3305
-759.7866,-596.1208,142.7865,1038.0411,641.6897,30.3703
-761.6632,-596.6491,140.6880,1038.5709,643.8196,32.4176
-763.5706,-597.1307,138.6339,1039.1318,646.0152,34.4719
-798.2798,-602.6566,126.8867,1061.4869,677.7841,62.8359
-767.4872,-597.9527,134.6668,1040.3502,650.6073,38.5981
-769.5012,-598.2929,132.7576,1041.0093,653.0060,40.6687
-771.5555,-598.5855,130.9006,1041.7027,655.4742,42.7434
-773.6523,-598.8305,129.0975,1042.4312,658.0131,44.8215
-775.7941,-599.0277,127.3502,1043.1955,660.6236,46.9025
-777.9830,-599.1771,125.6605,1043.9963,663.3066,48.9855
-780.2213,-599.2784,124.0301,1044.8343,666.0629,51.0700
-774.2340,-618.9681,117.4765,1056.3526,684.7995,42.1750
-784.8550,-599.3369,120.9540,1046.6243,671.7992,55.2412
-787.2546,-599.2939,119.5117,1047.5777,674.7808,57.3266
-789.7124,-599.2027,118.1354,1048.5707,677.8392,59.4111
-792.2303,-599.0634,116.8265,1049.6040,680.9751,61.4942
-794.8104,-598.8758,115.5867,1050.6782,684.1894,63.5753
-797.4546,-598.6401,114.4175,1051.7936,687.4826,65.6538
-800.1650,-598.3563,113.3202,1052.9510,690.8556,67.7293
-322.2117,-73.9275,-569.3531,-757.3881,-120.2094,382.3868
-315.7584,-78.2986,-567.7628,-751.6300,-120.1866,389.6638
-309.0392,-82.7467,-566.1488,-745.7613,-120.1928,397.1658
-302.1116,-87.2552,-564.5164,-739.8059,-120.2216,404.8440
-295.0415,-91.8049,-562.8712,-733.7913,-120.2659,412.6426
-287.9022,-96.3746,-561.2199,-727.7479,-120.3177,420.4999
-280.7723,-100.9417,-559.5695,-721.7084,-120.3686,428.3492
-273.7343,-105.4821,-557.9272,-715.7071,-120.4094,436.1207
-267.0485,-109.9205,-556.3162,-709.8523,-120.4119,443.5944
-260.2701,-114.3857,-554.6970,-703.9590,-120.4245,451.1464
-254.0081,-118.7014,-553.1237,-698.2804,-120.3809,458.2616
-248.1620,-122.8966,-551.5873,-692.7748,-120.2920,465.0249
-242.8002,-126.9516,-550.0941,-687.4705,-120.1505,471.3787
-237.9816,-130.8493,-548.6491,-682.3921,-119.9499,477.2730
-233.7539,-134.5758,-547.2566,-677.5595,-119.6850,482.6675
-230.1524,-138.1210,-545.9198,-672.9873,-119.3519,487.5322
-226.8466,-141.5805,-544.6093,-668.5380,-118.9867,492.1469
-224.9004,-144.6463,-543.4197,-664.6541,-118.4736,495.6116
-223.2497,-147.6265,-542.2563,-660.8931,-117.9283,498.8263
-222.2253,-150.4253,-541.1486,-657.3925,-117.3149,501.5112
-221.7919,-153.0529,-540.0934,-654.1377,-116.6372,503.6963
-221.9016,-155.5233,-539.0865,-651.1087,-115.9003,505.4219
-222.4956,-157.8534,-538.1227,-648.2811,-115.1109,506.7380
-223.5055,-160.0630,-537.1958,-645.6265,-114.2761,507.7022
-225.0318,-162.1231,-536.3149,-643.1866,-113.3852,508.2296
-226.4655,-164.2100,-535.4257,-640.7082,-112.5044,508.8353
-228.2514,-166.1949,-534.5678,-638.3763,-111.5852,509.1432
-345.1742,-242.3535,-567.9009,-680.4777,245.3757,448.3536
-343.4947,-244.8470,-567.9779,-686.3653,247.0939,450.6464
-341.9849,-247.4416,-567.9759,-691.9535,248.7811,452.7531
-340.6439,-250.1358,-567.8944,-697.2409,250.4365,454.6732
-339.4709,-252.9275,-567.7329,-702.2266,252.0593,456.4061
-357.6153,-265.2360,-573.9715,-697.3472,268.6754,457.6543
-337.6239,-258.7958,-567.1685,-711.2893,255.2041,459.3098
-336.9475,-261.8683,-566.7649,-715.3653,256.7246,460.4802
-336.4340,-265.0301,-566.2800,-719.1372,258.2096,461.4632
-336.0817,-268.2789,-565.7136,-722.6051,259.6585,462.2589
-335.8892,-271.6124,-565.0655,-725.7690,261.0705,462.8678
-335.8546,-275.0281,-564.3357,-728.6294,262.4451,463.2902
-335.9760,-278.5234,-563.5241,-731.1867,263.7817,463.5270
-347.1441,-269.5141,-574.6122,-714.7369,263.0206,452.5536
-336.6794,-285.7429,-561.6555,-735.3952,266.3387,463.4464
-337.2571,-289.4616,-560.5987,-737.0486,267.5582,463.1310
-337.9825,-293.2493,-559.4605,-738.4031,268.7377,462.6338
-338.8533,-297.1030,-558.2411,-739.4603,269.8768,461.9561
-339.8670,-301.0198,-556.9409,-740.2218,270.9753,461.0992
-341.0212,-304.9969,-555.5601,-740.6897,272.0326,460.0648
-342.3132,-309.0311,-554.0993,-740.8660,273.0487,458.8546
-314.5508,-325.9381,-546.4452,-758.2584,254.5846,474.2417
-345.3000,-317.2585,-550.9396,-740.3535,274.9560,455.9142
-346.9891,-321.4454,-549.2419,-739.6699,275.8469,454.1881
-348.8048,-325.6768,-547.4666,-738.7052,276.6958,452.2942
-350.7440,-329.9495,-545.6144,-737.4625,277.5026,450.2350
-352.8038,-334.2601,-543.6862,-735.9449,278.2674,448.0129
-354.9810,-338.6054,-541.6830,-734.1560,278.9901,445.6304
-357.2723,-342.9819,-539.6056,-732.0994,279.6709,443.0904
-333.8868,-355.9526,-493.7096,-740.3042,272.9167,410.4159
-362.1841,-351.8152,-535.2330,-727.1981,280.9072,437.5490
-364.7978,-356.2651,-532.9402,-724.3616,281.4631,434.5536
-367.5123,-360.7326,-530.5779,-721.2735,281.9779,431.4126
-370.3238,-365.2142,-528.1477,-717.9382,282.4520,428.1293
-373.2290,-369.7065,-525.6509,-714.3604,282.8856,424.7070
-376.2241,-374.2060,-523.0891,-710.5447,283.2793,421.1493
-379.3055,-378.7091,-520.4639,-706.4962,283.6334,417.4597
-379.1414,-380.6448,-506.4802,-706.4936,275.1101,436.4726
-385.7125,-387.7127,-515.0298,-697.7207,284.2256,409.6997
-389.0306,-392.2061,-512.2246,-693.0043,284.4648,405.6369
-392.4201,-396.6895,-509.3631,-688.0760,284.6670,401.4576
-395.8770,-401.1592,-506.4472,-682.9413,284.8329,397.1657
-399.3976,-405.6120,-503.4790,-677.6061,284.9634,392.7654
-402.9780,-410.0444,-500.4607,-672.0760,285.0593,388.2610
-406.6143,-414.4530,-497.3944,-666.3570,285.1216,383.6565
-401.9036,-388.8535,-535.7057,-696.5200,277.2948,383.1978
-414.0390,-423.1859,-491.1270,-654.3766,285.1488,374.1653
-417.8196,-427.5035,-487.9306,-648.1275,285.1159,369.2875
-421.6404,-431.7843,-484.6958,-641.7143,285.0534,364.3275
-425.4975,-436.0251,-481.4251,-635.1433,284.9625,359.2899
-429.3871,-440.2228,-478.1211,-628.4210,284.8445,354.1795
-433.3051,-444.3742,-474.7865,-621.5539,284.7004,349.0008
-437.2476,-448.4764,-471.4240,-614.5488,284.5318,343.7587
-446.4743,-403.5924,-510.6309,-628.5443,312.9359,386.2798
-445.1909,-456.5214,-464.6269,-600.1511,284.1261,333.1032
-449.1838,-460.4583,-461.1980,-592.7720,283.8918,327.6995
-453.1857,-464.3346,-457.7530,-585.2819,283.6386,322.2517
-457.1929,-468.1474,-454.2948,-577.6877,283.3679,316.7646
-461.2014,-471.8941,-450.8267,-569.9963,283.0814,311.2432
-465.2077,-475.5723,-447.3517,-562.2146,282.7806,305.6924
-469.2078,-479.1793,-443.8731,-554.3496,282.4672,300.1172
-530.3158,-515.1415,-406.9544,-476.9544,313.8914,228.3993
-477.1751,-486.1704,-436.9185,-538.3977,281.8094,288.9132
-481.1349,-489.5500,-433.4491,-530.3249,281.4684,283.2944
-485.0740,-492.8494,-429.9896,-522.1967,281.1218,277.6709
-488.9889,-496.0665,-426.5435,-514.0202,280.7714,272.0477
-492.8762,-499.1993,-423.1141,-505.8025,280.4190,266.4298
-496.7323,-502.2460,-419.7052,-497.5504,280.0665,260.8219
-500.5539,-505.2048,-416.3203,-489.2709,279.7159,255.2291
-520.4090,-525.7759,-392.1474,-448.6728,273.9591,255.2248
-508.0803,-510.8520,-409.6369,-472.6575,279.0279,244.1077
-511.7786,-513.5373,-406.3458,-464.3373,278.6944,238.5888
-515.4294,-516.1285,-403.0933,-456.0171,278.3707,233.1041
-519.0297,-518.6243,-399.8833,-447.7038,278.0588,227.6583
-522.5764,-521.0237,-396.7194,-439.4040,277.7606,222.2561
-526.0666,-523.3254,-393.6054,-431.1244,277.4782,216.9020
-529.4973,-525.5285,-390.5452,-422.8716,277.2138,211.6006
-529.0810,-565.7441,-395.2633,-421.0349,272.3668,216.1223
-536.1694,-529.6356,-384.6009,-406.4721,276.7470,201.1738
-539.4054,-531.5382,-381.7246,-398.3382,276.5488,196.0572
-542.5712,-533.3394,-378.9171,-390.2566,276.3769,191.0109
-545.6643,-535.0387,-376.1825,-382.2334,276.2334,186.0391
-548.6822,-536.6358,-373.5244,-374.2749,276.1203,181.1459
-551.6227,-538.1306,-370.9466,-366.3868,276.0398,176.3354
-554.4834,-539.5228,-368.4530,-358.5752,275.9940,171.6116
-524.4409,-549.3792,-370.3606,-430.0877,261.6894,228.3843
-559.9569,-541.9999,-363.7334,-343.2042,276.0149,162.4395
-562.5656,-543.0850,-361.5149,-335.6560,276.0857,157.9987
-565.0863,-544.0683,-359.3955,-328.2067,276.1995,153.6596
-567.5171,-544.9501,-357.3790,-320.8616,276.3584,149.4258
-569.8564,-545.7310,-355.4691,-313.6258,276.5643,145.3006
-572.1024,-546.4116,-353.6693,-306.5044,276.8194,141.2874
-574.2535,-546.9926,-351.9834,-299.5024,277.1257,137.3893
-545.0057,-553.6050,-363.9281,-260.3704,267.5393,74.2424
-578.2653,-547.8596,-348.9669,-285.8755,277.8994,129.9511
-580.1232,-548.1474,-347.6435,-279.2598,278.3707,126.4168
-581.8807,-548.3397,-346.4478,-272.7818,278.9009,123.0095
-583.5368,-548.4377,-345.3833,-266.4458,279.4919,119.7318
-585.0903,-548.4426,-344.4532,-260.2559,280.1455,116.5862
-586.5402,-548.3559,-343.6609,-254.2160,280.8634,113.5751
-587.8857,-548.1791,-343.0095,-248.3298,281.6475,110.7010
-601.1559,-523.1431,-343.8509,-214.5847,276.6433,75.9888
-590.2604,-547.5619,-342.1422,-237.0334,283.4211,105.3719
-591.2881,-547.1248,-341.9322,-231.6299,284.4139,102.9210
-592.2088,-546.6046,-341.8754,-226.3939,285.4795,100.6149
-593.0218,-546.0032,-341.9746,-221.3283,286.6196,98.4554
-593.7269,-545.3226,-342.2325,-216.4362,287.8355,96.4440
-594.3236,-544.5649,-342.6519,-211.7200,289.1289,94.5822
-594.8119,-543.7322,-343.2354,-207.1825,290.5010,92.8712
-600.4164,-518.4953,-345.1656,-182.4889,291.0303,73.2026
-595.4625,-541.8509,-344.9047,-198.6527,293.4871,89.9065
-595.6248,-540.8071,-345.9953,-194.6648,295.1037,88.6547
-595.6785,-539.6975,-347.2596,-190.8641,296.8042,87.5578
-595.6239,-538.5248,-348.6998,-187.2523,298.5898,86.6164
-595.4611,-537.2916,-350.3180,-183.8311,300.4616,85.8311
-595.1904,-536.0002,-352.1161,-180.6020,302.4206,85.2022
-594.8124,-534.6535,-354.0960,-177.5661,304.4679,84.7302
-608.7276,-524.3634,-345.5378,-203.9151,303.8774,116.5592
-593.7359,-531.8048,-358.6082,-172.0786,308.8305,84.2572
-593.0386,-530.3082,-361.1437,-169.6287,311.1476,84.2562
-592.2361,-528.7672,-363.8675,-167.3757,313.5561,84.4120
-591.3293,-527.1847,-366.7809,-165.3201,316.0568,84.7242
-590.3188,-525.5635,-369.8851,-163.4622,318.6502,85.1924
-589.2055,-523.9065,-373.1813,-161.8022,321.3368,85.8162
-587.9903,-522.2166,-376.6704,-160.3402,324.1171,86.5948
-585.9720,-534.8589,-353.4830,-176.3776,347.2383,124.2297
-585.2583,-518.7500,-384.2309,-158.0098,329.9605,88.6133
-583.7436,-516.9792,-388.3038,-157.1407,333.0240,89.8513
-582.1313,-515.1874,-392.5724,-156.4684,336.1824,91.2404
-580.4225,-513.3775,-397.0373,-155.9923,339.4359,92.7793
-578.6184,-511.5525,-401.6987,-155.7115,342.7843,94.4667
-576.7204,-509.7155,-406.5568,-155.6252,346.2278,96.3013
-574.7297,-507.8694,-411.6117,-155.7324,349.7662,98.2814
-567.0137,-500.2679,-423.5158,-159.3898,349.0245,98.1087
-570.4759,-504.1618,-422.3113,-156.5222,357.1271,102.6719
-568.2156,-502.3063,-427.9556,-157.2021,360.9491,105.0787
-565.8684,-500.4535,-433.7956,-158.0701,364.8650,107.6241
-563.4357,-498.6065,-439.8309,-159.1245,368.8744,110.3060
-560.9192,-496.7680,-446.0607,-160.3636,372.9767,113.1224
-558.3203,-494.9410,-452.4843,-161.7854,377.1714,116.0711
-555.6407,-493.1283,-459.1007,-163.3881,381.4579,119.1500
-552.8820,-491.3328,-465.9089,-165.1695,385.8354,122.3566
-550.0459,-489.5571,-472.9079,-167.1274,390.3033,125.6887
-547.1340,-487.8042,-480.0962,-169.2598,394.8606,129.1437
-544.1480,-486.0765,-487.4725,-171.5641,399.5065,132.7191
-541.0898,-484.3770,-495.0354,-174.0379,404.2400,136.4124
-537.9609,-482.7081,-502.7831,-176.6788,409.0601,140.2209
-534.7632,-481.0724,-510.7140,-179.4841,413.9657,144.1419
-531.4983,-479.4725,-518.8262,-182.4511,418.9557,148.1727
