368.5381,145.9917,-86.0860,358.5047,351.8825,-156.9632
-289.3637,-908.9825,-30.0548,124.8633,378.8798,185.1703
905.4143,-96.3344,434.2728,-174.1248,-293.6223,178.0783
283.0738,272.1331,240.9978,-46.5498,-248.5827,108.8031
-208.9897,-941.7793,682.6213,761.3697,394.2782,-296.6819
-825.5527,-539.5369,585.4272,-247.6098,723.4543,-387.5338
428.0732,-172.7210,277.6615,320.0510,-532.4024,250.8834
-878.4125,-494.7081,380.9074,-76.7051,426.1315,-125.1093
132.3289,326.7510,137.0399,18.4218,-236.9315,117.3246
-190.0325,247.1165,221.1042,-463.6078,-293.9077,15.5496
-1094.6302,-196.6621,120.2732,468.4781,-85.6173,123.1062
-548.7602,-630.0092,-202.3984,355.8613,107.9867,304.0891
832.6301,570.6912,-444.2958,1006.4430,-852.1603,111.9003
728.8904,36.5429,-174.3762,-220.6173,244.0309,-46.7981
505.2975,77.5844,303.4967,-57.2647,-259.2211,82.4448
119.8430,-1349.8674,116.8973,124.3970,523.0218,83.1825
-1348.3265,255.0084,92.7917,410.6294,-72.4768,214.2316
22.2962,24.5903,20.0329,584.3274,440.8212,-93.5783
514.8133,-104.8153,-132.9583,-133.2207,-68.7737,173.4910
949.5804,149.0112,-186.0956,258.7420,-104.0490,102.2230
225.5802,302.7027,318.3157,-363.0477,11.5343,-68.7165
113.6871,414.2055,-18.4244,-58.9033,-143.6468,46.5392
-892.0263,-490.8536,673.7329,375.0669,89.4331,-58.2146
-672.6269,-557.2789,134.9050,-238.9827,730.8037,-152.0702
444.0352,497.3505,-168.1508,12.8314,-56.6445,51.0085
282.0344,165.7749,11.5223,49.4785,-430.8257,262.8926
-219.5112,-580.5021,-302.8045,768.8260,190.4317,368.7320
-2.2782,158.2904,-230.6216,-586.3300,0.2169,-28.9598
454.2832,484.7397,-188.2172,80.7666,-202.6049,56.2735
-731.7193,-409.2035,13.4716,23.1726,486.6825,44.2425
1083.1950,-71.0846,137.9425,246.8594,153.9139,118.9257
-81.6285,121.3811,-81.9455,644.0785,335.8161,-153.9082
-256.2332,-915.6195,140.5711,129.2486,593.8420,185.7374
619.6875,248.0004,-156.7916,162.2673,-333.4211,56.3687
364.1711,-123.1032,138.9241,-74.7738,78.9041,79.7845
380.3306,13.7448,246.3658,-219.4399,-7.8861,-123.5137
845.0326,-91.9889,102.4571,175.4416,266.8971,-41.3490
1000.2476,250.2756,5.3227,134.3115,-428.3646,276.9978
631.5962,115.5864,-40.7910,279.0457,26.3257,106.1515
815.0025,214.8961,-60.7769,113.8882,-41.1594,164.8947
-1252.7669,-184.0802,1413.9638,432.8345,39.0119,-353.7741
-95.8194,-1034.4748,1.3019,236.9847,255.3242,343.9828
-393.3238,-594.7320,-388.5778,165.9006,477.1283,134.7121
-650.5985,-462.0065,120.0715,63.4816,832.6356,-246.7772
-416.6343,-109.4754,-10.0393,845.2288,145.5708,-73.5964
938.1189,-37.4623,-18.7070,187.7582,20.7653,35.5669
430.2593,79.6716,105.5388,-36.1288,195.9151,-169.4346
-594.9059,-606.9494,-82.9194,-41.5135,401.5431,155.5849
1130.4299,-257.9022,144.0936,381.1449,15.2728,25.3007
-58.8199,-856.0948,346.8141,1025.0018,83.6177,19.3821
1268.7682,248.1587,-206.9857,-245.3640,-26.1412,203.2848
-854.6957,-521.1357,276.0094,474.7231,-54.9547,91.5565
402.6881,333.2576,-108.6405,-77.8791,-96.7641,164.0902
190.8882,12.8351,128.5985,-267.4580,107.8849,110.6060
716.7606,281.9666,-113.8449,-134.2798,-26.9466,146.8490
742.5441,621.2630,-113.0659,632.4043,-981.9984,354.1551
-721.9292,-661.5933,107.0274,480.2154,-51.2915,157.7598
-1119.1138,-264.8353,385.9452,464.9937,-0.3865,-100.3003
-588.1435,-647.2221,372.3052,333.7819,202.2525,273.6939
332.9464,317.5395,-197.7908,18.2366,3.8178,-102.4157
366.1830,253.5522,-136.8055,113.3506,-290.7511,130.2490
-631.7588,-26.1543,146.2072,875.9580,-37.1465,92.1764
740.3724,81.9904,-12.3738,600.4973,-244.3775,134.7281
-675.7239,44.2238,-211.7060,929.3121,-70.7427,182.9262
617.1700,404.9683,-207.2521,-71.0766,-318.0958,188.6293
-727.0074,-476.7603,-65.4148,-108.9805,698.5209,-201.5061
934.7121,299.3809,-143.3962,-135.3140,-494.0810,291.5861
-816.4218,-479.7898,463.1957,-183.7898,686.6176,-244.6234
912.3666,-11.0016,6.7006,181.6772,93.6689,55.9302
1533.3470,-236.4790,157.9390,140.5423,-7.1459,-14.5000
-144.5670,580.1950,-52.5777,710.6964,404.0111,-82.0980
-445.0708,-849.8839,67.6331,73.2151,320.7050,106.3152
-974.4335,-226.2468,-99.1509,122.1314,145.7003,204.7054
-414.0736,-134.1906,-966.1733,697.1469,-453.2672,925.1247
-583.7977,-63.1478,-105.7045,875.4066,103.1555,-47.2325
336.0366,735.7586,-366.3125,334.3304,43.8944,63.7800
792.5741,44.3198,-10.9992,407.2183,-155.0498,38.8575
-493.4061,-664.5679,-20.0142,421.5649,-67.1600,588.9793
713.2695,422.9225,-108.4413,80.1347,58.5150,-41.8614
1432.6493,-183.4762,-107.8386,632.1923,-591.2090,491.7326
710.9456,32.3070,-160.1126,324.2183,-210.5769,195.9008
474.9975,259.2411,-54.5588,452.4242,44.3201,23.3986
167.6714,-239.8965,66.8111,-453.3641,-222.0298,56.6190
-478.7305,-626.0875,-59.0925,182.8309,443.7788,199.3736
-585.8418,-396.3048,-446.5431,467.3218,-515.4958,902.4778
-74.0568,-837.4320,65.3750,1056.6044,-107.4122,233.3939
-119.6144,-358.9450,329.5982,836.9971,242.8556,-10.1258
-1.3831,83.0936,232.9699,-193.8374,-687.6387,204.9509
438.8874,-359.6601,279.6133,-108.9823,61.5891,-54.2749
408.4758,419.5166,-128.5997,423.2137,67.8645,14.9934
-319.5178,-1179.7574,703.1945,0.9774,498.9999,-161.8491
72.8751,123.3537,-174.2441,1156.4209,-210.1244,128.6709
376.4275,489.9906,-267.9506,524.1092,-173.0279,129.0606
-71.4415,-909.1834,-190.6642,132.0754,524.1413,201.2029
-185.2200,90.4966,149.3610,-420.6590,-174.4761,-11.1337
452.1074,-10.4481,63.3679,-65.9641,22.0866,-36.2463
-629.3917,-716.4562,416.3394,232.4648,456.5535,-106.4228
-832.1230,373.3248,-306.6662,704.7971,401.4891,-242.2270
840.4142,690.4808,-417.0099,556.6145,-419.5766,108.6496
-436.0774,-855.0436,352.4693,160.8432,563.7582,-145.4784
