Angle, Position X, Position Y, Attribute 1, Attribute 2, Attribute 3, Attribute 4, Attribute 5, Attribute 6, Error
0,199.9695,3.4905,-455.8152,-600.1549,-589.872,420.9959,-213.3894,449.8283,0.8737
1,199.8782,6.9799,-443.6096,-612.0134,-576.7418,460.6757,-280.0627,471.6811,0.4878
2,199.7259,10.4672,-518.5505,-566.5999,-606.9569,463.5641,-282.2456,501.8554,0.2412
3,199.5128,13.9513,-529.8307,-561.8016,-582.9366,497.9081,-300.8564,471.2598,0.1109
4,199.2389,17.4311,-543.7814,-545.2043,-584.7204,486.435,-279.3135,491.7999,0.1174
5,198.9044,20.9057,-515.331,-519.5775,-639.7285,534.208,-312.3511,517.7052,0.4091
6,198.5092,24.3739,-557.2436,-475.7191,-632.9141,504.8052,-258.6309,548.9745,0.2112
7,198.0536,27.8346,-563.7872,-453.8698,-657.3699,507.1337,-266.2943,565.9314,0.3127
8,197.5377,31.2869,-552.262,-455.2328,-716.707,485.7872,-305.2062,613.0514,0.3286
9,196.9616,34.7296,-548.8981,-468.225,-652.8906,519.3067,-310.6805,628.4551,0.505
10,196.3254,38.1618,-507.7736,-493.2307,-698.0577,444.2624,-290.5635,653.4557,0.6192
11,195.6295,41.5823,-525.2126,-488.35,-691.0956,448.2175,-287.6779,674.0122,0.3095
12,194.874,44.9902,-523.8393,-485.5417,-659.486,492.9039,-299.3602,665.5847,0.4837
13,194.0591,48.3844,-573.1214,-451.901,-727.3973,488.0102,-294.9716,665.3181,0.1999
14,193.1852,51.7638,-619.3545,-435.6907,-724.891,524.7331,-318.7834,644.7958,0.5581
15,192.2523,55.1275,-505.2012,-488.4651,-713.1796,496.4346,-318.7329,712.5169,0.2201
16,191.261,58.4743,-507.5305,-507.3177,-654.4004,487.069,-300.8988,725.7735,0.734
17,190.2113,61.8034,-494.0175,-507.4459,-687.4907,494.5801,-297.6903,745.559,0.2376
18,189.1037,65.1136,-479.1038,-537.5651,-677.5545,499.9682,-314.2823,743.5467,0.2862
19,187.9385,68.404,-518.3358,-550.2474,-706.9414,539.1381,-313.3728,702.5152,0.3318
20,186.7161,71.6736,-477.2461,-541.3467,-676.0686,560.7092,-290.1737,735.6317,0.5572
21,185.4368,74.9213,-463.3195,-564.3018,-662.0825,519.2314,-299.7817,737.5915,0.2497
22,184.101,78.1462,-497.3745,-583.6027,-666.3907,506.8333,-319.2366,754.8265,0.3061
23,182.7091,81.3473,-504.601,-590.6485,-679.8317,513.4439,-325.3147,761.2644,0.3008
24,181.2616,84.5237,-493.7123,-667.7167,-681.8583,597.4243,-405.8932,789.7065,0.4309
25,179.7588,87.6742,-513.8771,-622.4927,-697.9601,563.6238,-428.7423,810.8445,0.3115
26,178.2013,90.7981,-477.7802,-592.1624,-711.4548,530.7012,-368.4441,818.245,0.4888
27,176.5895,93.8943,-476.6598,-526.1739,-784.2137,546.9837,-337.7722,868.1575,0.309
28,174.9239,96.9619,-485.3042,-504.0664,-766.9342,569.5503,-310.201,848.0009,0.2154
29,173.2051,100,-483.8695,-503.4651,-713.2295,577.4944,-243.5199,778.4293,0.699
30,171.4335,103.0076,-505.523,-527.583,-695.8803,597.1215,-254.4578,765.7637,0.6489
31,169.6096,105.9839,-486.6112,-530.7797,-699.2823,615.5582,-272.961,786.3958,0.2867
32,167.7341,108.9278,-498.3486,-545.505,-674.2708,608.8742,-261.2891,789.4943,0.5054
33,165.8075,111.8386,-506.6687,-580.1033,-665.2998,622.45,-273.7854,791.8576,0.5112
34,163.8304,114.7153,-507.902,-587.4579,-692.4378,587.7786,-293.183,814.9522,0.2381
35,161.8034,117.5571,-528.1296,-568.7893,-707.605,587.353,-299.6164,819.8425,0.1516
36,159.7271,120.363,-528.5716,-557.203,-712.1091,597.0692,-289.7061,840.7795,0.6317
37,157.6022,123.1323,-550.3761,-556.0022,-744.607,594.3984,-315.6878,843.0028,0.4926
38,155.4292,125.8641,-533.8369,-573.289,-731.7196,642.7291,-282.2145,851.1983,0.2921
39,153.2089,128.5575,-523.7052,-594.4606,-699.4519,597.2195,-290.2334,878.8957,0.9819
40,150.9419,131.2118,-494.7142,-586.8046,-723.0838,587.0026,-269.3928,903.9361,0.0655
41,148.629,133.8261,-513.0184,-517.2375,-768.3994,663.106,-266.4223,904.0361,0.1384
42,146.2707,136.3997,-529.6055,-562.701,-722.4287,678.6271,-256.1915,879.1659,0.5101
43,143.868,138.9317,-550.2147,-554.5155,-733.3808,682.6344,-263.8868,867.983,0.0565
44,141.4214,141.4214,-565.9399,-573.4147,-715.4975,632.2664,-179.1697,816.4434,0.0659
45,138.9317,143.868,-532.268,-556.3012,-693.0289,549.4866,-135.2171,881.9129,0.58
46,136.3997,146.2707,-551.6586,-595.9989,-686.1484,496.0437,-157.8222,882.4959,0.6729
47,133.8261,148.629,-545.4742,-627.8333,-679.2136,510.5152,-148.5952,891.5149,0.7237
48,131.2118,150.9419,-539.6494,-630.7377,-706.101,532.8909,-160.3339,885.8781,0.308
49,128.5575,153.2089,-541.5088,-590.453,-727.7121,522.8892,-167.1303,875.5073,0.3617
50,125.8641,155.4292,-687.8317,-498.3588,-760.9866,573.3993,-272.6117,983.0568,2.0153
51,123.1323,157.6022,-680.8189,-520.4482,-723.5837,557.4918,-278.4363,976.343,0.9081
52,120.363,159.7271,-666.7794,-540.045,-660.4255,573.2192,-314.6183,1015.3761,0.9291
53,117.5571,161.8034,-710.2682,-546.1924,-612.7523,588.3169,-332.2253,990.9442,0.5199
54,114.7153,163.8304,-731.96,-574.0544,-557.027,697.215,-209.8491,931.6315,0.1553
55,111.8386,165.8075,-758.4005,-565.9848,-564.469,682.1587,-234.4728,913.1006,0.4367
56,108.9278,167.7341,-748.117,-551.4335,-527.0687,700.8362,-165.211,939.2373,0.7286
57,105.9839,169.6096,-706.0952,-542.2334,-532.3066,694.2841,-146.4325,959.2624,0.2454
58,103.0076,171.4335,-691.8964,-550.3107,-547.799,696.4856,-168.8045,972.9466,0.7569
59,100,173.2051,-661.1815,-604.66,-562.6505,704.7797,-172.6615,957.486,0.8839
60,96.9619,174.9239,-620.9909,-614.4297,-568.2635,680.0061,-148.7789,996.5362,0.8086
61,93.8943,176.5895,-637.7976,-605.2479,-576.0172,660.372,-174.6783,989.2939,1.0823
62,90.7981,178.2013,-612.042,-640.7134,-568.0904,670.4437,-134.0601,988.142,0.7016
63,87.6742,179.7588,-605.7119,-603.2285,-631.8998,649.5154,-146.1239,1085.754,1.25
64,84.5237,181.2616,-577.0405,-649.8712,-519.8363,607.2763,-120.6874,1093.4011,0.5594
65,81.3473,182.7091,-601.6267,-671.4543,-515.1745,562.7717,-112.4102,1118.5941,1.2176
66,78.1462,184.101,-564.9152,-693.9877,-521.1157,572.1574,-161.1286,1179.9771,0.6031
67,74.9213,185.4368,-568.7372,-686.2899,-620.811,596.0211,-169.1432,1082.1268,0.5595
68,71.6736,186.7161,-566.7952,-679.5372,-619.5569,585.8244,-153.2285,1094.3266,0.9865
69,68.404,187.9385,-590.7682,-674.074,-618.0547,586.1218,-157.4984,1084.4858,1.0603
70,65.1136,189.1037,-572.502,-708.8749,-624.736,576.8548,-116.7143,1100.7982,0.7764
71,61.8034,190.2113,-594.4301,-687.8146,-660.4838,565.6059,-83.3522,1097.0746,0.2623
72,58.4743,191.261,-587.068,-670.1218,-673.2884,568.0419,-90.0107,1104.9557,0.2197
73,55.1275,192.2523,-534.5362,-679.5431,-654.5947,538.6331,-68.5295,1101.2264,0.6804
74,51.7638,193.1852,-523.8832,-745.7368,-646.7908,586.0564,-67.3929,1060.9578,0.8667
75,48.3844,194.0591,-482.6415,-754.6373,-620.3458,586.6707,-23.2497,1054.0261,0.766
76,44.9902,194.874,-546.0414,-709.0815,-623.231,684.1688,-3.8239,1006.0809,1.1153
77,41.5823,195.6295,-566.3034,-704.3565,-583.2874,677.5691,-17.5443,982.5063,0.9652
78,38.1618,196.3254,-581.0927,-741.257,-608.5432,676.3076,-25.6133,992.8726,1.0393
79,34.7296,196.9616,-576.8071,-751.5126,-624.0808,684.8754,-54.2503,995.66,0.8098
80,31.2869,197.5377,-589.5464,-759.9649,-580.3197,677.8154,-51.5782,986.5746,0.3833
81,27.8346,198.0536,-603.9398,-755.3705,-571.7223,699.5043,-42.688,988.6897,0.7773
82,24.3739,198.5092,-524.8038,-819.5501,-589.6627,692.55,-68.2936,962.2699,0.6341
83,20.9057,198.9044,-530.6351,-843.908,-618.8169,792.2173,-57.002,968.4956,0.7607
84,17.4311,199.2389,-540.3034,-797.3457,-541.4147,832.0895,-94.066,932.9017,1.0088
85,13.9513,199.5128,-476.8334,-798.7958,-546.9059,843.3058,-42.4112,1010.2242,0.7636
86,10.4672,199.7259,-492.0565,-825.9102,-522.312,832.2785,-74.9865,998.0017,1.5173
87,6.9799,199.8782,-625.752,-808.4483,-494.7702,748.9328,-108.8253,978.8536,1.1504
88,3.4905,199.9695,-628.4178,-789.2966,-471.4351,740.986,-88.5954,994.7093,1.4826
89,0,200,-642.8027,-803.4231,-484.895,766.2678,-38.7555,987.4468,0.6116
90,-3.4905,199.9695,-671.0163,-767.0674,-496.5503,737.0247,-52.8174,998.5283,0.5577
91,-6.9799,199.8782,-681.8202,-776.6459,-482.5354,730.7607,-39.5296,993.9642,0.3104
92,-10.4672,199.7259,-676.5176,-779.0947,-493.8293,735.1915,-58.4036,952.4085,0.5533
93,-13.9513,199.5128,-686.092,-792.0778,-462.9044,715.9182,-77.6132,987.3343,2.1663
94,-17.4311,199.2389,-649.2658,-805.942,-488.847,769.8855,-47.4053,981.4246,0.7998
95,-20.9057,198.9044,-632.263,-826.8608,-511.6811,743.039,-25.9002,1004.83,0.2325
96,-24.3739,198.5092,-691.6967,-776.1468,-518.0509,756.1442,23.9225,904.9661,0.3808
97,-27.8346,198.0536,-701.7152,-794.0456,-523.1251,726.0865,26.8612,880.7324,1.3987
98,-31.2869,197.5377,-736.5173,-768.3424,-528.8781,699.7544,65.8928,902.5263,1.3633
99,-34.7296,196.9616,-757.5771,-778.994,-517.1801,710.4245,76.2963,874.0223,0.9416
100,-38.1618,196.3254,-726.856,-790.6689,-496.8634,706.0632,92.0693,898.4102,1.7231
101,-41.5823,195.6295,-681.2668,-794.4583,-469.4962,744.244,155.5261,950.5964,1.7869
102,-44.9902,194.874,-693.1448,-846.3214,-492.985,692.627,107.7939,1002.2283,0.663
103,-48.3844,194.0591,-676.6082,-805.8823,-541.3092,733.1364,93.9134,1018.0907,0.409
104,-51.7638,193.1852,-669.1932,-784.2942,-578.9942,710.627,114.2298,1088.5377,0.6689
105,-55.1275,192.2523,-672.844,-812.327,-555.2497,684.1438,122.6168,1084.7301,0.2726
106,-58.4743,191.261,-656.5149,-769.1394,-517.8275,749.6869,67.3136,1089.5337,2.6371
107,-61.8034,190.2113,-649.6063,-829.8037,-479.53,699.587,56.7053,1125.1888,3.5661
108,-65.1136,189.1037,-623.5308,-850.1366,-482.9774,699.197,46.6863,1120.5653,5.9443
109,-68.404,187.9385,-658.6759,-862.4917,-509.1557,661.4585,28.0359,1122.1733,8.6331
110,-71.6736,186.7161,-674.7115,-829.0141,-508.8608,655.5297,64.7497,1106.5683,10.6397
111,-74.9213,185.4368,-599.4711,-813.7614,-558.1614,635.0531,91.5122,1106.616,13.08
112,-78.1462,184.101,-575.914,-810.0683,-546.4293,581.9612,98.4182,1098.0544,14.8419
113,-81.3473,182.7091,-605.834,-829.5782,-552.8238,548.3256,121.8725,1098.1285,18.7314
114,-84.5237,181.2616,-611.7059,-832.7346,-570.9813,502.3467,141.9069,1094.2473,23.1619
115,-87.6742,179.7588,-686.6335,-788.9421,-571.7293,543.1337,100.7202,1005.8564,28.0252
116,-90.7981,178.2013,-691.707,-729.6071,-560.2911,527.7458,118.82,1035.7962,29.1891
117,-93.8943,176.5895,-719.4346,-760.2926,-565.9751,512.7749,130.3135,1026.4394,30.8026
118,-96.9619,174.9239,-688.5452,-768.7265,-535.1651,504.7891,72.9418,1036.0279,32.8018
119,-100,173.2051,-742.5453,-708.4851,-507.8861,553.649,122.9428,979.4259,37.3591
120,-103.0076,171.4335,-755.5493,-691.1345,-496.8043,572.764,113.5844,997.3157,42.9212
121,-105.9839,169.6096,-761.315,-701.3258,-487.1045,564.2977,120.9399,988.8775,46.8146
122,-108.9278,167.7341,-759.0296,-635.3803,-523.0327,597.6551,105.8344,987.22,48.2459
123,-111.8386,165.8075,-735.5111,-628.2428,-535.0324,556.4649,96.5397,976.5042,53.0872
124,-114.7153,163.8304,-746.6277,-628.1245,-533.048,523.5042,142.0007,970.2354,58.8642
125,-117.5571,161.8034,-712.8654,-201.5007,-150.8611,-524.2526,-96.4758,133.4005,20.6375
126,-120.363,159.7271,-687.0054,-207.6909,-74.5066,-496.9839,-94.0352,145.5834,17.7908
127,-123.1323,157.6022,-695.5262,-178.8657,-50.4597,-518.0238,-99.7081,111.6552,21.0723
128,-125.8641,155.4292,-695.7405,-165.2103,-67.4504,-509.9434,-98.0747,102.7114,23.001
129,-128.5575,153.2089,-686.2333,-181.4079,-74.8383,-521.6663,-74.9514,103.1759,24.6161
130,-131.2118,150.9419,-650.0179,-149.5104,-103.2781,-502.7473,-24.1405,115.8381,25.698
131,-133.8261,148.629,-641.8794,-170.0768,-89.2227,-486.3323,-35.9998,137.108,27.5291
132,-136.3997,146.2707,-615.127,-176.1178,-81.5329,-496.768,-10.4986,157.201,32.5366
133,-138.9317,143.868,-630.6859,-196.8681,-79.1946,-518.5246,-10.1137,163.5828,32.4449
134,-141.4214,141.4214,-637.9278,-199.7387,-63.82,-542.4099,0.3552,144.1448,30.7732
135,-143.868,138.9317,-624.5479,-194.2925,-100.2308,-571.951,34.6146,151.5015,33.9804
136,-146.2707,136.3997,-557.635,-222.9534,-112.5607,-527.615,85.7715,188.0271,30.6699
137,-148.629,133.8261,-562.3568,-208.2195,-107.8961,-509.3424,78.2242,223.041,31.1799
138,-150.9419,131.2118,-569.9914,-296.9349,-56.1813,-505.3335,60.4852,375.8277,21.8364
139,-153.2089,128.5575,-876.8721,-338.12,-249.7332,-667.4645,96.1464,559.4388,23.3569
140,-155.4292,125.8641,-876.7098,-329.9936,-219.5933,-637.8684,91.0688,548.8473,13.0897
141,-157.6022,123.1323,-860.4064,-295.9351,-206.2842,-651.7503,124.3896,552.1073,9.2331
142,-159.7271,120.363,-846.3921,-304.8706,-189.6826,-654.8393,121.1779,553.4044,7.1459
143,-161.8034,117.5571,-759.4441,-297.9627,-176.6966,-585.0034,-16.4797,537.676,8.3153
144,-163.8304,114.7153,-789.3103,-297.0154,-170.125,-563.3185,-19.2411,543.2953,6.3916
145,-165.8075,111.8386,-626.3148,-277.9599,-232.0303,-671.4536,61.0736,557.5897,3.7049
146,-167.7341,108.9278,-664.166,-339.7138,-265.2368,-674.2679,61.657,582.4082,1.9015
147,-169.6096,105.9839,-767.9667,-419.0461,-293.6945,-718.7784,34.3913,742.3047,0.9135
148,-171.4335,103.0076,-839.3223,-405.4972,-361.4679,-744.8557,-43.0513,685.4671,0.566
149,-173.2051,100,-808.3949,-394.7319,-382.8939,-706.6216,10.6157,684.8597,0.3485
150,-174.9239,96.9619,-835.5717,-532.3513,-417.0234,-912.5287,83.6033,668.8662,0.6479
151,-176.5895,93.8943,-826.2946,-561.253,-432.1807,-913.1379,81.9087,722.7303,0.3613
152,-178.2013,90.7981,-858.9109,-554.5457,-386.0361,-881.3622,98.8518,691.8861,0.2231
153,-179.7588,87.6742,-839.6093,-593.1231,-390.7059,-848.6134,164.8422,627.1111,1.8711
154,-181.2616,84.5237,-804.1353,-631.445,-404.0402,-860.8942,155.4684,640.2706,3.3139
155,-182.7091,81.3473,-788.8316,-606.1967,-393.3673,-800.9513,153.5618,641.0422,4.9655
156,-184.101,78.1462,-793.3145,-626.3104,-413.599,-784.6268,177.5699,599.4088,3.3915
157,-185.4368,74.9213,-796.1886,-640.2841,-484.4225,-767.0394,216.8777,620.4065,3.6829
158,-186.7161,71.6736,-839.7462,-652.1187,-490.3394,-767.2062,188.006,627.7238,0.3408
159,-187.9385,68.404,-861.1269,-690.9563,-549.193,-737.3511,194.5639,589.8658,0.0753
160,-189.1037,65.1136,-831.4113,-713.3455,-526.3122,-715.9457,203.1148,609.3856,0.1319
161,-190.2113,61.8034,-755.1184,-766.5943,-436.3857,-699.5792,259.8534,533.7945,1.1314
162,-191.261,58.4743,-751.4441,-770.4292,-421.4166,-725.5448,290.1812,501.5372,1.5307
163,-192.2523,55.1275,-745.6914,-795.8776,-454.5979,-701.481,321.6025,476.327,1.4422
164,-193.1852,51.7638,-724.6838,-811.6493,-449.7557,-690.5153,322.8098,470.2922,3.7127
165,-194.0591,48.3844,-733.4995,-821.1194,-446.2661,-706.5621,331.299,502.1002,2.4706
166,-194.874,44.9902,-701.6265,-768.5166,-497.3513,-724.3198,286.0575,553.7969,0.8306
167,-195.6295,41.5823,-583.8056,-813.5695,-545.1381,-628.9196,215.1462,533.0478,2.179
168,-196.3254,38.1618,-605.3521,-819.3964,-578.9498,-608.0544,199.5398,557.8588,7.682
169,-196.9616,34.7296,-572.8097,-817.0726,-574.6598,-625.6554,223.8595,577.6755,1.9931
170,-197.5377,31.2869,-587.3353,-814.5392,-565.0864,-617.1326,222.7346,589.9056,3.039
171,-198.0536,27.8346,-571.5519,-827.2961,-596.8763,-587.7913,216.3372,574.4147,1.7375
172,-198.5092,24.3739,-483.5082,-890.8775,-710.0706,-582.3737,233.9181,543.4098,1.5166
173,-198.9044,20.9057,-452.5743,-881.0802,-653.1525,-559.9135,219.2804,571.0999,0.9552
174,-199.2389,17.4311,-439.8564,-892.023,-669.1914,-569.4999,244.307,562.4747,2.4925
175,-199.5128,13.9513,-503.9247,-803.3874,-664.1386,-579.206,303.2233,540.3532,5.5849
176,-199.7259,10.4672,-580.9724,-765.1348,-674.2337,-530.4333,361.2425,445.6895,9.0965
177,-199.8782,6.9799,-524.2357,-736.2722,-676.4605,-543.0769,345.5314,424.17,11.7517
178,-199.9695,3.4905,-524.256,-738.9214,-664.3367,-562.047,314.8757,422.4154,15.3381
179,-200,0,-539.0511,-778.9153,-657.4222,-540.0588,316.7102,435.9836,18.0317
180,-199.9695,-3.4905,-529.8641,-841.1102,-683.4298,-537.8005,312.1451,524.1571,17.9988
181,-199.8782,-6.9799,-544.3397,-876.0448,-665.558,-564.1935,345.7157,506.3004,14.9019
182,-199.7259,-10.4672,-529.4731,-911.6301,-691.1157,-584.5289,344.9311,517.3472,11.0115
183,-199.5128,-13.9513,-512.3589,-952.5575,-721.9337,-603.4674,363.5964,518.9097,7.6718
184,-199.2389,-17.4311,-553.5782,-963.0059,-655.5821,-626.1652,331.5545,514.9234,6.1556
185,-198.9044,-20.9057,-586.0508,-957.3022,-637.9867,-631.512,364.014,545.3746,4.1988
186,-198.5092,-24.3739,-650.6119,-909.9054,-656.3298,-573.9294,374.371,476.1214,0.6675
187,-198.0536,-27.8346,-640.1735,-905.7941,-669.1127,-527.9508,348.812,498.99,0.8164
188,-197.5377,-31.2869,-690.0687,-912.4116,-602.8693,-453.2121,361.302,484.3035,0.7642
189,-196.9616,-34.7296,-699.7035,-888.414,-645.1382,-446.7443,344.1734,477.993,0.7037
190,-196.3254,-38.1618,-710.8652,-895.2837,-615.2518,-413.1842,341.4303,491.5428,0.7549
191,-195.6295,-41.5823,-714.9666,-881.5595,-645.3949,-414.5065,352.7556,483.661,0.6809
192,-194.874,-44.9902,-732.9687,-861.9868,-603.1157,-413.2508,363.6689,467.8749,0.7244
193,-194.0591,-48.3844,-728.4784,-917.3559,-620.6318,-361.6589,378.4684,424.113,0.8698
194,-193.1852,-51.7638,-698.8271,-930.2368,-610.5585,-342.9794,381.6995,449.0077,2.0933
195,-192.2523,-55.1275,-697.3879,-918.5482,-585.7235,-323.3971,362.1475,463.0962,1.3272
196,-191.261,-58.4743,-706.1769,-914.5377,-611.5265,-336.0537,350.4189,429.282,1.5625
197,-190.2113,-61.8034,-657.5766,-908.1715,-632.1161,-357.5478,398.6625,433.8548,1.9546
198,-189.1037,-65.1136,-589.0268,-995.8667,-574.4155,-285.4316,358.7482,443.8578,0.9628
199,-187.9385,-68.404,-599.5826,-994.1555,-565.5464,-272.11,362.1319,443.4178,0.6263
200,-186.7161,-71.6736,-607.391,-978.6189,-572.2485,-274.7912,381.1902,461.8459,1.4602
201,-185.4368,-74.9213,-614.1605,-961.9868,-549.7167,-278.9457,353.8507,446.7578,1.0554
202,-184.101,-78.1462,-621.8833,-1038.0258,-514.271,-164.2313,354.4585,431.4722,1.7903
203,-182.7091,-81.3473,-620.9698,-997.0167,-524.6629,-176.1605,384.7686,415.6068,0.7785
204,-181.2616,-84.5237,-627.9209,-987.293,-525.2757,-193.7212,395.3957,423.3506,2.5333
205,-179.7588,-87.6742,-646.8431,-1072.5881,-457.3431,-186.95,406.5404,408.4559,2.7493
206,-178.2013,-90.7981,-673.5668,-1141.4842,-431.8181,-131.7375,399.5892,377.1308,2.4715
207,-176.5895,-93.8943,-722.5032,-1168.987,-455.7116,-203.8192,472.1356,389.2893,2.2986
208,-174.9239,-96.9619,-806.8916,-1060.7515,-421.4614,-203.9968,493.953,359.734,3.2836
209,-173.2051,-100,-775.2961,-1066.6776,-391.2312,-235.4251,472.741,371.6261,0.9808
210,-171.4335,-103.0076,-759.459,-1071.4254,-402.4403,-213.7077,447.3234,393.3813,0.4938
211,-169.6096,-105.9839,-770.4651,-1059.9214,-409.6053,-204.1456,501.3342,334.451,0.7988
212,-167.7341,-108.9278,-759.8005,-1063.1524,-397.3809,-215.1929,500.9651,346.1391,0.3095
213,-165.8075,-111.8386,-733.2383,-1091.0733,-430.2439,-263.2363,544.5115,352.6279,0.6507
214,-163.8304,-114.7153,-743.2771,-1111.1788,-492.7352,-220.308,517.2204,328.3576,0.7692
215,-161.8034,-117.5571,-755.2712,-1112.6147,-438.5985,-228.3561,541.8766,345.5576,0.7261
216,-159.7271,-120.363,-755.8611,-1127.5108,-437.0083,-235.68,526.0205,354.7898,1.0503
217,-157.6022,-123.1323,-725.0575,-1118.807,-422.8669,-250.3758,505.7382,372.2698,0.513
218,-155.4292,-125.8641,-769.105,-1141.2616,-433.7358,-251.7863,560.1139,362.0232,0.2123
219,-153.2089,-128.5575,-784.5853,-1171.5735,-415.2014,-195.223,526.3121,349.8557,0.352
220,-150.9419,-131.2118,-771.5123,-1182.8992,-425.6731,-177.669,543.3596,346.69,0.431
221,-148.629,-133.8261,-741.6834,-1207.5805,-403.9098,-205.9614,566.105,342.4502,0.26
222,-146.2707,-136.3997,-818.9635,-1193.4118,-428.0281,-212.9461,595.4236,322.5761,0.3695
223,-143.868,-138.9317,-820.4283,-1216.8214,-411.7066,-190.1437,560.992,310.7838,0.5964
224,-141.4214,-141.4214,-839.5796,-1225.3212,-406.1054,-218.8445,588.3021,324.578,0.515
225,-138.9317,-143.868,-840.8337,-1213.7098,-394.4734,-215.2024,583.3477,324.2295,1.3759
226,-136.3997,-146.2707,-821.1677,-1198.821,-401.3894,-201.8522,566.4377,345.0946,0.9688
227,-133.8261,-148.629,-781.8577,-1172.2501,-397.9358,-224.8625,563.633,344.5783,0.7986
228,-131.2118,-150.9419,-797.3217,-1192.2362,-407.6414,-228.8062,565.4701,338.2713,1.1986
229,-128.5575,-153.2089,-807.5542,-1188.2003,-439.3701,-223.0067,544.7901,377.0864,0.199
230,-125.8641,-155.4292,-815.55,-1195.3635,-394.864,-234.9128,543.8308,361.6193,0.0842
231,-123.1323,-157.6022,-784.8783,-1241.9079,-400.5703,-225.3984,540.8485,375.4666,0.4006
232,-120.363,-159.7271,-779.3149,-1283.8552,-386.0196,-219.1782,544.217,375.6225,1.045
233,-117.5571,-161.8034,-786.5298,-1199.0856,-393.2886,-251.101,531.7543,389.6241,0.5351
234,-114.7153,-163.8304,-766.8765,-1253.8347,-431.7729,-212.7585,519.6929,398.9429,0.4438
235,-111.8386,-165.8075,-771.7761,-1244.3969,-437.449,-206.0488,492.5477,400.3206,1.7069
236,-108.9278,-167.7341,-764.0336,-1236.6013,-443.4345,-201.2814,489.0939,386.1332,0.7891
237,-105.9839,-169.6096,-705.5227,-1233.1307,-443.9477,-200.0113,449.5374,432.7145,0.6753
238,-103.0076,-171.4335,-695.6918,-1270.3088,-437.9141,-204.8951,447.181,411.4219,0.925
239,-100,-173.2051,-724.9161,-1279.0201,-435.1652,-181.5376,433.8133,447.9495,1.6627
240,-96.9619,-174.9239,-755.2932,-1229.6611,-470.6963,-219.7973,432.7466,431.5771,1.3564
241,-93.8943,-176.5895,-739.3721,-1228.2709,-514.745,-208.9203,412.4174,434.9566,1.0663
242,-90.7981,-178.2013,-709.6835,-1263.1434,-511.6851,-202.1653,398.6694,409.46,0.9404
243,-87.6742,-179.7588,-685.3411,-1277.4009,-556.9643,-161.5169,398.2183,389.9939,0.3341
244,-84.5237,-181.2616,-693.3835,-1263.7226,-564.1198,-166.5652,413.738,371.1425,1.1035
245,-81.3473,-182.7091,-650.8425,-1290.1747,-433.1337,-235.2087,508.4263,499.494,1.4736
246,-78.1462,-184.101,-646.3705,-1320.9846,-426.0405,-194.5562,502.3428,415.5448,1.9151
247,-74.9213,-185.4368,-641.9403,-1284.6944,-440.5528,-181.6963,484.5426,424.5803,6.093
248,-71.6736,-186.7161,-658.1104,-1267.9922,-424.4643,-157.0801,495.031,430.1142,4.5929
249,-68.404,-187.9385,-700.5749,-1240.8933,-453.6071,-171.5169,548.0372,392.1889,3.0672
250,-65.1136,-189.1037,-697.5715,-1217.8873,-453.3729,-156.5459,560.1638,386.4174,1.2817
251,-61.8034,-190.2113,-715.8757,-1222.973,-476.9562,-257.5672,552.3043,383.786,2.9215
252,-58.4743,-191.261,-703.8873,-1201.9582,-476.4183,-244.033,571.5461,417.5679,9.1951
253,-55.1275,-192.2523,-742.428,-1156.4085,-480.7278,-214.6123,606.8083,443.187,15.0003
254,-51.7638,-193.1852,-924.916,-1187.5313,-514.0366,-294.1707,545.4524,409.4489,21.2554
255,-48.3844,-194.0591,-951.6535,-1168.7002,-499.4339,-346.018,551.2159,467.9552,25.6733
256,-44.9902,-194.874,-952.4272,-1159.4711,-487.0387,-324.9188,527.8951,449.3504,35.2073
257,-41.5823,-195.6295,-879.2835,-1139.8918,-479.1155,-240.765,448.7589,501.6126,35.7587
258,-38.1618,-196.3254,-909.9342,-1119.968,-441.6816,-206.1815,459.7149,511.5112,36.4791
259,-34.7296,-196.9616,276.7216,135.496,63.0078,-408.0699,-20.3851,383.1559,0.385
260,-31.2869,-197.5377,246.9706,176.7341,89.5273,-398.4581,-69.6798,341.963,1.5532
261,-27.8346,-198.0536,243.832,133.3555,77.1746,-435.0674,-52.8603,325.9881,1.1467
262,-24.3739,-198.5092,262.8792,164.2901,66.128,-373.2887,-114.2477,287.7016,5.6045
263,-20.9057,-198.9044,240.7717,180.4056,67.146,-359.6131,-103.3001,278.7405,5.9519
264,-17.4311,-199.2389,235.4953,115.4051,157.3527,-375.8562,-99.6623,363.8203,6.0147
265,-13.9513,-199.5128,222.445,140.938,159.4939,-404.0975,-117.2454,309.1278,5.7694
266,-10.4672,-199.7259,230.5804,111.5493,173.0263,-397.4742,-122.8974,324.9526,8.5238
267,-6.9799,-199.8782,254.6728,120.6302,155.9166,-399.9768,-101.7878,367.3375,13.492
268,-3.4905,-199.9695,183.9779,83.8503,198.2957,-428.7088,-129.9196,253.1212,11.3419
269,0,-200,174.6513,106.2904,207.0658,-407.1169,-132.2475,255.6599,12.1876
270,3.4905,-199.9695,162.9279,88.6497,222.3453,-441.676,-100.4367,260.8255,13.5646
271,6.9799,-199.8782,168.3952,42.0838,214.8223,-456.0778,-118.7983,240.7872,15.817
272,10.4672,-199.7259,134.7715,-19.7272,251.6754,-500.3063,-145.5743,271.5243,10.2646
273,13.9513,-199.5128,122.5484,-22.6344,231.6427,-512.1355,-171.6035,225.9913,11.1327
274,17.4311,-199.2389,74.3102,-53.2449,201.9156,-522.8572,-193.2124,251.6939,12.1822
275,20.9057,-198.9044,65.7985,-86.4286,244.6279,-573.9278,-152.1369,277.7892,9.5589
276,24.3739,-198.5092,107.505,-87.544,288.1665,-570.5969,-149.7816,272.3818,13.8106
277,27.8346,-198.0536,60.6837,-16.3557,304.5333,-618.7963,-94.3822,279.5493,11.8583
278,31.2869,-197.5377,11.8941,-32.263,297.0874,-626.9571,-86.0039,247.2378,11.9231
279,34.7296,-196.9616,-34.1156,-7.1867,310.8437,-558.9461,-102.847,244.8061,13.2182
280,38.1618,-196.3254,-41.8635,-31.4166,343.4058,-571.4671,-133.9803,230.7934,13.2138
281,41.5823,-195.6295,-62.8174,-14.6985,370.792,-602.9778,-82.2345,255.7736,14.8455
282,44.9902,-194.874,-74.9888,-25.2166,369.3237,-650.2377,-69.4567,277.3188,13.1177
283,48.3844,-194.0591,-216.8058,-80.0439,557.2164,-657.1495,-30.3811,148.8596,9.8538
284,51.7638,-193.1852,-216.7495,-75.4986,552.0917,-636.3746,17.8453,149.11,11.6476
285,55.1275,-192.2523,-268.424,-106.0148,533.7881,-627.6172,-18.519,156.9387,11.3345
286,58.4743,-191.261,-296.5651,-111.5194,503.6173,-675.6991,-30.1515,191.2445,10.1272
287,61.8034,-190.2113,-312.7931,-127.7062,522.4916,-661.6093,-24.2895,178.1575,10.2825
288,65.1136,-189.1037,-340.9689,-182.7037,499.9439,-663.4759,-40.8527,171.5928,9.2269
289,68.404,-187.9385,-357.535,-198.3253,502.7337,-678.134,-48.8167,153.8156,9.6134
290,71.6736,-186.7161,-325.9589,-206.461,564.9206,-662.0616,-18.2384,164.5498,10.5071
291,74.9213,-185.4368,-352.2038,-158.2691,590.9396,-662.4842,46.0019,219.2668,12.4911
292,78.1462,-184.101,-338.992,-167.7704,601.8269,-653.6094,41.7312,216.285,13.3255
293,81.3473,-182.7091,-438.599,-107.6385,618.1275,-844.9254,131.5558,172.0687,9.396
294,84.5237,-181.2616,-451.2457,-153.3186,601.4453,-858.7771,194.4199,147.8559,9.2222
295,87.6742,-179.7588,-465.9615,-91.7987,656.3025,-852.1506,178.4664,156.5301,7.4514
296,90.7981,-178.2013,-486.9236,-92.4623,654.3942,-880.2559,173.6424,151.573,7.9627
297,93.8943,-176.5895,-509.4137,-96.1992,640.0159,-895.8005,158.9557,129.1049,6.2797
298,96.9619,-174.9239,-568.5319,-70.4601,619.458,-907.3931,248.1288,117.8003,4.3708
299,100,-173.2051,-588.6022,-70.3982,692.0762,-903.3271,264.8642,126.3215,5.0367
300,103.0076,-171.4335,-559.3626,-73.4778,622.2611,-919.6289,222.8916,173.4697,5.3345
301,105.9839,-169.6096,-680.9764,-45.19,611.1093,-808.1097,159.5593,150.4542,6.9428
302,108.9278,-167.7341,-726.6079,-26.0454,653.5098,-753.3227,172.1808,144.2377,4.795
303,111.8386,-165.8075,-771.6318,-27.3593,650.2066,-803.6456,237.8485,139.6706,4.2736
304,114.7153,-163.8304,-800.3316,-46.5218,625.1106,-776.3337,304.559,75.731,6.3602
305,117.5571,-161.8034,-811.1458,-39.0622,587.4149,-753.9317,313.4676,64.5746,6.4698
306,120.363,-159.7271,-816.3707,-63.2047,588.095,-744.2649,302.1724,61.2229,6.6631
307,123.1323,-157.6022,-845.7153,-97.0948,494.8916,-756.7854,370.7539,15.0626,7.2949
308,125.8641,-155.4292,-866.1901,-134.0853,500.6317,-716.0843,388.6235,9.6561,7.3127
309,128.5575,-153.2089,-847.5688,-95.6632,543.1533,-749.6944,394.7763,-45.7,7.3218
310,131.2118,-150.9419,-833.1799,-65.2764,533.0426,-736.9165,387.4298,-15.9728,7.2943
311,133.8261,-148.629,-833.9121,-63.6283,509.4819,-770.1791,382.0108,-17.2048,6.5591
312,136.3997,-146.2707,-885.4445,-35.5766,500.9443,-798.5616,468.3992,-40.6714,6.1766
313,138.9317,-143.868,-909.7109,-59,490.6646,-829.5183,479.8092,-32.5703,6.8271
314,141.4214,-141.4214,-963.1082,-92.9113,512.1025,-823.309,490.1367,-52.2865,6.986
315,143.868,-138.9317,-988.6918,-48.1675,544.7594,-792.8298,514.1663,-58.3861,6.9418
316,146.2707,-136.3997,-989.7404,-56.9525,548.4877,-781.0541,501.623,-93.7501,8.1129
317,148.629,-133.8261,-1011.6245,-57.9358,560.6765,-797.4111,513.0725,-88.2232,7.7782
318,150.9419,-131.2118,-1020.9552,-63.2982,582.1057,-767.355,530.4886,-104.2105,7.7133
319,153.2089,-128.5575,-1077.7692,-193.9755,712.0619,-713.1851,757.7486,-242.5372,5.867
320,155.4292,-125.8641,-1087.5637,-182.0022,672.9901,-673.2796,737.39,-253.8399,5.0933
321,157.6022,-123.1323,-1085.9969,-173.259,721.8788,-680.8275,734.7765,-245.8569,5.4243
322,159.7271,-120.363,-1089.5265,-207.14,653.4177,-678.3175,689.9671,-230.7998,5.161
323,161.8034,-117.5571,-1037.2613,-401.1626,1113.3223,-474.7034,835.3678,-535.7577,3.1398
324,163.8304,-114.7153,-984.9656,-438.4458,1105.9381,-441.3543,847.142,-609.5498,2.9301
325,165.8075,-111.8386,-1012.7733,-443.9175,1119.4048,-406.6693,826.6971,-638.5007,2.0464
326,167.7341,-108.9278,-979.8234,-451.6529,1088.8478,-390.5164,873.6269,-664.5047,1.5697
327,169.6096,-105.9839,-983.8341,-455.6451,1066.3303,-380.1676,848.8765,-681.3598,1.3172
328,171.4335,-103.0076,-963.1529,-456.6391,1075.9899,-334.7951,855.6341,-649.3863,1.781
329,173.2051,-100,-949.0345,-468.8816,1039.4583,-406.8995,851.9597,-671.7123,0.9288
330,174.9239,-96.9619,-960.5854,-496.3152,1018.1995,-416.4308,824.3259,-638,2.0033
331,176.5895,-93.8943,-948.9597,-511.6749,990.2901,-391.8133,798.9796,-647.0714,1.4176
332,178.2013,-90.7981,-934.8913,-491.1925,1003.914,-329.4261,843.9778,-667.8558,1.5864
333,179.7588,-87.6742,-951.0723,-453.5666,1006.1061,-323.1051,800.8837,-635.2577,2.0396
334,181.2616,-84.5237,-946.4662,-471.8684,988.78,-345.0437,779.4995,-595.2753,0.8696
335,182.7091,-81.3473,-959.0156,-436.6048,1005.2715,-342.58,797.886,-605.1795,1.1696
336,184.101,-78.1462,-954.5802,-454.1615,1043.3412,-316.02,725.0334,-558.164,2.3009
337,185.4368,-74.9213,-944.918,-463.2719,1038.4953,-283.8713,709.8274,-550.2921,1.3383
338,186.7161,-71.6736,-988.4714,-428.6908,1071.0235,-342.9283,728.5809,-597.2953,2.1041
339,187.9385,-68.404,-964.8539,-422.5673,830.5746,-302.2127,705.8171,-576.1735,1.4382
340,189.1037,-65.1136,-992.193,-374.6267,840.3158,-252.1303,696.2424,-576.4741,1.5778
341,190.2113,-61.8034,-950.2161,-341.2352,781.0963,-254.7965,692.9144,-597.8982,1.1338
342,191.261,-58.4743,-957.0993,-333.1455,766.6481,-270.4625,683.9946,-547.9899,0.3032
343,192.2523,-55.1275,-970.6545,-333.64,803.6699,-260.2126,710.8274,-552.9331,1.4003
344,193.1852,-51.7638,-982.5621,-315.1833,864.2272,-275.9862,763.8265,-548.457,0.6177
345,194.0591,-48.3844,-982.6947,-321.9766,853.7685,-263.771,777.1368,-588.5295,1.1279
346,194.874,-44.9902,-973.3585,-358.6054,812.0664,-251.3196,721.3691,-585.9888,0.3536
347,195.6295,-41.5823,-948.5279,-358.208,832.1932,-263.7432,719.0066,-564.2579,0.8503
348,196.3254,-38.1618,-944.0077,-395.6372,831.8597,-286.7054,702.2037,-544.7758,0.6873
349,196.9616,-34.7296,-951.1562,-388.9669,838.4129,-279.336,697.9952,-518.5957,2.2246
350,197.5377,-31.2869,-985.0223,-324.0163,818.3133,-208.9611,703.491,-572.929,0.3125
351,198.0536,-27.8346,-995.7188,-328.788,835.8922,-182.9037,675.7766,-547.8368,0.9244
352,198.5092,-24.3739,-1021.5665,-353.419,887.2737,-172.7135,681.3769,-563.605,0.4017
353,198.9044,-20.9057,-1009.1191,-362.0162,889.9096,-173.8852,689.3784,-514.5262,0.3489
354,199.2389,-17.4311,-1007.3918,-361.1417,814.0285,-174.2,689.9188,-507.5874,1.0095
355,199.5128,-13.9513,-997.9809,-355.2302,799.2523,-190.7975,703.0478,-516.0694,0.6326
356,199.7259,-10.4672,-1023.8725,-347.1872,768.165,-160.6118,712.0214,-576.7243,0.5181
357,199.8782,-6.9799,-1036.5373,-370.8585,790.224,-200.1105,684.8046,-588.93,0.4261
358,199.9695,-3.4905,-1026.474,-395.7481,730.9785,-172.382,728.7566,-595.7634,0.4228
359,200,0,-981.3487,-439.2708,723.6575,-225.5882,775.5177,-591.6424,0.6201
