-454.4950,-551.4206,-2158.3403,-1471.3188,-2959.5413,88.5673
2893.8536,2218.4201,-2880.6214,1276.4239,-1591.6868,694.2250
1780.7780,-2619.4064,-8.5521,2099.0549,759.4636,1879.8455
1698.0744,2287.3744,-1601.4837,-2259.0968,2969.5785,-1781.9317
-565.6625,-721.8364,-2754.8713,-1692.6185,2423.0611,-1350.5185
1630.3732,2013.1337,-2328.9448,-916.5508,-2907.3857,-153.0862
-168.7459,1993.6229,298.3689,2506.6721,33.1141,-2930.0426
464.8776,-2357.6082,1735.9093,-555.4937,1773.0245,-1051.4504
-857.8548,-799.6584,-1129.7959,2593.8871,311.7099,1863.6985
-1151.2041,-2371.9230,-2958.1895,2782.1908,881.1983,-2318.1527
-2197.9060,-1283.0867,-2507.4879,-2791.2255,-840.4042,1129.9980
1683.3481,1315.5525,-173.9815,721.6654,1984.9723,758.2257
-621.5535,-2702.8925,-1123.5072,2265.0392,-599.3415,1451.7467
-2162.1873,1706.9949,540.0477,-857.4054,720.4744,-1527.1840
994.5900,2828.1919,-715.1052,1556.1793,-278.4669,-856.5302
422.9086,-1307.5965,-1456.3107,1095.5936,-1075.7488,-512.9051
-2015.3291,789.6990,-1547.6735,-2756.8779,931.7330,-207.6742
-883.2243,-317.1620,2091.7718,-772.1825,-2118.8185,2498.0843
-749.8732,1504.8742,333.6258,-2527.1820,-2111.2307,319.4934
-2975.6140,2645.1980,-2952.4956,-2397.1956,362.6750,2879.5973
188.6353,2857.0497,301.7209,-1918.7958,-826.8638,159.3627
2667.1353,-1086.8674,-2180.7006,786.2040,2037.0684,1727.4166
243.4335,1039.3617,-2059.5715,-502.7005,806.2327,872.7227
2261.4688,306.5409,568.4837,-1777.9385,1402.4182,2056.8721
1195.4982,-2553.1926,1279.2284,2918.5031,-1351.2575,-1472.3512
-170.4672,1416.5145,2763.3159,-1628.0151,-671.1903,-1338.8211
677.6060,-573.8552,-198.0277,-1562.4523,156.3423,-1020.3582
-1256.7428,-1941.0006,-2994.9779,-1390.8076,2969.1989,-2400.3907
1733.0043,518.9001,-791.3003,-2403.4409,102.3277,1022.9213
-2541.1946,-1235.0921,2973.9665,545.7412,1555.5355,-674.1552
670.5805,2777.9143,-1981.4267,518.1853,-2244.1089,-797.0360
2261.8734,-809.4865,-2902.0783,-815.6276,-1550.0056,2236.3915
2351.5357,2794.6658,-1517.1015,2068.2335,-117.7619,2986.6875
-2492.1007,2605.9548,-240.9539,1123.0499,-2676.7098,-911.8197
-1898.0314,2243.6313,-1395.9989,2586.3387,2627.7037,2439.1104
1873.5712,2739.5869,-281.7977,-82.2385,-330.4675,-2854.3081
-2665.3370,2573.9853,-2109.8432,2948.0835,-1833.0108,-1954.7113
-2351.9267,-308.3570,1698.7701,201.5322,1221.5491,-730.9667
2864.2364,1739.0293,-2945.6548,-798.2543,-1642.6127,2397.4784
1065.1982,1839.8544,487.4850,2267.7595,-872.2888,-695.2952
-1495.8368,675.5079,495.0222,-1648.5153,2977.9749,-1815.3113
715.3317,-1327.6913,-243.7099,1163.2138,2940.2104,-725.3887
2394.4226,1533.4998,-2797.1696,-483.7321,2306.1795,-1798.4664
244.0071,1166.2321,-1902.7451,1591.8935,24.1813,-2520.8189
-825.3052,-616.5393,1870.9174,2787.8629,1026.6765,1071.0952
-211.2098,524.3989,94.5221,-2773.4284,1032.9475,-2364.3434
1210.1035,-2499.8030,-1634.0093,2090.8173,2357.5740,1805.6013
2097.9914,-2123.2303,2946.1296,-2882.3235,145.6061,1253.6211
754.9098,-1751.5099,518.0042,-1564.9062,2225.1551,-1204.9553
-2807.9376,-2975.0547,-1415.4473,-468.2098,-328.3375,-1511.0760
-2703.3058,-1475.1840,-2265.8121,2977.5802,1369.1428,1085.5107
2987.3699,360.3692,2896.2470,1900.3412,2989.7366,1431.1165
646.9010,-2814.9044,-1917.9352,2845.9610,1809.3408,-1909.1032
-17.8063,1751.6454,-2401.6897,1283.5405,1364.6559,-1118.1526
-21.7671,-2164.7968,-431.6559,328.5016,-1849.0557,-928.4366
-1572.0827,2655.3699,2656.0703,-2994.4075,-2901.5633,-977.3510
1716.5217,1344.1093,-2188.5315,-2869.7996,1650.7136,-1192.9537
-2234.6545,-988.7032,-67.4960,-726.8890,-1514.2560,-886.3212
2069.4296,2268.4515,320.4399,2124.6051,2857.5349,945.6665
283.1473,1642.9173,1010.6348,-1311.0556,-1824.2571,1770.1226
1686.0692,-402.9758,2068.5618,-2037.0975,1570.5953,924.5887
731.8237,1208.5082,2197.6427,86.9881,2332.9216,334.9347
-1057.3498,-2806.9784,1529.8432,-1556.2360,-2876.6715,1672.4423
1939.8506,-450.2581,1802.2619,1918.7678,-2463.8988,872.2631
1407.3751,-2675.5326,-1051.2747,-1075.6442,-993.2430,-1854.2761
2614.2313,1619.9142,-289.8030,2921.8892,42.4079,2182.3854
1810.6446,2206.0616,1934.7415,-1721.2323,1465.7766,-2688.7637
-2226.3375,1406.4787,1971.2276,-401.8128,2939.5926,-2766.4123
2667.0903,1217.2850,2633.6501,-1671.2102,-925.8960,-2951.1165
-73.1964,-1547.5681,1869.3891,82.5233,-2389.6956,141.7151
1076.4297,1186.5901,1029.0304,2359.1090,-2599.4704,894.3238
-520.1258,-1828.3568,-587.2865,1736.7146,347.1789,1327.4207
28.4140,2688.6880,343.8283,-41.0510,2956.0163,4.8212
1053.6277,2688.8289,1112.4576,1529.2297,-16.1553,45.2686
-269.5579,-12.0089,2033.9971,-1062.3813,-1869.2389,850.7810
2292.1864,2493.2812,2351.6759,-598.5852,-2403.1702,264.1382
31.5442,-308.4900,-393.7169,1270.0458,2948.0549,-2330.8443
-2712.0671,-584.7372,1478.6654,218.9502,2861.9460,2028.3643
350.2012,-2863.7294,739.8903,-815.8680,-1076.5921,1519.9310
185.9776,-2837.2708,2774.6099,2078.1678,-1410.2706,171.2746
-181.0546,2110.7650,-2607.4826,1390.8564,1286.6995,-2910.1226
-1001.1595,1468.6973,1059.3606,-1263.7334,629.2198,-2539.8449
-197.9653,1518.0567,-1265.3717,649.5706,2881.2452,24.3952
-2414.7169,-2878.7035,-1837.5307,2208.3796,1097.4095,2252.4182
2220.4332,2272.6819,2422.0046,1380.6858,-633.3854,373.3580
245.9994,-1959.1475,-695.3940,816.0052,-2532.3890,-469.2549
2298.5631,-1037.4209,695.0152,-2536.8894,-1860.6633,-1654.5566
-1197.7485,-21.9482,962.1942,-1520.0337,1554.2683,125.9594
2720.8770,-1830.2162,392.1830,-1396.5631,-2904.2094,-2282.0461
-1441.4324,-1587.6045,-1679.5847,312.0685,2308.4854,-278.3729
798.6508,-357.4450,-980.4994,1534.5636,55.7417,565.9797
514.4742,1542.5470,-1488.4701,-1595.0324,-1193.5321,2934.5178
2000.5350,1928.4893,-1509.5625,1193.0215,2098.4449,-1206.5254
-1323.6651,-1226.9804,-1311.7936,-716.8968,-1040.1005,2819.6315
2424.8347,2116.1048,-1871.7659,2136.0836,1676.9217,1514.9482
451.7041,2862.4498,1883.1476,2255.2032,-2933.2288,956.8584
2080.2709,1160.6952,-1528.3330,1409.9886,2750.4269,-473.6069
2558.6587,-746.9373,1321.1336,-2996.5136,-1514.5686,-2415.4873
81.1406,-397.8566,-1560.2392,-1512.9354,1454.8843,835.8774
2099.1280,-1620.7604,611.0775,2704.9252,1724.2734,-1411.7568
