539.4214,230.3060,-79.3443,533.3081,-358.6205,146.0451
554.2794,233.1049,-73.5780,543.9817,-350.5545,160.1199
552.4952,233.8995,-67.8160,546.6473,-353.2163,163.7093
550.8365,234.6662,-62.3237,549.0965,-355.8873,167.1797
549.3102,235.4028,-57.1002,551.3312,-358.5648,170.5299
547.9234,236.1067,-52.1441,553.3537,-361.2465,173.7586
546.6826,236.7759,-47.4535,555.1667,-363.9295,176.8647
545.5944,237.4080,-43.0263,556.7730,-366.6115,179.8474
547.7033,234.8993,-47.6921,559.4168,-348.2167,193.5244
543.9011,238.5518,-34.9508,559.3784,-371.9617,185.4393
543.3076,239.0591,-31.2961,560.3847,-374.6250,188.0473
542.8905,239.5204,-27.8916,561.1987,-377.2770,190.5294
542.6547,239.9334,-24.7331,561.8245,-379.9151,192.8853
542.6052,240.2961,-21.8160,562.2669,-382.5370,195.1150
542.7462,240.6063,-19.1350,562.5305,-385.1401,197.2186
543.0819,240.8619,-16.6848,562.6204,-387.7221,199.1960
569.8259,251.8576,-7.7607,580.7104,-394.4246,217.9214
544.3509,241.2012,-12.4526,562.3006,-392.8129,202.7743
545.2901,241.2808,-10.6579,561.9023,-395.3171,204.3761
546.4355,241.2979,-9.0681,561.3530,-397.7907,205.8540
547.7887,241.2504,-7.6760,560.6588,-400.2315,207.2089
549.3510,241.1366,-6.4739,559.8264,-402.6373,208.4418
551.1228,240.9546,-5.4538,558.8623,-405.0058,209.5539
553.1043,240.7026,-4.6073,557.7734,-407.3351,210.5465
575.2710,240.7830,10.7925,563.7723,-393.7318,205.3118
557.6935,239.9821,-3.4004,555.2495,-411.8675,212.1792
560.2983,239.5102,-3.0218,553.8291,-414.0666,212.8226
563.1072,238.9619,-2.7805,552.3131,-416.2183,213.3531
566.1171,238.3356,-2.6669,550.7091,-418.3209,213.7728
569.3244,237.6298,-2.6708,549.0250,-420.3725,214.0837
572.7250,236.8433,-2.7822,547.2687,-422.3714,214.2882
576.3141,235.9747,-2.9905,545.4484,-424.3158,214.3886
579.4851,229.7638,-19.6253,523.1075,-473.3157,187.2271
584.0353,233.9864,-3.6558,541.6480,-428.0348,214.2873
588.1546,232.8644,-4.0910,539.6847,-429.8062,214.0911
592.4368,231.6557,-4.5798,537.6904,-431.5170,213.8014
596.8739,230.3594,-5.1112,535.6736,-433.1656,213.4215
601.4573,228.9747,-5.6739,533.6428,-434.7509,212.9542
606.1780,227.5006,-6.2565,531.6065,-436.2714,212.4029
611.0260,225.9365,-6.8475,529.5734,-437.7259,211.7708
573.5084,216.4606,-1.0166,521.8906,-439.4642,206.9859
621.0622,222.5356,-8.0095,525.5507,-440.4326,210.2778
626.2280,220.6977,-8.5574,523.5782,-441.6825,209.4240
631.4763,218.7676,-9.0681,521.6429,-442.8622,208.5034
636.7948,216.7449,-9.5300,519.7534,-443.9707,207.5198
642.1703,214.6295,-9.9320,517.9181,-445.0071,206.4770
647.5894,212.4210,-10.2626,516.1452,-445.9707,205.3789
653.0380,210.1195,-10.5108,514.4432,-446.8606,204.2293
636.5284,205.1989,-7.6983,501.3191,-417.6680,225.6711
663.9663,205.2374,-10.7157,511.2841,-448.4170,201.7918
669.4160,202.6570,-10.6508,509.8431,-449.0823,200.5121
674.8355,199.9841,-10.4601,508.5050,-449.6715,199.1972
680.2092,197.2189,-10.1331,507.2776,-450.1842,197.8513
685.5208,194.3619,-9.6598,506.1683,-450.6201,196.4785
690.7543,191.4136,-9.0302,505.1847,-450.9788,195.0832
695.8929,188.3746,-8.2345,504.3339,-451.2599,193.6695
686.8581,204.0524,-12.8107,502.3100,-428.9846,213.0361
705.8190,182.0274,-6.1071,503.0592,-451.5888,190.8042
710.5728,178.7207,-4.7574,502.6489,-451.6363,189.3611
715.1644,175.3266,-3.2055,502.3987,-451.6056,187.9167
719.5768,171.8461,-1.4429,502.3149,-451.4968,186.4753
723.7930,168.2802,0.5381,502.4035,-451.3098,185.0412
727.7961,164.6302,2.7454,502.6705,-451.0448,183.6186
731.5692,160.8973,5.1860,503.1215,-450.7020,182.2116
790.8183,152.1215,-7.3501,570.5025,-475.5049,149.9525
738.3587,153.1884,10.7948,504.5967,-449.7834,179.4613
741.3420,149.2153,13.9756,505.6308,-449.2082,178.1263
744.0296,145.1651,17.4152,506.8690,-448.5561,176.8234
746.4054,141.0397,21.1188,508.3155,-447.8275,175.5566
748.4540,136.8406,25.0915,509.9744,-447.0230,174.3298
750.1602,132.5697,29.3378,511.8496,-446.1428,173.1471
751.5091,128.2288,33.8618,513.9446,-445.1877,172.0120
758.4859,113.7270,69.5424,476.8746,-452.9909,184.4535
753.0780,119.3450,43.7571,518.8065,-443.0546,169.9000
753.2707,114.8061,49.1345,521.5792,-441.8780,168.9302
753.0514,110.2054,54.8017,524.5829,-440.6289,168.0226
752.4078,105.5451,60.7607,527.8197,-439.3081,167.1806
751.3281,100.8274,67.0131,531.2916,-437.9165,166.4074
749.8012,96.0545,73.5598,534.9998,-436.4548,165.7062
747.8164,91.2289,80.4016,538.9458,-434.9240,165.0802
749.6991,94.9430,62.0193,513.7781,-430.7448,151.1743
742.4347,81.4289,94.9709,547.5541,-431.6587,164.0652
739.0202,76.4595,102.6975,552.2173,-429.9263,163.6819
735.1125,71.4472,110.7176,557.1202,-428.1287,163.3849
730.7049,66.3944,119.0296,562.2623,-426.2671,163.1767
725.7911,61.3039,127.6316,567.6433,-424.3427,163.0597
720.3656,56.1781,136.5215,573.2622,-422.3566,163.0362
714.4239,51.0198,145.6966,579.1179,-420.3101,163.1082
688.5601,42.9746,164.6653,607.3232,-413.8569,170.5701
788.8275,702.9204,443.7652,206.5617,705.6416,607.0977
790.1235,711.1041,447.9003,215.6551,709.6594,611.1687
791.6521,719.3983,452.1249,224.9725,713.7724,615.6356
793.3396,727.7680,456.4107,234.4432,717.9505,620.3731
795.1044,736.1744,460.7262,243.9884,722.1602,625.2423
796.8587,744.5758,465.0377,253.5234,726.3656,630.0934
798.5104,752.9285,469.3097,262.9595,730.5291,634.7700
799.7692,761.0945,473.4304,272.0169,734.5316,638.7775
801.1313,769.3096,477.5909,281.1739,738.5765,642.9610
801.9172,777.2510,481.5294,289.7754,742.3854,646.1633
802.2390,784.9719,485.2892,297.9294,746.0043,648.5754
802.0205,792.4362,488.8409,305.5626,749.4020,650.0675
801.1960,799.6126,492.1592,312.6116,752.5515,650.5277
799.7120,806.4757,495.2235,319.0249,755.4311,649.8652
797.5293,813.0070,498.0187,324.7646,758.0246,648.0129
795.0168,819.3815,500.6869,330.1863,760.4830,645.5990
790.9873,825.0354,502.7708,334.1456,762.3203,640.6021
786.6279,830.5327,504.7277,337.7869,764.0226,635.0436
781.5698,835.6980,506.4155,340.7546,765.4388,628.2954
775.8523,840.5501,507.8493,343.0866,766.5850,620.4244
769.5288,845.1142,509.0496,344.8344,767.4830,611.5214
762.6650,849.4218,510.0419,346.0614,768.1599,601.6986
755.3371,853.5089,510.8555,346.8409,768.6467,591.0855
288.2787,787.2912,1089.7171,1372.4871,1250.6640,316.1054
290.2843,779.2181,1085.7679,1377.5970,1252.5885,320.2060
293.0266,770.3488,1081.4808,1382.8830,1254.4121,324.4452
296.3461,760.8552,1076.9288,1388.3069,1256.1566,328.7931
300.0602,750.9351,1072.1959,1393.8251,1257.8470,333.2153
303.9663,740.8075,1067.3749,1399.3891,1259.5111,337.6736
307.8461,730.7082,1062.5659,1404.9469,1261.1788,342.1270
311.4713,720.8842,1057.8738,1410.4439,1262.8813,346.5324
314.1210,712.1149,1053.6291,1415.7077,1264.7176,350.7542
317.0273,703.0682,1049.2667,1421.0328,1266.5187,355.0243
318.5028,695.5683,1045.5606,1426.0161,1268.5158,359.0251
318.8261,689.3142,1042.3831,1430.7240,1270.6708,362.8091
317.8080,684.5104,1039.8209,1435.1114,1273.0097,366.3405
315.2851,681.3333,1037.9489,1439.1392,1275.5546,369.5888
311.1251,679.9263,1036.8279,1442.7758,1278.3240,372.5289
305.2303,680.3949,1036.5027,1445.9978,1281.3310,375.1425
298.5166,681.7489,1036.5531,1449.0241,1284.4502,377.6019
288.0365,687.1749,1038.3312,1451.1504,1288.0855,379.3524
276.7374,693.4863,1040.4850,1453.0810,1291.8330,380.9488
263.7036,701.6733,1043.4345,1454.5971,1295.8182,382.2187
249.0326,711.6304,1047.1350,1455.7219,1300.0278,383.1804
232.8568,723.2142,1051.5257,1456.4871,1304.4435,383.8589
215.3397,736.2483,1056.5318,1456.9319,1309.0430,384.2849
196.6703,750.5282,1062.0664,1457.1012,1313.8004,384.4940
2305.7390,-798.9632,1074.3963,3054.0836,1854.5140,-1262.5554
2310.2727,-801.7509,1078.8603,3056.2281,1853.4832,-1263.5552
2314.9525,-804.9839,1083.7599,3057.4343,1851.8370,-1264.7306
2319.7470,-808.5658,1089.0011,3057.9052,1849.7085,-1266.0437
2324.6198,-812.3864,1094.4756,3057.8735,1847.2504,-1267.4509
2329.5307,-816.3229,1100.0637,3057.5973,1844.6320,-1268.9038
2334.4365,-820.2436,1105.6362,3057.3545,1842.0355,-1270.3505
2339.2916,-824.0104,1111.0582,3057.4360,1839.6516,-1271.7365
2343.9531,-827.1874,1115.9031,3058.7602,1838.0828,-1272.8898
2348.6655,-830.5195,1120.8998,3059.7575,1836.2996,-1274.1043
2353.0939,-832.9867,1125.0502,3062.5772,1835.7116,-1274.9777
2357.2935,-834.7572,1128.5189,3066.8646,1836.0862,-1275.5764
2361.2267,-835.7168,1131.1943,3072.8607,1837.5814,-1275.8551
2364.8612,-835.7668,1132.9795,3080.7733,1840.3335,-1275.7751
2368.1707,-834.8269,1133.7964,3090.7713,1844.4534,-1275.3048
2371.1357,-832.8382,1133.5870,3102.9791,1850.0226,-1274.4207
2373.9381,-830.3545,1132.8933,3116.2300,1856.2758,-1273.3414
2375.9927,-825.5937,1129.9716,3134.2784,1865.6755,-1271.3640
2377.8847,-820.3379,1126.5656,3153.3698,1875.7592,-1269.1914
2379.4323,-814.0333,1122.1334,3174.6710,1887.2922,-1266.6050
2380.6549,-806.7388,1116.7327,3198.0576,1900.1930,-1263.6283
2381.5787,-798.5347,1110.4420,3223.3608,1914.3507,-1260.2929
2382.2361,-789.5197,1103.3578,3250.3726,1929.6290,-1256.6375
2382.6648,-779.8080,1095.5921,3278.8522,1945.8699,-1252.7074
2382.8094,-769.2314,1086.9800,3309.1541,1963.3060,-1248.4362
157.7612,991.2101,675.4054,-698.2976,566.0661,674.6057
165.7476,996.2981,683.7836,-698.1471,565.4683,677.7961
2382.9581,-736.6334,1060.2944,3401.8890,2016.8139,-1235.2801
181.7203,1006.4742,700.5401,-697.8461,564.2728,684.1769
189.7067,1011.5622,708.9184,-697.6957,563.6750,687.3673
197.6931,1016.6502,717.2967,-697.5452,563.0772,690.5577
205.6795,1021.7382,725.6749,-697.3947,562.4794,693.7481
213.6659,1026.8262,734.0532,-697.2442,561.8816,696.9385
221.6523,1031.9142,742.4315,-697.0937,561.2838,700.1289
229.6387,1037.0022,750.8097,-696.9432,560.6860,703.3193
237.6251,1042.0902,759.1880,-696.7927,560.0882,706.5097
245.6114,1047.1782,767.5662,-696.6422,559.4905,709.7001
253.5978,1052.2663,775.9445,-696.4918,558.8927,712.8905
261.5842,1057.3543,784.3228,-696.3413,558.2949,716.0809
269.5706,1062.4423,792.7010,-696.1908,557.6971,719.2713
277.5570,1067.5303,801.0793,-696.0403,557.0993,722.4617
285.5434,1072.6183,809.4576,-695.8898,556.5015,725.6521
293.5298,1077.7063,817.8358,-695.7393,555.9037,728.8425
301.5162,1082.7943,826.2141,-695.5888,555.3059,732.0329
309.5026,1087.8823,834.5924,-695.4384,554.7081,735.2233
317.4889,1092.9704,842.9706,-695.2879,554.1104,738.4137
325.4753,1098.0584,851.3489,-695.1374,553.5126,741.6041
333.4617,1103.1464,859.7271,-694.9869,552.9148,744.7945
567.6704,427.6039,385.0505,579.1580,552.4791,438.7223
573.8482,446.8261,396.6007,568.8051,547.5556,446.3416
578.7454,462.9663,407.2725,560.7038,543.4928,452.5167
582.0778,475.3399,416.8708,555.3543,540.4822,456.9268
583.5883,483.3285,425.2192,553.2082,538.6962,459.2821
583.0553,486.3985,432.1658,554.6555,538.2841,459.3325
580.2988,484.1167,437.5870,560.0127,539.3667,456.8751
575.1862,476.1639,441.3919,569.5129,542.0333,451.7602
568.9614,465.5342,444.4338,580.9687,545.4476,445.3909
557.6213,442.5925,443.9666,601.4193,552.3007,433.2522
545.1691,416.9739,442.7364,623.8254,559.9015,419.8591
530.3607,385.6843,439.8898,650.3747,569.0862,403.8085
513.3289,349.0429,435.5179,680.8337,579.7657,385.2501
494.2535,307.4829,429.7441,714.8862,591.8191,364.3868
473.3563,261.5379,422.7206,752.1421,605.0972,341.4687
450.8941,211.8263,414.6234,792.1498,619.4273,316.7856
-978.5251,-1015.1913,124.3434,595.9701,-1255.2417,1184.2489
-966.7528,-1017.0317,128.3402,594.0323,-1252.7287,1175.9713
-955.1459,-1018.7966,132.2820,592.1684,-1250.3170,1167.8098
-943.7061,-1020.4849,136.1672,590.3795,-1248.0046,1159.7651
-932.4349,-1022.0960,139.9945,588.6668,-1245.7893,1151.8381
-921.3335,-1023.6290,143.7626,587.0314,-1243.6691,1144.0297
-910.4033,-1025.0831,147.4700,585.4741,-1241.6416,1136.3405
-899.6454,-1026.4578,151.1156,583.9962,-1239.7045,1128.7710
-881.5774,-1063.6339,150.1279,558.3527,-1272.1576,1134.9323
-878.6507,-1028.9662,158.2160,581.2817,-1236.0921,1113.9939
-868.4158,-1030.0989,161.6684,580.0468,-1234.4118,1106.7871
-858.3567,-1031.1501,165.0541,578.8946,-1232.8118,1099.7019
-848.4742,-1032.1192,168.3718,577.8256,-1231.2897,1092.7386
-838.7687,-1033.0060,171.6205,576.8407,-1229.8427,1085.8974
-829.2408,-1033.8102,174.7992,575.9403,-1228.4680,1079.1784
-819.8906,-1034.5316,177.9067,575.1250,-1227.1628,1072.5818
-846.4040,-993.7746,203.5003,589.0228,-1236.3661,1080.0522
-801.7243,-1035.7257,183.9045,573.7514,-1224.7494,1059.7551
-792.9083,-1036.1982,186.7930,573.1940,-1223.6353,1053.5249
-784.2703,-1036.5877,189.6065,572.7231,-1222.5790,1047.4164
-775.8100,-1036.8944,192.3444,572.3391,-1221.5775,1041.4295
-767.5272,-1037.1184,195.0059,572.0422,-1220.6277,1035.5637
-759.4213,-1037.2600,197.5901,571.8324,-1219.7265,1029.8186
-751.4919,-1037.3195,200.0964,571.7098,-1218.8709,1024.1937
-735.1860,-1021.9999,179.4560,634.5478,-1183.8671,997.4675
-736.1599,-1037.1938,204.8726,571.7261,-1217.2838,1013.3021
-728.7558,-1037.0095,207.1414,571.8648,-1216.5461,1008.0341
-721.5250,-1036.7450,209.3299,572.0904,-1215.8414,1002.8837
-714.4665,-1036.4009,211.4377,572.4025,-1215.1666,997.8500
-707.5793,-1035.9780,213.4642,572.8010,-1214.5185,992.9322
-700.8621,-1035.4770,215.4093,573.2854,-1213.8939,988.1293
-694.3136,-1034.8987,217.2724,573.8553,-1213.2898,983.4403
-701.2308,-1018.3846,219.4737,564.0767,-1164.2457,936.6163
-681.7171,-1033.5141,220.7519,575.2498,-1212.1305,974.3999
-675.6660,-1032.7098,222.3678,576.0732,-1211.5691,970.0463
-669.7776,-1031.8322,223.9011,576.9799,-1211.0157,965.8020
-664.0501,-1030.8825,225.3515,577.9693,-1210.4674,961.6659
-658.4817,-1029.8619,226.7191,579.0405,-1209.9212,957.6366
-653.0705,-1028.7718,228.0039,580.1928,-1209.3740,953.7127
-647.8146,-1027.6133,229.2060,581.4253,-1208.8230,949.8930
-599.9016,-1041.1591,222.8788,534.2296,-1204.9388,967.1735
-637.7602,-1025.0974,231.3624,584.1273,-1207.6980,942.5599
-632.9575,-1023.7429,232.3172,585.5948,-1207.1185,939.0435
-628.3015,-1022.3261,233.1900,587.1386,-1206.5238,935.6251
-623.7899,-1020.8486,233.9812,588.7577,-1205.9115,932.3031
-619.4203,-1019.3122,234.6911,590.4508,-1205.2788,929.0760
-615.1904,-1017.7185,235.3203,592.2168,-1204.6233,925.9419
-611.0975,-1016.0695,235.8691,594.0544,-1203.9424,922.8992
-597.1038,-1017.3784,227.8073,577.6353,-1186.0764,933.1318
-603.3129,-1012.6125,236.7278,597.9395,-1202.4952,917.0810
-599.6160,-1010.8084,237.0390,599.9843,-1201.7242,914.3019
-596.0457,-1008.9566,237.2722,602.0955,-1200.9187,911.6071
-592.5994,-1007.0591,237.4283,604.2715,-1200.0767,908.9948
-589.2744,-1005.1180,237.5079,606.5110,-1199.1961,906.4630
-586.0677,-1003.1354,237.5119,608.8124,-1198.2749,904.0098
-582.9766,-1001.1134,237.4412,611.1743,-1197.3115,901.6335
-563.6391,-1026.9671,247.5748,626.1451,-1215.3856,901.4372
-577.1298,-996.9605,237.0794,616.0730,-1195.2509,897.1035
-574.3681,-994.8339,236.7903,618.6067,-1194.1506,894.9460
-571.7105,-992.6771,236.4303,621.1944,-1193.0016,892.8576
-569.1539,-990.4924,236.0007,623.8345,-1191.8026,890.8363
-566.6953,-988.2821,235.5026,626.5252,-1190.5525,888.8802
-564.3318,-986.0486,234.9372,629.2650,-1189.2500,886.9872
-562.0603,-983.7944,234.3056,632.0520,-1187.8942,885.1556
-542.1693,-1023.3062,257.2686,604.1347,-1230.7754,892.5833
-557.7815,-979.2337,232.8493,637.7609,-1185.0192,881.6681
-555.7681,-976.9321,232.0272,640.6792,-1183.4984,880.0084
-553.8347,-974.6197,231.1444,643.6377,-1181.9213,878.4021
-551.9783,-972.2990,230.2022,646.6347,-1180.2876,876.8473
-550.1959,-969.9727,229.2021,649.6683,-1178.5967,875.3420
-548.4844,-967.6431,228.1456,652.7367,-1176.8485,873.8843
-546.8410,-965.3130,227.0342,655.8381,-1175.0429,872.4724
-557.1520,-973.4655,237.4168,686.1313,-1206.4877,862.9243
-543.7460,-960.6611,224.6533,662.1327,-1171.2597,869.7781
-542.2887,-958.3446,223.3869,665.3223,-1169.2823,868.4921
-540.8875,-956.0377,222.0721,668.5376,-1167.2483,867.2442
-539.5396,-953.7432,220.7106,671.7769,-1165.1580,866.0328
-538.2421,-951.4635,219.3040,675.0383,-1163.0122,864.8560
-536.9921,-949.2012,217.8543,678.3201,-1160.8113,863.7121
-535.7868,-946.9589,216.3630,681.6204,-1158.5564,862.5992
-598.1444,-889.4153,220.2408,705.5526,-1139.3680,837.5153
-533.4994,-942.5444,213.2632,688.2695,-1153.8880,860.4600
-532.4117,-940.3772,211.6583,691.6148,-1151.4768,859.4302
-531.3579,-938.2402,210.0191,694.9717,-1149.0158,858.4247
-530.3352,-936.1357,208.3477,698.3383,-1146.5065,857.4421
-529.3411,-934.0663,206.6457,701.7130,-1143.9504,856.4806
-528.3730,-932.0344,204.9152,705.0941,-1141.3490,855.5387
-527.4284,-930.0424,203.1581,708.4800,-1138.7040,854.6150
-539.7334,-909.9109,177.5091,713.0054,-1125.0054,865.2961
-525.5999,-926.1877,199.5717,715.2593,-1133.2908,852.8161
-524.7113,-924.3296,197.7462,718.6496,-1130.5264,851.9381
-523.8366,-922.5208,195.9019,722.0383,-1127.7263,851.0726
-522.9737,-920.7636,194.0407,725.4237,-1124.8926,850.2182
-522.1203,-919.0602,192.1646,728.8044,-1122.0277,849.3736
-521.2742,-917.4127,190.2755,732.1788,-1119.1339,848.5376
-520.4335,-915.8233,188.3754,735.5457,-1116.2137,847.7090
-534.4181,-904.8991,168.7309,725.4682,-1141.4551,863.0648
-518.7598,-912.8273,184.5501,742.2507,-1110.3043,846.0694
-517.9230,-911.4246,182.6289,745.5862,-1107.3205,845.2562
-517.0837,-910.0882,180.7046,748.9086,-1104.3210,844.4459
-516.2401,-908.8200,178.7792,752.2166,-1101.3086,843.6376
-515.3906,-907.6217,176.8546,755.5090,-1098.2863,842.8303
-514.5333,-906.4953,174.9328,758.7845,-1095.2570,842.0232
-513.6669,-905.4425,173.0157,762.0421,-1092.2238,841.2152
-482.1893,-901.4532,158.8538,788.3684,-1080.4187,854.8249
-511.9000,-903.5644,169.2034,768.4988,-1086.1584,839.5937
-510.9967,-902.7422,167.3120,771.6958,-1083.1325,838.7786
-510.0784,-902.0002,165.4330,774.8706,-1080.1155,837.9596
-509.1437,-901.3396,163.5683,778.0222,-1077.1107,837.1361
-508.1915,-900.7620,161.7196,781.1497,-1074.1216,836.3075
-507.2205,-900.2686,159.8890,784.2522,-1071.1513,835.4732
-506.2297,-899.8607,158.0781,787.3289,-1068.2035,834.6326
-481.3743,-917.4937,160.5565,797.9335,-1042.1584,821.7047
-504.1846,-899.3064,154.5230,793.4019,-1062.3890,832.9308
-503.1284,-899.1622,152.7822,796.3966,-1059.5293,832.0686
-502.0486,-899.1080,151.0683,799.3627,-1056.7059,831.1984
-500.9445,-899.1447,149.3830,802.2995,-1053.9224,830.3199
-499.8152,-899.2732,147.7279,805.2065,-1051.1824,829.4327
-498.6602,-899.4943,146.1048,808.0831,-1048.4894,828.5365
-497.4788,-899.8089,144.5152,810.9288,-1045.8469,827.6313
-499.4580,-909.6903,163.1987,809.0389,-1024.8692,832.3442
-495.0348,-900.7207,141.4429,816.5261,-1040.7277,825.7926
-493.7712,-901.3191,139.9634,819.2769,-1038.2581,824.8588
-492.4794,-902.0131,138.5236,821.9954,-1035.8531,823.9154
-491.1590,-902.8031,137.1250,824.6813,-1033.5164,822.9622
-489.8099,-903.6895,135.7691,827.3344,-1031.2512,821.9991
-488.4316,-904.6725,134.4572,829.9547,-1029.0611,821.0263
-487.0242,-905.7523,133.1907,832.5418,-1026.9494,820.0437
-490.9105,-898.6644,160.7268,808.6975,-1018.8805,830.7524
-484.1213,-908.2025,130.7992,837.6166,-1022.9750,818.0496
-482.6256,-909.5729,129.6767,840.1042,-1021.1189,817.0382
-481.1006,-911.0401,128.6047,842.5586,-1019.3545,816.0174
-479.5462,-912.6039,127.5844,844.9799,-1017.6849,814.9875
-477.9626,-914.2640,126.6169,847.3682,-1016.1134,813.9486
-476.3499,-916.0202,125.7032,849.7238,-1014.6431,812.9008
-474.7082,-917.8720,124.8445,852.0467,-1013.2769,811.8446
-455.5000,-914.0135,88.8604,865.1875,-1007.8181,771.0367
-471.3392,-921.8609,123.2959,856.5955,-1010.8686,809.7073
-469.6123,-923.9967,122.6079,858.8220,-1009.8322,808.6269
-467.8576,-926.2261,121.9786,861.0169,-1008.9113,807.5391
-466.0755,-928.5482,121.4089,863.1807,-1008.1087,806.4441
-464.2663,-930.9623,120.8996,865.3138,-1007.4268,805.3423
-462.4304,-933.4675,120.4513,867.4165,-1006.8681,804.2340
-460.5683,-936.0631,120.0649,869.4894,-1006.4351,803.1196
-454.0093,-969.8710,119.1085,842.6448,-1016.4862,788.9748
-456.7675,-941.5210,119.4802,873.5474,-1005.9553,800.8740
-454.8297,-944.3813,119.2830,875.5336,-1005.9128,799.7434
-452.8677,-947.3277,119.1501,877.4921,-1006.0047,798.6083
-450.8820,-950.3590,119.0820,879.4234,-1006.2328,797.4689
-448.8732,-953.4739,119.0789,881.3281,-1006.5990,796.3256
-446.8418,-956.6712,119.1414,883.2068,-1007.1051,795.1789
-444.7885,-959.9496,119.2699,885.0603,-1007.7526,794.0292
-461.3607,-943.4506,125.6145,912.1229,-1020.1237,820.8169
-440.6184,-966.7436,119.7257,888.6942,-1009.4779,791.7220
-438.5028,-970.2564,120.0535,890.4761,-1010.5584,790.5655
-436.3677,-973.8444,120.4483,892.2354,-1011.7856,789.4074
-434.2137,-977.5059,120.9101,893.9730,-1013.1608,788.2482
-432.0413,-981.2394,121.4390,895.6897,-1014.6847,787.0882
-429.8513,-985.0432,122.0352,897.3862,-1016.3582,785.9279
-427.6443,-988.9156,122.6985,899.0632,-1018.1821,784.7676
