0.0000,-259.5713,-184.2472,148.9118,356.2736,538.7215,44.9241
8.0000,-292.8508,-162.3417,115.9545,348.9089,572.3954,66.0892
16.0000,-273.3150,-257.4844,49.7382,369.8440,646.4175,148.2565
24.0000,-153.6776,-272.8035,139.2852,656.6479,502.6743,130.3343
32.0000,-197.3510,-242.8210,166.1587,690.1015,581.7184,77.5467
40.0000,-240.5496,-288.6566,108.7374,750.5935,551.9651,48.1823
48.0000,-349.1251,-354.9241,247.1212,842.9437,562.4667,-45.0801
56.0000,-342.7978,-401.6625,228.1259,889.6297,554.0006,-29.0105
64.0000,-437.2205,-417.8781,316.7970,954.7078,597.2897,-114.3355
72.0000,-524.2969,-412.7632,252.5479,920.4166,578.5721,-30.7755
80.0000,-557.1823,-400.3603,246.5770,948.5356,609.6004,-57.3889
88.0000,-546.8062,-393.8577,287.6370,941.0302,594.4599,-67.7263
96.0000,-573.1612,-436.8928,294.5583,923.2818,520.3706,6.6145
104.0000,-634.2322,-426.4111,336.9622,998.8929,570.6820,20.0539
112.0000,-666.4201,-560.4221,229.8516,1075.3398,630.2693,-22.0685
120.0000,-645.8536,-564.0346,228.5912,1045.7140,648.5475,-49.4380
128.0000,-670.7636,-580.6116,201.4828,1053.3706,648.0661,-56.7546
136.0000,-699.9430,-596.6078,200.9255,1060.1363,650.1847,-36.0568
144.0000,-710.1399,-555.6826,193.0174,1035.5754,585.6761,-19.6501
152.0000,-718.1893,-576.6282,163.3131,994.9840,541.7259,-12.2757
160.0000,-703.3332,-560.7509,176.0598,1025.2531,545.1579,15.8660
168.0000,-798.2798,-602.6566,126.8867,1061.4869,677.7841,62.8359
176.0000,-774.2340,-618.9681,117.4765,1056.3526,684.7995,42.1750
184.0000,-836.9268,-586.3295,128.9570,1037.4945,725.1444,73.6257
192.0000,-267.0485,-109.9205,-556.3162,-709.8523,-120.4119,443.5944
200.0000,-226.8466,-141.5805,-544.6093,-668.5380,-118.9867,492.1469
208.0000,-225.0318,-162.1231,-536.3149,-643.1866,-113.3852,508.2296
216.0000,-357.6153,-265.2360,-573.9715,-697.3472,268.6754,457.6543
224.0000,-347.1441,-269.5141,-574.6122,-714.7369,263.0206,452.5536
232.0000,-314.5508,-325.9381,-546.4452,-758.2584,254.5846,474.2417
240.0000,-333.8868,-355.9526,-493.7096,-740.3042,272.9167,410.4159
248.0000,-379.1414,-380.6448,-506.4802,-706.4936,275.1101,436.4726
256.0000,-401.9036,-388.8535,-535.7057,-696.5200,277.2948,383.1978
264.0000,-446.4743,-403.5924,-510.6309,-628.5443,312.9359,386.2798
272.0000,-530.3158,-515.1415,-406.9544,-476.9544,313.8914,228.3993
280.0000,-520.4090,-525.7759,-392.1474,-448.6728,273.9591,255.2248
288.0000,-529.0810,-565.7441,-395.2633,-421.0349,272.3668,216.1223
296.0000,-524.4409,-549.3792,-370.3606,-430.0877,261.6894,228.3843
304.0000,-545.0057,-553.6050,-363.9281,-260.3704,267.5393,74.2424
312.0000,-601.1559,-523.1431,-343.8509,-214.5847,276.6433,75.9888
320.0000,-600.4164,-518.4953,-345.1656,-182.4889,291.0303,73.2026
328.0000,-608.7276,-524.3634,-345.5378,-203.9151,303.8774,116.5592
336.0000,-585.9720,-534.8589,-353.4830,-176.3776,347.2383,124.2297
344.0000,-567.0137,-500.2679,-423.5158,-159.3898,349.0245,98.1087
352.0000,-553.6808,-501.0323,-481.7039,-150.8202,383.9380,104.2807
